%!PS-Adobe-3.0 EPSF-3.0
%%Creator: cairo 1.13.1 (http://cairographics.org)
%%CreationDate: Fri May 27 13:18:00 2016
%%Pages: 1
%%DocumentData: Clean7Bit
%%LanguageLevel: 2
%%BoundingBox: 0 0 360 216
%%EndComments
%%BeginProlog
save
50 dict begin
/q { gsave } bind def
/Q { grestore } bind def
/cm { 6 array astore concat } bind def
/w { setlinewidth } bind def
/J { setlinecap } bind def
/j { setlinejoin } bind def
/M { setmiterlimit } bind def
/d { setdash } bind def
/m { moveto } bind def
/l { lineto } bind def
/c { curveto } bind def
/h { closepath } bind def
/re { exch dup neg 3 1 roll 5 3 roll moveto 0 rlineto
      0 exch rlineto 0 rlineto closepath } bind def
/S { stroke } bind def
/f { fill } bind def
/f* { eofill } bind def
/n { newpath } bind def
/W { clip } bind def
/W* { eoclip } bind def
/BT { } bind def
/ET { } bind def
/pdfmark where { pop globaldict /?pdfmark /exec load put }
    { globaldict begin /?pdfmark /pop load def /pdfmark
    /cleartomark load def end } ifelse
/BDC { mark 3 1 roll /BDC pdfmark } bind def
/EMC { mark /EMC pdfmark } bind def
/cairo_store_point { /cairo_point_y exch def /cairo_point_x exch def } def
/Tj { show currentpoint cairo_store_point } bind def
/TJ {
  {
    dup
    type /stringtype eq
    { show } { -0.001 mul 0 cairo_font_matrix dtransform rmoveto } ifelse
  } forall
  currentpoint cairo_store_point
} bind def
/cairo_selectfont { cairo_font_matrix aload pop pop pop 0 0 6 array astore
    cairo_font exch selectfont cairo_point_x cairo_point_y moveto } bind def
/Tf { pop /cairo_font exch def /cairo_font_matrix where
      { pop cairo_selectfont } if } bind def
/Td { matrix translate cairo_font_matrix matrix concatmatrix dup
      /cairo_font_matrix exch def dup 4 get exch 5 get cairo_store_point
      /cairo_font where { pop cairo_selectfont } if } bind def
/Tm { 2 copy 8 2 roll 6 array astore /cairo_font_matrix exch def
      cairo_store_point /cairo_font where { pop cairo_selectfont } if } bind def
/g { setgray } bind def
/rg { setrgbcolor } bind def
/d1 { setcachedevice } bind def
%%EndProlog
%%BeginSetup
%%EndSetup
%%Page: 1 1
%%BeginPageSetup
%%PageBoundingBox: 0 0 360 216
%%EndPageSetup
q 52 29 249 177 rectclip q
0 g
0.15 w
2 J
0 j
[ 0.2 2] 0 d
3.8 M q 1 0 0 -1 0 216 cm
53.148 186.75 m 300.148 186.75 l S Q
0.25 w
[] 0.0 d
q 1 0 0 -1 0 216 cm
53.148 186.75 m 56.852 186.75 l S Q
q 1 0 0 -1 0 216 cm
300.148 186.75 m 296.449 186.75 l S Q
0.15 w
[ 0.2 2] 0 d
q 1 0 0 -1 0 216 cm
53.148 151.551 m 300.148 151.551 l S Q
0.25 w
[] 0.0 d
q 1 0 0 -1 0 216 cm
53.148 151.551 m 56.852 151.551 l S Q
q 1 0 0 -1 0 216 cm
300.148 151.551 m 296.449 151.551 l S Q
0.15 w
[ 0.2 2] 0 d
q 1 0 0 -1 0 216 cm
53.148 116.352 m 300.148 116.352 l S Q
0.25 w
[] 0.0 d
q 1 0 0 -1 0 216 cm
53.148 116.352 m 56.852 116.352 l S Q
q 1 0 0 -1 0 216 cm
300.148 116.352 m 296.449 116.352 l S Q
0.15 w
[ 0.2 2] 0 d
q 1 0 0 -1 0 216 cm
53.148 81.148 m 300.148 81.148 l S Q
0.25 w
[] 0.0 d
q 1 0 0 -1 0 216 cm
53.148 81.148 m 56.852 81.148 l S Q
q 1 0 0 -1 0 216 cm
300.148 81.148 m 296.449 81.148 l S Q
0.15 w
[ 0.2 2] 0 d
q 1 0 0 -1 0 216 cm
53.148 45.949 m 300.148 45.949 l S Q
0.25 w
[] 0.0 d
q 1 0 0 -1 0 216 cm
53.148 45.949 m 56.852 45.949 l S Q
q 1 0 0 -1 0 216 cm
300.148 45.949 m 296.449 45.949 l S Q
0.15 w
[ 0.2 2] 0 d
q 1 0 0 -1 0 216 cm
53.148 10.75 m 300.148 10.75 l S Q
0.25 w
[] 0.0 d
q 1 0 0 -1 0 216 cm
53.148 10.75 m 56.852 10.75 l S Q
q 1 0 0 -1 0 216 cm
300.148 10.75 m 296.449 10.75 l S Q
0.15 w
[ 0.2 2] 0 d
q 1 0 0 -1 0 216 cm
53.148 186.75 m 53.148 42.352 l S Q
[ 0.2 2] 0 d
q 1 0 0 -1 0 216 cm
53.148 14.449 m 53.148 10.75 l S Q
0.25 w
[] 0.0 d
q 1 0 0 -1 0 216 cm
53.148 186.75 m 53.148 183.051 l S Q
q 1 0 0 -1 0 216 cm
53.148 10.75 m 53.148 14.449 l S Q
q 1 0 0 -1 0 216 cm
61.398 186.75 m 61.398 184.898 l S Q
q 1 0 0 -1 0 216 cm
61.398 10.75 m 61.398 12.602 l S Q
q 1 0 0 -1 0 216 cm
69.602 186.75 m 69.602 184.898 l S Q
q 1 0 0 -1 0 216 cm
69.602 10.75 m 69.602 12.602 l S Q
q 1 0 0 -1 0 216 cm
77.852 186.75 m 77.852 184.898 l S Q
q 1 0 0 -1 0 216 cm
77.852 10.75 m 77.852 12.602 l S Q
q 1 0 0 -1 0 216 cm
86.102 186.75 m 86.102 184.898 l S Q
q 1 0 0 -1 0 216 cm
86.102 10.75 m 86.102 12.602 l S Q
0.15 w
[ 0.2 2] 0 d
q 1 0 0 -1 0 216 cm
94.301 186.75 m 94.301 42.352 l S Q
[ 0.2 2] 0 d
q 1 0 0 -1 0 216 cm
94.301 14.449 m 94.301 10.75 l S Q
0.25 w
[] 0.0 d
q 1 0 0 -1 0 216 cm
94.301 186.75 m 94.301 183.051 l S Q
q 1 0 0 -1 0 216 cm
94.301 10.75 m 94.301 14.449 l S Q
q 1 0 0 -1 0 216 cm
102.551 186.75 m 102.551 184.898 l S Q
q 1 0 0 -1 0 216 cm
102.551 10.75 m 102.551 12.602 l S Q
q 1 0 0 -1 0 216 cm
110.801 186.75 m 110.801 184.898 l S Q
q 1 0 0 -1 0 216 cm
110.801 10.75 m 110.801 12.602 l S Q
q 1 0 0 -1 0 216 cm
119 186.75 m 119 184.898 l S Q
q 1 0 0 -1 0 216 cm
119 10.75 m 119 12.602 l S Q
q 1 0 0 -1 0 216 cm
127.25 186.75 m 127.25 184.898 l S Q
q 1 0 0 -1 0 216 cm
127.25 10.75 m 127.25 12.602 l S Q
0.15 w
[ 0.2 2] 0 d
q 1 0 0 -1 0 216 cm
135.5 186.75 m 135.5 42.352 l S Q
[ 0.2 2] 0 d
q 1 0 0 -1 0 216 cm
135.5 14.449 m 135.5 10.75 l S Q
0.25 w
[] 0.0 d
q 1 0 0 -1 0 216 cm
135.5 186.75 m 135.5 183.051 l S Q
q 1 0 0 -1 0 216 cm
135.5 10.75 m 135.5 14.449 l S Q
q 1 0 0 -1 0 216 cm
143.699 186.75 m 143.699 184.898 l S Q
q 1 0 0 -1 0 216 cm
143.699 10.75 m 143.699 12.602 l S Q
q 1 0 0 -1 0 216 cm
151.949 186.75 m 151.949 184.898 l S Q
q 1 0 0 -1 0 216 cm
151.949 10.75 m 151.949 12.602 l S Q
q 1 0 0 -1 0 216 cm
160.199 186.75 m 160.199 184.898 l S Q
q 1 0 0 -1 0 216 cm
160.199 10.75 m 160.199 12.602 l S Q
q 1 0 0 -1 0 216 cm
168.398 186.75 m 168.398 184.898 l S Q
q 1 0 0 -1 0 216 cm
168.398 10.75 m 168.398 12.602 l S Q
0.15 w
[ 0.2 2] 0 d
q 1 0 0 -1 0 216 cm
176.648 186.75 m 176.648 42.352 l S Q
[ 0.2 2] 0 d
q 1 0 0 -1 0 216 cm
176.648 14.449 m 176.648 10.75 l S Q
0.25 w
[] 0.0 d
q 1 0 0 -1 0 216 cm
176.648 186.75 m 176.648 183.051 l S Q
q 1 0 0 -1 0 216 cm
176.648 10.75 m 176.648 14.449 l S Q
q 1 0 0 -1 0 216 cm
184.898 186.75 m 184.898 184.898 l S Q
q 1 0 0 -1 0 216 cm
184.898 10.75 m 184.898 12.602 l S Q
q 1 0 0 -1 0 216 cm
193.102 186.75 m 193.102 184.898 l S Q
q 1 0 0 -1 0 216 cm
193.102 10.75 m 193.102 12.602 l S Q
q 1 0 0 -1 0 216 cm
201.352 186.75 m 201.352 184.898 l S Q
q 1 0 0 -1 0 216 cm
201.352 10.75 m 201.352 12.602 l S Q
q 1 0 0 -1 0 216 cm
209.602 186.75 m 209.602 184.898 l S Q
q 1 0 0 -1 0 216 cm
209.602 10.75 m 209.602 12.602 l S Q
0.15 w
[ 0.2 2] 0 d
q 1 0 0 -1 0 216 cm
217.801 186.75 m 217.801 42.352 l S Q
[ 0.2 2] 0 d
q 1 0 0 -1 0 216 cm
217.801 14.449 m 217.801 10.75 l S Q
0.25 w
[] 0.0 d
q 1 0 0 -1 0 216 cm
217.801 186.75 m 217.801 183.051 l S Q
q 1 0 0 -1 0 216 cm
217.801 10.75 m 217.801 14.449 l S Q
q 1 0 0 -1 0 216 cm
226.051 186.75 m 226.051 184.898 l S Q
q 1 0 0 -1 0 216 cm
226.051 10.75 m 226.051 12.602 l S Q
q 1 0 0 -1 0 216 cm
234.301 186.75 m 234.301 184.898 l S Q
q 1 0 0 -1 0 216 cm
234.301 10.75 m 234.301 12.602 l S Q
q 1 0 0 -1 0 216 cm
242.5 186.75 m 242.5 184.898 l S Q
q 1 0 0 -1 0 216 cm
242.5 10.75 m 242.5 12.602 l S Q
q 1 0 0 -1 0 216 cm
250.75 186.75 m 250.75 184.898 l S Q
q 1 0 0 -1 0 216 cm
250.75 10.75 m 250.75 12.602 l S Q
0.15 w
[ 0.2 2] 0 d
q 1 0 0 -1 0 216 cm
259 186.75 m 259 42.352 l S Q
[ 0.2 2] 0 d
q 1 0 0 -1 0 216 cm
259 14.449 m 259 10.75 l S Q
0.25 w
[] 0.0 d
q 1 0 0 -1 0 216 cm
259 186.75 m 259 183.051 l S Q
q 1 0 0 -1 0 216 cm
259 10.75 m 259 14.449 l S Q
q 1 0 0 -1 0 216 cm
267.199 186.75 m 267.199 184.898 l S Q
q 1 0 0 -1 0 216 cm
267.199 10.75 m 267.199 12.602 l S Q
q 1 0 0 -1 0 216 cm
275.449 186.75 m 275.449 184.898 l S Q
q 1 0 0 -1 0 216 cm
275.449 10.75 m 275.449 12.602 l S Q
q 1 0 0 -1 0 216 cm
283.699 186.75 m 283.699 184.898 l S Q
q 1 0 0 -1 0 216 cm
283.699 10.75 m 283.699 12.602 l S Q
q 1 0 0 -1 0 216 cm
291.898 186.75 m 291.898 184.898 l S Q
q 1 0 0 -1 0 216 cm
291.898 10.75 m 291.898 12.602 l S Q
0.15 w
[ 0.2 2] 0 d
q 1 0 0 -1 0 216 cm
300.148 186.75 m 300.148 10.75 l S Q
0.25 w
[] 0.0 d
q 1 0 0 -1 0 216 cm
300.148 186.75 m 300.148 183.051 l S Q
q 1 0 0 -1 0 216 cm
300.148 10.75 m 300.148 14.449 l S Q
q 1 0 0 -1 0 216 cm
300.148 186.75 m 296.449 186.75 l S Q
q 1 0 0 -1 0 216 cm
300.148 151.551 m 296.449 151.551 l S Q
q 1 0 0 -1 0 216 cm
300.148 116.352 m 296.449 116.352 l S Q
q 1 0 0 -1 0 216 cm
300.148 81.148 m 296.449 81.148 l S Q
q 1 0 0 -1 0 216 cm
300.148 45.949 m 296.449 45.949 l S Q
q 1 0 0 -1 0 216 cm
300.148 10.75 m 296.449 10.75 l S Q
q 1 0 0 -1 0 216 cm
53.148 10.75 247 176 re S Q
0.172549 0.462745 0.733333 rg
q 1 0 0 -1 0 216 cm
265.852 19.102 m 289.949 19.102 l S Q
q 1 0 0 -1 0 216 cm
53.148 10.75 m 53.648 12.148 l 54.148 13.551 l 54.602 14.898 l 55.102 16.301
 l 55.602 17.648 l 56.051 19 l 56.551 20.352 l 57 21.648 l 57.5 23 l 58.5
 25.602 l 59 26.852 l 59.449 28.148 l 60 29.398 l 60.5 30.648 l 60.949 31.898
 l 61.5 33.148 l 62 34.352 l 62.5 35.551 l 62.949 36.75 l 63.449 37.949 
l 63.898 39.148 l 64.398 40.352 l 64.852 41.5 l 65.352 42.648 l 65.852 43.801
 l 66.352 44.949 l 66.852 46.051 l 67.301 47.199 l 67.801 48.301 l 68.25
 49.398 l 68.75 50.5 l 69.199 51.602 l 69.699 52.648 l 70.199 53.75 l 70.648
 54.801 l 71.102 55.852 l 71.602 56.898 l 72.102 57.898 l 72.602 58.949 
l 73.051 59.949 l 73.551 61 l 74.051 62 l 74.5 62.949 l 75.5 64.949 l 75.949
 65.898 l 76.449 66.852 l 76.898 67.852 l 77.398 68.75 l 77.852 69.699 l
 78.352 70.648 l 78.852 71.551 l 79.352 72.5 l 79.801 73.398 l 80.301 74.301
 l 80.801 75.199 l 81.25 76.102 l 81.75 76.949 l 82.25 77.852 l 82.75 78.699
 l 83.199 79.551 l 83.648 80.449 l 84.148 81.25 l 84.648 82.102 l 85.102
 82.949 l 85.602 83.801 l 86.051 84.602 l 86.551 85.398 l 87 86.199 l 87.5
 87 l 87.949 87.801 l 88.449 88.602 l 88.949 89.398 l 89.398 90.148 l 89.852
 90.949 l 90.352 91.699 l 90.801 92.449 l 91.301 93.199 l 92.199 94.699 
l 92.699 95.398 l 93.148 96.148 l 93.602 96.852 l 94.102 97.602 l 94.602
 98.301 l 95.5 99.699 l 96 100.398 l 96.5 101.102 l 96.949 101.75 l 97.449
 102.449 l 97.898 103.102 l 98.398 103.801 l 98.898 104.449 l 99.352 105.102
 l 99.852 105.75 l 100.301 106.398 l 100.75 107.051 l 101.25 107.648 l 101.699
 108.301 l 102.199 108.898 l 102.648 109.551 l 103.102 110.148 l 103.551
 110.75 l 104.051 111.352 l 104.5 111.949 l 104.949 112.551 l 105.449 113.148
 l 105.898 113.75 l 106.352 114.352 l 106.801 114.898 l 107.25 115.5 l 107.699
 116.051 l 108.199 116.602 l 108.648 117.148 l 109.148 117.699 l 109.602
 118.25 l 110.5 119.352 l 111 119.898 l 111.449 120.449 l 111.949 120.949
 l 112.398 121.5 l 112.852 122 l 113.301 122.5 l 113.801 123.051 l 114.699
 124.051 l 115.199 124.551 l 115.648 125.051 l 116.148 125.551 l 116.602
 126 l 117.102 126.5 l 117.551 127 l 118.949 128.398 l 119.398 128.852 l
 119.852 129.301 l 120.301 129.801 l 120.801 130.25 l 121.699 131.148 l 
122.148 131.602 l 122.648 132 l 123.102 132.449 l 123.551 132.898 l 124 
133.301 l 124.5 133.75 l 124.949 134.148 l 125.449 134.602 l 125.898 135
 l 126.352 135.398 l 126.801 135.801 l 127.25 136.199 l 127.699 136.648 
l 128.148 137.051 l 128.602 137.398 l 129.051 137.801 l 129.5 138.199 l 
130 138.602 l 130.449 139 l 130.949 139.352 l 131.352 139.75 l 131.801 140.102
 l 132.301 140.5 l 132.75 140.852 l 133.199 141.199 l 133.648 141.602 l 
134.148 141.949 l 134.602 142.301 l 135.051 142.648 l 135.949 143.352 l 
136.449 143.699 l 136.898 144.051 l 137.352 144.398 l 137.801 144.699 l 
138.301 145.051 l 138.75 145.398 l 139.199 145.699 l 139.648 146.051 l 140.102
 146.352 l 140.602 146.699 l 141.5 147.301 l 141.949 147.648 l 142.398 147.949
 l 142.852 148.25 l 143.352 148.551 l 143.801 148.852 l 144.301 149.148 
l 145.648 150.051 l 146.102 150.352 l 146.551 150.648 l 147 150.949 l 147.449
 151.199 l 147.949 151.5 l 148.398 151.801 l 148.852 152.051 l 149.301 152.352
 l 149.75 152.602 l 150.199 152.898 l 150.648 153.148 l 151.148 153.398 
l 151.602 153.699 l 152.102 153.949 l 153 154.449 l 153.449 154.75 l 154.449
 155.25 l 154.898 155.5 l 155.398 155.75 l 155.852 156 l 156.301 156.25 
l 156.75 156.449 l 157.199 156.699 l 157.699 156.949 l 158.148 157.199 l
 158.602 157.398 l 159.051 157.648 l 159.551 157.898 l 160 158.102 l 160.449
 158.352 l 160.949 158.551 l 161.398 158.801 l 161.852 159 l 162.301 159.25
 l 162.75 159.449 l 163.199 159.699 l 163.648 159.898 l 164.102 160.102 
l 164.551 160.301 l 165 160.551 l 165.449 160.75 l 165.949 160.949 l 166.398
 161.148 l 166.852 161.352 l 167.352 161.551 l 168.699 162.148 l 169.199
 162.352 l 169.648 162.551 l 170.102 162.75 l 170.602 162.949 l 171.051 
163.102 l 171.949 163.5 l 172.449 163.699 l 172.898 163.852 l 173.398 164.051
 l 173.852 164.25 l 174.301 164.398 l 174.801 164.602 l 175.25 164.75 l 
175.699 164.949 l 176.199 165.102 l 176.648 165.301 l 177.102 165.449 l 
177.551 165.602 l 178.051 165.801 l 178.5 165.949 l 178.949 166.148 l 179.398
 166.301 l 179.852 166.449 l 180.352 166.602 l 180.801 166.75 l 181.25 166.949
 l 181.75 167.102 l 182.648 167.398 l 183.148 167.551 l 183.602 167.699 
l 184.051 167.852 l 184.551 168 l 185 168.148 l 185.449 168.301 l 185.949
 168.449 l 186.398 168.602 l 186.898 168.75 l 187.352 168.898 l 187.801 
169.051 l 188.25 169.148 l 188.75 169.301 l 189.199 169.449 l 189.699 169.602
 l 190.148 169.75 l 190.648 169.852 l 191.102 170 l 191.551 170.148 l 192
 170.25 l 192.5 170.398 l 192.949 170.551 l 193.398 170.648 l 193.898 170.801
 l 194.352 170.898 l 194.852 171.051 l 195.301 171.148 l 195.75 171.301 
l 196.199 171.398 l 196.648 171.551 l 197.102 171.648 l 197.551 171.75 l
 198 171.898 l 198.449 172 l 198.898 172.148 l 199.352 172.25 l 199.801 
172.352 l 200.25 172.5 l 200.699 172.602 l 201.199 172.699 l 201.648 172.801
 l 202.102 172.898 l 202.551 173.051 l 203 173.148 l 203.898 173.352 l 204.352
 173.449 l 204.801 173.551 l 205.301 173.699 l 205.75 173.801 l 206.199 
173.898 l 206.648 174 l 207.148 174.102 l 207.602 174.199 l 208 174.301 
l 208.5 174.398 l 209.398 174.602 l 209.852 174.699 l 210.301 174.801 l 
210.801 174.852 l 211.25 174.949 l 211.699 175.051 l 212.148 175.148 l 212.602
 175.25 l 213.051 175.352 l 213.5 175.449 l 213.949 175.5 l 214.398 175.602
 l 214.852 175.699 l 215.301 175.801 l 215.75 175.852 l 216.199 175.949 
l 216.648 176.051 l 217.102 176.148 l 217.551 176.199 l 218 176.301 l 218.449
 176.398 l 218.898 176.449 l 219.398 176.551 l 219.801 176.648 l 220.301
 176.699 l 220.75 176.801 l 221.199 176.852 l 221.648 176.949 l 222.102 
177.051 l 222.602 177.102 l 223 177.199 l 223.449 177.25 l 223.949 177.352
 l 224.352 177.398 l 224.801 177.5 l 225.25 177.551 l 225.75 177.648 l 226.648
 177.75 l 227.102 177.852 l 227.551 177.898 l 228 178 l 228.449 178.051 
l 228.898 178.148 l 229.398 178.199 l 229.852 178.25 l 230.301 178.352 l
 230.75 178.398 l 231.25 178.449 l 231.699 178.551 l 232.148 178.602 l 232.602
 178.648 l 233.051 178.75 l 233.5 178.801 l 234 178.852 l 234.449 178.898
 l 234.898 179 l 235.352 179.051 l 235.852 179.102 l 236.301 179.148 l 236.75
 179.199 l 237.25 179.301 l 237.699 179.352 l 238.148 179.398 l 238.602 
179.449 l 239.051 179.5 l 239.5 179.602 l 239.949 179.648 l 240.398 179.699
 l 240.852 179.75 l 241.75 179.852 l 242.199 179.898 l 242.648 179.949 l
 243.102 180 l 243.551 180.051 l 244 180.148 l 244.898 180.25 l 245.398 
180.301 l 245.852 180.352 l 246.352 180.398 l 247.25 180.5 l 247.75 180.551
 l 248.199 180.602 l 248.648 180.648 l 249.102 180.699 l 250.449 180.852
 l 250.898 180.898 l 251.352 180.898 l 251.75 180.949 l 252.25 181 l 253.148
 181.102 l 253.648 181.148 l 254.102 181.199 l 255.449 181.352 l 255.949
 181.352 l 256.398 181.398 l 256.898 181.449 l 257.352 181.5 l 258.25 181.602
 l 258.699 181.602 l 259.148 181.648 l 259.602 181.699 l 260.102 181.75 
l 260.551 181.801 l 261 181.801 l 261.449 181.852 l 261.898 181.898 l 262.352
 181.949 l 262.801 182 l 263.301 182 l 264.199 182.102 l 264.648 182.148
 l 265.102 182.148 l 266.449 182.301 l 266.898 182.301 l 267.352 182.352
 l 267.852 182.398 l 268.25 182.398 l 268.699 182.449 l 269.199 182.5 l 
269.648 182.5 l 270.102 182.551 l 270.551 182.602 l 271 182.602 l 271.449
 182.648 l 271.898 182.699 l 272.352 182.699 l 273.25 182.801 l 273.699 
182.801 l 274.148 182.852 l 274.602 182.898 l 275.051 182.898 l 275.5 182.949
 l 275.949 182.949 l 276.398 183 l 276.852 183.051 l 277.352 183.051 l 277.801
 183.102 l 278.25 183.102 l 278.699 183.148 l 279.199 183.148 l 279.648 
183.199 l 280.102 183.25 l 280.551 183.25 l 281.051 183.301 l 281.5 183.301
 l 281.949 183.352 l 282.398 183.352 l 282.852 183.398 l 283.301 183.398
 l 283.801 183.449 l 284.25 183.449 l 285.148 183.551 l 285.602 183.551 
l 286.051 183.602 l 286.5 183.602 l 286.949 183.648 l 287.449 183.648 l 
287.898 183.699 l 288.352 183.699 l 288.801 183.75 l 289.75 183.75 l 290.199
 183.801 l 290.648 183.801 l 291.102 183.852 l 291.551 183.852 l 292 183.898
 l 292.5 183.898 l 292.949 183.949 l 293.398 183.949 l 293.852 184 l 294.801
 184 l 295.25 184.051 l 295.75 184.051 l 296.199 184.102 l 296.648 184.102
 l 297.102 184.148 l 298 184.148 l 298.449 184.199 l 298.898 184.199 l 299.352
 184.25 l 299.852 184.25 l S Q
0 0.65098 0.552941 rg
q 1 0 0 -1 0 216 cm
265.852 28.398 m 289.949 28.398 l S Q
q 1 0 0 -1 0 216 cm
53.148 10.75 m 53.602 41.852 l 54.102 52.648 l 54.551 64.102 l 55 71.75
 l 55.5 79.699 l 55.949 86.801 l 56.398 93.25 l 56.852 98.852 l 57.301 103.852
 l 57.801 108.352 l 58.25 112.551 l 58.699 116.398 l 59.148 119.801 l 59.648
 123.199 l 60.102 126.199 l 60.551 128.898 l 61 131.301 l 61.449 133.852
 l 61.898 136.148 l 62.352 138 l 62.801 140.148 l 63.25 142 l 63.75 143.699
 l 64.199 145.199 l 64.648 146.602 l 65.102 147.898 l 65.551 149.25 l 66
 150.699 l 66.449 151.898 l 66.949 152.949 l 67.398 153.949 l 67.852 154.949
 l 68.301 155.949 l 68.75 156.801 l 69.199 157.602 l 69.648 158.449 l 70.102
 159.199 l 70.551 159.898 l 71 160.551 l 71.5 161.148 l 72.398 162.352 l
 72.852 162.898 l 73.301 163.398 l 73.75 163.949 l 74.199 164.449 l 75.551
 165.801 l 76 166.199 l 76.449 166.648 l 76.898 167.051 l 77.352 167.398
 l 77.801 167.801 l 78.301 168.148 l 78.75 168.449 l 79.199 168.801 l 79.648
 169.148 l 80.102 169.5 l 80.551 169.852 l 81 170.199 l 81.898 170.699 l
 82.352 170.949 l 82.801 171.25 l 84.148 172 l 84.602 172.25 l 85.051 172.5
 l 85.5 172.648 l 85.949 172.852 l 86.449 173 l 86.898 173.148 l 87.398 
173.301 l 87.852 173.449 l 88.301 173.602 l 88.75 173.75 l 89.199 173.852
 l 89.648 174 l 90.148 174.102 l 90.602 174.25 l 91.051 174.352 l 91.5 174.449
 l 91.949 174.551 l 92.398 174.699 l 92.898 174.801 l 93.352 174.898 l 94.25
 175.102 l 94.699 175.199 l 95.199 175.301 l 95.648 175.398 l 96.102 175.551
 l 96.551 175.602 l 97 175.699 l 97.449 175.801 l 97.898 175.898 l 98.352
 176 l 98.801 176.102 l 99.301 176.199 l 99.75 176.25 l 100.199 176.352 
l 100.648 176.398 l 101.102 176.5 l 101.551 176.602 l 102 176.648 l 102.449
 176.75 l 102.949 176.801 l 103.398 176.898 l 103.852 176.949 l 104.301 
177 l 104.75 177.102 l 105.199 177.148 l 105.648 177.25 l 106.102 177.301
 l 106.602 177.352 l 107.051 177.449 l 107.949 177.551 l 108.398 177.648
 l 108.852 177.699 l 109.352 177.75 l 110.25 177.852 l 110.699 177.898 l
 111.148 177.949 l 111.602 178 l 112.051 178.051 l 112.5 178.148 l 113 178.199
 l 113.449 178.25 l 113.898 178.25 l 114.352 178.301 l 114.801 178.352 l
 115.25 178.398 l 115.75 178.449 l 116.648 178.551 l 117.102 178.602 l 117.551
 178.648 l 118 178.699 l 118.449 178.801 l 118.898 178.852 l 119.398 178.852
 l 119.852 178.898 l 121.648 179.102 l 122.102 179.148 l 122.551 179.148
 l 123.898 179.301 l 124.352 179.352 l 124.801 179.352 l 125.25 179.398 
l 126.148 179.5 l 126.602 179.551 l 127.102 179.551 l 127.551 179.602 l 
128 179.648 l 128.449 179.699 l 128.898 179.699 l 129.352 179.75 l 130.25
 179.852 l 130.699 179.852 l 131.148 179.898 l 131.602 179.949 l 132.051
 179.949 l 132.949 180.051 l 133.398 180.051 l 133.852 180.102 l 134.301
 180.148 l 134.75 180.148 l 135.148 180.199 l 135.602 180.25 l 136.051 180.25
 l 136.949 180.352 l 137.398 180.352 l 137.852 180.398 l 138.301 180.398
 l 138.699 180.449 l 139.148 180.449 l 139.602 180.5 l 140.051 180.5 l 140.5
 180.551 l 140.949 180.551 l 141.398 180.602 l 141.852 180.648 l 142.301
 180.648 l 142.75 180.699 l 143.602 180.699 l 144.5 180.801 l 144.949 180.801
 l 145.398 180.852 l 146.25 180.852 l 146.699 180.898 l 147.148 180.898 
l 147.602 180.949 l 148.051 180.949 l 148.449 181 l 148.898 181 l 149.352
 181.051 l 149.801 181.051 l 150.25 181.102 l 151.148 181.102 l 151.602 
181.148 l 152.051 181.148 l 152.449 181.199 l 153.352 181.199 l 153.801 
181.25 l 154.25 181.25 l 154.699 181.301 l 155.551 181.301 l 156 181.352
 l 156.449 181.352 l 156.949 181.398 l 157.801 181.398 l 158.25 181.449 
l 159.148 181.449 l 159.602 181.5 l 160 181.5 l 160.449 181.551 l 161.352
 181.551 l 161.801 181.602 l 162.699 181.602 l 163.148 181.648 l 164 181.648
 l 164.449 181.699 l 165.352 181.699 l 165.801 181.75 l 166.25 181.75 l 
166.648 181.801 l 167.551 181.801 l 168 181.852 l 168.898 181.852 l 169.352
 181.898 l 170.648 181.898 l 171.102 181.949 l 172.449 181.949 l 172.898
 182 l 174.648 182 l 175.102 182.051 l 176.398 182.051 l 176.852 182.102
 l 178.648 182.102 l 179.102 182.148 l 180.398 182.148 l 180.852 182.199
 l 182.602 182.199 l 183.051 182.25 l 184.398 182.25 l 184.852 182.301 l
 186.602 182.301 l 187.051 182.352 l 188.398 182.352 l 188.852 182.398 l
 190.602 182.398 l 191.051 182.449 l 192.801 182.449 l 193.25 182.5 l 195.051
 182.5 l 195.5 182.551 l 197.25 182.551 l 197.699 182.602 l 199.898 182.602
 l 200.352 182.648 l 202.102 182.648 l 202.551 182.699 l 204.75 182.699 
l 205.199 182.75 l 207.398 182.75 l 207.852 182.801 l 210.102 182.801 l 
210.5 182.852 l 212.75 182.852 l 213.148 182.898 l 214.949 182.898 l 215.398
 182.949 l 217.602 182.949 l 218.051 183 l 220.699 183 l 221.148 183.051
 l 223.352 183.051 l 223.801 183.102 l 226.898 183.102 l 227.352 183.148
 l 229.551 183.148 l 230 183.199 l 233.102 183.199 l 233.551 183.25 l 236.648
 183.25 l 237.102 183.301 l 240.199 183.301 l 240.602 183.352 l 244.148 
183.352 l 244.602 183.398 l 247.699 183.398 l 248.148 183.449 l 251.648 
183.449 l 252.102 183.5 l 255.648 183.5 l 256.102 183.551 l 259.648 183.551
 l 260.102 183.602 l 263.602 183.602 l 264.051 183.648 l 268.051 183.648
 l 268.449 183.699 l 272.898 183.699 l 273.352 183.75 l 277.75 183.75 l 
278.199 183.801 l 283.051 183.801 l 283.5 183.852 l 287.949 183.852 l 288.398
 183.898 l 292.801 183.898 l 293.25 183.949 l 297.648 183.949 l 298.102 
184 l 299.898 184 l S Q
0.729412 0.0980392 0.545098 rg
q 1 0 0 -1 0 216 cm
265.852 37.699 m 289.949 37.699 l S Q
q 1 0 0 -1 0 216 cm
55.449 10.75 m 55.5 10.898 l 55.949 15.852 l 56.398 31.301 l 56.852 38.5
 l 57.301 47.051 l 57.801 44.801 l 58.25 56.5 l 58.699 60.648 l 59.148 67.148
 l 59.648 68.449 l 60.102 79.102 l 60.551 90.551 l 61 86.5 l 61.449 87.949
 l 61.898 92.25 l 62.352 89.199 l 62.801 95.051 l 63.25 94.602 l 63.75 103.949
 l 64.199 106.898 l 64.648 106.051 l 65.102 108.148 l 65.551 98.949 l 66
 94.75 l 66.449 104.648 l 66.949 112.801 l 67.398 114.199 l 67.852 112.449
 l 68.301 113.801 l 68.75 119.148 l 69.199 120.949 l 69.648 120.449 l 70.102
 125.648 l 70.551 131.051 l 71 128.648 l 71.5 130.051 l 71.949 133.398 l
 72.398 133.199 l 72.852 138.5 l 73.301 137.398 l 73.75 141.051 l 74.199
 137.699 l 74.648 135.949 l 75.102 137.398 l 75.551 138.602 l 76 136.898
 l 76.449 137.25 l 76.898 139.801 l 77.352 138.398 l 77.801 141.852 l 78.301
 145.602 l 78.75 147.301 l 79.199 145.449 l 79.648 144.949 l 80.102 142.449
 l 80.551 144.5 l 81 148.051 l 81.449 148.602 l 81.898 148.699 l 82.352 
147.051 l 82.801 146.301 l 83.25 148.801 l 83.699 149.648 l 84.148 150.352
 l 84.602 149.801 l 85.051 150.949 l 85.5 153.25 l 85.949 153.898 l 86.449
 155.699 l 86.898 154.199 l 87.398 156.148 l 87.852 155.199 l 88.301 155.75
 l 88.75 156.898 l 89.199 154.102 l 89.648 155.699 l 90.148 159.25 l 90.602
 163.5 l 91.051 164.199 l 91.5 165.25 l 91.949 161.648 l 92.398 161.551 
l 92.898 164.551 l 93.352 164.801 l 93.801 164.25 l 94.25 164.449 l 94.699
 166.301 l 95.199 166.051 l 95.648 166.301 l 96.102 167.699 l 96.551 167.602
 l 97 168.898 l 97.449 167.199 l 97.898 165.148 l 98.352 164.301 l 98.801
 164.199 l 99.301 162.949 l 99.75 164.949 l 100.199 167.898 l 100.648 167.25
 l 101.102 165.852 l 101.551 169.148 l 102 167.699 l 102.449 169.051 l 102.949
 169.551 l 103.398 172.148 l 103.852 171.898 l 104.301 172.5 l 104.75 172.551
 l 105.199 172 l 105.648 169.5 l 106.102 169.648 l 106.602 171 l 107.051
 169.949 l 107.5 172.449 l 107.949 173.449 l 108.398 172.801 l 108.852 171.949
 l 109.352 172.949 l 109.801 171.102 l 110.25 172.102 l 110.699 172.449 
l 111.148 173.801 l 111.602 173.852 l 112.051 174.301 l 112.5 173.75 l 113
 172.602 l 113.449 173.699 l 113.898 173.898 l 114.352 174.352 l 114.801
 175.699 l 115.25 175.898 l 115.75 174.051 l 116.199 173.949 l 116.648 172.801
 l 117.102 173.102 l 117.551 173.551 l 118 172.949 l 118.449 172.148 l 118.898
 172.25 l 119.398 172.102 l 119.852 171.699 l 120.301 171.352 l 120.75 174.051
 l 121.199 175.199 l 121.648 174.051 l 122.102 175.398 l 122.551 175.5 l
 123 175.25 l 123.449 176.051 l 123.898 175.801 l 124.352 176.398 l 124.801
 175.398 l 125.25 175.699 l 125.699 175.051 l 126.148 176 l 126.602 175.949
 l 127.102 175.852 l 127.551 176.398 l 128 175.199 l 128.449 176.398 l 128.898
 176.051 l 129.352 175.148 l 129.801 172.949 l 130.25 174.5 l 130.699 175
 l 131.148 175.75 l 131.602 176.398 l 132.051 177.5 l 132.5 176.75 l 132.949
 176.199 l 133.398 175.852 l 133.852 175.699 l 134.301 173.801 l 134.75 
174.898 l 135.148 174.051 l 135.602 173.949 l 136.051 175.551 l 136.5 176.699
 l 136.949 176.801 l 137.398 177.25 l 137.852 177.898 l 138.301 176.398 
l 138.699 176.949 l 139.148 176.898 l 139.602 177.602 l 140.051 177.898 
l 140.5 178.352 l 140.949 178.75 l 141.398 178.352 l 141.852 178.199 l 142.301
 177.352 l 142.75 178.148 l 143.148 177.449 l 143.602 177.398 l 144.051 
177.449 l 144.5 177.199 l 144.949 177.301 l 145.398 177.699 l 145.801 177.801
 l 146.25 178.051 l 146.699 178.148 l 147.148 178.352 l 147.602 178.352 
l 148.051 176.75 l 148.449 177.699 l 148.898 178.148 l 149.352 178.352 l
 149.801 179.051 l 150.25 179.148 l 150.699 179.102 l 151.148 179.199 l 
151.602 179.5 l 152.051 179.398 l 152.449 179 l 152.898 179.551 l 153.352
 178 l 153.801 178.398 l 154.25 177.199 l 154.699 177.949 l 155.148 178.551
 l 155.551 179.148 l 156 178.75 l 156.449 178.551 l 156.949 179.199 l 157.352
 176.199 l 157.801 176 l 158.25 177.5 l 158.699 177.551 l 159.148 178.648
 l 159.602 179.449 l 160 179.25 l 160.449 179.648 l 160.898 179.801 l 161.352
 178.352 l 161.801 178.75 l 162.25 179.051 l 162.699 179.398 l 163.148 179.898
 l 163.602 180.102 l 164 180.199 l 164.449 180.699 l 164.898 178.551 l 165.352
 178.102 l 165.801 178.5 l 166.25 178.699 l 166.648 177.102 l 167.102 178.551
 l 167.551 179.199 l 168 179.5 l 168.449 179.25 l 168.898 180.25 l 169.352
 179.25 l 169.801 180.648 l 170.199 181.449 l 170.648 180.602 l 171.102 
181.449 l 171.551 180.949 l 172 180.75 l 172.449 181.398 l 172.898 181.352
 l 173.352 181.5 l 173.801 181.449 l 174.25 180.602 l 174.648 180.551 l 
175.102 181 l 175.551 181.301 l 176 181.352 l 176.398 181.75 l 176.852 182.75
 l 177.301 183.148 l 177.75 181.301 l 178.199 180.5 l 178.648 181.301 l 
179.102 181.602 l 179.5 181.75 l 179.949 181.5 l 180.398 181.602 l 180.852
 181.102 l 181.301 181.449 l 181.75 179.301 l 182.199 179.852 l 182.602 
180.648 l 183.051 181 l 183.5 181.898 l 183.949 182.5 l 184.398 182.398 
l 184.852 182.301 l 185.301 181.25 l 185.75 180.699 l 186.148 179.449 l 
186.602 180.5 l 187.051 181.602 l 187.5 182 l 187.949 180.75 l 188.398 181.852
 l 188.852 181.301 l 189.25 181.352 l 189.699 180.852 l 190.148 181.148 
l 190.602 181.148 l 191.051 181.102 l 191.5 180.949 l 191.949 181.5 l 192.398
 181.5 l 192.801 182.352 l 193.25 182.25 l 193.699 182.852 l 194.148 182.648
 l 194.602 183.199 l 195.051 182.051 l 195.5 182.051 l 195.898 182.852 l
 196.352 182.551 l 196.801 181.648 l 197.25 182.148 l 197.699 182.852 l 
198.148 182.398 l 198.602 181.648 l 199 182.25 l 199.449 180.801 l 199.898
 181.102 l 200.352 180.852 l 200.801 181.801 l 201.25 182.25 l 201.648 182.949
 l 202.102 182.699 l 202.551 182.551 l 203 182.75 l 203.449 182.602 l 203.898
 183.148 l 204.352 182.852 l 204.75 182.352 l 205.199 183.25 l 205.648 182.602
 l 206.102 182.051 l 206.551 182.898 l 207 182.148 l 207.398 181.551 l 207.852
 181.551 l 208.301 182.449 l 208.75 182.352 l 209.199 182.551 l 209.648 
182.449 l 210.102 182.25 l 210.5 182.051 l 210.949 180.449 l 211.398 180.898
 l 211.852 182.398 l 212.301 182.602 l 212.75 182.301 l 213.148 182.5 l 
213.602 182.602 l 214.051 182.648 l 214.5 182.949 l 214.949 182.648 l 215.398
 183 l 215.801 182.102 l 216.25 181.852 l 216.699 182.398 l 217.148 182.199
 l 217.602 182.648 l 218.051 182.898 l 218.449 182.102 l 218.898 182.199
 l 219.352 182.75 l 219.801 182.852 l 220.25 183.199 l 220.699 182.949 l
 221.148 182.5 l 221.551 182.699 l 222 181.5 l 222.449 181.551 l 222.898
 182.25 l 223.352 182.352 l 223.801 182.898 l 224.25 183 l 224.648 182.75
 l 225.102 182.25 l 225.551 181.898 l 226 181.699 l 226.449 182.25 l 226.898
 181.5 l 227.352 182.551 l 227.801 182.898 l 228.199 183 l 228.648 183.25
 l 229.102 182.352 l 229.551 181.398 l 230 182.102 l 230.449 182.801 l 230.898
 183.648 l 231.352 183.75 l 231.801 183.898 l 232.25 183.699 l 232.648 183.699
 l 233.102 183.352 l 233.551 183.602 l 234 183.102 l 234.449 183.051 l 234.852
 182.301 l 235.301 181.449 l 235.75 182.648 l 236.199 183.5 l 236.648 183.648
 l 237.102 183.5 l 237.5 182.801 l 237.949 183.602 l 238.398 183.949 l 238.852
 184.148 l 239.301 184.25 l 239.75 184 l 240.199 184 l 240.602 182.75 l 
241.051 182.699 l 241.5 182.25 l 241.949 182.648 l 242.398 182.551 l 242.852
 182.949 l 243.301 183.301 l 243.699 183.102 l 244.148 183.398 l 244.602
 182.898 l 245.051 182.852 l 245.5 182.199 l 245.949 182.949 l 246.352 183.102
 l 246.801 182.949 l 247.25 183.449 l 247.699 183.102 l 248.148 182.352 
l 248.602 182.102 l 249 183.051 l 249.449 183.352 l 249.898 184 l 250.352
 183.852 l 250.801 183.801 l 251.25 183.898 l 251.648 184 l 252.102 184.352
 l 252.551 183.551 l 253 183.898 l 253.449 183.148 l 253.898 183.051 l 254.301
 183.352 l 254.75 183.949 l 255.199 184.5 l 255.648 184 l 256.102 183.949
 l 256.551 183.148 l 257 183.352 l 257.398 183 l 257.852 183.25 l 258.301
 183.898 l 258.75 184.102 l 259.199 184.148 l 259.648 181.852 l 260.102 
182.949 l 260.5 183.449 l 260.949 183.898 l 261.398 183.699 l 261.852 183.398
 l 262.25 183.75 l 262.699 184.25 l 263.148 184.25 l 263.602 183.898 l 264.051
 182.801 l 264.5 183.602 l 264.949 183.301 l 265.398 183.648 l 265.801 183.949
 l 266.25 183.852 l 266.699 184.398 l 267.148 184.25 l 267.602 184.148 l
 268.051 184.398 l 268.449 183.648 l 268.898 183.898 l 269.352 183.699 l
 269.801 183.551 l 270.25 183.801 l 270.648 183.898 l 271.102 184.449 l 
271.551 183.449 l 272 183.898 l 272.449 183.949 l 272.898 182.75 l 273.352
 183.25 l 273.75 183.301 l 274.199 184 l 274.648 183.449 l 275.102 183 l
 275.551 183.199 l 276 183.199 l 276.449 183.051 l 276.898 183.648 l 277.301
 183.051 l 277.75 183.5 l 278.199 183.898 l 278.648 184.449 l 279.102 184.301
 l 279.551 184.602 l 280 184.25 l 280.398 184.102 l 280.852 183.699 l 281.301
 184.352 l 281.75 184.25 l 282.199 183.602 l 282.648 183.25 l 283.051 183.398
 l 283.5 183.102 l 283.949 183.102 l 284.398 183.602 l 284.852 183.551 l
 285.301 183.148 l 285.699 183.801 l 286.148 183.852 l 286.602 183.102 l
 287.051 182.398 l 287.5 182.801 l 287.949 182.949 l 288.398 182.852 l 288.801
 182.699 l 289.25 182.699 l 289.699 182.949 l 290.148 183 l 290.602 183.25
 l 291.051 183.898 l 291.5 183.898 l 291.898 184.301 l 292.352 184.5 l 292.801
 183.949 l 293.25 184.25 l 293.699 184.102 l 294.148 184.398 l 294.551 184.398
 l 295 183.699 l 295.449 183.949 l 295.898 183.551 l 296.352 183.551 l 296.801
 183.699 l 297.25 184.25 l 297.648 184.148 l 298.102 183.699 l 298.551 184.148
 l 299 183 l 299.449 183.449 l 299.898 184.051 l S Q
0 g
q 1 0 0 -1 0 216 cm
53.148 10.75 247 176 re S Q
Q Q
showpage
%%Trailer
end restore
%%EOF
