0.184485,65341.7,762033,0.914253
0.507648,65341.7,334253,0.804514
0.903586,65341.7,291770,0.77605
1.14312,144059,291770,0.506258
1.4619,149557,291770,0.487413
1.64613,150245,291770,0.485057
2.08486,150258,291770,0.48501
2.22208,150350,291770,0.484697
3.26916,150461,264375,0.430881
4.94685,150461,259176,0.419464
6.14888,150461,257647,0.416019
7.29324,150461,257162,0.414917
8.34801,150461,256648,0.413746
9.48043,150461,256644,0.413736
12.6801,150461,255274,0.41059
13.6605,150461,255039,0.410048
15.2273,150461,254574,0.408969
15.6811,150461,254130,0.407936
16.2342,150461,254061,0.407776
18.882,150461,253671,0.406866
23.8139,150461,252555,0.404246
24.2722,150497,252555,0.404102
26.2355,154269,252555,0.389167
26.3534,154645,252555,0.387681
27.3428,157000,252555,0.378355
27.5169,157429,252555,0.376657
28.6073,158369,252555,0.372932
28.7613,158588,252555,0.372068
29.8437,159409,252555,0.368815
30.5767,159409,252478,0.368621
31.6321,160085,252478,0.365943
31.776,160177,252478,0.365579
32.7072,160419,252478,0.364621
32.8264,160569,252478,0.364027
33.8118,161003,252478,0.36231
33.9119,161066,252478,0.36206
34.8603,161286,252478,0.361189
34.985,161382,252478,0.360808
35.942,161627,252478,0.359835
36.1225,161754,252478,0.359333
37.0862,161855,252478,0.358935
37.2062,161944,252478,0.358582
38.1704,162105,252478,0.357943
38.2934,162170,252478,0.357686
39.2882,162214,252478,0.357513
40.3742,162318,252478,0.357099
41.2591,162481,252478,0.356453
42.1819,162481,252465,0.356421
42.8278,162529,252465,0.356233
43.5374,162551,252465,0.356146
44.2116,162582,252465,0.356023
44.9249,162714,252465,0.355499
45.5936,162741,252465,0.355394
46.2573,162754,252465,0.355343
46.9467,162767,252465,0.355289
47.653,162811,252465,0.355115
47.7544,162825,252465,0.355059
48.3954,162929,252465,0.354648
49.1429,162986,252465,0.354421
49.8821,163038,252465,0.354215
49.9914,163057,252465,0.35414
50.6017,163104,252465,0.353955
50.7107,163119,252465,0.353894
51.3763,163164,252465,0.353717
52.0561,163227,252465,0.353467
52.7513,163234,252465,0.353441
53.4615,163253,252465,0.353365
53.6692,163253,252449,0.353322
54.3587,163278,252449,0.353224
54.4666,163283,252449,0.353202
55.1027,163287,252449,0.353186
55.3296,163287,252407,0.35308
55.9885,163296,252407,0.353046
56.6614,163297,252407,0.353043
56.8532,163297,252407,0.353042
57.4515,163297,252407,0.35304
58.9163,163297,251944,0.35185
80.9076,163347,251944,0.351651
85.4762,163821,251944,0.349772
85.6384,163937,251944,0.349309
86.7958,164278,251944,0.347956
86.9273,164330,251944,0.347752
88.0721,164581,251944,0.346754
88.1882,164621,251944,0.346595
89.3162,164810,251944,0.345846
89.4609,164869,251944,0.345611
90.5309,165117,251944,0.344627
90.6539,165170,251944,0.344418
91.7155,165359,251944,0.343667
91.8451,165436,251944,0.34336
92.9901,165569,251944,0.342834
93.13,165595,251944,0.342729
94.1957,165784,251944,0.341982
94.3304,165814,251944,0.341862
95.3709,165874,251944,0.341622
95.5055,165912,251944,0.341471
96.5524,165957,251944,0.341293
96.6665,165970,251944,0.341241
97.7687,165998,251944,0.341132
98.9329,166008,251944,0.341091
99.7756,166015,251944,0.341064
100.399,166020,251944,0.341042
101.076,166068,251944,0.340852
102.084,166068,251497,0.33968
102.747,166079,251497,0.339638
103.408,166086,251497,0.339609
104.095,166090,251497,0.339595
104.755,166092,251497,0.339586
105.438,166123,251497,0.339462
106.141,166138,251497,0.339404
106.821,166143,251497,0.339381
131.476,166170,251497,0.339275
136.054,166231,251497,0.339034
137.158,166409,251497,0.338325
137.309,166492,251497,0.337993
138.362,166567,251497,0.337697
138.467,166588,251497,0.337614
139.515,166681,251497,0.337244
140.604,166788,251497,0.336818
141.773,166942,251497,0.336206
141.886,166958,251497,0.336141
142.9,167010,251497,0.335934
144.1,167040,251497,0.335816
145.321,167105,251497,0.335556
145.428,167113,251497,0.335527
146.456,167130,251497,0.335457
147.695,167237,251497,0.335032
148.502,167237,250531,0.33247
149.714,167342,250531,0.33205
150.648,167349,250531,0.332022
151.356,167356,250531,0.331997
152.057,167360,250531,0.331979
162.981,167360,250347,0.331487
172.921,167360,249753,0.329896
179.771,167361,249753,0.329893
180.282,167434,249753,0.329599
180.909,167478,249753,0.329425
181.719,167481,249753,0.329411
182.435,167482,249753,0.329408
182.595,167492,249753,0.329367
183.025,167503,249753,0.329324
183.545,167547,249753,0.329148
184.04,167548,249753,0.329144
184.172,167573,249753,0.329044
184.664,167576,249753,0.329033
184.872,167576,249753,0.32903
184.999,167579,249753,0.32902
185.462,167650,249753,0.328736
185.885,167652,249753,0.328727
186.398,167675,249753,0.328636
186.847,167686,249753,0.328592
187.058,167686,249108,0.326855
187.443,167688,249108,0.326845
187.818,167699,249108,0.326803
188.067,167705,249108,0.326779
188.366,167773,249108,0.326507
188.687,167775,249108,0.326499
188.812,167778,249108,0.326484
188.982,167851,249108,0.326192
233.121,167851,249068,0.326085
284.792,167851,248828,0.325435
355.021,167853,248828,0.325426
399.692,167853,248545,0.324658
416.613,167853,248306,0.324008
422.008,167853,247996,0.323162
482.623,167853,247864,0.322803
491.277,167880,247864,0.322694
502.04,167880,247542,0.321811
551.966,167880,246767,0.319681
634.275,168373,246767,0.317682
635.112,168708,246767,0.316327
637.011,169194,246767,0.314357
637.261,169310,246767,0.313888
639.114,169409,246767,0.313486
639.271,169435,246767,0.313382
641.153,169567,246767,0.312846
641.297,169589,246767,0.312758
643.147,169624,246767,0.312613
643.897,169653,246767,0.312497
645.698,169676,246767,0.312403
645.802,169683,246767,0.312373
647.601,169694,246767,0.312332
649.46,169696,246767,0.312324
651.28,169703,246767,0.312295
652.994,169712,246767,0.312257
653.465,169716,246767,0.31224
655.226,169754,246767,0.312086
655.332,169765,246767,0.312041
657.111,169847,246767,0.311712
657.239,169899,246767,0.311498
658.742,169911,246767,0.311449
658.956,169913,246767,0.311442
660.208,170075,246767,0.310785
660.461,170116,246767,0.310622
661.709,170141,246767,0.31052
661.893,170171,246767,0.310397
663.109,170209,246767,0.310242
663.377,170215,246767,0.310219
664.669,170255,246767,0.310056
665.193,170258,246767,0.310043
666.415,170268,246767,0.310003
667.805,170287,246767,0.309927
669.193,170309,246767,0.309837
669.565,170316,246767,0.309812
670.809,170317,246767,0.309805
727.558,170320,246767,0.309795
748.051,170455,246767,0.309246
768.031,170480,246767,0.309147
768.183,170508,246767,0.309032
880.307,170508,246391,0.307979
1045.54,170579,246391,0.307689
1045.93,170726,246391,0.307094
1046.28,170752,246391,0.306987
1047.47,170781,246391,0.306871
1047.74,170784,246391,0.306861
1088.29,170828,246361,0.306593
1104.15,170828,246355,0.306575
1106.26,170828,246121,0.305916
1119.54,170828,246065,0.30576
1167.74,170828,245960,0.305464
1226.1,170913,245960,0.30512
1226.27,171041,245960,0.304598
1226.45,171049,245960,0.304567
1377.13,171204,245960,0.303936
1419.38,171229,245960,0.303834
1441.67,171229,245772,0.3033
1472.45,171235,245772,0.303278
1523.42,171276,245772,0.303109
1544.46,171276,245582,0.302569
1549.3,171305,245582,0.30245
1590.11,171310,245582,0.302433
1594.88,171313,245582,0.30242
1617.89,171334,245582,0.302332
1670.61,171364,245582,0.30221
1710.11,171370,245582,0.302189
1728.12,171381,245582,0.302142
1752.08,171395,245582,0.302085
1779.26,171412,245582,0.302015
1818.39,171413,245582,0.30201
1852.54,171415,245582,0.302005
1899.98,171420,245582,0.301984
2080.59,171433,245582,0.301932
2109.62,171441,245582,0.301897
2140.31,171458,245582,0.301828
2197.63,171479,245582,0.301745
2228.28,171484,245582,0.301722
2261.1,171494,245582,0.301684
2300.95,171508,245582,0.301625
2324.49,171512,245582,0.301609
2349.74,171517,245582,0.301589
2379.21,171518,245582,0.301585
2409.54,171519,245582,0.301582
2463.95,171533,245582,0.301522
2489.65,171536,245582,0.301511
2512.49,171539,245582,0.301501
2572.99,171553,245582,0.301441
2598.83,171554,245582,0.301437
2625.7,171569,245582,0.301377
2656.74,171573,245582,0.30136
2695.26,171584,245582,0.301314
2845.01,171585,245582,0.301314
2868.46,171591,245582,0.301288
2900.36,171599,245582,0.301255
2943.25,171599,245582,0.301255
2967.63,171601,245582,0.301248
2997.96,171604,245582,0.301236
3060.22,171604,245582,0.301236
3086.49,171606,245582,0.301226
3119.5,171609,245582,0.301213
3158.37,171609,245582,0.301213
3191.78,171609,245582,0.301213
3220.69,171614,245582,0.301195
3253.41,171625,245582,0.30115
3293.81,171627,245582,0.30114
3312.69,171628,245582,0.301138
3340,171635,245582,0.301109
3371.79,171635,245582,0.301108
3430.55,171636,245582,0.301104
3455.91,171640,245582,0.301087
3623.09,171642,245582,0.301081
