\relax 
\providecommand\hyper@newdestlabel[2]{}
\providecommand{\transparent@use}[1]{}
\@writefile{toc}{\contentsline {chapter}{\numberline {7}Conclusion}{23}{chapter.7}}
\@writefile{lof}{\addvspace {10\p@ }}
\@writefile{lot}{\addvspace {10\p@ }}
\@writefile{loa}{\addvspace {10\p@ }}
\newlabel{ch:conclusion}{{7}{23}{Conclusion}{chapter.7}{}}
\@setckpt{conclusion}{
\setcounter{page}{24}
\setcounter{equation}{0}
\setcounter{enumi}{2}
\setcounter{enumii}{2}
\setcounter{enumiii}{0}
\setcounter{enumiv}{0}
\setcounter{footnote}{0}
\setcounter{mpfootnote}{0}
\setcounter{part}{0}
\setcounter{chapter}{7}
\setcounter{section}{0}
\setcounter{subsection}{0}
\setcounter{subsubsection}{0}
\setcounter{paragraph}{0}
\setcounter{subparagraph}{0}
\setcounter{figure}{0}
\setcounter{table}{0}
\setcounter{parentequation}{0}
\setcounter{r@tfl@t}{0}
\setcounter{subfigure}{0}
\setcounter{lofdepth}{1}
\setcounter{subtable}{0}
\setcounter{lotdepth}{1}
\setcounter{AlgoLine}{10}
\setcounter{algocfline}{2}
\setcounter{algocfproc}{2}
\setcounter{algocf}{0}
\setcounter{Item}{4}
\setcounter{Hfootnote}{4}
\setcounter{bookmark@seq@number}{19}
\setcounter{btxromaniannumeral}{0}
\setcounter{changebargrey}{65}
\setcounter{definition}{0}
\setcounter{section@level}{2}
}
