\relax 
\providecommand\hyper@newdestlabel[2]{}
\providecommand{\transparent@use}[1]{}
\@writefile{toc}{\contentsline {chapter}{\numberline {1}Introduction}{1}{chapter.1}}
\@writefile{lof}{\addvspace {10\p@ }}
\@writefile{lot}{\addvspace {10\p@ }}
\@writefile{loa}{\addvspace {10\p@ }}
\newlabel{ch:introduction}{{1}{1}{Introduction}{chapter.1}{}}
\@writefile{toc}{\contentsline {section}{\numberline {1.1}Components in Wind Farms}{1}{section.1.1}}
\cb@pdfxy{1}{16}{5594039}{16367675}{-17.91173pt}
\cb@pdfxy{2}{16}{5594039}{16367675}{471.5198pt}
\cb@barpoint{1}{17}{2.0pt}
\cb@pdfxy{3}{16}{5594039}{15604240}{-17.91173pt}
\cb@pdfxy{4}{16}{5594039}{15604240}{471.5198pt}
\cb@barpoint{4}{17}{2.0pt}
\cb@pdfxy{5}{18}{23770796}{46131376}{-17.91173pt}
\cb@pdfxy{6}{18}{23770796}{46131376}{471.5198pt}
\cb@barpoint{5}{19}{2.0pt}
\cb@pdfxy{7}{18}{5594039}{44436782}{-17.91173pt}
\cb@pdfxy{8}{18}{5594039}{44436782}{471.5198pt}
\cb@barpoint{8}{19}{2.0pt}
\@setckpt{introduction}{
\setcounter{page}{3}
\setcounter{equation}{0}
\setcounter{enumi}{0}
\setcounter{enumii}{0}
\setcounter{enumiii}{0}
\setcounter{enumiv}{0}
\setcounter{footnote}{0}
\setcounter{mpfootnote}{0}
\setcounter{part}{0}
\setcounter{chapter}{1}
\setcounter{section}{1}
\setcounter{subsection}{0}
\setcounter{subsubsection}{0}
\setcounter{paragraph}{0}
\setcounter{subparagraph}{0}
\setcounter{figure}{0}
\setcounter{table}{0}
\setcounter{parentequation}{0}
\setcounter{r@tfl@t}{0}
\setcounter{subfigure}{0}
\setcounter{lofdepth}{1}
\setcounter{subtable}{0}
\setcounter{lotdepth}{1}
\setcounter{AlgoLine}{0}
\setcounter{algocfline}{0}
\setcounter{algocfproc}{0}
\setcounter{algocf}{0}
\setcounter{Item}{0}
\setcounter{Hfootnote}{0}
\setcounter{bookmark@seq@number}{3}
\setcounter{btxromaniannumeral}{0}
\setcounter{changebargrey}{65}
\setcounter{definition}{0}
\setcounter{section@level}{1}
}
