\relax 
\providecommand\hyper@newdestlabel[2]{}
\providecommand{\transparent@use}[1]{}
\@writefile{toc}{\contentsline {chapter}{\numberline {2}Related Works}{3}{chapter.2}}
\@writefile{lof}{\addvspace {10\p@ }}
\@writefile{lot}{\addvspace {10\p@ }}
\@writefile{loa}{\addvspace {10\p@ }}
\cb@pdfxy{9}{20}{5594039}{35336714}{-17.91173pt}
\cb@pdfxy{10}{20}{5594039}{35336714}{471.5198pt}
\cb@barpoint{9}{21}{2.0pt}
\cb@pdfxy{11}{20}{5594039}{34712814}{-17.91173pt}
\cb@pdfxy{12}{20}{5594039}{34712814}{471.5198pt}
\cb@barpoint{12}{21}{2.0pt}
\@writefile{toc}{\contentsline {chapter}{\numberline {3}Preliminaries}{5}{chapter.3}}
\@writefile{lof}{\addvspace {10\p@ }}
\@writefile{lot}{\addvspace {10\p@ }}
\@writefile{loa}{\addvspace {10\p@ }}
\newlabel{ch:preliminaries}{{3}{5}{Preliminaries}{chapter.3}{}}
\@writefile{toc}{\contentsline {paragraph}{\nonumberline Graphs}{5}{section*.2}}
\cb@pdfxy{13}{24}{5594039}{27707536}{-17.91173pt}
\cb@pdfxy{14}{24}{5594039}{27707536}{471.5198pt}
\cb@barpoint{13}{25}{2.0pt}
\newlabel{sec:graphs}{{3}{5}{Graphs}{section*.2}{}}
\cb@pdfxy{15}{24}{5594039}{26944101}{-17.91173pt}
\cb@pdfxy{16}{24}{5594039}{26944101}{471.5198pt}
\cb@barpoint{16}{25}{2.0pt}
\cb@pdfxy{17}{24}{18154385}{20113869}{-17.91173pt}
\cb@pdfxy{18}{24}{18154385}{20113869}{471.5198pt}
\cb@barpoint{17}{25}{2.0pt}
\cb@pdfxy{19}{24}{5594039}{19310565}{-17.91173pt}
\cb@pdfxy{20}{24}{5594039}{19310565}{471.5198pt}
\cb@barpoint{20}{25}{2.0pt}
\cb@pdfxy{21}{24}{11843355}{13411492}{-17.91173pt}
\cb@pdfxy{22}{24}{11843355}{13411492}{471.5198pt}
\cb@barpoint{21}{25}{2.0pt}
\cb@pdfxy{23}{24}{5594039}{12648057}{-17.91173pt}
\cb@pdfxy{24}{24}{5594039}{12648057}{471.5198pt}
\cb@barpoint{24}{25}{2.0pt}
\@writefile{toc}{\contentsline {section}{\numberline {3.1}Flow Networks}{5}{section.3.1}}
\newlabel{sec:flownetworks}{{3.1}{5}{Flow Networks}{section.3.1}{}}
\cb@pdfxy{25}{24}{13605964}{7858855}{-17.91173pt}
\cb@pdfxy{26}{24}{13605964}{7858855}{471.5198pt}
\cb@barpoint{25}{25}{2.0pt}
\cb@pdfxy{29}{24}{19162711}{7858855}{-17.91173pt}
\cb@pdfxy{30}{24}{19162711}{7858855}{471.5198pt}
\cb@barpoint{29}{25}{2.0pt}
\cb@pdfxy{27}{24}{5594039}{7055551}{-17.91173pt}
\cb@pdfxy{28}{24}{5594039}{7055551}{471.5198pt}
\cb@barpoint{28}{25}{2.0pt}
\cb@pdfxy{31}{24}{5594039}{6204130}{-17.91173pt}
\cb@pdfxy{32}{24}{5594039}{6204130}{471.5198pt}
\cb@barpoint{32}{25}{2.0pt}
\newlabel{eq:flow1}{{\relax 3.1}{6}{Flow Networks}{equation.3.1.1}{}}
\newlabel{eq:flow2}{{\relax 3.2}{6}{Flow Networks}{equation.3.1.2}{}}
\@writefile{toc}{\contentsline {paragraph}{\nonumberline Optimization Problem / Minimum-Cost Flow}{6}{section*.3}}
\cb@pdfxy{33}{26}{5594039}{15064507}{-17.91173pt}
\cb@pdfxy{34}{26}{5594039}{15064507}{471.5198pt}
\cb@barpoint{33}{27}{2.0pt}
\cb@pdfxy{35}{26}{5594039}{14301072}{-17.91173pt}
\cb@pdfxy{36}{26}{5594039}{14301072}{471.5198pt}
\cb@barpoint{36}{27}{2.0pt}
\cb@pdfxy{37}{28}{6997767}{41525224}{-17.91173pt}
\cb@pdfxy{38}{28}{6997767}{41525224}{471.5198pt}
\cb@barpoint{37}{29}{2.0pt}
\cb@pdfxy{39}{28}{5594039}{40721920}{-17.91173pt}
\cb@pdfxy{40}{28}{5594039}{40721920}{471.5198pt}
\cb@barpoint{40}{29}{2.0pt}
\cb@pdfxy{41}{28}{30255204}{37496717}{-17.91173pt}
\cb@pdfxy{42}{28}{30255204}{37496717}{471.5198pt}
\cb@barpoint{41}{29}{2.0pt}
\cb@pdfxy{43}{28}{5594039}{36733282}{-17.91173pt}
\cb@pdfxy{44}{28}{5594039}{36733282}{471.5198pt}
\cb@barpoint{44}{29}{2.0pt}
\@writefile{toc}{\contentsline {section}{\numberline {3.2}Simulated Annealing}{7}{section.3.2}}
\newlabel{sec:preliminaries:simulatedannealing}{{3.2}{7}{Simulated Annealing}{section.3.2}{}}
\@writefile{loa}{\contentsline {algocf}{\numberline {3.1}{\ignorespaces Simulated Annealing}}{8}{algocf.3.1}}
\newlabel{algo:sa}{{3.1}{8}{Simulated Annealing}{algocf.3.1}{}}
\cb@pdfxy{45}{30}{5594039}{22368168}{-17.91173pt}
\cb@pdfxy{46}{30}{5594039}{22368168}{471.5198pt}
\cb@barpoint{45}{31}{2.0pt}
\cb@pdfxy{47}{30}{5594039}{21604733}{-17.91173pt}
\cb@pdfxy{48}{30}{5594039}{21604733}{471.5198pt}
\cb@barpoint{48}{31}{2.0pt}
\@writefile{toc}{\contentsline {paragraph}{\nonumberline The temperature curve and acceptance probability formula}{8}{section*.4}}
\@setckpt{preliminaries}{
\setcounter{page}{10}
\setcounter{equation}{3}
\setcounter{enumi}{0}
\setcounter{enumii}{0}
\setcounter{enumiii}{0}
\setcounter{enumiv}{0}
\setcounter{footnote}{1}
\setcounter{mpfootnote}{0}
\setcounter{part}{0}
\setcounter{chapter}{3}
\setcounter{section}{2}
\setcounter{subsection}{0}
\setcounter{subsubsection}{0}
\setcounter{paragraph}{0}
\setcounter{subparagraph}{0}
\setcounter{figure}{0}
\setcounter{table}{0}
\setcounter{parentequation}{0}
\setcounter{r@tfl@t}{0}
\setcounter{subfigure}{0}
\setcounter{lofdepth}{1}
\setcounter{subtable}{0}
\setcounter{lotdepth}{1}
\setcounter{AlgoLine}{15}
\setcounter{algocfline}{1}
\setcounter{algocfproc}{1}
\setcounter{algocf}{1}
\setcounter{Item}{0}
\setcounter{Hfootnote}{1}
\setcounter{bookmark@seq@number}{7}
\setcounter{btxromaniannumeral}{0}
\setcounter{changebargrey}{65}
\setcounter{definition}{0}
\setcounter{section@level}{4}
}
