\relax 
\providecommand\hyper@newdestlabel[2]{}
\providecommand{\transparent@use}[1]{}
\@writefile{toc}{\contentsline {chapter}{\numberline {4}Optimization Problems in a Wind Farm}{11}{chapter.4}}
\@writefile{lof}{\addvspace {10\p@ }}
\@writefile{lot}{\addvspace {10\p@ }}
\@writefile{loa}{\addvspace {10\p@ }}
\newlabel{ch:problems}{{4}{11}{Optimization Problems in a Wind Farm}{chapter.4}{}}
\@writefile{toc}{\contentsline {section}{\numberline {4.1}The Cable Layout Problem}{11}{section.4.1}}
\newlabel{sec:cablelayoutproblem}{{4.1}{11}{The Cable Layout Problem}{section.4.1}{}}
\@writefile{toc}{\contentsline {paragraph}{\nonumberline Power Ratings}{11}{section*.5}}
\@writefile{lof}{\contentsline {figure}{\numberline {\relax 4.1}{\ignorespaces An exemplary edge for which four cable types are available.}}{12}{figure.4.1}}
\newlabel{fig:cabletypesexample}{{\relax 4.1}{12}{An exemplary edge for which four cable types are available}{figure.4.1}{}}
\@writefile{toc}{\contentsline {paragraph}{\nonumberline Cabling Costs}{12}{section*.6}}
\@writefile{toc}{\contentsline {paragraph}{\nonumberline The Input Data}{12}{section*.7}}
\@writefile{toc}{\contentsline {paragraph}{\nonumberline The Graph}{13}{section*.8}}
\@writefile{toc}{\contentsline {paragraph}{\nonumberline The Flow Network}{13}{section*.9}}
\@writefile{lof}{\contentsline {figure}{\numberline {\relax 4.2}{\ignorespaces The edge cost function corresponding to the cable types from \autoref  {fig:cabletypesexample}.}}{14}{figure.4.2}}
\newlabel{fig:costfunctionexample}{{\relax 4.2}{14}{The edge cost function corresponding to the cable types from \autoref {fig:cabletypesexample}}{figure.4.2}{}}
\@writefile{toc}{\contentsline {paragraph}{\nonumberline Mixed Integer Linear Programming}{14}{section*.10}}
\newlabel{eq:linprog1}{{\relax 4.1}{15}{Mixed Integer Linear Programming}{equation.4.1.1}{}}
\newlabel{eq:linprog2}{{\relax 4.2}{15}{Mixed Integer Linear Programming}{equation.4.1.2}{}}
\newlabel{eq:linprog3}{{\relax 4.3}{15}{Mixed Integer Linear Programming}{equation.4.1.3}{}}
\newlabel{eq:linprog4}{{\relax 4.4}{15}{Mixed Integer Linear Programming}{equation.4.1.4}{}}
\newlabel{eq:linprog5}{{\relax 4.5}{15}{Mixed Integer Linear Programming}{equation.4.1.5}{}}
\newlabel{eq:linprog6}{{\relax 4.6}{15}{Mixed Integer Linear Programming}{equation.4.1.6}{}}
\@writefile{toc}{\contentsline {paragraph}{\nonumberline The Substation Cable Layout Problem}{15}{section*.11}}
\@writefile{toc}{\contentsline {section}{\numberline {4.2}The Substation Assignment Problem}{15}{section.4.2}}
\@writefile{toc}{\contentsline {section}{\numberline {4.3}The Substation Positioning Problem}{16}{section.4.3}}
\cb@pdfxy{49}{46}{5594039}{43192995}{-17.91173pt}
\cb@pdfxy{50}{46}{5594039}{43192995}{471.5198pt}
\cb@barpoint{49}{47}{2.0pt}
\cb@pdfxy{51}{46}{5594039}{39755690}{-17.91173pt}
\cb@pdfxy{52}{46}{5594039}{39755690}{471.5198pt}
\cb@barpoint{52}{47}{2.0pt}
\cb@pdfxy{53}{46}{5594039}{39238143}{-17.91173pt}
\cb@pdfxy{54}{46}{5594039}{39238143}{471.5198pt}
\cb@barpoint{53}{47}{2.0pt}
\cb@pdfxy{55}{46}{5594039}{35049083}{-17.91173pt}
\cb@pdfxy{56}{46}{5594039}{35049083}{471.5198pt}
\cb@barpoint{56}{47}{2.0pt}
\cb@pdfxy{57}{46}{5594039}{34392002}{-17.91173pt}
\cb@pdfxy{58}{46}{5594039}{34392002}{471.5198pt}
\cb@barpoint{57}{47}{2.0pt}
\cb@pdfxy{59}{46}{5594039}{30954697}{-17.91173pt}
\cb@pdfxy{60}{46}{5594039}{30954697}{471.5198pt}
\cb@barpoint{60}{47}{2.0pt}
\cb@pdfxy{61}{46}{5594039}{30437150}{-17.91173pt}
\cb@pdfxy{62}{46}{5594039}{30437150}{471.5198pt}
\cb@barpoint{61}{47}{2.0pt}
\cb@pdfxy{63}{46}{5594039}{23330433}{-17.91173pt}
\cb@pdfxy{64}{46}{5594039}{23330433}{471.5198pt}
\cb@barpoint{64}{47}{2.0pt}
\cb@pdfxy{65}{46}{5594039}{21244539}{-17.91173pt}
\cb@pdfxy{66}{46}{5594039}{21244539}{471.5198pt}
\cb@barpoint{65}{47}{2.0pt}
\cb@pdfxy{69}{46}{21828459}{20353249}{-17.91173pt}
\cb@pdfxy{70}{46}{21828459}{20353249}{471.5198pt}
\cb@barpoint{69}{47}{2.0pt}
\cb@pdfxy{71}{46}{5594039}{18698524}{-17.91173pt}
\cb@pdfxy{72}{46}{5594039}{18698524}{471.5198pt}
\cb@barpoint{72}{47}{2.0pt}
\cb@pdfxy{67}{46}{5594039}{18698524}{-17.91173pt}
\cb@pdfxy{68}{46}{5594039}{18698524}{471.5198pt}
\cb@barpoint{68}{47}{2.0pt}
\cb@pdfxy{73}{46}{5594039}{18180978}{-17.91173pt}
\cb@pdfxy{74}{46}{5594039}{18180978}{471.5198pt}
\cb@barpoint{73}{47}{2.0pt}
\cb@pdfxy{75}{46}{5594039}{14883208}{-17.91173pt}
\cb@pdfxy{76}{46}{5594039}{14883208}{471.5198pt}
\cb@barpoint{76}{47}{2.0pt}
\cb@pdfxy{77}{46}{5594039}{14226126}{-17.91173pt}
\cb@pdfxy{78}{46}{5594039}{14226126}{471.5198pt}
\cb@barpoint{77}{47}{2.0pt}
\cb@pdfxy{79}{46}{5594039}{11680111}{-17.91173pt}
\cb@pdfxy{80}{46}{5594039}{11680111}{471.5198pt}
\cb@barpoint{80}{47}{2.0pt}
\cb@pdfxy{81}{46}{5594039}{11162565}{-17.91173pt}
\cb@pdfxy{82}{46}{5594039}{11162565}{471.5198pt}
\cb@barpoint{81}{47}{2.0pt}
\cb@pdfxy{83}{46}{5594039}{6833970}{-17.91173pt}
\cb@pdfxy{84}{46}{5594039}{6833970}{471.5198pt}
\cb@barpoint{84}{47}{2.0pt}
\cb@pdfxy{85}{46}{5594039}{6316423}{-17.91173pt}
\cb@pdfxy{86}{46}{5594039}{6316423}{471.5198pt}
\cb@barpoint{85}{47}{2.0pt}
\cb@pdfxy{87}{46}{5594039}{4661698}{-17.91173pt}
\cb@pdfxy{88}{46}{5594039}{4661698}{471.5198pt}
\cb@barpoint{88}{47}{2.0pt}
\@setckpt{problems}{
\setcounter{page}{17}
\setcounter{equation}{6}
\setcounter{enumi}{0}
\setcounter{enumii}{0}
\setcounter{enumiii}{0}
\setcounter{enumiv}{0}
\setcounter{footnote}{1}
\setcounter{mpfootnote}{0}
\setcounter{part}{0}
\setcounter{chapter}{4}
\setcounter{section}{3}
\setcounter{subsection}{0}
\setcounter{subsubsection}{0}
\setcounter{paragraph}{0}
\setcounter{subparagraph}{0}
\setcounter{figure}{2}
\setcounter{table}{0}
\setcounter{parentequation}{0}
\setcounter{r@tfl@t}{0}
\setcounter{subfigure}{0}
\setcounter{lofdepth}{1}
\setcounter{subtable}{0}
\setcounter{lotdepth}{1}
\setcounter{AlgoLine}{15}
\setcounter{algocfline}{1}
\setcounter{algocfproc}{1}
\setcounter{algocf}{0}
\setcounter{Item}{0}
\setcounter{Hfootnote}{2}
\setcounter{bookmark@seq@number}{11}
\setcounter{btxromaniannumeral}{0}
\setcounter{changebargrey}{65}
\setcounter{definition}{0}
\setcounter{section@level}{1}
}
