\relax 
\providecommand\hyper@newdestlabel[2]{}
\providecommand{\transparent@use}[1]{}
\@writefile{toc}{\contentsline {chapter}{\numberline {6}Approximations for the Substation Positioning Problem}{21}{chapter.6}}
\@writefile{lof}{\addvspace {10\p@ }}
\@writefile{lot}{\addvspace {10\p@ }}
\@writefile{loa}{\addvspace {10\p@ }}
\newlabel{ch:solutions-substationpositioning}{{6}{21}{Approximations for the Substation Positioning Problem}{chapter.6}{}}
\@setckpt{solutions-substationpositioning}{
\setcounter{page}{22}
\setcounter{equation}{0}
\setcounter{enumi}{2}
\setcounter{enumii}{2}
\setcounter{enumiii}{0}
\setcounter{enumiv}{0}
\setcounter{footnote}{0}
\setcounter{mpfootnote}{0}
\setcounter{part}{0}
\setcounter{chapter}{6}
\setcounter{section}{0}
\setcounter{subsection}{0}
\setcounter{subsubsection}{0}
\setcounter{paragraph}{0}
\setcounter{subparagraph}{0}
\setcounter{figure}{0}
\setcounter{table}{0}
\setcounter{parentequation}{0}
\setcounter{r@tfl@t}{0}
\setcounter{subfigure}{0}
\setcounter{lofdepth}{1}
\setcounter{subtable}{0}
\setcounter{lotdepth}{1}
\setcounter{AlgoLine}{10}
\setcounter{algocfline}{2}
\setcounter{algocfproc}{2}
\setcounter{algocf}{0}
\setcounter{Item}{4}
\setcounter{Hfootnote}{4}
\setcounter{bookmark@seq@number}{18}
\setcounter{btxromaniannumeral}{0}
\setcounter{changebargrey}{65}
\setcounter{definition}{0}
\setcounter{section@level}{2}
}
