\relax 
\providecommand\hyper@newdestlabel[2]{}
\providecommand{\transparent@use}[1]{}
\@writefile{toc}{\contentsline {chapter}{\numberline {5}Heuristics for the Wind Farm Cable Layout Problem}{17}{chapter.5}}
\@writefile{lof}{\addvspace {10\p@ }}
\@writefile{lot}{\addvspace {10\p@ }}
\@writefile{loa}{\addvspace {10\p@ }}
\newlabel{ch:solutions-cablelayout}{{5}{17}{Heuristics for the Wind Farm Cable Layout Problem}{chapter.5}{}}
\@writefile{toc}{\contentsline {section}{\numberline {5.1}An Algorithm based on Simulated Annealing}{17}{section.5.1}}
\@writefile{toc}{\contentsline {paragraph}{\nonumberline The Representation}{17}{section*.12}}
\cb@pdfxy{89}{50}{5594039}{51277720}{-17.91173pt}
\cb@pdfxy{90}{50}{5594039}{51277720}{471.5198pt}
\cb@barpoint{89}{51}{2.0pt}
\cb@pdfxy{91}{50}{5594039}{49622995}{-17.91173pt}
\cb@pdfxy{92}{50}{5594039}{49622995}{471.5198pt}
\cb@barpoint{92}{51}{2.0pt}
\@writefile{lof}{\contentsline {figure}{\numberline {\relax 5.1}{\ignorespaces The intermediate representations used to evaluate our indirect representation}}{18}{figure.5.1}}
\newlabel{fig:intermediate-representations}{{\relax 5.1}{18}{The intermediate representations used to evaluate our indirect representation}{figure.5.1}{}}
\@writefile{toc}{\contentsline {paragraph}{\nonumberline The Evaluation Function}{18}{section*.13}}
\@writefile{loa}{\contentsline {algocf}{\numberline {5.1}{\ignorespaces Constructing a turbine path from the representation}}{18}{algocf.5.1}}
\newlabel{algo:evaluation}{{5.1}{18}{The Evaluation Function}{algocf.5.1}{}}
\newlabel{algo:evaluation:loop}{{4}{18}{The Evaluation Function}{AlgoLine.2.4}{}}
\newlabel{algo:evaluation:neigh}{{5}{18}{The Evaluation Function}{AlgoLine.2.5}{}}
\newlabel{algo:evaluation:empty}{{6}{18}{The Evaluation Function}{AlgoLine.2.6}{}}
\newlabel{algo:evaluation:max}{{8}{18}{The Evaluation Function}{AlgoLine.2.8}{}}
\@writefile{toc}{\contentsline {paragraph}{\nonumberline The Initialization Function}{18}{section*.14}}
\@writefile{toc}{\contentsline {paragraph}{\nonumberline The Mutation Function}{19}{section*.15}}
\@writefile{toc}{\contentsline {section}{\numberline {5.2}Improving the Algorithm}{19}{section.5.2}}
\@writefile{toc}{\contentsline {paragraph}{\nonumberline Maintaining Multiple Instances}{19}{section*.16}}
\cb@pdfxy{93}{54}{5594039}{37646419}{-17.91173pt}
\cb@pdfxy{94}{54}{5594039}{37646419}{471.5198pt}
\cb@barpoint{93}{55}{2.0pt}
\cb@pdfxy{95}{54}{5594039}{37022519}{-17.91173pt}
\cb@pdfxy{96}{54}{5594039}{37022519}{471.5198pt}
\cb@barpoint{96}{55}{2.0pt}
\@writefile{toc}{\contentsline {paragraph}{\nonumberline Crossing two Solutions}{20}{section*.17}}
\cb@pdfxy{97}{54}{17122701}{13475270}{-17.91173pt}
\cb@pdfxy{98}{54}{17122701}{13475270}{471.5198pt}
\cb@barpoint{97}{55}{2.0pt}
\cb@pdfxy{99}{54}{5594039}{12671966}{-17.91173pt}
\cb@pdfxy{100}{54}{5594039}{12671966}{471.5198pt}
\cb@barpoint{100}{55}{2.0pt}
\cb@pdfxy{101}{54}{31209414}{12120633}{-17.91173pt}
\cb@pdfxy{102}{54}{31209414}{12120633}{471.5198pt}
\cb@barpoint{101}{55}{2.0pt}
\cb@pdfxy{103}{54}{5594039}{10465908}{-17.91173pt}
\cb@pdfxy{104}{54}{5594039}{10465908}{471.5198pt}
\cb@barpoint{104}{55}{2.0pt}
\@writefile{toc}{\contentsline {section}{\numberline {5.3}Improvement using a Two-Level Approach}{20}{section.5.3}}
\@writefile{toc}{\contentsline {subsection}{\numberline {5.3.1}Splitting the Problem in two Levels}{20}{subsection.5.3.1}}
\@writefile{toc}{\contentsline {subsection}{\numberline {5.3.2}Solving the Substation Assignment Problem}{20}{subsection.5.3.2}}
\@setckpt{solutions-cablelayout}{
\setcounter{page}{21}
\setcounter{equation}{0}
\setcounter{enumi}{2}
\setcounter{enumii}{2}
\setcounter{enumiii}{0}
\setcounter{enumiv}{0}
\setcounter{footnote}{2}
\setcounter{mpfootnote}{0}
\setcounter{part}{0}
\setcounter{chapter}{5}
\setcounter{section}{3}
\setcounter{subsection}{2}
\setcounter{subsubsection}{0}
\setcounter{paragraph}{0}
\setcounter{subparagraph}{0}
\setcounter{figure}{1}
\setcounter{table}{0}
\setcounter{parentequation}{0}
\setcounter{r@tfl@t}{0}
\setcounter{subfigure}{0}
\setcounter{lofdepth}{1}
\setcounter{subtable}{0}
\setcounter{lotdepth}{1}
\setcounter{AlgoLine}{10}
\setcounter{algocfline}{2}
\setcounter{algocfproc}{2}
\setcounter{algocf}{1}
\setcounter{Item}{4}
\setcounter{Hfootnote}{4}
\setcounter{bookmark@seq@number}{17}
\setcounter{btxromaniannumeral}{0}
\setcounter{changebargrey}{65}
\setcounter{definition}{0}
\setcounter{section@level}{2}
}
