%!PS-Adobe-3.0 EPSF-3.0
%%Creator: cairo 1.13.1 (http://cairographics.org)
%%CreationDate: Fri May 20 09:20:59 2016
%%Pages: 1
%%DocumentData: Clean7Bit
%%LanguageLevel: 2
%%BoundingBox: 0 0 432 288
%%EndComments
%%BeginProlog
save
50 dict begin
/q { gsave } bind def
/Q { grestore } bind def
/cm { 6 array astore concat } bind def
/w { setlinewidth } bind def
/J { setlinecap } bind def
/j { setlinejoin } bind def
/M { setmiterlimit } bind def
/d { setdash } bind def
/m { moveto } bind def
/l { lineto } bind def
/c { curveto } bind def
/h { closepath } bind def
/re { exch dup neg 3 1 roll 5 3 roll moveto 0 rlineto
      0 exch rlineto 0 rlineto closepath } bind def
/S { stroke } bind def
/f { fill } bind def
/f* { eofill } bind def
/n { newpath } bind def
/W { clip } bind def
/W* { eoclip } bind def
/BT { } bind def
/ET { } bind def
/pdfmark where { pop globaldict /?pdfmark /exec load put }
    { globaldict begin /?pdfmark /pop load def /pdfmark
    /cleartomark load def end } ifelse
/BDC { mark 3 1 roll /BDC pdfmark } bind def
/EMC { mark /EMC pdfmark } bind def
/cairo_store_point { /cairo_point_y exch def /cairo_point_x exch def } def
/Tj { show currentpoint cairo_store_point } bind def
/TJ {
  {
    dup
    type /stringtype eq
    { show } { -0.001 mul 0 cairo_font_matrix dtransform rmoveto } ifelse
  } forall
  currentpoint cairo_store_point
} bind def
/cairo_selectfont { cairo_font_matrix aload pop pop pop 0 0 6 array astore
    cairo_font exch selectfont cairo_point_x cairo_point_y moveto } bind def
/Tf { pop /cairo_font exch def /cairo_font_matrix where
      { pop cairo_selectfont } if } bind def
/Td { matrix translate cairo_font_matrix matrix concatmatrix dup
      /cairo_font_matrix exch def dup 4 get exch 5 get cairo_store_point
      /cairo_font where { pop cairo_selectfont } if } bind def
/Tm { 2 copy 8 2 roll 6 array astore /cairo_font_matrix exch def
      cairo_store_point /cairo_font where { pop cairo_selectfont } if } bind def
/g { setgray } bind def
/rg { setrgbcolor } bind def
/d1 { setcachedevice } bind def
%%EndProlog
%%BeginSetup
%%EndSetup
%%Page: 1 1
%%BeginPageSetup
%%PageBoundingBox: 0 0 432 288
%%EndPageSetup
q 32 29 386 249 rectclip q
0 g
0.15 w
2 J
0 j
[ 0.2 2] 0 d
3.8 M q 1 0 0 -1 0 288 cm
32.75 258.75 m 417.148 258.75 l S Q
0.25 w
[] 0.0 d
q 1 0 0 -1 0 288 cm
32.75 258.75 m 36.449 258.75 l S Q
q 1 0 0 -1 0 288 cm
417.148 258.75 m 413.449 258.75 l S Q
0.15 w
[ 0.2 2] 0 d
q 1 0 0 -1 0 288 cm
32.75 223.301 m 417.148 223.301 l S Q
0.25 w
[] 0.0 d
q 1 0 0 -1 0 288 cm
32.75 223.301 m 36.449 223.301 l S Q
q 1 0 0 -1 0 288 cm
417.148 223.301 m 413.449 223.301 l S Q
0.15 w
[ 0.2 2] 0 d
q 1 0 0 -1 0 288 cm
32.75 187.898 m 417.148 187.898 l S Q
0.25 w
[] 0.0 d
q 1 0 0 -1 0 288 cm
32.75 187.898 m 36.449 187.898 l S Q
q 1 0 0 -1 0 288 cm
417.148 187.898 m 413.449 187.898 l S Q
0.15 w
[ 0.2 2] 0 d
q 1 0 0 -1 0 288 cm
32.75 152.449 m 417.148 152.449 l S Q
0.25 w
[] 0.0 d
q 1 0 0 -1 0 288 cm
32.75 152.449 m 36.449 152.449 l S Q
q 1 0 0 -1 0 288 cm
417.148 152.449 m 413.449 152.449 l S Q
0.15 w
[ 0.2 2] 0 d
q 1 0 0 -1 0 288 cm
32.75 117.051 m 417.148 117.051 l S Q
0.25 w
[] 0.0 d
q 1 0 0 -1 0 288 cm
32.75 117.051 m 36.449 117.051 l S Q
q 1 0 0 -1 0 288 cm
417.148 117.051 m 413.449 117.051 l S Q
0.15 w
[ 0.2 2] 0 d
q 1 0 0 -1 0 288 cm
32.75 81.602 m 417.148 81.602 l S Q
0.25 w
[] 0.0 d
q 1 0 0 -1 0 288 cm
32.75 81.602 m 36.449 81.602 l S Q
q 1 0 0 -1 0 288 cm
417.148 81.602 m 413.449 81.602 l S Q
0.15 w
[ 0.2 2] 0 d
q 1 0 0 -1 0 288 cm
32.75 46.199 m 417.148 46.199 l S Q
0.25 w
[] 0.0 d
q 1 0 0 -1 0 288 cm
32.75 46.199 m 36.449 46.199 l S Q
q 1 0 0 -1 0 288 cm
417.148 46.199 m 413.449 46.199 l S Q
0.15 w
[ 0.2 2] 0 d
q 1 0 0 -1 0 288 cm
32.75 10.75 m 417.148 10.75 l S Q
0.25 w
[] 0.0 d
q 1 0 0 -1 0 288 cm
32.75 10.75 m 36.449 10.75 l S Q
q 1 0 0 -1 0 288 cm
417.148 10.75 m 413.449 10.75 l S Q
0.15 w
[ 0.2 2] 0 d
q 1 0 0 -1 0 288 cm
32.75 258.75 m 32.75 10.75 l S Q
0.25 w
[] 0.0 d
q 1 0 0 -1 0 288 cm
32.75 258.75 m 32.75 255.051 l S Q
q 1 0 0 -1 0 288 cm
32.75 10.75 m 32.75 14.449 l S Q
q 1 0 0 -1 0 288 cm
45.551 258.75 m 45.551 256.898 l S Q
q 1 0 0 -1 0 288 cm
45.551 10.75 m 45.551 12.602 l S Q
q 1 0 0 -1 0 288 cm
58.398 258.75 m 58.398 256.898 l S Q
q 1 0 0 -1 0 288 cm
58.398 10.75 m 58.398 12.602 l S Q
q 1 0 0 -1 0 288 cm
71.199 258.75 m 71.199 256.898 l S Q
q 1 0 0 -1 0 288 cm
71.199 10.75 m 71.199 12.602 l S Q
q 1 0 0 -1 0 288 cm
84 258.75 m 84 256.898 l S Q
q 1 0 0 -1 0 288 cm
84 10.75 m 84 12.602 l S Q
0.15 w
[ 0.2 2] 0 d
q 1 0 0 -1 0 288 cm
96.801 258.75 m 96.801 10.75 l S Q
0.25 w
[] 0.0 d
q 1 0 0 -1 0 288 cm
96.801 258.75 m 96.801 255.051 l S Q
q 1 0 0 -1 0 288 cm
96.801 10.75 m 96.801 14.449 l S Q
q 1 0 0 -1 0 288 cm
109.648 258.75 m 109.648 256.898 l S Q
q 1 0 0 -1 0 288 cm
109.648 10.75 m 109.648 12.602 l S Q
q 1 0 0 -1 0 288 cm
122.449 258.75 m 122.449 256.898 l S Q
q 1 0 0 -1 0 288 cm
122.449 10.75 m 122.449 12.602 l S Q
q 1 0 0 -1 0 288 cm
135.25 258.75 m 135.25 256.898 l S Q
q 1 0 0 -1 0 288 cm
135.25 10.75 m 135.25 12.602 l S Q
q 1 0 0 -1 0 288 cm
148.051 258.75 m 148.051 256.898 l S Q
q 1 0 0 -1 0 288 cm
148.051 10.75 m 148.051 12.602 l S Q
0.15 w
[ 0.2 2] 0 d
q 1 0 0 -1 0 288 cm
160.898 258.75 m 160.898 10.75 l S Q
0.25 w
[] 0.0 d
q 1 0 0 -1 0 288 cm
160.898 258.75 m 160.898 255.051 l S Q
q 1 0 0 -1 0 288 cm
160.898 10.75 m 160.898 14.449 l S Q
q 1 0 0 -1 0 288 cm
173.699 258.75 m 173.699 256.898 l S Q
q 1 0 0 -1 0 288 cm
173.699 10.75 m 173.699 12.602 l S Q
q 1 0 0 -1 0 288 cm
186.5 258.75 m 186.5 256.898 l S Q
q 1 0 0 -1 0 288 cm
186.5 10.75 m 186.5 12.602 l S Q
q 1 0 0 -1 0 288 cm
199.301 258.75 m 199.301 256.898 l S Q
q 1 0 0 -1 0 288 cm
199.301 10.75 m 199.301 12.602 l S Q
q 1 0 0 -1 0 288 cm
212.148 258.75 m 212.148 256.898 l S Q
q 1 0 0 -1 0 288 cm
212.148 10.75 m 212.148 12.602 l S Q
0.15 w
[ 0.2 2] 0 d
q 1 0 0 -1 0 288 cm
224.949 258.75 m 224.949 33.051 l S Q
[ 0.2 2] 0 d
q 1 0 0 -1 0 288 cm
224.949 14.449 m 224.949 10.75 l S Q
0.25 w
[] 0.0 d
q 1 0 0 -1 0 288 cm
224.949 258.75 m 224.949 255.051 l S Q
q 1 0 0 -1 0 288 cm
224.949 10.75 m 224.949 14.449 l S Q
q 1 0 0 -1 0 288 cm
237.75 258.75 m 237.75 256.898 l S Q
q 1 0 0 -1 0 288 cm
237.75 10.75 m 237.75 12.602 l S Q
q 1 0 0 -1 0 288 cm
250.602 258.75 m 250.602 256.898 l S Q
q 1 0 0 -1 0 288 cm
250.602 10.75 m 250.602 12.602 l S Q
q 1 0 0 -1 0 288 cm
263.398 258.75 m 263.398 256.898 l S Q
q 1 0 0 -1 0 288 cm
263.398 10.75 m 263.398 12.602 l S Q
q 1 0 0 -1 0 288 cm
276.199 258.75 m 276.199 256.898 l S Q
q 1 0 0 -1 0 288 cm
276.199 10.75 m 276.199 12.602 l S Q
0.15 w
[ 0.2 2] 0 d
q 1 0 0 -1 0 288 cm
289 258.75 m 289 33.051 l S Q
[ 0.2 2] 0 d
q 1 0 0 -1 0 288 cm
289 14.449 m 289 10.75 l S Q
0.25 w
[] 0.0 d
q 1 0 0 -1 0 288 cm
289 258.75 m 289 255.051 l S Q
q 1 0 0 -1 0 288 cm
289 10.75 m 289 14.449 l S Q
q 1 0 0 -1 0 288 cm
301.852 258.75 m 301.852 256.898 l S Q
q 1 0 0 -1 0 288 cm
301.852 10.75 m 301.852 12.602 l S Q
q 1 0 0 -1 0 288 cm
314.648 258.75 m 314.648 256.898 l S Q
q 1 0 0 -1 0 288 cm
314.648 10.75 m 314.648 12.602 l S Q
q 1 0 0 -1 0 288 cm
327.449 258.75 m 327.449 256.898 l S Q
q 1 0 0 -1 0 288 cm
327.449 10.75 m 327.449 12.602 l S Q
q 1 0 0 -1 0 288 cm
340.25 258.75 m 340.25 256.898 l S Q
q 1 0 0 -1 0 288 cm
340.25 10.75 m 340.25 12.602 l S Q
0.15 w
[ 0.2 2] 0 d
q 1 0 0 -1 0 288 cm
353.102 258.75 m 353.102 33.051 l S Q
[ 0.2 2] 0 d
q 1 0 0 -1 0 288 cm
353.102 14.449 m 353.102 10.75 l S Q
0.25 w
[] 0.0 d
q 1 0 0 -1 0 288 cm
353.102 258.75 m 353.102 255.051 l S Q
q 1 0 0 -1 0 288 cm
353.102 10.75 m 353.102 14.449 l S Q
q 1 0 0 -1 0 288 cm
365.898 258.75 m 365.898 256.898 l S Q
q 1 0 0 -1 0 288 cm
365.898 10.75 m 365.898 12.602 l S Q
q 1 0 0 -1 0 288 cm
378.699 258.75 m 378.699 256.898 l S Q
q 1 0 0 -1 0 288 cm
378.699 10.75 m 378.699 12.602 l S Q
q 1 0 0 -1 0 288 cm
391.5 258.75 m 391.5 256.898 l S Q
q 1 0 0 -1 0 288 cm
391.5 10.75 m 391.5 12.602 l S Q
q 1 0 0 -1 0 288 cm
404.352 258.75 m 404.352 256.898 l S Q
q 1 0 0 -1 0 288 cm
404.352 10.75 m 404.352 12.602 l S Q
0.15 w
[ 0.2 2] 0 d
q 1 0 0 -1 0 288 cm
417.148 258.75 m 417.148 10.75 l S Q
0.25 w
[] 0.0 d
q 1 0 0 -1 0 288 cm
417.148 258.75 m 417.148 255.051 l S Q
q 1 0 0 -1 0 288 cm
417.148 10.75 m 417.148 14.449 l S Q
q 1 0 0 -1 0 288 cm
32.75 10.75 384.398 248 re S Q
q 1 0 0 -1 0 288 cm
32.75 187.898 m 417.148 187.898 l S Q
0.74902 0.145098 0.172549 rg
q 1 0 0 -1 0 288 cm
382.852 28.398 m 406.949 28.398 l S Q
q 1 0 0 -1 0 288 cm
34.051 10.75 m 34.051 13.852 l S Q
q 1 0 0 -1 0 288 cm
34.051 13.852 m 34.301 13.852 l 34.301 20.852 l S Q
q 1 0 0 -1 0 288 cm
34.301 20.852 m 34.551 20.852 l 34.551 28.25 l S Q
q 1 0 0 -1 0 288 cm
34.551 28.25 m 34.75 28.25 l 34.75 28.301 l S Q
q 1 0 0 -1 0 288 cm
34.75 28.301 m 35.449 28.301 l 35.449 48.051 l S Q
q 1 0 0 -1 0 288 cm
35.449 48.051 m 35.648 48.051 l 35.648 51.449 l S Q
q 1 0 0 -1 0 288 cm
35.648 51.449 m 36 51.449 l 36 58.148 l S Q
q 1 0 0 -1 0 288 cm
36 58.148 m 36.102 58.148 l 36.102 64.602 l S Q
q 1 0 0 -1 0 288 cm
36.102 64.602 m 36.199 64.602 l 36.199 65.551 l S Q
q 1 0 0 -1 0 288 cm
36.199 65.551 m 36.801 65.551 l 36.801 71.199 l S Q
q 1 0 0 -1 0 288 cm
36.801 71.199 m 37.852 71.199 l 37.852 87.301 l S Q
q 1 0 0 -1 0 288 cm
37.852 87.301 m 37.949 87.301 l S Q
q 1 0 0 -1 0 288 cm
37.949 87.301 m 38.352 87.301 l S Q
q 1 0 0 -1 0 288 cm
38.352 87.301 m 38.398 87.301 l S Q
q 1 0 0 -1 0 288 cm
38.398 87.301 m 38.602 87.301 l S Q
q 1 0 0 -1 0 288 cm
38.602 87.301 m 38.648 87.301 l S Q
q 1 0 0 -1 0 288 cm
38.648 87.301 m 38.852 87.301 l S Q
q 1 0 0 -1 0 288 cm
38.852 87.301 m 38.898 87.301 l S Q
q 1 0 0 -1 0 288 cm
38.898 87.301 m 39.102 87.301 l S Q
q 1 0 0 -1 0 288 cm
39.102 87.301 m 39.301 87.301 l 39.301 88.398 l S Q
q 1 0 0 -1 0 288 cm
39.301 88.398 m 39.5 88.398 l S Q
q 1 0 0 -1 0 288 cm
39.5 88.398 m 39.551 88.398 l S Q
q 1 0 0 -1 0 288 cm
39.551 88.398 m 39.75 88.398 l S Q
q 1 0 0 -1 0 288 cm
39.75 88.398 m 39.949 88.398 l S Q
q 1 0 0 -1 0 288 cm
39.949 88.398 m 40 88.398 l S Q
q 1 0 0 -1 0 288 cm
40 88.398 m 40.199 88.398 l S Q
q 1 0 0 -1 0 288 cm
40.199 88.398 m 40.449 88.398 l S Q
q 1 0 0 -1 0 288 cm
40.449 88.398 m 40.648 88.398 l S Q
q 1 0 0 -1 0 288 cm
40.648 88.398 m 40.699 88.398 l S Q
q 1 0 0 -1 0 288 cm
40.699 88.398 m 40.898 88.398 l S Q
q 1 0 0 -1 0 288 cm
40.898 88.398 m 40.949 88.398 l S Q
q 1 0 0 -1 0 288 cm
40.949 88.398 m 41.148 88.398 l S Q
q 1 0 0 -1 0 288 cm
41.148 88.398 m 41.352 88.398 l S Q
q 1 0 0 -1 0 288 cm
41.352 88.398 m 41.551 88.398 l S Q
q 1 0 0 -1 0 288 cm
41.551 88.398 m 41.75 88.398 l 41.75 88.602 l S Q
q 1 0 0 -1 0 288 cm
41.75 88.602 m 41.898 88.602 l S Q
q 1 0 0 -1 0 288 cm
41.898 88.602 m 42.051 88.602 l S Q
q 1 0 0 -1 0 288 cm
42.051 88.602 m 42.199 88.602 l S Q
q 1 0 0 -1 0 288 cm
42.199 88.602 m 42.352 88.602 l S Q
q 1 0 0 -1 0 288 cm
42.352 88.602 m 42.5 88.602 l S Q
q 1 0 0 -1 0 288 cm
42.5 88.602 m 42.648 88.602 l S Q
q 1 0 0 -1 0 288 cm
42.648 88.602 m 42.801 88.602 l S Q
q 1 0 0 -1 0 288 cm
42.801 88.602 m 42.949 88.602 l S Q
q 1 0 0 -1 0 288 cm
42.949 88.602 m 43.102 88.602 l S Q
q 1 0 0 -1 0 288 cm
43.102 88.602 m 43.25 88.602 l S Q
q 1 0 0 -1 0 288 cm
43.25 88.602 m 43.398 88.602 l S Q
q 1 0 0 -1 0 288 cm
43.398 88.602 m 43.449 88.602 l S Q
q 1 0 0 -1 0 288 cm
43.449 88.602 m 43.551 88.602 l S Q
q 1 0 0 -1 0 288 cm
43.551 88.602 m 43.602 88.602 l S Q
q 1 0 0 -1 0 288 cm
43.602 88.602 m 43.699 88.602 l S Q
q 1 0 0 -1 0 288 cm
43.699 88.602 m 43.852 88.602 l S Q
q 1 0 0 -1 0 288 cm
43.852 88.602 m 44 88.602 l S Q
q 1 0 0 -1 0 288 cm
44 88.602 m 44.148 88.602 l S Q
q 1 0 0 -1 0 288 cm
44.148 88.602 m 44.199 88.602 l 44.199 88.852 l S Q
q 1 0 0 -1 0 288 cm
44.199 88.852 m 44.352 88.852 l S Q
q 1 0 0 -1 0 288 cm
44.352 88.852 m 44.398 88.852 l S Q
q 1 0 0 -1 0 288 cm
44.398 88.852 m 44.5 88.852 l S Q
q 1 0 0 -1 0 288 cm
44.5 88.852 m 44.551 88.852 l 44.551 89.449 l S Q
q 1 0 0 -1 0 288 cm
44.551 89.449 m 44.699 89.449 l S Q
q 1 0 0 -1 0 288 cm
44.699 89.449 m 44.852 89.449 l S Q
q 1 0 0 -1 0 288 cm
44.852 89.449 m 44.898 89.449 l S Q
q 1 0 0 -1 0 288 cm
44.898 89.449 m 45 89.449 l S Q
q 1 0 0 -1 0 288 cm
45 89.449 m 45.352 89.449 l 45.352 96.102 l S Q
q 1 0 0 -1 0 288 cm
45.352 96.102 m 50.051 96.102 l S Q
q 1 0 0 -1 0 288 cm
50.051 96.102 m 51 96.102 l S Q
q 1 0 0 -1 0 288 cm
51 96.102 m 51.051 96.102 l S Q
q 1 0 0 -1 0 288 cm
51.051 96.102 m 51.301 96.102 l S Q
q 1 0 0 -1 0 288 cm
51.301 96.102 m 51.551 96.102 l S Q
q 1 0 0 -1 0 288 cm
51.551 96.102 m 51.602 96.102 l S Q
q 1 0 0 -1 0 288 cm
51.602 96.102 m 51.801 96.102 l S Q
q 1 0 0 -1 0 288 cm
51.801 96.102 m 51.852 96.102 l S Q
q 1 0 0 -1 0 288 cm
51.852 96.102 m 52.102 96.102 l S Q
q 1 0 0 -1 0 288 cm
52.102 96.102 m 52.352 96.102 l S Q
q 1 0 0 -1 0 288 cm
52.352 96.102 m 52.602 96.102 l S Q
q 1 0 0 -1 0 288 cm
52.602 96.102 m 52.648 96.102 l S Q
q 1 0 0 -1 0 288 cm
52.648 96.102 m 52.852 96.102 l S Q
q 1 0 0 -1 0 288 cm
52.852 96.102 m 52.898 96.102 l S Q
q 1 0 0 -1 0 288 cm
52.898 96.102 m 53.102 96.102 l S Q
q 1 0 0 -1 0 288 cm
53.102 96.102 m 53.148 96.102 l S Q
q 1 0 0 -1 0 288 cm
53.148 96.102 m 53.352 96.102 l S Q
q 1 0 0 -1 0 288 cm
53.352 96.102 m 53.398 96.102 l S Q
q 1 0 0 -1 0 288 cm
53.398 96.102 m 53.648 96.102 l S Q
q 1 0 0 -1 0 288 cm
53.648 96.102 m 53.898 96.102 l S Q
q 1 0 0 -1 0 288 cm
53.898 96.102 m 54.051 96.102 l S Q
q 1 0 0 -1 0 288 cm
54.051 96.102 m 54.199 96.102 l S Q
q 1 0 0 -1 0 288 cm
54.199 96.102 m 54.352 96.102 l S Q
q 1 0 0 -1 0 288 cm
54.352 96.102 m 54.551 96.102 l 54.551 102.551 l S Q
q 1 0 0 -1 0 288 cm
54.551 102.551 m 54.699 102.551 l S Q
q 1 0 0 -1 0 288 cm
54.699 102.551 m 54.852 102.551 l S Q
q 1 0 0 -1 0 288 cm
54.852 102.551 m 55 102.551 l S Q
q 1 0 0 -1 0 288 cm
55 102.551 m 55.102 102.551 l S Q
q 1 0 0 -1 0 288 cm
55.102 102.551 m 55.25 102.551 l S Q
q 1 0 0 -1 0 288 cm
55.25 102.551 m 55.398 102.551 l S Q
q 1 0 0 -1 0 288 cm
55.398 102.551 m 55.551 102.551 l S Q
q 1 0 0 -1 0 288 cm
55.551 102.551 m 60.852 102.551 l S Q
q 1 0 0 -1 0 288 cm
60.852 102.551 m 61.801 102.551 l S Q
q 1 0 0 -1 0 288 cm
61.801 102.551 m 62.051 102.551 l S Q
q 1 0 0 -1 0 288 cm
62.051 102.551 m 62.301 102.551 l S Q
q 1 0 0 -1 0 288 cm
62.301 102.551 m 62.551 102.551 l S Q
q 1 0 0 -1 0 288 cm
62.551 102.551 m 62.801 102.551 l S Q
q 1 0 0 -1 0 288 cm
62.801 102.551 m 63.051 102.551 l S Q
q 1 0 0 -1 0 288 cm
63.051 102.551 m 63.25 102.551 l S Q
q 1 0 0 -1 0 288 cm
63.25 102.551 m 63.5 102.551 l S Q
q 1 0 0 -1 0 288 cm
63.5 102.551 m 63.801 102.551 l S Q
q 1 0 0 -1 0 288 cm
63.801 102.551 m 64.051 102.551 l S Q
q 1 0 0 -1 0 288 cm
64.051 102.551 m 64.301 102.551 l S Q
q 1 0 0 -1 0 288 cm
64.301 102.551 m 64.449 102.551 l 64.449 116.5 l S Q
q 1 0 0 -1 0 288 cm
64.449 116.5 m 64.699 116.5 l S Q
q 1 0 0 -1 0 288 cm
64.699 116.5 m 64.898 116.5 l S Q
q 1 0 0 -1 0 288 cm
64.898 116.5 m 65.051 116.5 l S Q
q 1 0 0 -1 0 288 cm
65.051 116.5 m 65.199 116.5 l S Q
q 1 0 0 -1 0 288 cm
65.199 116.5 m 67.551 116.5 l 67.551 119.148 l S Q
q 1 0 0 -1 0 288 cm
67.551 119.148 m 69.699 119.148 l 69.699 127.699 l S Q
q 1 0 0 -1 0 288 cm
69.699 127.699 m 71.148 127.699 l S Q
q 1 0 0 -1 0 288 cm
71.148 127.699 m 71.25 127.699 l S Q
q 1 0 0 -1 0 288 cm
71.25 127.699 m 71.398 127.699 l S Q
q 1 0 0 -1 0 288 cm
71.398 127.699 m 71.551 127.699 l S Q
q 1 0 0 -1 0 288 cm
71.551 127.699 m 71.699 127.699 l S Q
q 1 0 0 -1 0 288 cm
71.699 127.699 m 71.75 127.699 l S Q
q 1 0 0 -1 0 288 cm
71.75 127.699 m 71.852 127.699 l S Q
q 1 0 0 -1 0 288 cm
71.852 127.699 m 71.949 127.699 l S Q
q 1 0 0 -1 0 288 cm
71.949 127.699 m 72.051 127.699 l S Q
q 1 0 0 -1 0 288 cm
72.051 127.699 m 72.102 127.699 l S Q
q 1 0 0 -1 0 288 cm
72.102 127.699 m 72.199 127.699 l S Q
q 1 0 0 -1 0 288 cm
72.199 127.699 m 72.25 127.699 l S Q
q 1 0 0 -1 0 288 cm
72.25 127.699 m 72.352 127.699 l S Q
q 1 0 0 -1 0 288 cm
72.352 127.699 m 72.449 127.699 l S Q
q 1 0 0 -1 0 288 cm
72.449 127.699 m 72.551 127.699 l S Q
q 1 0 0 -1 0 288 cm
72.551 127.699 m 72.648 127.699 l S Q
q 1 0 0 -1 0 288 cm
72.648 127.699 m 72.699 127.699 l 72.699 137.051 l S Q
q 1 0 0 -1 0 288 cm
72.699 137.051 m 72.801 137.051 l S Q
q 1 0 0 -1 0 288 cm
72.801 137.051 m 72.852 137.051 l S Q
q 1 0 0 -1 0 288 cm
72.852 137.051 m 72.898 137.051 l S Q
q 1 0 0 -1 0 288 cm
72.898 137.051 m 73 137.051 l S Q
q 1 0 0 -1 0 288 cm
73 137.051 m 73.051 137.051 l S Q
q 1 0 0 -1 0 288 cm
73.051 137.051 m 73.102 137.051 l S Q
q 1 0 0 -1 0 288 cm
73.102 137.051 m 82.551 137.051 l 82.551 137.602 l S Q
q 1 0 0 -1 0 288 cm
82.551 137.602 m 93.551 137.602 l 93.551 141.051 l S Q
q 1 0 0 -1 0 288 cm
93.551 141.051 m 108.551 141.051 l S Q
q 1 0 0 -1 0 288 cm
108.551 141.051 m 118.102 141.051 l 118.102 145.148 l S Q
q 1 0 0 -1 0 288 cm
118.102 145.148 m 121.699 145.148 l 121.699 148.602 l S Q
q 1 0 0 -1 0 288 cm
121.699 148.602 m 122.852 148.602 l 122.852 153.051 l S Q
q 1 0 0 -1 0 288 cm
122.852 153.051 m 135.801 153.051 l 135.801 154.949 l S Q
q 1 0 0 -1 0 288 cm
135.801 154.949 m 137.648 154.949 l S Q
q 1 0 0 -1 0 288 cm
137.648 154.949 m 139.949 154.949 l 139.949 159.602 l S Q
q 1 0 0 -1 0 288 cm
139.949 159.602 m 150.648 159.602 l 150.648 170.801 l S Q
q 1 0 0 -1 0 288 cm
150.648 170.801 m 168.199 170.801 l S Q
q 1 0 0 -1 0 288 cm
168.199 170.801 m 168.398 170.801 l S Q
q 1 0 0 -1 0 288 cm
168.398 170.801 m 168.801 170.801 l S Q
q 1 0 0 -1 0 288 cm
168.801 170.801 m 168.852 170.801 l S Q
q 1 0 0 -1 0 288 cm
168.852 170.801 m 169.25 170.801 l S Q
q 1 0 0 -1 0 288 cm
169.25 170.801 m 169.648 170.801 l S Q
q 1 0 0 -1 0 288 cm
169.648 170.801 m 169.699 170.801 l S Q
q 1 0 0 -1 0 288 cm
169.699 170.801 m 170.102 170.801 l S Q
q 1 0 0 -1 0 288 cm
170.102 170.801 m 170.25 170.801 l S Q
q 1 0 0 -1 0 288 cm
170.25 170.801 m 170.648 170.801 l S Q
q 1 0 0 -1 0 288 cm
170.648 170.801 m 171.051 170.801 l S Q
q 1 0 0 -1 0 288 cm
171.051 170.801 m 171.449 170.801 l S Q
q 1 0 0 -1 0 288 cm
171.449 170.801 m 171.852 170.801 l S Q
q 1 0 0 -1 0 288 cm
171.852 170.801 m 172.199 170.801 l S Q
q 1 0 0 -1 0 288 cm
172.199 170.801 m 172.301 170.801 l S Q
q 1 0 0 -1 0 288 cm
172.301 170.801 m 172.699 170.801 l S Q
q 1 0 0 -1 0 288 cm
172.699 170.801 m 173.102 170.801 l S Q
q 1 0 0 -1 0 288 cm
173.102 170.801 m 173.449 170.801 l S Q
q 1 0 0 -1 0 288 cm
173.449 170.801 m 173.75 170.801 l S Q
q 1 0 0 -1 0 288 cm
173.75 170.801 m 173.801 170.801 l S Q
q 1 0 0 -1 0 288 cm
173.801 170.801 m 174.051 170.801 l S Q
q 1 0 0 -1 0 288 cm
174.051 170.801 m 174.102 170.801 l S Q
q 1 0 0 -1 0 288 cm
174.102 170.801 m 174.352 170.801 l S Q
q 1 0 0 -1 0 288 cm
174.352 170.801 m 174.398 170.801 l S Q
q 1 0 0 -1 0 288 cm
174.398 170.801 m 174.699 170.801 l S Q
q 1 0 0 -1 0 288 cm
174.699 170.801 m 174.801 170.801 l S Q
q 1 0 0 -1 0 288 cm
174.801 170.801 m 175.051 170.801 l S Q
q 1 0 0 -1 0 288 cm
175.051 170.801 m 175.352 170.801 l S Q
q 1 0 0 -1 0 288 cm
175.352 170.801 m 175.648 170.801 l S Q
q 1 0 0 -1 0 288 cm
175.648 170.801 m 175.75 170.801 l S Q
q 1 0 0 -1 0 288 cm
175.75 170.801 m 176 170.801 l S Q
q 1 0 0 -1 0 288 cm
176 170.801 m 188.102 170.801 l S Q
q 1 0 0 -1 0 288 cm
188.102 170.801 m 192.5 170.801 l S Q
q 1 0 0 -1 0 288 cm
192.5 170.801 m 196.75 170.801 l S Q
q 1 0 0 -1 0 288 cm
196.75 170.801 m 196.801 170.801 l S Q
q 1 0 0 -1 0 288 cm
196.801 170.801 m 220.75 170.801 l 220.75 176.199 l S Q
q 1 0 0 -1 0 288 cm
220.75 176.199 m 256.051 176.199 l S Q
q 1 0 0 -1 0 288 cm
256.051 176.199 m 256.102 176.199 l S Q
q 1 0 0 -1 0 288 cm
256.102 176.199 m 256.199 176.199 l S Q
q 1 0 0 -1 0 288 cm
256.199 176.199 m 256.449 176.199 l S Q
q 1 0 0 -1 0 288 cm
256.449 176.199 m 256.5 176.199 l S Q
q 1 0 0 -1 0 288 cm
256.5 176.199 m 265.148 176.199 l 265.148 176.648 l S Q
q 1 0 0 -1 0 288 cm
265.148 176.648 m 268.551 176.648 l 268.551 176.75 l S Q
q 1 0 0 -1 0 288 cm
268.551 176.75 m 269 176.75 l 269 180.102 l S Q
q 1 0 0 -1 0 288 cm
269 180.102 m 271.852 180.102 l 271.852 180.898 l S Q
q 1 0 0 -1 0 288 cm
271.852 180.898 m 282.148 180.898 l 282.148 182.449 l S Q
q 1 0 0 -1 0 288 cm
282.148 182.449 m 294.602 182.449 l S Q
q 1 0 0 -1 0 288 cm
294.602 182.449 m 294.648 182.449 l S Q
q 1 0 0 -1 0 288 cm
294.648 182.449 m 326.852 182.449 l S Q
q 1 0 0 -1 0 288 cm
326.852 182.449 m 335.852 182.449 l S Q
q 1 0 0 -1 0 288 cm
335.852 182.449 m 340.648 182.449 l 340.648 185.148 l S Q
q 1 0 0 -1 0 288 cm
340.648 185.148 m 347.199 185.148 l S Q
q 1 0 0 -1 0 288 cm
347.199 185.148 m 358.102 185.148 l S Q
q 1 0 0 -1 0 288 cm
358.102 185.148 m 362.602 185.148 l 362.602 187.898 l S Q
q 1 0 0 -1 0 288 cm
362.602 187.898 m 363.602 187.898 l S Q
q 1 0 0 -1 0 288 cm
363.602 187.898 m 372.352 187.898 l S Q
q 1 0 0 -1 0 288 cm
372.352 187.898 m 373.352 187.898 l S Q
q 1 0 0 -1 0 288 cm
373.352 187.898 m 378.25 187.898 l S Q
q 1 0 0 -1 0 288 cm
378.25 187.898 m 389.5 187.898 l S Q
q 1 0 0 -1 0 288 cm
389.5 187.898 m 397.949 187.898 l S Q
q 1 0 0 -1 0 288 cm
397.949 187.898 m 401.801 187.898 l S Q
q 1 0 0 -1 0 288 cm
401.801 187.898 m 406.898 187.898 l S Q
q 1 0 0 -1 0 288 cm
406.898 187.898 m 412.699 187.898 l S Q
q 1 0 0 -1 0 288 cm
412.699 187.898 m 417.148 187.898 l S Q
0 0.65098 0.552941 rg
q 1 0 0 -1 0 288 cm
382.852 19.102 m 406.949 19.102 l S Q
q 1 0 0 -1 0 288 cm
38.551 10.75 m 38.551 31.25 l S Q
q 1 0 0 -1 0 288 cm
38.551 31.25 m 39.25 31.25 l 39.25 33.699 l S Q
q 1 0 0 -1 0 288 cm
39.25 33.699 m 39.949 33.699 l 39.949 34.398 l S Q
q 1 0 0 -1 0 288 cm
39.949 34.398 m 40.648 34.398 l 40.648 41.898 l S Q
q 1 0 0 -1 0 288 cm
40.648 41.898 m 41.398 41.898 l 41.398 46.5 l S Q
q 1 0 0 -1 0 288 cm
41.398 46.5 m 42.102 46.5 l S Q
q 1 0 0 -1 0 288 cm
42.102 46.5 m 42.801 46.5 l S Q
q 1 0 0 -1 0 288 cm
42.801 46.5 m 43.5 46.5 l 43.5 47.75 l S Q
q 1 0 0 -1 0 288 cm
43.5 47.75 m 44.199 47.75 l 44.199 55.5 l S Q
q 1 0 0 -1 0 288 cm
44.199 55.5 m 44.898 55.5 l 44.898 90.75 l S Q
q 1 0 0 -1 0 288 cm
44.898 90.75 m 45.602 90.75 l 45.602 104.199 l S Q
q 1 0 0 -1 0 288 cm
45.602 104.199 m 46.301 104.199 l 46.301 104.648 l S Q
q 1 0 0 -1 0 288 cm
46.301 104.648 m 47 104.648 l 47 107.25 l S Q
q 1 0 0 -1 0 288 cm
47 107.25 m 47.699 107.25 l 47.699 108.398 l S Q
q 1 0 0 -1 0 288 cm
47.699 108.398 m 48.398 108.398 l 48.398 109.449 l S Q
q 1 0 0 -1 0 288 cm
48.398 109.449 m 49.102 109.449 l S Q
q 1 0 0 -1 0 288 cm
49.102 109.449 m 49.852 109.449 l 49.852 111.852 l S Q
q 1 0 0 -1 0 288 cm
49.852 111.852 m 50.5 111.852 l 50.5 111.898 l S Q
q 1 0 0 -1 0 288 cm
50.5 111.898 m 51.199 111.898 l 51.199 113.199 l S Q
q 1 0 0 -1 0 288 cm
51.199 113.199 m 51.898 113.199 l 51.898 116.398 l S Q
q 1 0 0 -1 0 288 cm
51.898 116.398 m 52.602 116.398 l 52.602 124.898 l S Q
q 1 0 0 -1 0 288 cm
52.602 124.898 m 53.25 124.898 l 53.25 130.949 l S Q
q 1 0 0 -1 0 288 cm
53.25 130.949 m 53.949 130.949 l 53.949 131.898 l S Q
q 1 0 0 -1 0 288 cm
53.949 131.898 m 54.648 131.898 l S Q
q 1 0 0 -1 0 288 cm
54.648 131.898 m 55.352 131.898 l S Q
q 1 0 0 -1 0 288 cm
55.352 131.898 m 56 131.898 l 56 138 l S Q
q 1 0 0 -1 0 288 cm
56 138 m 56.699 138 l 56.699 142.801 l S Q
q 1 0 0 -1 0 288 cm
56.699 142.801 m 57.352 142.801 l 57.352 149.25 l S Q
q 1 0 0 -1 0 288 cm
57.352 149.25 m 58.051 149.25 l 58.051 152.352 l S Q
q 1 0 0 -1 0 288 cm
58.051 152.352 m 58.699 152.352 l 58.699 153.148 l S Q
q 1 0 0 -1 0 288 cm
58.699 153.148 m 59.352 153.148 l S Q
q 1 0 0 -1 0 288 cm
59.352 153.148 m 60.051 153.148 l S Q
q 1 0 0 -1 0 288 cm
60.051 153.148 m 60.75 153.148 l S Q
q 1 0 0 -1 0 288 cm
60.75 153.148 m 61.398 153.148 l 61.398 153.25 l S Q
q 1 0 0 -1 0 288 cm
61.398 153.25 m 62.102 153.25 l S Q
q 1 0 0 -1 0 288 cm
62.102 153.25 m 62.75 153.25 l 62.75 153.949 l S Q
q 1 0 0 -1 0 288 cm
62.75 153.949 m 63.449 153.949 l S Q
q 1 0 0 -1 0 288 cm
63.449 153.949 m 64.102 153.949 l S Q
q 1 0 0 -1 0 288 cm
64.102 153.949 m 64.75 153.949 l S Q
q 1 0 0 -1 0 288 cm
64.75 153.949 m 65.449 153.949 l S Q
q 1 0 0 -1 0 288 cm
65.449 153.949 m 66.102 153.949 l S Q
q 1 0 0 -1 0 288 cm
66.102 153.949 m 66.801 153.949 l S Q
q 1 0 0 -1 0 288 cm
66.801 153.949 m 67.449 153.949 l S Q
q 1 0 0 -1 0 288 cm
67.449 153.949 m 68.102 153.949 l 68.102 154.102 l S Q
q 1 0 0 -1 0 288 cm
68.102 154.102 m 68.801 154.102 l S Q
q 1 0 0 -1 0 288 cm
68.801 154.102 m 69.449 154.102 l S Q
q 1 0 0 -1 0 288 cm
69.449 154.102 m 70.102 154.102 l S Q
q 1 0 0 -1 0 288 cm
70.102 154.102 m 70.801 154.102 l S Q
q 1 0 0 -1 0 288 cm
70.801 154.102 m 71.449 154.102 l S Q
q 1 0 0 -1 0 288 cm
71.449 154.102 m 72.148 154.102 l S Q
q 1 0 0 -1 0 288 cm
72.148 154.102 m 72.801 154.102 l 72.801 154.25 l S Q
q 1 0 0 -1 0 288 cm
72.801 154.25 m 73.449 154.25 l 73.449 154.398 l S Q
q 1 0 0 -1 0 288 cm
73.449 154.398 m 74.148 154.398 l S Q
q 1 0 0 -1 0 288 cm
74.148 154.398 m 74.801 154.398 l S Q
q 1 0 0 -1 0 288 cm
74.801 154.398 m 75.5 154.398 l S Q
q 1 0 0 -1 0 288 cm
75.5 154.398 m 76.199 154.398 l S Q
q 1 0 0 -1 0 288 cm
76.199 154.398 m 76.852 154.398 l S Q
q 1 0 0 -1 0 288 cm
76.852 154.398 m 77.5 154.398 l 77.5 155.949 l S Q
q 1 0 0 -1 0 288 cm
77.5 155.949 m 78.199 155.949 l S Q
q 1 0 0 -1 0 288 cm
78.199 155.949 m 78.852 155.949 l 78.852 158.301 l S Q
q 1 0 0 -1 0 288 cm
78.852 158.301 m 79.5 158.301 l 79.5 159.148 l S Q
q 1 0 0 -1 0 288 cm
79.5 159.148 m 80.199 159.148 l 80.199 159.648 l S Q
q 1 0 0 -1 0 288 cm
80.199 159.648 m 80.852 159.648 l S Q
q 1 0 0 -1 0 288 cm
80.852 159.648 m 81.5 159.648 l S Q
q 1 0 0 -1 0 288 cm
81.5 159.648 m 82.148 159.648 l S Q
q 1 0 0 -1 0 288 cm
82.148 159.648 m 82.852 159.648 l S Q
q 1 0 0 -1 0 288 cm
82.852 159.648 m 83.5 159.648 l 83.5 164.301 l S Q
q 1 0 0 -1 0 288 cm
83.5 164.301 m 84.148 164.301 l 84.148 166.301 l S Q
q 1 0 0 -1 0 288 cm
84.148 166.301 m 84.852 166.301 l 84.852 167.602 l S Q
q 1 0 0 -1 0 288 cm
84.852 167.602 m 85.5 167.602 l 85.5 168.25 l S Q
q 1 0 0 -1 0 288 cm
85.5 168.25 m 86.199 168.25 l 86.199 168.949 l S Q
q 1 0 0 -1 0 288 cm
86.199 168.949 m 86.852 168.949 l S Q
q 1 0 0 -1 0 288 cm
86.852 168.949 m 87.551 168.949 l 87.551 169.199 l S Q
q 1 0 0 -1 0 288 cm
87.551 169.199 m 88.199 169.199 l 88.199 169.898 l S Q
q 1 0 0 -1 0 288 cm
88.199 169.898 m 88.852 169.898 l S Q
q 1 0 0 -1 0 288 cm
88.852 169.898 m 89.5 169.898 l S Q
q 1 0 0 -1 0 288 cm
89.5 169.898 m 90.199 169.898 l 90.199 170.898 l S Q
q 1 0 0 -1 0 288 cm
90.199 170.898 m 90.852 170.898 l S Q
q 1 0 0 -1 0 288 cm
90.852 170.898 m 91.5 170.898 l S Q
q 1 0 0 -1 0 288 cm
91.5 170.898 m 92.148 170.898 l S Q
q 1 0 0 -1 0 288 cm
92.148 170.898 m 92.801 170.898 l S Q
q 1 0 0 -1 0 288 cm
92.801 170.898 m 93.5 170.898 l S Q
q 1 0 0 -1 0 288 cm
93.5 170.898 m 94.148 170.898 l 94.148 172.199 l S Q
q 1 0 0 -1 0 288 cm
94.148 172.199 m 94.801 172.199 l 94.801 177.148 l S Q
q 1 0 0 -1 0 288 cm
94.801 177.148 m 95.449 177.148 l 95.449 178.648 l S Q
q 1 0 0 -1 0 288 cm
95.449 178.648 m 96.102 178.648 l S Q
q 1 0 0 -1 0 288 cm
96.102 178.648 m 96.75 178.648 l 96.75 178.949 l S Q
q 1 0 0 -1 0 288 cm
96.75 178.949 m 97.398 178.949 l S Q
q 1 0 0 -1 0 288 cm
97.398 178.949 m 98.051 178.949 l S Q
q 1 0 0 -1 0 288 cm
98.051 178.949 m 98.75 178.949 l 98.75 179.148 l S Q
q 1 0 0 -1 0 288 cm
98.75 179.148 m 99.398 179.148 l S Q
q 1 0 0 -1 0 288 cm
99.398 179.148 m 100.051 179.148 l S Q
q 1 0 0 -1 0 288 cm
100.051 179.148 m 100.699 179.148 l S Q
q 1 0 0 -1 0 288 cm
100.699 179.148 m 101.352 179.148 l S Q
q 1 0 0 -1 0 288 cm
101.352 179.148 m 102 179.148 l S Q
q 1 0 0 -1 0 288 cm
102 179.148 m 102.699 179.148 l S Q
q 1 0 0 -1 0 288 cm
102.699 179.148 m 103.352 179.148 l 103.352 185.5 l S Q
q 1 0 0 -1 0 288 cm
103.352 185.5 m 104 185.5 l 104 186.25 l S Q
q 1 0 0 -1 0 288 cm
104 186.25 m 104.648 186.25 l S Q
q 1 0 0 -1 0 288 cm
104.648 186.25 m 105.301 186.25 l S Q
q 1 0 0 -1 0 288 cm
105.301 186.25 m 105.949 186.25 l 105.949 187.398 l S Q
q 1 0 0 -1 0 288 cm
105.949 187.398 m 106.602 187.398 l 106.602 188 l S Q
q 1 0 0 -1 0 288 cm
106.602 188 m 107.301 188 l 107.301 188.148 l S Q
q 1 0 0 -1 0 288 cm
107.301 188.148 m 107.949 188.148 l S Q
q 1 0 0 -1 0 288 cm
107.949 188.148 m 108.602 188.148 l S Q
q 1 0 0 -1 0 288 cm
108.602 188.148 m 109.25 188.148 l S Q
q 1 0 0 -1 0 288 cm
109.25 188.148 m 109.949 188.148 l S Q
q 1 0 0 -1 0 288 cm
109.949 188.148 m 110.602 188.148 l 110.602 188.551 l S Q
q 1 0 0 -1 0 288 cm
110.602 188.551 m 111.25 188.551 l S Q
q 1 0 0 -1 0 288 cm
111.25 188.551 m 111.898 188.551 l S Q
q 1 0 0 -1 0 288 cm
111.898 188.551 m 112.551 188.551 l 112.551 188.648 l S Q
q 1 0 0 -1 0 288 cm
112.551 188.648 m 113.25 188.648 l S Q
q 1 0 0 -1 0 288 cm
113.25 188.648 m 113.898 188.648 l 113.898 189.352 l S Q
q 1 0 0 -1 0 288 cm
113.898 189.352 m 114.551 189.352 l S Q
q 1 0 0 -1 0 288 cm
114.551 189.352 m 115.199 189.352 l S Q
q 1 0 0 -1 0 288 cm
115.199 189.352 m 115.852 189.352 l S Q
q 1 0 0 -1 0 288 cm
115.852 189.352 m 116.5 189.352 l S Q
q 1 0 0 -1 0 288 cm
116.5 189.352 m 117.148 189.352 l S Q
q 1 0 0 -1 0 288 cm
117.148 189.352 m 117.852 189.352 l S Q
q 1 0 0 -1 0 288 cm
117.852 189.352 m 118.5 189.352 l S Q
q 1 0 0 -1 0 288 cm
118.5 189.352 m 119.148 189.352 l S Q
q 1 0 0 -1 0 288 cm
119.148 189.352 m 119.801 189.352 l S Q
q 1 0 0 -1 0 288 cm
119.801 189.352 m 120.5 189.352 l S Q
q 1 0 0 -1 0 288 cm
120.5 189.352 m 121.148 189.352 l S Q
q 1 0 0 -1 0 288 cm
121.148 189.352 m 121.801 189.352 l S Q
q 1 0 0 -1 0 288 cm
121.801 189.352 m 122.449 189.352 l 122.449 192.801 l S Q
q 1 0 0 -1 0 288 cm
122.449 192.801 m 123.148 192.801 l 123.148 193.051 l S Q
q 1 0 0 -1 0 288 cm
123.148 193.051 m 123.801 193.051 l S Q
q 1 0 0 -1 0 288 cm
123.801 193.051 m 124.449 193.051 l 124.449 193.801 l S Q
q 1 0 0 -1 0 288 cm
124.449 193.801 m 125.148 193.801 l S Q
q 1 0 0 -1 0 288 cm
125.148 193.801 m 125.801 193.801 l 125.801 194.102 l S Q
q 1 0 0 -1 0 288 cm
125.801 194.102 m 126.449 194.102 l S Q
q 1 0 0 -1 0 288 cm
126.449 194.102 m 127.148 194.102 l 127.148 194.449 l S Q
q 1 0 0 -1 0 288 cm
127.148 194.449 m 127.801 194.449 l S Q
q 1 0 0 -1 0 288 cm
127.801 194.449 m 128.449 194.449 l S Q
q 1 0 0 -1 0 288 cm
128.449 194.449 m 129.102 194.449 l S Q
q 1 0 0 -1 0 288 cm
129.102 194.449 m 129.75 194.449 l S Q
q 1 0 0 -1 0 288 cm
129.75 194.449 m 130.449 194.449 l S Q
q 1 0 0 -1 0 288 cm
130.449 194.449 m 131.102 194.449 l S Q
q 1 0 0 -1 0 288 cm
131.102 194.449 m 131.75 194.449 l S Q
q 1 0 0 -1 0 288 cm
131.75 194.449 m 132.449 194.449 l S Q
q 1 0 0 -1 0 288 cm
132.449 194.449 m 133.102 194.449 l S Q
q 1 0 0 -1 0 288 cm
133.102 194.449 m 133.75 194.449 l S Q
q 1 0 0 -1 0 288 cm
133.75 194.449 m 134.398 194.449 l S Q
q 1 0 0 -1 0 288 cm
134.398 194.449 m 135.102 194.449 l S Q
q 1 0 0 -1 0 288 cm
135.102 194.449 m 135.75 194.449 l S Q
q 1 0 0 -1 0 288 cm
135.75 194.449 m 136.398 194.449 l S Q
q 1 0 0 -1 0 288 cm
136.398 194.449 m 137.051 194.449 l S Q
q 1 0 0 -1 0 288 cm
137.051 194.449 m 137.75 194.449 l S Q
q 1 0 0 -1 0 288 cm
137.75 194.449 m 138.398 194.449 l S Q
q 1 0 0 -1 0 288 cm
138.398 194.449 m 139.051 194.449 l S Q
q 1 0 0 -1 0 288 cm
139.051 194.449 m 139.699 194.449 l S Q
q 1 0 0 -1 0 288 cm
139.699 194.449 m 140.398 194.449 l S Q
q 1 0 0 -1 0 288 cm
140.398 194.449 m 141.051 194.449 l S Q
q 1 0 0 -1 0 288 cm
141.051 194.449 m 141.699 194.449 l S Q
q 1 0 0 -1 0 288 cm
141.699 194.449 m 142.398 194.449 l S Q
q 1 0 0 -1 0 288 cm
142.398 194.449 m 143.051 194.449 l S Q
q 1 0 0 -1 0 288 cm
143.051 194.449 m 143.699 194.449 l S Q
q 1 0 0 -1 0 288 cm
143.699 194.449 m 144.398 194.449 l S Q
q 1 0 0 -1 0 288 cm
144.398 194.449 m 145.051 194.449 l S Q
q 1 0 0 -1 0 288 cm
145.051 194.449 m 145.75 194.449 l S Q
q 1 0 0 -1 0 288 cm
145.75 194.449 m 146.398 194.449 l S Q
q 1 0 0 -1 0 288 cm
146.398 194.449 m 147.051 194.449 l S Q
q 1 0 0 -1 0 288 cm
147.051 194.449 m 147.75 194.449 l S Q
q 1 0 0 -1 0 288 cm
147.75 194.449 m 148.398 194.449 l S Q
q 1 0 0 -1 0 288 cm
148.398 194.449 m 149.051 194.449 l S Q
q 1 0 0 -1 0 288 cm
149.051 194.449 m 149.75 194.449 l S Q
q 1 0 0 -1 0 288 cm
149.75 194.449 m 150.398 194.449 l S Q
q 1 0 0 -1 0 288 cm
150.398 194.449 m 151.051 194.449 l S Q
q 1 0 0 -1 0 288 cm
151.051 194.449 m 151.699 194.449 l S Q
q 1 0 0 -1 0 288 cm
151.699 194.449 m 152.398 194.449 l S Q
q 1 0 0 -1 0 288 cm
152.398 194.449 m 153.051 194.449 l S Q
q 1 0 0 -1 0 288 cm
153.051 194.449 m 153.75 194.449 l S Q
q 1 0 0 -1 0 288 cm
153.75 194.449 m 154.398 194.449 l S Q
q 1 0 0 -1 0 288 cm
154.398 194.449 m 155.051 194.449 l S Q
q 1 0 0 -1 0 288 cm
155.051 194.449 m 155.75 194.449 l S Q
q 1 0 0 -1 0 288 cm
155.75 194.449 m 156.398 194.449 l S Q
q 1 0 0 -1 0 288 cm
156.398 194.449 m 157.051 194.449 l S Q
q 1 0 0 -1 0 288 cm
157.051 194.449 m 157.75 194.449 l S Q
q 1 0 0 -1 0 288 cm
157.75 194.449 m 158.398 194.449 l S Q
q 1 0 0 -1 0 288 cm
158.398 194.449 m 159.102 194.449 l S Q
q 1 0 0 -1 0 288 cm
159.102 194.449 m 159.75 194.449 l S Q
q 1 0 0 -1 0 288 cm
159.75 194.449 m 160.398 194.449 l S Q
q 1 0 0 -1 0 288 cm
160.398 194.449 m 161.102 194.449 l S Q
q 1 0 0 -1 0 288 cm
161.102 194.449 m 161.75 194.449 l S Q
q 1 0 0 -1 0 288 cm
161.75 194.449 m 162.398 194.449 l S Q
q 1 0 0 -1 0 288 cm
162.398 194.449 m 163.102 194.449 l S Q
q 1 0 0 -1 0 288 cm
163.102 194.449 m 163.75 194.449 l S Q
q 1 0 0 -1 0 288 cm
163.75 194.449 m 164.398 194.449 l S Q
q 1 0 0 -1 0 288 cm
164.398 194.449 m 165.102 194.449 l S Q
q 1 0 0 -1 0 288 cm
165.102 194.449 m 165.801 194.449 l S Q
q 1 0 0 -1 0 288 cm
165.801 194.449 m 166.449 194.449 l S Q
q 1 0 0 -1 0 288 cm
166.449 194.449 m 167.148 194.449 l S Q
q 1 0 0 -1 0 288 cm
167.148 194.449 m 167.801 194.449 l S Q
q 1 0 0 -1 0 288 cm
167.801 194.449 m 168.5 194.449 l S Q
q 1 0 0 -1 0 288 cm
168.5 194.449 m 169.148 194.449 l S Q
q 1 0 0 -1 0 288 cm
169.148 194.449 m 169.801 194.449 l S Q
q 1 0 0 -1 0 288 cm
169.801 194.449 m 170.5 194.449 l S Q
q 1 0 0 -1 0 288 cm
170.5 194.449 m 171.148 194.449 l S Q
q 1 0 0 -1 0 288 cm
171.148 194.449 m 171.801 194.449 l S Q
q 1 0 0 -1 0 288 cm
171.801 194.449 m 172.5 194.449 l S Q
q 1 0 0 -1 0 288 cm
172.5 194.449 m 173.148 194.449 l S Q
q 1 0 0 -1 0 288 cm
173.148 194.449 m 173.801 194.449 l S Q
q 1 0 0 -1 0 288 cm
173.801 194.449 m 174.5 194.449 l S Q
q 1 0 0 -1 0 288 cm
174.5 194.449 m 175.148 194.449 l S Q
q 1 0 0 -1 0 288 cm
175.148 194.449 m 175.801 194.449 l S Q
q 1 0 0 -1 0 288 cm
175.801 194.449 m 176.5 194.449 l S Q
q 1 0 0 -1 0 288 cm
176.5 194.449 m 177.148 194.449 l S Q
q 1 0 0 -1 0 288 cm
177.148 194.449 m 177.801 194.449 l S Q
q 1 0 0 -1 0 288 cm
177.801 194.449 m 178.5 194.449 l S Q
q 1 0 0 -1 0 288 cm
178.5 194.449 m 179.148 194.449 l S Q
q 1 0 0 -1 0 288 cm
179.148 194.449 m 179.801 194.449 l S Q
q 1 0 0 -1 0 288 cm
179.801 194.449 m 180.449 194.449 l S Q
q 1 0 0 -1 0 288 cm
180.449 194.449 m 181.148 194.449 l S Q
q 1 0 0 -1 0 288 cm
181.148 194.449 m 181.801 194.449 l S Q
q 1 0 0 -1 0 288 cm
181.801 194.449 m 182.449 194.449 l S Q
q 1 0 0 -1 0 288 cm
182.449 194.449 m 183.148 194.449 l S Q
q 1 0 0 -1 0 288 cm
183.148 194.449 m 183.801 194.449 l S Q
q 1 0 0 -1 0 288 cm
183.801 194.449 m 184.449 194.449 l S Q
q 1 0 0 -1 0 288 cm
184.449 194.449 m 185.148 194.449 l 185.148 194.648 l S Q
q 1 0 0 -1 0 288 cm
185.148 194.648 m 185.801 194.648 l S Q
q 1 0 0 -1 0 288 cm
185.801 194.648 m 186.449 194.648 l S Q
q 1 0 0 -1 0 288 cm
186.449 194.648 m 187.148 194.648 l S Q
q 1 0 0 -1 0 288 cm
187.148 194.648 m 187.801 194.648 l S Q
q 1 0 0 -1 0 288 cm
187.801 194.648 m 188.449 194.648 l S Q
q 1 0 0 -1 0 288 cm
188.449 194.648 m 189.102 194.648 l S Q
q 1 0 0 -1 0 288 cm
189.102 194.648 m 189.801 194.648 l S Q
q 1 0 0 -1 0 288 cm
189.801 194.648 m 190.449 194.648 l S Q
q 1 0 0 -1 0 288 cm
190.449 194.648 m 191.102 194.648 l S Q
q 1 0 0 -1 0 288 cm
191.102 194.648 m 191.801 194.648 l S Q
q 1 0 0 -1 0 288 cm
191.801 194.648 m 192.449 194.648 l S Q
q 1 0 0 -1 0 288 cm
192.449 194.648 m 193.148 194.648 l S Q
q 1 0 0 -1 0 288 cm
193.148 194.648 m 193.801 194.648 l S Q
q 1 0 0 -1 0 288 cm
193.801 194.648 m 194.449 194.648 l S Q
q 1 0 0 -1 0 288 cm
194.449 194.648 m 195.148 194.648 l S Q
q 1 0 0 -1 0 288 cm
195.148 194.648 m 195.801 194.648 l S Q
q 1 0 0 -1 0 288 cm
195.801 194.648 m 196.449 194.648 l S Q
q 1 0 0 -1 0 288 cm
196.449 194.648 m 197.102 194.648 l S Q
q 1 0 0 -1 0 288 cm
197.102 194.648 m 197.801 194.648 l S Q
q 1 0 0 -1 0 288 cm
197.801 194.648 m 198.449 194.648 l S Q
q 1 0 0 -1 0 288 cm
198.449 194.648 m 199.102 194.648 l S Q
q 1 0 0 -1 0 288 cm
199.102 194.648 m 199.801 194.648 l S Q
q 1 0 0 -1 0 288 cm
199.801 194.648 m 200.449 194.648 l S Q
q 1 0 0 -1 0 288 cm
200.449 194.648 m 201.102 194.648 l 201.102 195.301 l S Q
q 1 0 0 -1 0 288 cm
201.102 195.301 m 201.75 195.301 l 201.75 196.75 l S Q
q 1 0 0 -1 0 288 cm
201.75 196.75 m 202.398 196.75 l S Q
q 1 0 0 -1 0 288 cm
202.398 196.75 m 203.102 196.75 l S Q
q 1 0 0 -1 0 288 cm
203.102 196.75 m 203.75 196.75 l S Q
q 1 0 0 -1 0 288 cm
203.75 196.75 m 204.398 196.75 l S Q
q 1 0 0 -1 0 288 cm
204.398 196.75 m 205.051 196.75 l S Q
q 1 0 0 -1 0 288 cm
205.051 196.75 m 205.699 196.75 l S Q
q 1 0 0 -1 0 288 cm
205.699 196.75 m 206.352 196.75 l S Q
q 1 0 0 -1 0 288 cm
206.352 196.75 m 207 196.75 l S Q
q 1 0 0 -1 0 288 cm
207 196.75 m 207.699 196.75 l S Q
q 1 0 0 -1 0 288 cm
207.699 196.75 m 208.352 196.75 l S Q
q 1 0 0 -1 0 288 cm
208.352 196.75 m 209 196.75 l S Q
q 1 0 0 -1 0 288 cm
209 196.75 m 209.648 196.75 l S Q
q 1 0 0 -1 0 288 cm
209.648 196.75 m 210.301 196.75 l S Q
q 1 0 0 -1 0 288 cm
210.301 196.75 m 210.949 196.75 l S Q
q 1 0 0 -1 0 288 cm
210.949 196.75 m 211.648 196.75 l S Q
q 1 0 0 -1 0 288 cm
211.648 196.75 m 212.301 196.75 l S Q
q 1 0 0 -1 0 288 cm
212.301 196.75 m 212.949 196.75 l S Q
q 1 0 0 -1 0 288 cm
212.949 196.75 m 213.602 196.75 l 213.602 196.949 l S Q
q 1 0 0 -1 0 288 cm
213.602 196.949 m 214.25 196.949 l S Q
q 1 0 0 -1 0 288 cm
214.25 196.949 m 214.949 196.949 l S Q
q 1 0 0 -1 0 288 cm
214.949 196.949 m 215.602 196.949 l S Q
q 1 0 0 -1 0 288 cm
215.602 196.949 m 216.25 196.949 l S Q
q 1 0 0 -1 0 288 cm
216.25 196.949 m 216.898 196.949 l S Q
q 1 0 0 -1 0 288 cm
216.898 196.949 m 217.551 196.949 l S Q
q 1 0 0 -1 0 288 cm
217.551 196.949 m 218.199 196.949 l S Q
q 1 0 0 -1 0 288 cm
218.199 196.949 m 218.852 196.949 l S Q
q 1 0 0 -1 0 288 cm
218.852 196.949 m 219.5 196.949 l S Q
q 1 0 0 -1 0 288 cm
219.5 196.949 m 220.199 196.949 l 220.199 200.852 l S Q
q 1 0 0 -1 0 288 cm
220.199 200.852 m 220.852 200.852 l 220.852 201 l S Q
q 1 0 0 -1 0 288 cm
220.852 201 m 221.5 201 l S Q
q 1 0 0 -1 0 288 cm
221.5 201 m 222.148 201 l S Q
q 1 0 0 -1 0 288 cm
222.148 201 m 222.852 201 l S Q
q 1 0 0 -1 0 288 cm
222.852 201 m 223.5 201 l S Q
q 1 0 0 -1 0 288 cm
223.5 201 m 224.148 201 l S Q
q 1 0 0 -1 0 288 cm
224.148 201 m 224.801 201 l S Q
q 1 0 0 -1 0 288 cm
224.801 201 m 225.5 201 l 225.5 201.5 l S Q
q 1 0 0 -1 0 288 cm
225.5 201.5 m 226.148 201.5 l S Q
q 1 0 0 -1 0 288 cm
226.148 201.5 m 226.801 201.5 l S Q
q 1 0 0 -1 0 288 cm
226.801 201.5 m 227.449 201.5 l S Q
q 1 0 0 -1 0 288 cm
227.449 201.5 m 228.102 201.5 l S Q
q 1 0 0 -1 0 288 cm
228.102 201.5 m 228.75 201.5 l S Q
q 1 0 0 -1 0 288 cm
228.75 201.5 m 229.449 201.5 l S Q
q 1 0 0 -1 0 288 cm
229.449 201.5 m 230.102 201.5 l S Q
q 1 0 0 -1 0 288 cm
230.102 201.5 m 230.75 201.5 l S Q
q 1 0 0 -1 0 288 cm
230.75 201.5 m 231.398 201.5 l S Q
q 1 0 0 -1 0 288 cm
231.398 201.5 m 232.051 201.5 l S Q
q 1 0 0 -1 0 288 cm
232.051 201.5 m 232.699 201.5 l S Q
q 1 0 0 -1 0 288 cm
232.699 201.5 m 233.398 201.5 l S Q
q 1 0 0 -1 0 288 cm
233.398 201.5 m 234.051 201.5 l S Q
q 1 0 0 -1 0 288 cm
234.051 201.5 m 234.699 201.5 l S Q
q 1 0 0 -1 0 288 cm
234.699 201.5 m 235.352 201.5 l S Q
q 1 0 0 -1 0 288 cm
235.352 201.5 m 236 201.5 l S Q
q 1 0 0 -1 0 288 cm
236 201.5 m 236.648 201.5 l S Q
q 1 0 0 -1 0 288 cm
236.648 201.5 m 237.301 201.5 l S Q
q 1 0 0 -1 0 288 cm
237.301 201.5 m 238 201.5 l S Q
q 1 0 0 -1 0 288 cm
238 201.5 m 238.648 201.5 l S Q
q 1 0 0 -1 0 288 cm
238.648 201.5 m 239.301 201.5 l S Q
q 1 0 0 -1 0 288 cm
239.301 201.5 m 239.949 201.5 l S Q
q 1 0 0 -1 0 288 cm
239.949 201.5 m 240.602 201.5 l S Q
q 1 0 0 -1 0 288 cm
240.602 201.5 m 241.25 201.5 l S Q
q 1 0 0 -1 0 288 cm
241.25 201.5 m 241.898 201.5 l S Q
q 1 0 0 -1 0 288 cm
241.898 201.5 m 242.602 201.5 l S Q
q 1 0 0 -1 0 288 cm
242.602 201.5 m 243.25 201.5 l S Q
q 1 0 0 -1 0 288 cm
243.25 201.5 m 243.898 201.5 l S Q
q 1 0 0 -1 0 288 cm
243.898 201.5 m 244.551 201.5 l S Q
q 1 0 0 -1 0 288 cm
244.551 201.5 m 245.199 201.5 l S Q
q 1 0 0 -1 0 288 cm
245.199 201.5 m 245.852 201.5 l S Q
q 1 0 0 -1 0 288 cm
245.852 201.5 m 246.551 201.5 l S Q
q 1 0 0 -1 0 288 cm
246.551 201.5 m 247.199 201.5 l S Q
q 1 0 0 -1 0 288 cm
247.199 201.5 m 247.852 201.5 l 247.852 204.102 l S Q
q 1 0 0 -1 0 288 cm
247.852 204.102 m 248.5 204.102 l 248.5 208.199 l S Q
q 1 0 0 -1 0 288 cm
248.5 208.199 m 249.148 208.199 l S Q
q 1 0 0 -1 0 288 cm
249.148 208.199 m 249.801 208.199 l S Q
q 1 0 0 -1 0 288 cm
249.801 208.199 m 250.449 208.199 l S Q
q 1 0 0 -1 0 288 cm
250.449 208.199 m 251.102 208.199 l S Q
q 1 0 0 -1 0 288 cm
251.102 208.199 m 251.75 208.199 l S Q
q 1 0 0 -1 0 288 cm
251.75 208.199 m 252.398 208.199 l S Q
q 1 0 0 -1 0 288 cm
252.398 208.199 m 253.051 208.199 l S Q
q 1 0 0 -1 0 288 cm
253.051 208.199 m 253.699 208.199 l S Q
q 1 0 0 -1 0 288 cm
253.699 208.199 m 254.352 208.199 l S Q
q 1 0 0 -1 0 288 cm
254.352 208.199 m 255 208.199 l S Q
q 1 0 0 -1 0 288 cm
255 208.199 m 255.602 208.199 l S Q
q 1 0 0 -1 0 288 cm
255.602 208.199 m 256.25 208.199 l S Q
q 1 0 0 -1 0 288 cm
256.25 208.199 m 256.898 208.199 l S Q
q 1 0 0 -1 0 288 cm
256.898 208.199 m 257.551 208.199 l S Q
q 1 0 0 -1 0 288 cm
257.551 208.199 m 258.199 208.199 l S Q
q 1 0 0 -1 0 288 cm
258.199 208.199 m 258.852 208.199 l S Q
q 1 0 0 -1 0 288 cm
258.852 208.199 m 259.5 208.199 l S Q
q 1 0 0 -1 0 288 cm
259.5 208.199 m 260.148 208.199 l S Q
q 1 0 0 -1 0 288 cm
260.148 208.199 m 260.801 208.199 l S Q
q 1 0 0 -1 0 288 cm
260.801 208.199 m 261.449 208.199 l S Q
q 1 0 0 -1 0 288 cm
261.449 208.199 m 262.148 208.199 l S Q
q 1 0 0 -1 0 288 cm
262.148 208.199 m 262.75 208.199 l S Q
q 1 0 0 -1 0 288 cm
262.75 208.199 m 263.449 208.199 l S Q
q 1 0 0 -1 0 288 cm
263.449 208.199 m 264.102 208.199 l S Q
q 1 0 0 -1 0 288 cm
264.102 208.199 m 264.75 208.199 l S Q
q 1 0 0 -1 0 288 cm
264.75 208.199 m 265.398 208.199 l S Q
q 1 0 0 -1 0 288 cm
265.398 208.199 m 266.051 208.199 l S Q
q 1 0 0 -1 0 288 cm
266.051 208.199 m 266.699 208.199 l S Q
q 1 0 0 -1 0 288 cm
266.699 208.199 m 267.352 208.199 l S Q
q 1 0 0 -1 0 288 cm
267.352 208.199 m 268 208.199 l S Q
q 1 0 0 -1 0 288 cm
268 208.199 m 268.648 208.199 l S Q
q 1 0 0 -1 0 288 cm
268.648 208.199 m 269.352 208.199 l S Q
q 1 0 0 -1 0 288 cm
269.352 208.199 m 270 208.199 l S Q
q 1 0 0 -1 0 288 cm
270 208.199 m 270.648 208.199 l S Q
q 1 0 0 -1 0 288 cm
270.648 208.199 m 271.301 208.199 l S Q
q 1 0 0 -1 0 288 cm
271.301 208.199 m 271.949 208.199 l S Q
q 1 0 0 -1 0 288 cm
271.949 208.199 m 272.648 208.199 l S Q
q 1 0 0 -1 0 288 cm
272.648 208.199 m 273.301 208.199 l S Q
q 1 0 0 -1 0 288 cm
273.301 208.199 m 273.949 208.199 l S Q
q 1 0 0 -1 0 288 cm
273.949 208.199 m 274.602 208.199 l S Q
q 1 0 0 -1 0 288 cm
274.602 208.199 m 275.25 208.199 l S Q
q 1 0 0 -1 0 288 cm
275.25 208.199 m 275.898 208.199 l S Q
q 1 0 0 -1 0 288 cm
275.898 208.199 m 276.551 208.199 l S Q
q 1 0 0 -1 0 288 cm
276.551 208.199 m 277.199 208.199 l S Q
q 1 0 0 -1 0 288 cm
277.199 208.199 m 277.852 208.199 l S Q
q 1 0 0 -1 0 288 cm
277.852 208.199 m 278.5 208.199 l S Q
q 1 0 0 -1 0 288 cm
278.5 208.199 m 279.148 208.199 l S Q
q 1 0 0 -1 0 288 cm
279.148 208.199 m 279.801 208.199 l S Q
q 1 0 0 -1 0 288 cm
279.801 208.199 m 280.449 208.199 l S Q
q 1 0 0 -1 0 288 cm
280.449 208.199 m 281.102 208.199 l S Q
q 1 0 0 -1 0 288 cm
281.102 208.199 m 281.75 208.199 l S Q
q 1 0 0 -1 0 288 cm
281.75 208.199 m 282.398 208.199 l S Q
q 1 0 0 -1 0 288 cm
282.398 208.199 m 283.051 208.199 l S Q
q 1 0 0 -1 0 288 cm
283.051 208.199 m 283.699 208.199 l S Q
q 1 0 0 -1 0 288 cm
283.699 208.199 m 284.352 208.199 l S Q
q 1 0 0 -1 0 288 cm
284.352 208.199 m 285 208.199 l S Q
q 1 0 0 -1 0 288 cm
285 208.199 m 285.648 208.199 l S Q
q 1 0 0 -1 0 288 cm
285.648 208.199 m 286.301 208.199 l S Q
q 1 0 0 -1 0 288 cm
286.301 208.199 m 286.949 208.199 l S Q
q 1 0 0 -1 0 288 cm
286.949 208.199 m 287.602 208.199 l S Q
q 1 0 0 -1 0 288 cm
287.602 208.199 m 288.25 208.199 l S Q
q 1 0 0 -1 0 288 cm
288.25 208.199 m 288.898 208.199 l S Q
q 1 0 0 -1 0 288 cm
288.898 208.199 m 289.551 208.199 l S Q
q 1 0 0 -1 0 288 cm
289.551 208.199 m 290.199 208.199 l S Q
q 1 0 0 -1 0 288 cm
290.199 208.199 m 290.852 208.199 l S Q
q 1 0 0 -1 0 288 cm
290.852 208.199 m 291.5 208.199 l S Q
q 1 0 0 -1 0 288 cm
291.5 208.199 m 292.148 208.199 l S Q
q 1 0 0 -1 0 288 cm
292.148 208.199 m 292.801 208.199 l S Q
q 1 0 0 -1 0 288 cm
292.801 208.199 m 293.449 208.199 l S Q
q 1 0 0 -1 0 288 cm
293.449 208.199 m 294.102 208.199 l S Q
q 1 0 0 -1 0 288 cm
294.102 208.199 m 294.75 208.199 l S Q
q 1 0 0 -1 0 288 cm
294.75 208.199 m 295.398 208.199 l S Q
q 1 0 0 -1 0 288 cm
295.398 208.199 m 296.051 208.199 l S Q
q 1 0 0 -1 0 288 cm
296.051 208.199 m 296.699 208.199 l S Q
q 1 0 0 -1 0 288 cm
296.699 208.199 m 297.398 208.199 l S Q
q 1 0 0 -1 0 288 cm
297.398 208.199 m 298.051 208.199 l S Q
q 1 0 0 -1 0 288 cm
298.051 208.199 m 298.699 208.199 l S Q
q 1 0 0 -1 0 288 cm
298.699 208.199 m 299.352 208.199 l S Q
q 1 0 0 -1 0 288 cm
299.352 208.199 m 300 208.199 l S Q
q 1 0 0 -1 0 288 cm
300 208.199 m 300.648 208.199 l S Q
q 1 0 0 -1 0 288 cm
300.648 208.199 m 301.301 208.199 l S Q
q 1 0 0 -1 0 288 cm
301.301 208.199 m 301.949 208.199 l S Q
q 1 0 0 -1 0 288 cm
301.949 208.199 m 302.602 208.199 l S Q
q 1 0 0 -1 0 288 cm
302.602 208.199 m 303.25 208.199 l S Q
q 1 0 0 -1 0 288 cm
303.25 208.199 m 303.898 208.199 l S Q
q 1 0 0 -1 0 288 cm
303.898 208.199 m 304.551 208.199 l S Q
q 1 0 0 -1 0 288 cm
304.551 208.199 m 305.199 208.199 l S Q
q 1 0 0 -1 0 288 cm
305.199 208.199 m 305.852 208.199 l S Q
q 1 0 0 -1 0 288 cm
305.852 208.199 m 306.5 208.199 l S Q
q 1 0 0 -1 0 288 cm
306.5 208.199 m 307.148 208.199 l S Q
q 1 0 0 -1 0 288 cm
307.148 208.199 m 307.801 208.199 l S Q
q 1 0 0 -1 0 288 cm
307.801 208.199 m 308.449 208.199 l S Q
q 1 0 0 -1 0 288 cm
308.449 208.199 m 309.102 208.199 l S Q
q 1 0 0 -1 0 288 cm
309.102 208.199 m 309.75 208.199 l S Q
q 1 0 0 -1 0 288 cm
309.75 208.199 m 310.398 208.199 l S Q
q 1 0 0 -1 0 288 cm
310.398 208.199 m 311.051 208.199 l S Q
q 1 0 0 -1 0 288 cm
311.051 208.199 m 311.699 208.199 l S Q
q 1 0 0 -1 0 288 cm
311.699 208.199 m 312.352 208.199 l S Q
q 1 0 0 -1 0 288 cm
312.352 208.199 m 313 208.199 l S Q
q 1 0 0 -1 0 288 cm
313 208.199 m 313.648 208.199 l S Q
q 1 0 0 -1 0 288 cm
313.648 208.199 m 314.301 208.199 l S Q
q 1 0 0 -1 0 288 cm
314.301 208.199 m 314.949 208.199 l S Q
q 1 0 0 -1 0 288 cm
314.949 208.199 m 315.602 208.199 l S Q
q 1 0 0 -1 0 288 cm
315.602 208.199 m 316.25 208.199 l S Q
q 1 0 0 -1 0 288 cm
316.25 208.199 m 316.898 208.199 l S Q
q 1 0 0 -1 0 288 cm
316.898 208.199 m 317.551 208.199 l S Q
q 1 0 0 -1 0 288 cm
317.551 208.199 m 318.199 208.199 l S Q
q 1 0 0 -1 0 288 cm
318.199 208.199 m 318.852 208.199 l S Q
q 1 0 0 -1 0 288 cm
318.852 208.199 m 319.5 208.199 l S Q
q 1 0 0 -1 0 288 cm
319.5 208.199 m 320.148 208.199 l S Q
q 1 0 0 -1 0 288 cm
320.148 208.199 m 320.852 208.199 l S Q
q 1 0 0 -1 0 288 cm
320.852 208.199 m 321.449 208.199 l S Q
q 1 0 0 -1 0 288 cm
321.449 208.199 m 322.102 208.199 l S Q
q 1 0 0 -1 0 288 cm
322.102 208.199 m 322.75 208.199 l S Q
q 1 0 0 -1 0 288 cm
322.75 208.199 m 323.398 208.199 l S Q
q 1 0 0 -1 0 288 cm
323.398 208.199 m 324.051 208.199 l S Q
q 1 0 0 -1 0 288 cm
324.051 208.199 m 324.699 208.199 l S Q
q 1 0 0 -1 0 288 cm
324.699 208.199 m 325.352 208.199 l S Q
q 1 0 0 -1 0 288 cm
325.352 208.199 m 326 208.199 l S Q
q 1 0 0 -1 0 288 cm
326 208.199 m 326.648 208.199 l S Q
q 1 0 0 -1 0 288 cm
326.648 208.199 m 327.301 208.199 l S Q
q 1 0 0 -1 0 288 cm
327.301 208.199 m 327.949 208.199 l S Q
q 1 0 0 -1 0 288 cm
327.949 208.199 m 328.602 208.199 l S Q
q 1 0 0 -1 0 288 cm
328.602 208.199 m 329.25 208.199 l S Q
q 1 0 0 -1 0 288 cm
329.25 208.199 m 329.898 208.199 l S Q
q 1 0 0 -1 0 288 cm
329.898 208.199 m 330.551 208.199 l S Q
q 1 0 0 -1 0 288 cm
330.551 208.199 m 331.199 208.199 l S Q
q 1 0 0 -1 0 288 cm
331.199 208.199 m 331.852 208.199 l S Q
q 1 0 0 -1 0 288 cm
331.852 208.199 m 332.5 208.199 l S Q
q 1 0 0 -1 0 288 cm
332.5 208.199 m 333.148 208.199 l S Q
q 1 0 0 -1 0 288 cm
333.148 208.199 m 333.801 208.199 l S Q
q 1 0 0 -1 0 288 cm
333.801 208.199 m 334.449 208.199 l S Q
q 1 0 0 -1 0 288 cm
334.449 208.199 m 335.102 208.199 l S Q
q 1 0 0 -1 0 288 cm
335.102 208.199 m 335.75 208.199 l S Q
q 1 0 0 -1 0 288 cm
335.75 208.199 m 336.398 208.199 l S Q
q 1 0 0 -1 0 288 cm
336.398 208.199 m 337.051 208.199 l S Q
q 1 0 0 -1 0 288 cm
337.051 208.199 m 337.699 208.199 l S Q
q 1 0 0 -1 0 288 cm
337.699 208.199 m 338.352 208.199 l S Q
q 1 0 0 -1 0 288 cm
338.352 208.199 m 339 208.199 l S Q
q 1 0 0 -1 0 288 cm
339 208.199 m 339.648 208.199 l S Q
q 1 0 0 -1 0 288 cm
339.648 208.199 m 340.301 208.199 l S Q
q 1 0 0 -1 0 288 cm
340.301 208.199 m 340.949 208.199 l S Q
q 1 0 0 -1 0 288 cm
340.949 208.199 m 341.602 208.199 l S Q
q 1 0 0 -1 0 288 cm
341.602 208.199 m 342.301 208.199 l S Q
q 1 0 0 -1 0 288 cm
342.301 208.199 m 342.949 208.199 l S Q
q 1 0 0 -1 0 288 cm
342.949 208.199 m 343.551 208.199 l S Q
q 1 0 0 -1 0 288 cm
343.551 208.199 m 344.199 208.199 l S Q
q 1 0 0 -1 0 288 cm
344.199 208.199 m 344.898 208.199 l S Q
q 1 0 0 -1 0 288 cm
344.898 208.199 m 345.551 208.199 l S Q
q 1 0 0 -1 0 288 cm
345.551 208.199 m 346.199 208.199 l S Q
q 1 0 0 -1 0 288 cm
346.199 208.199 m 346.852 208.199 l S Q
q 1 0 0 -1 0 288 cm
346.852 208.199 m 347.5 208.199 l S Q
q 1 0 0 -1 0 288 cm
347.5 208.199 m 348.148 208.199 l S Q
q 1 0 0 -1 0 288 cm
348.148 208.199 m 348.801 208.199 l S Q
q 1 0 0 -1 0 288 cm
348.801 208.199 m 349.449 208.199 l S Q
q 1 0 0 -1 0 288 cm
349.449 208.199 m 350.102 208.199 l S Q
q 1 0 0 -1 0 288 cm
350.102 208.199 m 350.75 208.199 l S Q
q 1 0 0 -1 0 288 cm
350.75 208.199 m 351.398 208.199 l S Q
q 1 0 0 -1 0 288 cm
351.398 208.199 m 352.051 208.199 l S Q
q 1 0 0 -1 0 288 cm
352.051 208.199 m 352.648 208.199 l S Q
q 1 0 0 -1 0 288 cm
352.648 208.199 m 353.301 208.199 l S Q
q 1 0 0 -1 0 288 cm
353.301 208.199 m 353.949 208.199 l S Q
q 1 0 0 -1 0 288 cm
353.949 208.199 m 354.648 208.199 l S Q
q 1 0 0 -1 0 288 cm
354.648 208.199 m 355.301 208.199 l S Q
q 1 0 0 -1 0 288 cm
355.301 208.199 m 355.898 208.199 l S Q
q 1 0 0 -1 0 288 cm
355.898 208.199 m 356.551 208.199 l S Q
q 1 0 0 -1 0 288 cm
356.551 208.199 m 357.199 208.199 l S Q
q 1 0 0 -1 0 288 cm
357.199 208.199 m 357.898 208.199 l S Q
q 1 0 0 -1 0 288 cm
357.898 208.199 m 358.5 208.199 l S Q
q 1 0 0 -1 0 288 cm
358.5 208.199 m 359.148 208.199 l S Q
q 1 0 0 -1 0 288 cm
359.148 208.199 m 359.852 208.199 l S Q
q 1 0 0 -1 0 288 cm
359.852 208.199 m 360.5 208.199 l S Q
q 1 0 0 -1 0 288 cm
360.5 208.199 m 361.148 208.199 l S Q
q 1 0 0 -1 0 288 cm
361.148 208.199 m 361.801 208.199 l S Q
q 1 0 0 -1 0 288 cm
361.801 208.199 m 362.449 208.199 l S Q
q 1 0 0 -1 0 288 cm
362.449 208.199 m 363.102 208.199 l S Q
q 1 0 0 -1 0 288 cm
363.102 208.199 m 363.75 208.199 l S Q
q 1 0 0 -1 0 288 cm
363.75 208.199 m 364.398 208.199 l S Q
q 1 0 0 -1 0 288 cm
364.398 208.199 m 365.051 208.199 l S Q
q 1 0 0 -1 0 288 cm
365.051 208.199 m 365.699 208.199 l S Q
q 1 0 0 -1 0 288 cm
365.699 208.199 m 366.352 208.199 l S Q
q 1 0 0 -1 0 288 cm
366.352 208.199 m 367 208.199 l S Q
q 1 0 0 -1 0 288 cm
367 208.199 m 367.648 208.199 l S Q
q 1 0 0 -1 0 288 cm
367.648 208.199 m 368.301 208.199 l S Q
q 1 0 0 -1 0 288 cm
368.301 208.199 m 368.949 208.199 l S Q
q 1 0 0 -1 0 288 cm
368.949 208.199 m 369.602 208.199 l S Q
q 1 0 0 -1 0 288 cm
369.602 208.199 m 370.25 208.199 l S Q
q 1 0 0 -1 0 288 cm
370.25 208.199 m 370.898 208.199 l S Q
q 1 0 0 -1 0 288 cm
370.898 208.199 m 371.551 208.199 l S Q
q 1 0 0 -1 0 288 cm
371.551 208.199 m 372.199 208.199 l S Q
q 1 0 0 -1 0 288 cm
372.199 208.199 m 372.852 208.199 l S Q
q 1 0 0 -1 0 288 cm
372.852 208.199 m 373.5 208.199 l S Q
q 1 0 0 -1 0 288 cm
373.5 208.199 m 374.148 208.199 l S Q
q 1 0 0 -1 0 288 cm
374.148 208.199 m 374.801 208.199 l S Q
q 1 0 0 -1 0 288 cm
374.801 208.199 m 375.449 208.199 l S Q
q 1 0 0 -1 0 288 cm
375.449 208.199 m 376.102 208.199 l S Q
q 1 0 0 -1 0 288 cm
376.102 208.199 m 376.75 208.199 l S Q
q 1 0 0 -1 0 288 cm
376.75 208.199 m 377.398 208.199 l 377.398 208.648 l S Q
q 1 0 0 -1 0 288 cm
377.398 208.648 m 378.051 208.648 l S Q
q 1 0 0 -1 0 288 cm
378.051 208.648 m 378.699 208.648 l S Q
q 1 0 0 -1 0 288 cm
378.699 208.648 m 379.352 208.648 l S Q
q 1 0 0 -1 0 288 cm
379.352 208.648 m 380 208.648 l S Q
q 1 0 0 -1 0 288 cm
380 208.648 m 380.648 208.648 l S Q
q 1 0 0 -1 0 288 cm
380.648 208.648 m 381.301 208.648 l S Q
q 1 0 0 -1 0 288 cm
381.301 208.648 m 381.949 208.648 l S Q
q 1 0 0 -1 0 288 cm
381.949 208.648 m 382.551 208.648 l S Q
q 1 0 0 -1 0 288 cm
382.551 208.648 m 383.199 208.648 l S Q
q 1 0 0 -1 0 288 cm
383.199 208.648 m 383.898 208.648 l S Q
q 1 0 0 -1 0 288 cm
383.898 208.648 m 384.5 208.648 l S Q
q 1 0 0 -1 0 288 cm
384.5 208.648 m 385.199 208.648 l S Q
q 1 0 0 -1 0 288 cm
385.199 208.648 m 385.801 208.648 l S Q
q 1 0 0 -1 0 288 cm
385.801 208.648 m 386.449 208.648 l S Q
q 1 0 0 -1 0 288 cm
386.449 208.648 m 387.148 208.648 l S Q
q 1 0 0 -1 0 288 cm
387.148 208.648 m 387.75 208.648 l S Q
q 1 0 0 -1 0 288 cm
387.75 208.648 m 388.398 208.648 l S Q
q 1 0 0 -1 0 288 cm
388.398 208.648 m 389.051 208.648 l S Q
q 1 0 0 -1 0 288 cm
389.051 208.648 m 389.699 208.648 l S Q
q 1 0 0 -1 0 288 cm
389.699 208.648 m 390.352 208.648 l S Q
q 1 0 0 -1 0 288 cm
390.352 208.648 m 391 208.648 l S Q
q 1 0 0 -1 0 288 cm
391 208.648 m 391.648 208.648 l S Q
q 1 0 0 -1 0 288 cm
391.648 208.648 m 392.301 208.648 l S Q
q 1 0 0 -1 0 288 cm
392.301 208.648 m 392.949 208.648 l S Q
q 1 0 0 -1 0 288 cm
392.949 208.648 m 393.648 208.648 l S Q
q 1 0 0 -1 0 288 cm
393.648 208.648 m 394.301 208.648 l S Q
q 1 0 0 -1 0 288 cm
394.301 208.648 m 394.949 208.648 l S Q
q 1 0 0 -1 0 288 cm
394.949 208.648 m 395.602 208.648 l S Q
q 1 0 0 -1 0 288 cm
395.602 208.648 m 396.25 208.648 l S Q
q 1 0 0 -1 0 288 cm
396.25 208.648 m 396.898 208.648 l S Q
q 1 0 0 -1 0 288 cm
396.898 208.648 m 397.551 208.648 l S Q
q 1 0 0 -1 0 288 cm
397.551 208.648 m 398.199 208.648 l S Q
q 1 0 0 -1 0 288 cm
398.199 208.648 m 398.852 208.648 l S Q
q 1 0 0 -1 0 288 cm
398.852 208.648 m 399.5 208.648 l S Q
q 1 0 0 -1 0 288 cm
399.5 208.648 m 400.148 208.648 l S Q
q 1 0 0 -1 0 288 cm
400.148 208.648 m 400.801 208.648 l S Q
q 1 0 0 -1 0 288 cm
400.801 208.648 m 401.449 208.648 l S Q
q 1 0 0 -1 0 288 cm
401.449 208.648 m 402.102 208.648 l S Q
q 1 0 0 -1 0 288 cm
402.102 208.648 m 402.75 208.648 l S Q
q 1 0 0 -1 0 288 cm
402.75 208.648 m 403.398 208.648 l S Q
q 1 0 0 -1 0 288 cm
403.398 208.648 m 404.051 208.648 l S Q
q 1 0 0 -1 0 288 cm
404.051 208.648 m 404.699 208.648 l S Q
q 1 0 0 -1 0 288 cm
404.699 208.648 m 405.352 208.648 l S Q
q 1 0 0 -1 0 288 cm
405.352 208.648 m 406 208.648 l S Q
q 1 0 0 -1 0 288 cm
406 208.648 m 406.648 208.648 l S Q
q 1 0 0 -1 0 288 cm
406.648 208.648 m 407.301 208.648 l S Q
q 1 0 0 -1 0 288 cm
407.301 208.648 m 407.949 208.648 l S Q
q 1 0 0 -1 0 288 cm
407.949 208.648 m 408.602 208.648 l S Q
q 1 0 0 -1 0 288 cm
408.602 208.648 m 409.25 208.648 l S Q
q 1 0 0 -1 0 288 cm
409.25 208.648 m 409.898 208.648 l S Q
q 1 0 0 -1 0 288 cm
409.898 208.648 m 410.551 208.648 l S Q
q 1 0 0 -1 0 288 cm
410.551 208.648 m 411.199 208.648 l S Q
q 1 0 0 -1 0 288 cm
411.199 208.648 m 411.852 208.648 l S Q
q 1 0 0 -1 0 288 cm
411.852 208.648 m 412.5 208.648 l S Q
q 1 0 0 -1 0 288 cm
412.5 208.648 m 413.148 208.648 l S Q
q 1 0 0 -1 0 288 cm
413.148 208.648 m 413.801 208.648 l S Q
q 1 0 0 -1 0 288 cm
413.801 208.648 m 414.449 208.648 l S Q
q 1 0 0 -1 0 288 cm
414.449 208.648 m 415.102 208.648 l S Q
q 1 0 0 -1 0 288 cm
415.102 208.648 m 415.75 208.648 l S Q
q 1 0 0 -1 0 288 cm
415.75 208.648 m 416.398 208.648 l S Q
q 1 0 0 -1 0 288 cm
416.398 208.648 m 417.051 208.648 l S Q
0 g
q 1 0 0 -1 0 288 cm
32.75 10.75 384.398 248 re S Q
Q Q
showpage
%%Trailer
end restore
%%EOF
