%!PS-Adobe-3.0 EPSF-3.0
%%Creator: cairo 1.13.1 (http://cairographics.org)
%%CreationDate: Fri May 20 09:20:35 2016
%%Pages: 1
%%DocumentData: Clean7Bit
%%LanguageLevel: 2
%%BoundingBox: 0 0 432 288
%%EndComments
%%BeginProlog
save
50 dict begin
/q { gsave } bind def
/Q { grestore } bind def
/cm { 6 array astore concat } bind def
/w { setlinewidth } bind def
/J { setlinecap } bind def
/j { setlinejoin } bind def
/M { setmiterlimit } bind def
/d { setdash } bind def
/m { moveto } bind def
/l { lineto } bind def
/c { curveto } bind def
/h { closepath } bind def
/re { exch dup neg 3 1 roll 5 3 roll moveto 0 rlineto
      0 exch rlineto 0 rlineto closepath } bind def
/S { stroke } bind def
/f { fill } bind def
/f* { eofill } bind def
/n { newpath } bind def
/W { clip } bind def
/W* { eoclip } bind def
/BT { } bind def
/ET { } bind def
/pdfmark where { pop globaldict /?pdfmark /exec load put }
    { globaldict begin /?pdfmark /pop load def /pdfmark
    /cleartomark load def end } ifelse
/BDC { mark 3 1 roll /BDC pdfmark } bind def
/EMC { mark /EMC pdfmark } bind def
/cairo_store_point { /cairo_point_y exch def /cairo_point_x exch def } def
/Tj { show currentpoint cairo_store_point } bind def
/TJ {
  {
    dup
    type /stringtype eq
    { show } { -0.001 mul 0 cairo_font_matrix dtransform rmoveto } ifelse
  } forall
  currentpoint cairo_store_point
} bind def
/cairo_selectfont { cairo_font_matrix aload pop pop pop 0 0 6 array astore
    cairo_font exch selectfont cairo_point_x cairo_point_y moveto } bind def
/Tf { pop /cairo_font exch def /cairo_font_matrix where
      { pop cairo_selectfont } if } bind def
/Td { matrix translate cairo_font_matrix matrix concatmatrix dup
      /cairo_font_matrix exch def dup 4 get exch 5 get cairo_store_point
      /cairo_font where { pop cairo_selectfont } if } bind def
/Tm { 2 copy 8 2 roll 6 array astore /cairo_font_matrix exch def
      cairo_store_point /cairo_font where { pop cairo_selectfont } if } bind def
/g { setgray } bind def
/rg { setrgbcolor } bind def
/d1 { setcachedevice } bind def
%%EndProlog
%%BeginSetup
%%EndSetup
%%Page: 1 1
%%BeginPageSetup
%%PageBoundingBox: 0 0 432 288
%%EndPageSetup
q 37 29 381 249 rectclip q
0 g
0.15 w
2 J
0 j
[ 0.2 2] 0 d
3.8 M q 1 0 0 -1 0 288 cm
37.852 258.75 m 417.148 258.75 l S Q
0.25 w
[] 0.0 d
q 1 0 0 -1 0 288 cm
37.852 258.75 m 41.551 258.75 l S Q
q 1 0 0 -1 0 288 cm
417.148 258.75 m 413.449 258.75 l S Q
0.15 w
[ 0.2 2] 0 d
q 1 0 0 -1 0 288 cm
37.852 233.949 m 417.148 233.949 l S Q
0.25 w
[] 0.0 d
q 1 0 0 -1 0 288 cm
37.852 233.949 m 41.551 233.949 l S Q
q 1 0 0 -1 0 288 cm
417.148 233.949 m 413.449 233.949 l S Q
0.15 w
[ 0.2 2] 0 d
q 1 0 0 -1 0 288 cm
37.852 209.148 m 417.148 209.148 l S Q
0.25 w
[] 0.0 d
q 1 0 0 -1 0 288 cm
37.852 209.148 m 41.551 209.148 l S Q
q 1 0 0 -1 0 288 cm
417.148 209.148 m 413.449 209.148 l S Q
0.15 w
[ 0.2 2] 0 d
q 1 0 0 -1 0 288 cm
37.852 184.352 m 417.148 184.352 l S Q
0.25 w
[] 0.0 d
q 1 0 0 -1 0 288 cm
37.852 184.352 m 41.551 184.352 l S Q
q 1 0 0 -1 0 288 cm
417.148 184.352 m 413.449 184.352 l S Q
0.15 w
[ 0.2 2] 0 d
q 1 0 0 -1 0 288 cm
37.852 159.551 m 417.148 159.551 l S Q
0.25 w
[] 0.0 d
q 1 0 0 -1 0 288 cm
37.852 159.551 m 41.551 159.551 l S Q
q 1 0 0 -1 0 288 cm
417.148 159.551 m 413.449 159.551 l S Q
0.15 w
[ 0.2 2] 0 d
q 1 0 0 -1 0 288 cm
37.852 134.75 m 417.148 134.75 l S Q
0.25 w
[] 0.0 d
q 1 0 0 -1 0 288 cm
37.852 134.75 m 41.551 134.75 l S Q
q 1 0 0 -1 0 288 cm
417.148 134.75 m 413.449 134.75 l S Q
0.15 w
[ 0.2 2] 0 d
q 1 0 0 -1 0 288 cm
37.852 109.949 m 417.148 109.949 l S Q
0.25 w
[] 0.0 d
q 1 0 0 -1 0 288 cm
37.852 109.949 m 41.551 109.949 l S Q
q 1 0 0 -1 0 288 cm
417.148 109.949 m 413.449 109.949 l S Q
0.15 w
[ 0.2 2] 0 d
q 1 0 0 -1 0 288 cm
37.852 85.148 m 417.148 85.148 l S Q
0.25 w
[] 0.0 d
q 1 0 0 -1 0 288 cm
37.852 85.148 m 41.551 85.148 l S Q
q 1 0 0 -1 0 288 cm
417.148 85.148 m 413.449 85.148 l S Q
0.15 w
[ 0.2 2] 0 d
q 1 0 0 -1 0 288 cm
37.852 60.352 m 417.148 60.352 l S Q
0.25 w
[] 0.0 d
q 1 0 0 -1 0 288 cm
37.852 60.352 m 41.551 60.352 l S Q
q 1 0 0 -1 0 288 cm
417.148 60.352 m 413.449 60.352 l S Q
0.15 w
[ 0.2 2] 0 d
q 1 0 0 -1 0 288 cm
37.852 35.551 m 417.148 35.551 l S Q
0.25 w
[] 0.0 d
q 1 0 0 -1 0 288 cm
37.852 35.551 m 41.551 35.551 l S Q
q 1 0 0 -1 0 288 cm
417.148 35.551 m 413.449 35.551 l S Q
0.15 w
[ 0.2 2] 0 d
q 1 0 0 -1 0 288 cm
37.852 10.75 m 417.148 10.75 l S Q
0.25 w
[] 0.0 d
q 1 0 0 -1 0 288 cm
37.852 10.75 m 41.551 10.75 l S Q
q 1 0 0 -1 0 288 cm
417.148 10.75 m 413.449 10.75 l S Q
0.15 w
[ 0.2 2] 0 d
q 1 0 0 -1 0 288 cm
37.852 258.75 m 37.852 10.75 l S Q
0.25 w
[] 0.0 d
q 1 0 0 -1 0 288 cm
37.852 258.75 m 37.852 255.051 l S Q
q 1 0 0 -1 0 288 cm
37.852 10.75 m 37.852 14.449 l S Q
q 1 0 0 -1 0 288 cm
50.5 258.75 m 50.5 256.898 l S Q
q 1 0 0 -1 0 288 cm
50.5 10.75 m 50.5 12.602 l S Q
q 1 0 0 -1 0 288 cm
63.148 258.75 m 63.148 256.898 l S Q
q 1 0 0 -1 0 288 cm
63.148 10.75 m 63.148 12.602 l S Q
q 1 0 0 -1 0 288 cm
75.801 258.75 m 75.801 256.898 l S Q
q 1 0 0 -1 0 288 cm
75.801 10.75 m 75.801 12.602 l S Q
q 1 0 0 -1 0 288 cm
88.398 258.75 m 88.398 256.898 l S Q
q 1 0 0 -1 0 288 cm
88.398 10.75 m 88.398 12.602 l S Q
0.15 w
[ 0.2 2] 0 d
q 1 0 0 -1 0 288 cm
101.051 258.75 m 101.051 10.75 l S Q
0.25 w
[] 0.0 d
q 1 0 0 -1 0 288 cm
101.051 258.75 m 101.051 255.051 l S Q
q 1 0 0 -1 0 288 cm
101.051 10.75 m 101.051 14.449 l S Q
q 1 0 0 -1 0 288 cm
113.699 258.75 m 113.699 256.898 l S Q
q 1 0 0 -1 0 288 cm
113.699 10.75 m 113.699 12.602 l S Q
q 1 0 0 -1 0 288 cm
126.352 258.75 m 126.352 256.898 l S Q
q 1 0 0 -1 0 288 cm
126.352 10.75 m 126.352 12.602 l S Q
q 1 0 0 -1 0 288 cm
139 258.75 m 139 256.898 l S Q
q 1 0 0 -1 0 288 cm
139 10.75 m 139 12.602 l S Q
q 1 0 0 -1 0 288 cm
151.648 258.75 m 151.648 256.898 l S Q
q 1 0 0 -1 0 288 cm
151.648 10.75 m 151.648 12.602 l S Q
0.15 w
[ 0.2 2] 0 d
q 1 0 0 -1 0 288 cm
164.301 258.75 m 164.301 10.75 l S Q
0.25 w
[] 0.0 d
q 1 0 0 -1 0 288 cm
164.301 258.75 m 164.301 255.051 l S Q
q 1 0 0 -1 0 288 cm
164.301 10.75 m 164.301 14.449 l S Q
q 1 0 0 -1 0 288 cm
176.949 258.75 m 176.949 256.898 l S Q
q 1 0 0 -1 0 288 cm
176.949 10.75 m 176.949 12.602 l S Q
q 1 0 0 -1 0 288 cm
189.551 258.75 m 189.551 256.898 l S Q
q 1 0 0 -1 0 288 cm
189.551 10.75 m 189.551 12.602 l S Q
q 1 0 0 -1 0 288 cm
202.199 258.75 m 202.199 256.898 l S Q
q 1 0 0 -1 0 288 cm
202.199 10.75 m 202.199 12.602 l S Q
q 1 0 0 -1 0 288 cm
214.852 258.75 m 214.852 256.898 l S Q
q 1 0 0 -1 0 288 cm
214.852 10.75 m 214.852 12.602 l S Q
0.15 w
[ 0.2 2] 0 d
q 1 0 0 -1 0 288 cm
227.5 258.75 m 227.5 33.051 l S Q
[ 0.2 2] 0 d
q 1 0 0 -1 0 288 cm
227.5 14.449 m 227.5 10.75 l S Q
0.25 w
[] 0.0 d
q 1 0 0 -1 0 288 cm
227.5 258.75 m 227.5 255.051 l S Q
q 1 0 0 -1 0 288 cm
227.5 10.75 m 227.5 14.449 l S Q
q 1 0 0 -1 0 288 cm
240.148 258.75 m 240.148 256.898 l S Q
q 1 0 0 -1 0 288 cm
240.148 10.75 m 240.148 12.602 l S Q
q 1 0 0 -1 0 288 cm
252.801 258.75 m 252.801 256.898 l S Q
q 1 0 0 -1 0 288 cm
252.801 10.75 m 252.801 12.602 l S Q
q 1 0 0 -1 0 288 cm
265.449 258.75 m 265.449 256.898 l S Q
q 1 0 0 -1 0 288 cm
265.449 10.75 m 265.449 12.602 l S Q
q 1 0 0 -1 0 288 cm
278.051 258.75 m 278.051 256.898 l S Q
q 1 0 0 -1 0 288 cm
278.051 10.75 m 278.051 12.602 l S Q
0.15 w
[ 0.2 2] 0 d
q 1 0 0 -1 0 288 cm
290.699 258.75 m 290.699 33.051 l S Q
[ 0.2 2] 0 d
q 1 0 0 -1 0 288 cm
290.699 14.449 m 290.699 10.75 l S Q
0.25 w
[] 0.0 d
q 1 0 0 -1 0 288 cm
290.699 258.75 m 290.699 255.051 l S Q
q 1 0 0 -1 0 288 cm
290.699 10.75 m 290.699 14.449 l S Q
q 1 0 0 -1 0 288 cm
303.352 258.75 m 303.352 256.898 l S Q
q 1 0 0 -1 0 288 cm
303.352 10.75 m 303.352 12.602 l S Q
q 1 0 0 -1 0 288 cm
316 258.75 m 316 256.898 l S Q
q 1 0 0 -1 0 288 cm
316 10.75 m 316 12.602 l S Q
q 1 0 0 -1 0 288 cm
328.648 258.75 m 328.648 256.898 l S Q
q 1 0 0 -1 0 288 cm
328.648 10.75 m 328.648 12.602 l S Q
q 1 0 0 -1 0 288 cm
341.301 258.75 m 341.301 256.898 l S Q
q 1 0 0 -1 0 288 cm
341.301 10.75 m 341.301 12.602 l S Q
0.15 w
[ 0.2 2] 0 d
q 1 0 0 -1 0 288 cm
353.949 258.75 m 353.949 33.051 l S Q
[ 0.2 2] 0 d
q 1 0 0 -1 0 288 cm
353.949 14.449 m 353.949 10.75 l S Q
0.25 w
[] 0.0 d
q 1 0 0 -1 0 288 cm
353.949 258.75 m 353.949 255.051 l S Q
q 1 0 0 -1 0 288 cm
353.949 10.75 m 353.949 14.449 l S Q
q 1 0 0 -1 0 288 cm
366.602 258.75 m 366.602 256.898 l S Q
q 1 0 0 -1 0 288 cm
366.602 10.75 m 366.602 12.602 l S Q
q 1 0 0 -1 0 288 cm
379.199 258.75 m 379.199 256.898 l S Q
q 1 0 0 -1 0 288 cm
379.199 10.75 m 379.199 12.602 l S Q
q 1 0 0 -1 0 288 cm
391.852 258.75 m 391.852 256.898 l S Q
q 1 0 0 -1 0 288 cm
391.852 10.75 m 391.852 12.602 l S Q
q 1 0 0 -1 0 288 cm
404.5 258.75 m 404.5 256.898 l S Q
q 1 0 0 -1 0 288 cm
404.5 10.75 m 404.5 12.602 l S Q
0.15 w
[ 0.2 2] 0 d
q 1 0 0 -1 0 288 cm
417.148 258.75 m 417.148 10.75 l S Q
0.25 w
[] 0.0 d
q 1 0 0 -1 0 288 cm
417.148 258.75 m 417.148 255.051 l S Q
q 1 0 0 -1 0 288 cm
417.148 10.75 m 417.148 14.449 l S Q
q 1 0 0 -1 0 288 cm
37.852 10.75 379.297 248 re S Q
q 1 0 0 -1 0 288 cm
37.852 258.75 m 417.148 258.75 l S Q
0.74902 0.145098 0.172549 rg
q 1 0 0 -1 0 288 cm
382.852 28.398 m 406.949 28.398 l S Q
q 1 0 0 -1 0 288 cm
42.852 10.75 m 42.852 48.051 l S Q
q 1 0 0 -1 0 288 cm
42.852 48.051 m 43.449 48.051 l 43.449 73.699 l S Q
q 1 0 0 -1 0 288 cm
43.449 73.699 m 43.898 73.699 l 43.898 85.801 l S Q
q 1 0 0 -1 0 288 cm
43.898 85.801 m 44.25 85.801 l 44.25 88 l S Q
q 1 0 0 -1 0 288 cm
44.25 88 m 45.199 88 l 45.199 91.602 l S Q
q 1 0 0 -1 0 288 cm
45.199 91.602 m 45.602 91.602 l 45.602 93.301 l S Q
q 1 0 0 -1 0 288 cm
45.602 93.301 m 46.051 93.301 l 46.051 101.648 l S Q
q 1 0 0 -1 0 288 cm
46.051 101.648 m 48.352 101.648 l 48.352 108.551 l S Q
q 1 0 0 -1 0 288 cm
48.352 108.551 m 49 108.551 l 49 113.602 l S Q
q 1 0 0 -1 0 288 cm
49 113.602 m 50.102 113.602 l 50.102 123.051 l S Q
q 1 0 0 -1 0 288 cm
50.102 123.051 m 50.551 123.051 l 50.551 127.051 l S Q
q 1 0 0 -1 0 288 cm
50.551 127.051 m 51.148 127.051 l 51.148 132.5 l S Q
q 1 0 0 -1 0 288 cm
51.148 132.5 m 51.648 132.5 l 51.648 133.852 l S Q
q 1 0 0 -1 0 288 cm
51.648 133.852 m 52.148 133.852 l 52.148 135.449 l S Q
q 1 0 0 -1 0 288 cm
52.148 135.449 m 53.301 135.449 l 53.301 137.102 l S Q
q 1 0 0 -1 0 288 cm
53.301 137.102 m 54.449 137.102 l 54.449 138.648 l S Q
q 1 0 0 -1 0 288 cm
54.449 138.648 m 55.602 138.648 l 55.602 142.949 l S Q
q 1 0 0 -1 0 288 cm
55.602 142.949 m 58.051 142.949 l 58.051 145.25 l S Q
q 1 0 0 -1 0 288 cm
58.051 145.25 m 60.949 145.25 l 60.949 159.051 l S Q
q 1 0 0 -1 0 288 cm
60.949 159.051 m 64.551 159.051 l 64.551 161 l S Q
q 1 0 0 -1 0 288 cm
64.551 161 m 66.801 161 l 66.801 162.551 l S Q
q 1 0 0 -1 0 288 cm
66.801 162.551 m 67.398 162.551 l 67.398 163.199 l S Q
q 1 0 0 -1 0 288 cm
67.398 163.199 m 71.449 163.199 l 71.449 163.602 l S Q
q 1 0 0 -1 0 288 cm
71.449 163.602 m 71.801 163.602 l 71.801 164.602 l S Q
q 1 0 0 -1 0 288 cm
71.801 164.602 m 72.5 164.602 l 72.5 167.449 l S Q
q 1 0 0 -1 0 288 cm
72.5 167.449 m 76.602 167.449 l 76.602 170.898 l S Q
q 1 0 0 -1 0 288 cm
76.602 170.898 m 87.699 170.898 l 87.699 180.148 l S Q
q 1 0 0 -1 0 288 cm
87.699 180.148 m 90.102 180.148 l 90.102 183.949 l S Q
q 1 0 0 -1 0 288 cm
90.102 183.949 m 91 183.949 l S Q
q 1 0 0 -1 0 288 cm
91 183.949 m 91.398 183.949 l 91.398 184.5 l S Q
q 1 0 0 -1 0 288 cm
91.398 184.5 m 92.852 184.5 l S Q
q 1 0 0 -1 0 288 cm
92.852 184.5 m 93.051 184.5 l S Q
q 1 0 0 -1 0 288 cm
93.051 184.5 m 94.398 184.5 l S Q
q 1 0 0 -1 0 288 cm
94.398 184.5 m 94.852 184.5 l 94.852 196.602 l S Q
q 1 0 0 -1 0 288 cm
94.852 196.602 m 95.148 196.602 l S Q
q 1 0 0 -1 0 288 cm
95.148 196.602 m 96.852 196.602 l S Q
q 1 0 0 -1 0 288 cm
96.852 196.602 m 97.25 196.602 l S Q
q 1 0 0 -1 0 288 cm
97.25 196.602 m 99.352 196.602 l S Q
q 1 0 0 -1 0 288 cm
99.352 196.602 m 99.75 196.602 l S Q
q 1 0 0 -1 0 288 cm
99.75 196.602 m 101.75 196.602 l S Q
q 1 0 0 -1 0 288 cm
101.75 196.602 m 102.102 196.602 l 102.102 211.75 l S Q
q 1 0 0 -1 0 288 cm
102.102 211.75 m 102.398 211.75 l S Q
q 1 0 0 -1 0 288 cm
102.398 211.75 m 104.551 211.75 l S Q
q 1 0 0 -1 0 288 cm
104.551 211.75 m 104.898 211.75 l S Q
q 1 0 0 -1 0 288 cm
104.898 211.75 m 106.699 211.75 l S Q
q 1 0 0 -1 0 288 cm
106.699 211.75 m 106.949 211.75 l S Q
q 1 0 0 -1 0 288 cm
106.949 211.75 m 108.898 211.75 l S Q
q 1 0 0 -1 0 288 cm
108.898 211.75 m 109.051 211.75 l 109.051 225.801 l S Q
q 1 0 0 -1 0 288 cm
109.051 225.801 m 109.301 225.801 l S Q
q 1 0 0 -1 0 288 cm
109.301 225.801 m 111.199 225.801 l S Q
q 1 0 0 -1 0 288 cm
111.199 225.801 m 111.449 225.801 l 111.449 228.051 l S Q
q 1 0 0 -1 0 288 cm
111.449 228.051 m 111.648 228.051 l S Q
q 1 0 0 -1 0 288 cm
111.648 228.051 m 113.75 228.051 l S Q
q 1 0 0 -1 0 288 cm
113.75 228.051 m 113.852 228.051 l 113.852 231.051 l S Q
q 1 0 0 -1 0 288 cm
113.852 231.051 m 114.102 231.051 l S Q
q 1 0 0 -1 0 288 cm
114.102 231.051 m 116.102 231.051 l S Q
q 1 0 0 -1 0 288 cm
116.102 231.051 m 116.148 231.051 l 116.148 233.5 l S Q
q 1 0 0 -1 0 288 cm
116.148 233.5 m 116.352 233.5 l S Q
q 1 0 0 -1 0 288 cm
116.352 233.5 m 118.301 233.5 l S Q
q 1 0 0 -1 0 288 cm
118.301 233.5 m 118.449 233.5 l 118.449 233.648 l S Q
q 1 0 0 -1 0 288 cm
118.449 233.648 m 118.602 233.648 l S Q
q 1 0 0 -1 0 288 cm
118.602 233.648 m 120.551 233.648 l S Q
q 1 0 0 -1 0 288 cm
120.551 233.648 m 120.898 233.648 l S Q
q 1 0 0 -1 0 288 cm
120.898 233.648 m 122.199 233.648 l S Q
q 1 0 0 -1 0 288 cm
122.199 233.648 m 122.449 233.648 l S Q
q 1 0 0 -1 0 288 cm
122.449 233.648 m 123.102 233.648 l S Q
q 1 0 0 -1 0 288 cm
123.102 233.648 m 123.25 233.648 l 123.25 234.75 l S Q
q 1 0 0 -1 0 288 cm
123.25 234.75 m 123.352 234.75 l S Q
q 1 0 0 -1 0 288 cm
123.352 234.75 m 124.102 234.75 l S Q
q 1 0 0 -1 0 288 cm
124.102 234.75 m 124.25 234.75 l 124.25 238.051 l S Q
q 1 0 0 -1 0 288 cm
124.25 238.051 m 124.398 238.051 l S Q
q 1 0 0 -1 0 288 cm
124.398 238.051 m 125.102 238.051 l S Q
q 1 0 0 -1 0 288 cm
125.102 238.051 m 125.301 238.051 l S Q
q 1 0 0 -1 0 288 cm
125.301 238.051 m 126 238.051 l S Q
q 1 0 0 -1 0 288 cm
126 238.051 m 126.25 238.051 l S Q
q 1 0 0 -1 0 288 cm
126.25 238.051 m 127.051 238.051 l S Q
q 1 0 0 -1 0 288 cm
127.051 238.051 m 127.352 238.051 l S Q
q 1 0 0 -1 0 288 cm
127.352 238.051 m 128 238.051 l S Q
q 1 0 0 -1 0 288 cm
128 238.051 m 128.199 238.051 l S Q
q 1 0 0 -1 0 288 cm
128.199 238.051 m 128.898 238.051 l S Q
q 1 0 0 -1 0 288 cm
128.898 238.051 m 129.148 238.051 l S Q
q 1 0 0 -1 0 288 cm
129.148 238.051 m 129.801 238.051 l S Q
q 1 0 0 -1 0 288 cm
129.801 238.051 m 130.102 238.051 l S Q
q 1 0 0 -1 0 288 cm
130.102 238.051 m 130.699 238.051 l S Q
q 1 0 0 -1 0 288 cm
130.699 238.051 m 130.852 238.051 l S Q
q 1 0 0 -1 0 288 cm
130.852 238.051 m 131.5 238.051 l S Q
q 1 0 0 -1 0 288 cm
131.5 238.051 m 131.699 238.051 l S Q
q 1 0 0 -1 0 288 cm
131.699 238.051 m 132.301 238.051 l S Q
q 1 0 0 -1 0 288 cm
132.301 238.051 m 132.449 238.051 l S Q
q 1 0 0 -1 0 288 cm
132.449 238.051 m 133.102 238.051 l S Q
q 1 0 0 -1 0 288 cm
133.102 238.051 m 133.199 238.051 l S Q
q 1 0 0 -1 0 288 cm
133.199 238.051 m 133.301 238.051 l S Q
q 1 0 0 -1 0 288 cm
133.301 238.051 m 133.898 238.051 l S Q
q 1 0 0 -1 0 288 cm
133.898 238.051 m 134.051 238.051 l S Q
q 1 0 0 -1 0 288 cm
134.051 238.051 m 134.102 238.051 l S Q
q 1 0 0 -1 0 288 cm
134.102 238.051 m 134.801 238.051 l S Q
q 1 0 0 -1 0 288 cm
134.801 238.051 m 135.051 238.051 l S Q
q 1 0 0 -1 0 288 cm
135.051 238.051 m 135.648 238.051 l S Q
q 1 0 0 -1 0 288 cm
135.648 238.051 m 135.75 238.051 l S Q
q 1 0 0 -1 0 288 cm
135.75 238.051 m 136.352 238.051 l S Q
q 1 0 0 -1 0 288 cm
136.352 238.051 m 136.5 238.051 l S Q
q 1 0 0 -1 0 288 cm
136.5 238.051 m 137.25 238.051 l S Q
q 1 0 0 -1 0 288 cm
137.25 238.051 m 137.449 238.051 l S Q
q 1 0 0 -1 0 288 cm
137.449 238.051 m 138.148 238.051 l S Q
q 1 0 0 -1 0 288 cm
138.148 238.051 m 138.301 238.051 l S Q
q 1 0 0 -1 0 288 cm
138.301 238.051 m 139.148 238.051 l S Q
q 1 0 0 -1 0 288 cm
139.148 238.051 m 139.398 238.051 l S Q
q 1 0 0 -1 0 288 cm
139.398 238.051 m 140.051 238.051 l S Q
q 1 0 0 -1 0 288 cm
140.051 238.051 m 140.102 238.051 l 140.102 238.301 l S Q
q 1 0 0 -1 0 288 cm
140.102 238.301 m 140.199 238.301 l S Q
q 1 0 0 -1 0 288 cm
140.199 238.301 m 140.852 238.301 l S Q
q 1 0 0 -1 0 288 cm
140.852 238.301 m 141.102 238.301 l S Q
q 1 0 0 -1 0 288 cm
141.102 238.301 m 141.75 238.301 l S Q
q 1 0 0 -1 0 288 cm
141.75 238.301 m 141.898 238.301 l S Q
q 1 0 0 -1 0 288 cm
141.898 238.301 m 142.551 238.301 l S Q
q 1 0 0 -1 0 288 cm
142.551 238.301 m 142.648 238.301 l 142.648 238.551 l S Q
q 1 0 0 -1 0 288 cm
142.648 238.551 m 142.75 238.551 l S Q
q 1 0 0 -1 0 288 cm
142.75 238.551 m 143.352 238.551 l S Q
q 1 0 0 -1 0 288 cm
143.352 238.551 m 143.602 238.551 l S Q
q 1 0 0 -1 0 288 cm
143.602 238.551 m 144.199 238.551 l S Q
q 1 0 0 -1 0 288 cm
144.199 238.551 m 144.352 238.551 l S Q
q 1 0 0 -1 0 288 cm
144.352 238.551 m 144.949 238.551 l S Q
q 1 0 0 -1 0 288 cm
144.949 238.551 m 145.051 238.551 l S Q
q 1 0 0 -1 0 288 cm
145.051 238.551 m 145.648 238.551 l S Q
q 1 0 0 -1 0 288 cm
145.648 238.551 m 146.051 238.551 l S Q
q 1 0 0 -1 0 288 cm
146.051 238.551 m 146.648 238.551 l S Q
q 1 0 0 -1 0 288 cm
146.648 238.551 m 146.898 238.551 l S Q
q 1 0 0 -1 0 288 cm
146.898 238.551 m 147.602 238.551 l S Q
q 1 0 0 -1 0 288 cm
147.602 238.551 m 147.75 238.551 l S Q
q 1 0 0 -1 0 288 cm
147.75 238.551 m 148.398 238.551 l S Q
q 1 0 0 -1 0 288 cm
148.398 238.551 m 148.551 238.551 l S Q
q 1 0 0 -1 0 288 cm
148.551 238.551 m 149.25 238.551 l S Q
q 1 0 0 -1 0 288 cm
149.25 238.551 m 149.398 238.551 l S Q
q 1 0 0 -1 0 288 cm
149.398 238.551 m 150.051 238.551 l S Q
q 1 0 0 -1 0 288 cm
150.051 238.551 m 150.199 238.551 l S Q
q 1 0 0 -1 0 288 cm
150.199 238.551 m 150.898 238.551 l S Q
q 1 0 0 -1 0 288 cm
150.898 238.551 m 151.199 238.551 l S Q
q 1 0 0 -1 0 288 cm
151.199 238.551 m 151.898 238.551 l S Q
q 1 0 0 -1 0 288 cm
151.898 238.551 m 152 238.551 l S Q
q 1 0 0 -1 0 288 cm
152 238.551 m 152.75 238.551 l S Q
q 1 0 0 -1 0 288 cm
152.75 238.551 m 152.852 238.551 l S Q
q 1 0 0 -1 0 288 cm
152.852 238.551 m 153.551 238.551 l S Q
q 1 0 0 -1 0 288 cm
153.551 238.551 m 153.699 238.551 l S Q
q 1 0 0 -1 0 288 cm
153.699 238.551 m 154.398 238.551 l S Q
q 1 0 0 -1 0 288 cm
154.398 238.551 m 154.551 238.551 l S Q
q 1 0 0 -1 0 288 cm
154.551 238.551 m 155.199 238.551 l S Q
q 1 0 0 -1 0 288 cm
155.199 238.551 m 155.301 238.551 l S Q
q 1 0 0 -1 0 288 cm
155.301 238.551 m 155.949 238.551 l S Q
q 1 0 0 -1 0 288 cm
155.949 238.551 m 156.051 238.551 l S Q
q 1 0 0 -1 0 288 cm
156.051 238.551 m 156.699 238.551 l S Q
q 1 0 0 -1 0 288 cm
156.699 238.551 m 156.801 238.551 l S Q
q 1 0 0 -1 0 288 cm
156.801 238.551 m 157.398 238.551 l S Q
q 1 0 0 -1 0 288 cm
157.398 238.551 m 228.301 238.551 l 228.301 240.602 l S Q
q 1 0 0 -1 0 288 cm
228.301 240.602 m 231.551 240.602 l S Q
q 1 0 0 -1 0 288 cm
231.551 240.602 m 232 240.602 l 232 241.301 l S Q
q 1 0 0 -1 0 288 cm
232 241.301 m 237.449 241.301 l S Q
q 1 0 0 -1 0 288 cm
237.449 241.301 m 239.551 241.301 l S Q
q 1 0 0 -1 0 288 cm
239.551 241.301 m 240.051 241.301 l S Q
q 1 0 0 -1 0 288 cm
240.051 241.301 m 242.102 241.301 l S Q
q 1 0 0 -1 0 288 cm
242.102 241.301 m 242.5 241.301 l S Q
q 1 0 0 -1 0 288 cm
242.5 241.301 m 244.75 241.301 l S Q
q 1 0 0 -1 0 288 cm
244.75 241.301 m 245.148 241.301 l 245.148 241.801 l S Q
q 1 0 0 -1 0 288 cm
245.148 241.801 m 245.352 241.801 l S Q
q 1 0 0 -1 0 288 cm
245.352 241.801 m 247.551 241.801 l S Q
q 1 0 0 -1 0 288 cm
247.551 241.801 m 247.801 241.801 l S Q
q 1 0 0 -1 0 288 cm
247.801 241.801 m 249.898 241.801 l S Q
q 1 0 0 -1 0 288 cm
249.898 241.801 m 250.051 241.801 l S Q
q 1 0 0 -1 0 288 cm
250.051 241.801 m 251.949 241.801 l S Q
q 1 0 0 -1 0 288 cm
251.949 241.801 m 252.301 241.801 l S Q
q 1 0 0 -1 0 288 cm
252.301 241.801 m 254.25 241.801 l S Q
q 1 0 0 -1 0 288 cm
254.25 241.801 m 254.398 241.801 l S Q
q 1 0 0 -1 0 288 cm
254.398 241.801 m 256.398 241.801 l S Q
q 1 0 0 -1 0 288 cm
256.398 241.801 m 256.648 241.801 l S Q
q 1 0 0 -1 0 288 cm
256.648 241.801 m 258.699 241.801 l S Q
q 1 0 0 -1 0 288 cm
258.699 241.801 m 258.949 241.801 l S Q
q 1 0 0 -1 0 288 cm
258.949 241.801 m 260.898 241.801 l S Q
q 1 0 0 -1 0 288 cm
260.898 241.801 m 261.102 241.801 l S Q
q 1 0 0 -1 0 288 cm
261.102 241.801 m 263.051 241.801 l S Q
q 1 0 0 -1 0 288 cm
263.051 241.801 m 263.398 241.801 l S Q
q 1 0 0 -1 0 288 cm
263.398 241.801 m 264.602 241.801 l S Q
q 1 0 0 -1 0 288 cm
264.602 241.801 m 264.648 241.801 l S Q
q 1 0 0 -1 0 288 cm
264.648 241.801 m 265.25 241.801 l S Q
q 1 0 0 -1 0 288 cm
265.25 241.801 m 265.352 241.801 l S Q
q 1 0 0 -1 0 288 cm
265.352 241.801 m 265.898 241.801 l S Q
q 1 0 0 -1 0 288 cm
265.898 241.801 m 265.949 241.801 l S Q
q 1 0 0 -1 0 288 cm
265.949 241.801 m 266.602 241.801 l S Q
q 1 0 0 -1 0 288 cm
266.602 241.801 m 266.75 241.801 l S Q
q 1 0 0 -1 0 288 cm
266.75 241.801 m 267.301 241.801 l S Q
q 1 0 0 -1 0 288 cm
267.301 241.801 m 267.449 241.801 l S Q
q 1 0 0 -1 0 288 cm
267.449 241.801 m 268 241.801 l S Q
q 1 0 0 -1 0 288 cm
268 241.801 m 268.148 241.801 l S Q
q 1 0 0 -1 0 288 cm
268.148 241.801 m 268.699 241.801 l S Q
q 1 0 0 -1 0 288 cm
268.699 241.801 m 268.852 241.801 l S Q
q 1 0 0 -1 0 288 cm
268.852 241.801 m 269.352 241.801 l S Q
q 1 0 0 -1 0 288 cm
269.352 241.801 m 269.398 241.801 l S Q
q 1 0 0 -1 0 288 cm
269.398 241.801 m 269.898 241.801 l S Q
q 1 0 0 -1 0 288 cm
269.898 241.801 m 270.051 241.801 l S Q
q 1 0 0 -1 0 288 cm
270.051 241.801 m 270.551 241.801 l S Q
q 1 0 0 -1 0 288 cm
270.551 241.801 m 270.75 241.801 l S Q
q 1 0 0 -1 0 288 cm
270.75 241.801 m 271.301 241.801 l S Q
q 1 0 0 -1 0 288 cm
271.301 241.801 m 351.898 241.801 l 351.898 242.199 l S Q
q 1 0 0 -1 0 288 cm
351.898 242.199 m 355.102 242.199 l S Q
q 1 0 0 -1 0 288 cm
355.102 242.199 m 360.25 242.199 l 360.25 242.398 l S Q
q 1 0 0 -1 0 288 cm
360.25 242.398 m 363.051 242.398 l S Q
q 1 0 0 -1 0 288 cm
363.051 242.398 m 363.898 242.398 l S Q
q 1 0 0 -1 0 288 cm
363.898 242.398 m 365.852 242.398 l S Q
q 1 0 0 -1 0 288 cm
365.852 242.398 m 366.102 242.398 l S Q
q 1 0 0 -1 0 288 cm
366.102 242.398 m 368.102 242.398 l S Q
q 1 0 0 -1 0 288 cm
368.102 242.398 m 368.352 242.398 l S Q
q 1 0 0 -1 0 288 cm
368.352 242.398 m 370.301 242.398 l S Q
q 1 0 0 -1 0 288 cm
370.301 242.398 m 370.449 242.398 l S Q
q 1 0 0 -1 0 288 cm
370.449 242.398 m 372.398 242.398 l S Q
q 1 0 0 -1 0 288 cm
372.398 242.398 m 372.852 242.398 l S Q
q 1 0 0 -1 0 288 cm
372.852 242.398 m 374.648 242.398 l S Q
q 1 0 0 -1 0 288 cm
374.648 242.398 m 374.801 242.398 l S Q
q 1 0 0 -1 0 288 cm
374.801 242.398 m 376.699 242.398 l S Q
q 1 0 0 -1 0 288 cm
376.699 242.398 m 376.801 242.398 l S Q
q 1 0 0 -1 0 288 cm
376.801 242.398 m 378.75 242.398 l S Q
q 1 0 0 -1 0 288 cm
378.75 242.398 m 378.898 242.398 l S Q
q 1 0 0 -1 0 288 cm
378.898 242.398 m 380.75 242.398 l S Q
q 1 0 0 -1 0 288 cm
380.75 242.398 m 380.949 242.398 l S Q
q 1 0 0 -1 0 288 cm
380.949 242.398 m 383.199 242.398 l S Q
q 1 0 0 -1 0 288 cm
383.199 242.398 m 383.352 242.398 l S Q
q 1 0 0 -1 0 288 cm
383.352 242.398 m 385.25 242.398 l S Q
q 1 0 0 -1 0 288 cm
385.25 242.398 m 385.551 242.398 l S Q
q 1 0 0 -1 0 288 cm
385.551 242.398 m 386.801 242.398 l S Q
q 1 0 0 -1 0 288 cm
386.801 242.398 m 386.898 242.398 l S Q
q 1 0 0 -1 0 288 cm
386.898 242.398 m 387.449 242.398 l S Q
q 1 0 0 -1 0 288 cm
387.449 242.398 m 387.602 242.398 l S Q
q 1 0 0 -1 0 288 cm
387.602 242.398 m 388.148 242.398 l S Q
q 1 0 0 -1 0 288 cm
388.148 242.398 m 388.398 242.398 l S Q
q 1 0 0 -1 0 288 cm
388.398 242.398 m 388.898 242.398 l S Q
q 1 0 0 -1 0 288 cm
388.898 242.398 m 389.102 242.398 l S Q
q 1 0 0 -1 0 288 cm
389.102 242.398 m 389.699 242.398 l S Q
q 1 0 0 -1 0 288 cm
389.699 242.398 m 389.801 242.398 l S Q
q 1 0 0 -1 0 288 cm
389.801 242.398 m 390.352 242.398 l S Q
q 1 0 0 -1 0 288 cm
390.352 242.398 m 390.449 242.398 l S Q
q 1 0 0 -1 0 288 cm
390.449 242.398 m 391 242.398 l S Q
q 1 0 0 -1 0 288 cm
391 242.398 m 391.148 242.398 l S Q
q 1 0 0 -1 0 288 cm
391.148 242.398 m 391.648 242.398 l S Q
q 1 0 0 -1 0 288 cm
391.648 242.398 m 391.801 242.398 l S Q
q 1 0 0 -1 0 288 cm
391.801 242.398 m 392.352 242.398 l S Q
q 1 0 0 -1 0 288 cm
392.352 242.398 m 392.5 242.398 l S Q
q 1 0 0 -1 0 288 cm
392.5 242.398 m 393 242.398 l S Q
q 1 0 0 -1 0 288 cm
393 242.398 m 393.102 242.398 l S Q
q 1 0 0 -1 0 288 cm
393.102 242.398 m 393.648 242.398 l S Q
q 1 0 0 -1 0 288 cm
393.648 242.398 m 393.852 242.398 l S Q
q 1 0 0 -1 0 288 cm
393.852 242.398 m 394.398 242.398 l S Q
q 1 0 0 -1 0 288 cm
394.398 242.398 m 394.449 242.398 l S Q
q 1 0 0 -1 0 288 cm
394.449 242.398 m 395 242.398 l S Q
q 1 0 0 -1 0 288 cm
395 242.398 m 395.102 242.398 l S Q
q 1 0 0 -1 0 288 cm
395.102 242.398 m 395.602 242.398 l S Q
q 1 0 0 -1 0 288 cm
395.602 242.398 m 395.75 242.398 l S Q
q 1 0 0 -1 0 288 cm
395.75 242.398 m 396.301 242.398 l S Q
q 1 0 0 -1 0 288 cm
396.301 242.398 m 396.398 242.398 l S Q
q 1 0 0 -1 0 288 cm
396.398 242.398 m 396.949 242.398 l S Q
q 1 0 0 -1 0 288 cm
396.949 242.398 m 397.051 242.398 l S Q
q 1 0 0 -1 0 288 cm
397.051 242.398 m 397.551 242.398 l S Q
q 1 0 0 -1 0 288 cm
397.551 242.398 m 416.852 242.398 l 416.852 244.25 l S Q
q 1 0 0 -1 0 288 cm
416.852 244.25 m 417.148 244.25 l S Q
0 0.65098 0.552941 rg
q 1 0 0 -1 0 288 cm
382.852 19.102 m 406.949 19.102 l S Q
q 1 0 0 -1 0 288 cm
118.602 10.75 m 118.602 14.398 l S Q
q 1 0 0 -1 0 288 cm
118.602 14.398 m 119.352 14.398 l S Q
q 1 0 0 -1 0 288 cm
119.352 14.398 m 120.102 14.398 l S Q
q 1 0 0 -1 0 288 cm
120.102 14.398 m 120.852 14.398 l 120.852 17.602 l S Q
q 1 0 0 -1 0 288 cm
120.852 17.602 m 121.602 17.602 l S Q
q 1 0 0 -1 0 288 cm
121.602 17.602 m 122.352 17.602 l S Q
q 1 0 0 -1 0 288 cm
122.352 17.602 m 123.102 17.602 l S Q
q 1 0 0 -1 0 288 cm
123.102 17.602 m 123.898 17.602 l 123.898 18.5 l S Q
q 1 0 0 -1 0 288 cm
123.898 18.5 m 124.648 18.5 l S Q
q 1 0 0 -1 0 288 cm
124.648 18.5 m 125.398 18.5 l 125.398 31.449 l S Q
q 1 0 0 -1 0 288 cm
125.398 31.449 m 126.148 31.449 l S Q
q 1 0 0 -1 0 288 cm
126.148 31.449 m 126.898 31.449 l S Q
q 1 0 0 -1 0 288 cm
126.898 31.449 m 127.648 31.449 l S Q
q 1 0 0 -1 0 288 cm
127.648 31.449 m 128.449 31.449 l S Q
q 1 0 0 -1 0 288 cm
128.449 31.449 m 129.199 31.449 l S Q
q 1 0 0 -1 0 288 cm
129.199 31.449 m 129.949 31.449 l S Q
q 1 0 0 -1 0 288 cm
129.949 31.449 m 130.699 31.449 l S Q
q 1 0 0 -1 0 288 cm
130.699 31.449 m 131.449 31.449 l S Q
q 1 0 0 -1 0 288 cm
131.449 31.449 m 132.25 31.449 l 132.25 32.75 l S Q
q 1 0 0 -1 0 288 cm
132.25 32.75 m 133 32.75 l S Q
q 1 0 0 -1 0 288 cm
133 32.75 m 133.699 32.75 l 133.699 34.199 l S Q
q 1 0 0 -1 0 288 cm
133.699 34.199 m 134.449 34.199 l S Q
q 1 0 0 -1 0 288 cm
134.449 34.199 m 135.199 34.199 l 135.199 34.449 l S Q
q 1 0 0 -1 0 288 cm
135.199 34.449 m 135.949 34.449 l 135.949 41.25 l S Q
q 1 0 0 -1 0 288 cm
135.949 41.25 m 136.699 41.25 l 136.699 48.199 l S Q
q 1 0 0 -1 0 288 cm
136.699 48.199 m 137.449 48.199 l S Q
q 1 0 0 -1 0 288 cm
137.449 48.199 m 138.199 48.199 l 138.199 49.102 l S Q
q 1 0 0 -1 0 288 cm
138.199 49.102 m 138.949 49.102 l S Q
q 1 0 0 -1 0 288 cm
138.949 49.102 m 139.699 49.102 l 139.699 51.449 l S Q
q 1 0 0 -1 0 288 cm
139.699 51.449 m 140.449 51.449 l 140.449 57.199 l S Q
q 1 0 0 -1 0 288 cm
140.449 57.199 m 141.199 57.199 l 141.199 60.648 l S Q
q 1 0 0 -1 0 288 cm
141.199 60.648 m 141.949 60.648 l S Q
q 1 0 0 -1 0 288 cm
141.949 60.648 m 142.699 60.648 l S Q
q 1 0 0 -1 0 288 cm
142.699 60.648 m 143.398 60.648 l S Q
q 1 0 0 -1 0 288 cm
143.398 60.648 m 144.148 60.648 l S Q
q 1 0 0 -1 0 288 cm
144.148 60.648 m 144.898 60.648 l S Q
q 1 0 0 -1 0 288 cm
144.898 60.648 m 145.648 60.648 l 145.648 86.051 l S Q
q 1 0 0 -1 0 288 cm
145.648 86.051 m 146.398 86.051 l S Q
q 1 0 0 -1 0 288 cm
146.398 86.051 m 147.148 86.051 l S Q
q 1 0 0 -1 0 288 cm
147.148 86.051 m 147.898 86.051 l S Q
q 1 0 0 -1 0 288 cm
147.898 86.051 m 148.648 86.051 l S Q
q 1 0 0 -1 0 288 cm
148.648 86.051 m 149.398 86.051 l S Q
q 1 0 0 -1 0 288 cm
149.398 86.051 m 150.102 86.051 l S Q
q 1 0 0 -1 0 288 cm
150.102 86.051 m 150.852 86.051 l S Q
q 1 0 0 -1 0 288 cm
150.852 86.051 m 151.602 86.051 l S Q
q 1 0 0 -1 0 288 cm
151.602 86.051 m 152.352 86.051 l S Q
q 1 0 0 -1 0 288 cm
152.352 86.051 m 153.102 86.051 l S Q
q 1 0 0 -1 0 288 cm
153.102 86.051 m 153.898 86.051 l S Q
q 1 0 0 -1 0 288 cm
153.898 86.051 m 154.648 86.051 l S Q
q 1 0 0 -1 0 288 cm
154.648 86.051 m 155.398 86.051 l S Q
q 1 0 0 -1 0 288 cm
155.398 86.051 m 156.102 86.051 l S Q
q 1 0 0 -1 0 288 cm
156.102 86.051 m 156.852 86.051 l S Q
q 1 0 0 -1 0 288 cm
156.852 86.051 m 157.602 86.051 l S Q
q 1 0 0 -1 0 288 cm
157.602 86.051 m 158.352 86.051 l 158.352 93.75 l S Q
q 1 0 0 -1 0 288 cm
158.352 93.75 m 159.102 93.75 l 159.102 96.102 l S Q
q 1 0 0 -1 0 288 cm
159.102 96.102 m 159.852 96.102 l S Q
q 1 0 0 -1 0 288 cm
159.852 96.102 m 160.551 96.102 l 160.551 96.449 l S Q
q 1 0 0 -1 0 288 cm
160.551 96.449 m 161.301 96.449 l S Q
q 1 0 0 -1 0 288 cm
161.301 96.449 m 162.051 96.449 l 162.051 103 l S Q
q 1 0 0 -1 0 288 cm
162.051 103 m 162.801 103 l 162.801 103.102 l S Q
q 1 0 0 -1 0 288 cm
162.801 103.102 m 163.551 103.102 l S Q
q 1 0 0 -1 0 288 cm
163.551 103.102 m 164.25 103.102 l S Q
q 1 0 0 -1 0 288 cm
164.25 103.102 m 165 103.102 l S Q
q 1 0 0 -1 0 288 cm
165 103.102 m 165.75 103.102 l S Q
q 1 0 0 -1 0 288 cm
165.75 103.102 m 166.5 103.102 l S Q
q 1 0 0 -1 0 288 cm
166.5 103.102 m 167.25 103.102 l S Q
q 1 0 0 -1 0 288 cm
167.25 103.102 m 168 103.102 l S Q
q 1 0 0 -1 0 288 cm
168 103.102 m 168.75 103.102 l S Q
q 1 0 0 -1 0 288 cm
168.75 103.102 m 169.5 103.102 l S Q
q 1 0 0 -1 0 288 cm
169.5 103.102 m 170.199 103.102 l S Q
q 1 0 0 -1 0 288 cm
170.199 103.102 m 170.949 103.102 l S Q
q 1 0 0 -1 0 288 cm
170.949 103.102 m 171.699 103.102 l 171.699 110.102 l S Q
q 1 0 0 -1 0 288 cm
171.699 110.102 m 172.449 110.102 l S Q
q 1 0 0 -1 0 288 cm
172.449 110.102 m 173.199 110.102 l S Q
q 1 0 0 -1 0 288 cm
173.199 110.102 m 173.898 110.102 l S Q
q 1 0 0 -1 0 288 cm
173.898 110.102 m 174.648 110.102 l S Q
q 1 0 0 -1 0 288 cm
174.648 110.102 m 175.398 110.102 l S Q
q 1 0 0 -1 0 288 cm
175.398 110.102 m 176.148 110.102 l S Q
q 1 0 0 -1 0 288 cm
176.148 110.102 m 176.898 110.102 l S Q
q 1 0 0 -1 0 288 cm
176.898 110.102 m 177.602 110.102 l S Q
q 1 0 0 -1 0 288 cm
177.602 110.102 m 178.352 110.102 l S Q
q 1 0 0 -1 0 288 cm
178.352 110.102 m 179.102 110.102 l S Q
q 1 0 0 -1 0 288 cm
179.102 110.102 m 179.852 110.102 l S Q
q 1 0 0 -1 0 288 cm
179.852 110.102 m 180.602 110.102 l S Q
q 1 0 0 -1 0 288 cm
180.602 110.102 m 181.352 110.102 l S Q
q 1 0 0 -1 0 288 cm
181.352 110.102 m 182.102 110.102 l S Q
q 1 0 0 -1 0 288 cm
182.102 110.102 m 182.852 110.102 l 182.852 115 l S Q
q 1 0 0 -1 0 288 cm
182.852 115 m 183.602 115 l S Q
q 1 0 0 -1 0 288 cm
183.602 115 m 184.301 115 l S Q
q 1 0 0 -1 0 288 cm
184.301 115 m 185.051 115 l S Q
q 1 0 0 -1 0 288 cm
185.051 115 m 185.801 115 l S Q
q 1 0 0 -1 0 288 cm
185.801 115 m 186.551 115 l 186.551 120.699 l S Q
q 1 0 0 -1 0 288 cm
186.551 120.699 m 187.301 120.699 l S Q
q 1 0 0 -1 0 288 cm
187.301 120.699 m 188.051 120.699 l 188.051 120.898 l S Q
q 1 0 0 -1 0 288 cm
188.051 120.898 m 188.75 120.898 l S Q
q 1 0 0 -1 0 288 cm
188.75 120.898 m 189.5 120.898 l S Q
q 1 0 0 -1 0 288 cm
189.5 120.898 m 190.25 120.898 l S Q
q 1 0 0 -1 0 288 cm
190.25 120.898 m 191 120.898 l S Q
q 1 0 0 -1 0 288 cm
191 120.898 m 191.75 120.898 l S Q
q 1 0 0 -1 0 288 cm
191.75 120.898 m 192.449 120.898 l S Q
q 1 0 0 -1 0 288 cm
192.449 120.898 m 193.199 120.898 l S Q
q 1 0 0 -1 0 288 cm
193.199 120.898 m 193.949 120.898 l S Q
q 1 0 0 -1 0 288 cm
193.949 120.898 m 194.699 120.898 l 194.699 121.852 l S Q
q 1 0 0 -1 0 288 cm
194.699 121.852 m 195.449 121.852 l S Q
q 1 0 0 -1 0 288 cm
195.449 121.852 m 196.199 121.852 l S Q
q 1 0 0 -1 0 288 cm
196.199 121.852 m 196.949 121.852 l S Q
q 1 0 0 -1 0 288 cm
196.949 121.852 m 197.648 121.852 l S Q
q 1 0 0 -1 0 288 cm
197.648 121.852 m 198.398 121.852 l S Q
q 1 0 0 -1 0 288 cm
198.398 121.852 m 199.148 121.852 l S Q
q 1 0 0 -1 0 288 cm
199.148 121.852 m 199.898 121.852 l S Q
q 1 0 0 -1 0 288 cm
199.898 121.852 m 200.602 121.852 l S Q
q 1 0 0 -1 0 288 cm
200.602 121.852 m 201.352 121.852 l S Q
q 1 0 0 -1 0 288 cm
201.352 121.852 m 202.102 121.852 l S Q
q 1 0 0 -1 0 288 cm
202.102 121.852 m 202.852 121.852 l S Q
q 1 0 0 -1 0 288 cm
202.852 121.852 m 203.602 121.852 l S Q
q 1 0 0 -1 0 288 cm
203.602 121.852 m 204.301 121.852 l S Q
q 1 0 0 -1 0 288 cm
204.301 121.852 m 205.051 121.852 l S Q
q 1 0 0 -1 0 288 cm
205.051 121.852 m 205.801 121.852 l S Q
q 1 0 0 -1 0 288 cm
205.801 121.852 m 206.551 121.852 l S Q
q 1 0 0 -1 0 288 cm
206.551 121.852 m 207.25 121.852 l S Q
q 1 0 0 -1 0 288 cm
207.25 121.852 m 208 121.852 l 208 128 l S Q
q 1 0 0 -1 0 288 cm
208 128 m 208.75 128 l 208.75 128.102 l S Q
q 1 0 0 -1 0 288 cm
208.75 128.102 m 209.5 128.102 l S Q
q 1 0 0 -1 0 288 cm
209.5 128.102 m 210.25 128.102 l S Q
q 1 0 0 -1 0 288 cm
210.25 128.102 m 211 128.102 l S Q
q 1 0 0 -1 0 288 cm
211 128.102 m 211.699 128.102 l S Q
q 1 0 0 -1 0 288 cm
211.699 128.102 m 212.449 128.102 l S Q
q 1 0 0 -1 0 288 cm
212.449 128.102 m 213.199 128.102 l 213.199 133.949 l S Q
q 1 0 0 -1 0 288 cm
213.199 133.949 m 213.949 133.949 l 213.949 135.949 l S Q
q 1 0 0 -1 0 288 cm
213.949 135.949 m 214.699 135.949 l 214.699 140.551 l S Q
q 1 0 0 -1 0 288 cm
214.699 140.551 m 215.398 140.551 l S Q
q 1 0 0 -1 0 288 cm
215.398 140.551 m 216.148 140.551 l S Q
q 1 0 0 -1 0 288 cm
216.148 140.551 m 216.898 140.551 l S Q
q 1 0 0 -1 0 288 cm
216.898 140.551 m 217.648 140.551 l S Q
q 1 0 0 -1 0 288 cm
217.648 140.551 m 218.352 140.551 l S Q
q 1 0 0 -1 0 288 cm
218.352 140.551 m 219.102 140.551 l S Q
q 1 0 0 -1 0 288 cm
219.102 140.551 m 219.852 140.551 l S Q
q 1 0 0 -1 0 288 cm
219.852 140.551 m 220.602 140.551 l S Q
q 1 0 0 -1 0 288 cm
220.602 140.551 m 221.352 140.551 l S Q
q 1 0 0 -1 0 288 cm
221.352 140.551 m 222.102 140.551 l S Q
q 1 0 0 -1 0 288 cm
222.102 140.551 m 222.852 140.551 l S Q
q 1 0 0 -1 0 288 cm
222.852 140.551 m 223.551 140.551 l S Q
q 1 0 0 -1 0 288 cm
223.551 140.551 m 224.301 140.551 l S Q
q 1 0 0 -1 0 288 cm
224.301 140.551 m 225.051 140.551 l S Q
q 1 0 0 -1 0 288 cm
225.051 140.551 m 225.801 140.551 l S Q
q 1 0 0 -1 0 288 cm
225.801 140.551 m 226.551 140.551 l S Q
q 1 0 0 -1 0 288 cm
226.551 140.551 m 227.301 140.551 l S Q
q 1 0 0 -1 0 288 cm
227.301 140.551 m 228.051 140.551 l S Q
q 1 0 0 -1 0 288 cm
228.051 140.551 m 228.801 140.551 l S Q
q 1 0 0 -1 0 288 cm
228.801 140.551 m 229.551 140.551 l S Q
q 1 0 0 -1 0 288 cm
229.551 140.551 m 230.301 140.551 l S Q
q 1 0 0 -1 0 288 cm
230.301 140.551 m 231.051 140.551 l S Q
q 1 0 0 -1 0 288 cm
231.051 140.551 m 231.801 140.551 l S Q
q 1 0 0 -1 0 288 cm
231.801 140.551 m 232.5 140.551 l S Q
q 1 0 0 -1 0 288 cm
232.5 140.551 m 233.25 140.551 l S Q
q 1 0 0 -1 0 288 cm
233.25 140.551 m 234 140.551 l S Q
q 1 0 0 -1 0 288 cm
234 140.551 m 234.699 140.551 l S Q
q 1 0 0 -1 0 288 cm
234.699 140.551 m 235.449 140.551 l S Q
q 1 0 0 -1 0 288 cm
235.449 140.551 m 236.148 140.551 l S Q
q 1 0 0 -1 0 288 cm
236.148 140.551 m 236.898 140.551 l S Q
q 1 0 0 -1 0 288 cm
236.898 140.551 m 237.648 140.551 l S Q
q 1 0 0 -1 0 288 cm
237.648 140.551 m 238.398 140.551 l S Q
q 1 0 0 -1 0 288 cm
238.398 140.551 m 239.148 140.551 l S Q
q 1 0 0 -1 0 288 cm
239.148 140.551 m 239.898 140.551 l S Q
q 1 0 0 -1 0 288 cm
239.898 140.551 m 240.648 140.551 l S Q
q 1 0 0 -1 0 288 cm
240.648 140.551 m 241.352 140.551 l S Q
q 1 0 0 -1 0 288 cm
241.352 140.551 m 242.102 140.551 l 242.102 144.551 l S Q
q 1 0 0 -1 0 288 cm
242.102 144.551 m 242.801 144.551 l 242.801 146.602 l S Q
q 1 0 0 -1 0 288 cm
242.801 146.602 m 243.551 146.602 l S Q
q 1 0 0 -1 0 288 cm
243.551 146.602 m 244.25 146.602 l 244.25 152.699 l S Q
q 1 0 0 -1 0 288 cm
244.25 152.699 m 245 152.699 l 245 153.648 l S Q
q 1 0 0 -1 0 288 cm
245 153.648 m 245.75 153.648 l S Q
q 1 0 0 -1 0 288 cm
245.75 153.648 m 246.449 153.648 l S Q
q 1 0 0 -1 0 288 cm
246.449 153.648 m 247.199 153.648 l 247.199 156.602 l S Q
q 1 0 0 -1 0 288 cm
247.199 156.602 m 247.949 156.602 l S Q
q 1 0 0 -1 0 288 cm
247.949 156.602 m 248.648 156.602 l S Q
q 1 0 0 -1 0 288 cm
248.648 156.602 m 249.398 156.602 l S Q
q 1 0 0 -1 0 288 cm
249.398 156.602 m 250.148 156.602 l 250.148 157 l S Q
q 1 0 0 -1 0 288 cm
250.148 157 m 250.852 157 l 250.852 159.449 l S Q
q 1 0 0 -1 0 288 cm
250.852 159.449 m 251.602 159.449 l S Q
q 1 0 0 -1 0 288 cm
251.602 159.449 m 252.301 159.449 l S Q
q 1 0 0 -1 0 288 cm
252.301 159.449 m 253.051 159.449 l 253.051 165.801 l S Q
q 1 0 0 -1 0 288 cm
253.051 165.801 m 253.801 165.801 l 253.801 167.301 l S Q
q 1 0 0 -1 0 288 cm
253.801 167.301 m 254.551 167.301 l S Q
q 1 0 0 -1 0 288 cm
254.551 167.301 m 255.25 167.301 l S Q
q 1 0 0 -1 0 288 cm
255.25 167.301 m 256 167.301 l S Q
q 1 0 0 -1 0 288 cm
256 167.301 m 256.75 167.301 l S Q
q 1 0 0 -1 0 288 cm
256.75 167.301 m 257.5 167.301 l S Q
q 1 0 0 -1 0 288 cm
257.5 167.301 m 258.25 167.301 l S Q
q 1 0 0 -1 0 288 cm
258.25 167.301 m 259 167.301 l 259 170.102 l S Q
q 1 0 0 -1 0 288 cm
259 170.102 m 259.699 170.102 l S Q
q 1 0 0 -1 0 288 cm
259.699 170.102 m 260.449 170.102 l S Q
q 1 0 0 -1 0 288 cm
260.449 170.102 m 261.199 170.102 l S Q
q 1 0 0 -1 0 288 cm
261.199 170.102 m 261.898 170.102 l S Q
q 1 0 0 -1 0 288 cm
261.898 170.102 m 262.648 170.102 l 262.648 171.199 l S Q
q 1 0 0 -1 0 288 cm
262.648 171.199 m 263.398 171.199 l 263.398 172.051 l S Q
q 1 0 0 -1 0 288 cm
263.398 172.051 m 264.102 172.051 l S Q
q 1 0 0 -1 0 288 cm
264.102 172.051 m 264.852 172.051 l 264.852 179.199 l S Q
q 1 0 0 -1 0 288 cm
264.852 179.199 m 265.602 179.199 l S Q
q 1 0 0 -1 0 288 cm
265.602 179.199 m 266.301 179.199 l S Q
q 1 0 0 -1 0 288 cm
266.301 179.199 m 267.051 179.199 l S Q
q 1 0 0 -1 0 288 cm
267.051 179.199 m 267.75 179.199 l S Q
q 1 0 0 -1 0 288 cm
267.75 179.199 m 268.5 179.199 l S Q
q 1 0 0 -1 0 288 cm
268.5 179.199 m 269.25 179.199 l S Q
q 1 0 0 -1 0 288 cm
269.25 179.199 m 269.949 179.199 l S Q
q 1 0 0 -1 0 288 cm
269.949 179.199 m 270.699 179.199 l S Q
q 1 0 0 -1 0 288 cm
270.699 179.199 m 271.398 179.199 l S Q
q 1 0 0 -1 0 288 cm
271.398 179.199 m 272.148 179.199 l S Q
q 1 0 0 -1 0 288 cm
272.148 179.199 m 272.898 179.199 l S Q
q 1 0 0 -1 0 288 cm
272.898 179.199 m 273.648 179.199 l S Q
q 1 0 0 -1 0 288 cm
273.648 179.199 m 274.398 179.199 l S Q
q 1 0 0 -1 0 288 cm
274.398 179.199 m 275.102 179.199 l S Q
q 1 0 0 -1 0 288 cm
275.102 179.199 m 275.852 179.199 l 275.852 180 l S Q
q 1 0 0 -1 0 288 cm
275.852 180 m 276.551 180 l S Q
q 1 0 0 -1 0 288 cm
276.551 180 m 277.301 180 l S Q
q 1 0 0 -1 0 288 cm
277.301 180 m 278 180 l 278 180.648 l S Q
q 1 0 0 -1 0 288 cm
278 180.648 m 278.75 180.648 l S Q
q 1 0 0 -1 0 288 cm
278.75 180.648 m 279.449 180.648 l S Q
q 1 0 0 -1 0 288 cm
279.449 180.648 m 280.199 180.648 l S Q
q 1 0 0 -1 0 288 cm
280.199 180.648 m 280.898 180.648 l S Q
q 1 0 0 -1 0 288 cm
280.898 180.648 m 281.648 180.648 l S Q
q 1 0 0 -1 0 288 cm
281.648 180.648 m 282.352 180.648 l S Q
q 1 0 0 -1 0 288 cm
282.352 180.648 m 283.102 180.648 l 283.102 184.5 l S Q
q 1 0 0 -1 0 288 cm
283.102 184.5 m 283.801 184.5 l S Q
q 1 0 0 -1 0 288 cm
283.801 184.5 m 284.551 184.5 l S Q
q 1 0 0 -1 0 288 cm
284.551 184.5 m 285.25 184.5 l S Q
q 1 0 0 -1 0 288 cm
285.25 184.5 m 286 184.5 l S Q
q 1 0 0 -1 0 288 cm
286 184.5 m 286.699 184.5 l S Q
q 1 0 0 -1 0 288 cm
286.699 184.5 m 287.449 184.5 l S Q
q 1 0 0 -1 0 288 cm
287.449 184.5 m 288.199 184.5 l S Q
q 1 0 0 -1 0 288 cm
288.199 184.5 m 288.949 184.5 l S Q
q 1 0 0 -1 0 288 cm
288.949 184.5 m 289.699 184.5 l S Q
q 1 0 0 -1 0 288 cm
289.699 184.5 m 290.398 184.5 l 290.398 186.199 l S Q
q 1 0 0 -1 0 288 cm
290.398 186.199 m 291.148 186.199 l 291.148 190.551 l S Q
q 1 0 0 -1 0 288 cm
291.148 190.551 m 291.852 190.551 l 291.852 191.801 l S Q
q 1 0 0 -1 0 288 cm
291.852 191.801 m 292.602 191.801 l S Q
q 1 0 0 -1 0 288 cm
292.602 191.801 m 293.301 191.801 l S Q
q 1 0 0 -1 0 288 cm
293.301 191.801 m 294.051 191.801 l S Q
q 1 0 0 -1 0 288 cm
294.051 191.801 m 294.75 191.801 l S Q
q 1 0 0 -1 0 288 cm
294.75 191.801 m 295.5 191.801 l S Q
q 1 0 0 -1 0 288 cm
295.5 191.801 m 296.199 191.801 l S Q
q 1 0 0 -1 0 288 cm
296.199 191.801 m 296.949 191.801 l S Q
q 1 0 0 -1 0 288 cm
296.949 191.801 m 297.699 191.801 l S Q
q 1 0 0 -1 0 288 cm
297.699 191.801 m 298.398 191.801 l S Q
q 1 0 0 -1 0 288 cm
298.398 191.801 m 299.102 191.801 l S Q
q 1 0 0 -1 0 288 cm
299.102 191.801 m 299.852 191.801 l S Q
q 1 0 0 -1 0 288 cm
299.852 191.801 m 300.551 191.801 l S Q
q 1 0 0 -1 0 288 cm
300.551 191.801 m 301.301 191.801 l 301.301 191.949 l S Q
q 1 0 0 -1 0 288 cm
301.301 191.949 m 302 191.949 l S Q
q 1 0 0 -1 0 288 cm
302 191.949 m 302.699 191.949 l S Q
q 1 0 0 -1 0 288 cm
302.699 191.949 m 303.449 191.949 l S Q
q 1 0 0 -1 0 288 cm
303.449 191.949 m 304.148 191.949 l S Q
q 1 0 0 -1 0 288 cm
304.148 191.949 m 304.898 191.949 l 304.898 193.25 l S Q
q 1 0 0 -1 0 288 cm
304.898 193.25 m 305.602 193.25 l S Q
q 1 0 0 -1 0 288 cm
305.602 193.25 m 306.352 193.25 l S Q
q 1 0 0 -1 0 288 cm
306.352 193.25 m 307.051 193.25 l S Q
q 1 0 0 -1 0 288 cm
307.051 193.25 m 307.75 193.25 l S Q
q 1 0 0 -1 0 288 cm
307.75 193.25 m 308.5 193.25 l S Q
q 1 0 0 -1 0 288 cm
308.5 193.25 m 309.199 193.25 l S Q
q 1 0 0 -1 0 288 cm
309.199 193.25 m 309.949 193.25 l S Q
q 1 0 0 -1 0 288 cm
309.949 193.25 m 310.648 193.25 l S Q
q 1 0 0 -1 0 288 cm
310.648 193.25 m 311.398 193.25 l S Q
q 1 0 0 -1 0 288 cm
311.398 193.25 m 312.148 193.25 l S Q
q 1 0 0 -1 0 288 cm
312.148 193.25 m 312.852 193.25 l S Q
q 1 0 0 -1 0 288 cm
312.852 193.25 m 313.602 193.25 l S Q
q 1 0 0 -1 0 288 cm
313.602 193.25 m 314.301 193.25 l S Q
q 1 0 0 -1 0 288 cm
314.301 193.25 m 315.051 193.25 l S Q
q 1 0 0 -1 0 288 cm
315.051 193.25 m 315.801 193.25 l S Q
q 1 0 0 -1 0 288 cm
315.801 193.25 m 316.551 193.25 l S Q
q 1 0 0 -1 0 288 cm
316.551 193.25 m 317.25 193.25 l S Q
q 1 0 0 -1 0 288 cm
317.25 193.25 m 318 193.25 l S Q
q 1 0 0 -1 0 288 cm
318 193.25 m 318.75 193.25 l S Q
q 1 0 0 -1 0 288 cm
318.75 193.25 m 319.449 193.25 l S Q
q 1 0 0 -1 0 288 cm
319.449 193.25 m 320.199 193.25 l S Q
q 1 0 0 -1 0 288 cm
320.199 193.25 m 320.898 193.25 l S Q
q 1 0 0 -1 0 288 cm
320.898 193.25 m 321.648 193.25 l S Q
q 1 0 0 -1 0 288 cm
321.648 193.25 m 322.398 193.25 l S Q
q 1 0 0 -1 0 288 cm
322.398 193.25 m 323.148 193.25 l S Q
q 1 0 0 -1 0 288 cm
323.148 193.25 m 323.898 193.25 l S Q
q 1 0 0 -1 0 288 cm
323.898 193.25 m 324.602 193.25 l S Q
q 1 0 0 -1 0 288 cm
324.602 193.25 m 325.352 193.25 l S Q
q 1 0 0 -1 0 288 cm
325.352 193.25 m 326.051 193.25 l S Q
q 1 0 0 -1 0 288 cm
326.051 193.25 m 326.801 193.25 l S Q
q 1 0 0 -1 0 288 cm
326.801 193.25 m 327.5 193.25 l S Q
q 1 0 0 -1 0 288 cm
327.5 193.25 m 328.25 193.25 l 328.25 195.75 l S Q
q 1 0 0 -1 0 288 cm
328.25 195.75 m 328.949 195.75 l 328.949 200.352 l S Q
q 1 0 0 -1 0 288 cm
328.949 200.352 m 329.699 200.352 l S Q
q 1 0 0 -1 0 288 cm
329.699 200.352 m 330.449 200.352 l S Q
q 1 0 0 -1 0 288 cm
330.449 200.352 m 331.148 200.352 l S Q
q 1 0 0 -1 0 288 cm
331.148 200.352 m 331.898 200.352 l S Q
q 1 0 0 -1 0 288 cm
331.898 200.352 m 332.648 200.352 l S Q
q 1 0 0 -1 0 288 cm
332.648 200.352 m 333.352 200.352 l S Q
q 1 0 0 -1 0 288 cm
333.352 200.352 m 334.102 200.352 l S Q
q 1 0 0 -1 0 288 cm
334.102 200.352 m 334.801 200.352 l S Q
q 1 0 0 -1 0 288 cm
334.801 200.352 m 335.551 200.352 l S Q
q 1 0 0 -1 0 288 cm
335.551 200.352 m 336.301 200.352 l S Q
q 1 0 0 -1 0 288 cm
336.301 200.352 m 337.051 200.352 l S Q
q 1 0 0 -1 0 288 cm
337.051 200.352 m 337.801 200.352 l S Q
q 1 0 0 -1 0 288 cm
337.801 200.352 m 338.5 200.352 l S Q
q 1 0 0 -1 0 288 cm
338.5 200.352 m 339.25 200.352 l S Q
q 1 0 0 -1 0 288 cm
339.25 200.352 m 340 200.352 l S Q
q 1 0 0 -1 0 288 cm
340 200.352 m 340.699 200.352 l S Q
q 1 0 0 -1 0 288 cm
340.699 200.352 m 341.449 200.352 l S Q
q 1 0 0 -1 0 288 cm
341.449 200.352 m 342.148 200.352 l S Q
q 1 0 0 -1 0 288 cm
342.148 200.352 m 342.898 200.352 l S Q
q 1 0 0 -1 0 288 cm
342.898 200.352 m 343.602 200.352 l S Q
q 1 0 0 -1 0 288 cm
343.602 200.352 m 344.352 200.352 l S Q
q 1 0 0 -1 0 288 cm
344.352 200.352 m 345.102 200.352 l S Q
q 1 0 0 -1 0 288 cm
345.102 200.352 m 345.801 200.352 l S Q
q 1 0 0 -1 0 288 cm
345.801 200.352 m 346.551 200.352 l S Q
q 1 0 0 -1 0 288 cm
346.551 200.352 m 347.301 200.352 l S Q
q 1 0 0 -1 0 288 cm
347.301 200.352 m 348 200.352 l S Q
q 1 0 0 -1 0 288 cm
348 200.352 m 348.75 200.352 l S Q
q 1 0 0 -1 0 288 cm
348.75 200.352 m 349.449 200.352 l S Q
q 1 0 0 -1 0 288 cm
349.449 200.352 m 350.199 200.352 l S Q
q 1 0 0 -1 0 288 cm
350.199 200.352 m 350.949 200.352 l S Q
q 1 0 0 -1 0 288 cm
350.949 200.352 m 351.699 200.352 l S Q
q 1 0 0 -1 0 288 cm
351.699 200.352 m 352.449 200.352 l S Q
q 1 0 0 -1 0 288 cm
352.449 200.352 m 353.199 200.352 l S Q
q 1 0 0 -1 0 288 cm
353.199 200.352 m 353.898 200.352 l S Q
q 1 0 0 -1 0 288 cm
353.898 200.352 m 354.699 200.352 l 354.699 201.352 l S Q
q 1 0 0 -1 0 288 cm
354.699 201.352 m 355.398 201.352 l S Q
q 1 0 0 -1 0 288 cm
355.398 201.352 m 356.148 201.352 l S Q
q 1 0 0 -1 0 288 cm
356.148 201.352 m 356.898 201.352 l S Q
q 1 0 0 -1 0 288 cm
356.898 201.352 m 357.648 201.352 l S Q
q 1 0 0 -1 0 288 cm
357.648 201.352 m 358.398 201.352 l 358.398 201.75 l S Q
q 1 0 0 -1 0 288 cm
358.398 201.75 m 359.102 201.75 l 359.102 202.5 l S Q
q 1 0 0 -1 0 288 cm
359.102 202.5 m 359.852 202.5 l S Q
q 1 0 0 -1 0 288 cm
359.852 202.5 m 360.602 202.5 l S Q
q 1 0 0 -1 0 288 cm
360.602 202.5 m 361.352 202.5 l S Q
q 1 0 0 -1 0 288 cm
361.352 202.5 m 362.051 202.5 l S Q
q 1 0 0 -1 0 288 cm
362.051 202.5 m 362.801 202.5 l S Q
q 1 0 0 -1 0 288 cm
362.801 202.5 m 363.5 202.5 l S Q
q 1 0 0 -1 0 288 cm
363.5 202.5 m 364.25 202.5 l S Q
q 1 0 0 -1 0 288 cm
364.25 202.5 m 365 202.5 l 365 202.551 l S Q
q 1 0 0 -1 0 288 cm
365 202.551 m 365.699 202.551 l 365.699 204.602 l S Q
q 1 0 0 -1 0 288 cm
365.699 204.602 m 366.449 204.602 l S Q
q 1 0 0 -1 0 288 cm
366.449 204.602 m 367.199 204.602 l 367.199 206.449 l S Q
q 1 0 0 -1 0 288 cm
367.199 206.449 m 367.949 206.449 l S Q
q 1 0 0 -1 0 288 cm
367.949 206.449 m 368.648 206.449 l 368.648 207.699 l S Q
q 1 0 0 -1 0 288 cm
368.648 207.699 m 369.398 207.699 l 369.398 209.602 l S Q
q 1 0 0 -1 0 288 cm
369.398 209.602 m 370.148 209.602 l S Q
q 1 0 0 -1 0 288 cm
370.148 209.602 m 370.852 209.602 l S Q
q 1 0 0 -1 0 288 cm
370.852 209.602 m 371.602 209.602 l S Q
q 1 0 0 -1 0 288 cm
371.602 209.602 m 372.352 209.602 l S Q
q 1 0 0 -1 0 288 cm
372.352 209.602 m 373.051 209.602 l S Q
q 1 0 0 -1 0 288 cm
373.051 209.602 m 373.801 209.602 l 373.801 210.699 l S Q
q 1 0 0 -1 0 288 cm
373.801 210.699 m 374.5 210.699 l S Q
q 1 0 0 -1 0 288 cm
374.5 210.699 m 375.25 210.699 l S Q
q 1 0 0 -1 0 288 cm
375.25 210.699 m 375.949 210.699 l S Q
q 1 0 0 -1 0 288 cm
375.949 210.699 m 376.699 210.699 l S Q
q 1 0 0 -1 0 288 cm
376.699 210.699 m 377.398 210.699 l S Q
q 1 0 0 -1 0 288 cm
377.398 210.699 m 378.148 210.699 l S Q
q 1 0 0 -1 0 288 cm
378.148 210.699 m 378.852 210.699 l S Q
q 1 0 0 -1 0 288 cm
378.852 210.699 m 379.551 210.699 l S Q
q 1 0 0 -1 0 288 cm
379.551 210.699 m 380.301 210.699 l S Q
q 1 0 0 -1 0 288 cm
380.301 210.699 m 381.051 210.699 l S Q
q 1 0 0 -1 0 288 cm
381.051 210.699 m 381.75 210.699 l S Q
q 1 0 0 -1 0 288 cm
381.75 210.699 m 382.5 210.699 l S Q
q 1 0 0 -1 0 288 cm
382.5 210.699 m 383.199 210.699 l S Q
q 1 0 0 -1 0 288 cm
383.199 210.699 m 383.949 210.699 l S Q
q 1 0 0 -1 0 288 cm
383.949 210.699 m 384.699 210.699 l S Q
q 1 0 0 -1 0 288 cm
384.699 210.699 m 385.449 210.699 l S Q
q 1 0 0 -1 0 288 cm
385.449 210.699 m 386.199 210.699 l S Q
q 1 0 0 -1 0 288 cm
386.199 210.699 m 386.898 210.699 l S Q
q 1 0 0 -1 0 288 cm
386.898 210.699 m 387.648 210.699 l S Q
q 1 0 0 -1 0 288 cm
387.648 210.699 m 388.398 210.699 l S Q
q 1 0 0 -1 0 288 cm
388.398 210.699 m 389.102 210.699 l S Q
q 1 0 0 -1 0 288 cm
389.102 210.699 m 389.852 210.699 l S Q
q 1 0 0 -1 0 288 cm
389.852 210.699 m 390.602 210.699 l S Q
q 1 0 0 -1 0 288 cm
390.602 210.699 m 391.301 210.699 l S Q
q 1 0 0 -1 0 288 cm
391.301 210.699 m 392.051 210.699 l S Q
q 1 0 0 -1 0 288 cm
392.051 210.699 m 392.75 210.699 l S Q
q 1 0 0 -1 0 288 cm
392.75 210.699 m 393.5 210.699 l S Q
q 1 0 0 -1 0 288 cm
393.5 210.699 m 394.199 210.699 l S Q
q 1 0 0 -1 0 288 cm
394.199 210.699 m 394.949 210.699 l S Q
q 1 0 0 -1 0 288 cm
394.949 210.699 m 395.648 210.699 l S Q
q 1 0 0 -1 0 288 cm
395.648 210.699 m 396.398 210.699 l S Q
q 1 0 0 -1 0 288 cm
396.398 210.699 m 397.148 210.699 l S Q
q 1 0 0 -1 0 288 cm
397.148 210.699 m 397.898 210.699 l S Q
q 1 0 0 -1 0 288 cm
397.898 210.699 m 398.648 210.699 l S Q
q 1 0 0 -1 0 288 cm
398.648 210.699 m 399.352 210.699 l S Q
q 1 0 0 -1 0 288 cm
399.352 210.699 m 400.102 210.699 l S Q
q 1 0 0 -1 0 288 cm
400.102 210.699 m 400.801 210.699 l S Q
q 1 0 0 -1 0 288 cm
400.801 210.699 m 401.551 210.699 l S Q
q 1 0 0 -1 0 288 cm
401.551 210.699 m 402.25 210.699 l S Q
q 1 0 0 -1 0 288 cm
402.25 210.699 m 403 210.699 l S Q
q 1 0 0 -1 0 288 cm
403 210.699 m 403.801 210.699 l S Q
q 1 0 0 -1 0 288 cm
403.801 210.699 m 404.5 210.699 l S Q
q 1 0 0 -1 0 288 cm
404.5 210.699 m 405.25 210.699 l S Q
q 1 0 0 -1 0 288 cm
405.25 210.699 m 406 210.699 l S Q
q 1 0 0 -1 0 288 cm
406 210.699 m 406.699 210.699 l S Q
q 1 0 0 -1 0 288 cm
406.699 210.699 m 407.449 210.699 l S Q
q 1 0 0 -1 0 288 cm
407.449 210.699 m 408.25 210.699 l S Q
q 1 0 0 -1 0 288 cm
408.25 210.699 m 408.949 210.699 l 408.949 210.801 l S Q
q 1 0 0 -1 0 288 cm
408.949 210.801 m 409.699 210.801 l S Q
q 1 0 0 -1 0 288 cm
409.699 210.801 m 410.398 210.801 l 410.398 212.051 l S Q
q 1 0 0 -1 0 288 cm
410.398 212.051 m 411.148 212.051 l S Q
q 1 0 0 -1 0 288 cm
411.148 212.051 m 411.852 212.051 l 411.852 212.75 l S Q
q 1 0 0 -1 0 288 cm
411.852 212.75 m 412.602 212.75 l 412.602 214.199 l S Q
q 1 0 0 -1 0 288 cm
412.602 214.199 m 413.352 214.199 l S Q
q 1 0 0 -1 0 288 cm
413.352 214.199 m 414.051 214.199 l S Q
q 1 0 0 -1 0 288 cm
414.051 214.199 m 414.801 214.199 l S Q
q 1 0 0 -1 0 288 cm
414.801 214.199 m 415.5 214.199 l 415.5 214.852 l S Q
q 1 0 0 -1 0 288 cm
415.5 214.852 m 416.25 214.852 l S Q
q 1 0 0 -1 0 288 cm
416.25 214.852 m 416.949 214.852 l S Q
0 g
q 1 0 0 -1 0 288 cm
37.852 10.75 379.297 248 re S Q
Q Q
showpage
%%Trailer
end restore
%%EOF
