%!PS-Adobe-3.0 EPSF-3.0
%%Creator: cairo 1.13.1 (http://cairographics.org)
%%CreationDate: Fri May 20 09:20:49 2016
%%Pages: 1
%%DocumentData: Clean7Bit
%%LanguageLevel: 2
%%BoundingBox: 0 0 432 288
%%EndComments
%%BeginProlog
save
50 dict begin
/q { gsave } bind def
/Q { grestore } bind def
/cm { 6 array astore concat } bind def
/w { setlinewidth } bind def
/J { setlinecap } bind def
/j { setlinejoin } bind def
/M { setmiterlimit } bind def
/d { setdash } bind def
/m { moveto } bind def
/l { lineto } bind def
/c { curveto } bind def
/h { closepath } bind def
/re { exch dup neg 3 1 roll 5 3 roll moveto 0 rlineto
      0 exch rlineto 0 rlineto closepath } bind def
/S { stroke } bind def
/f { fill } bind def
/f* { eofill } bind def
/n { newpath } bind def
/W { clip } bind def
/W* { eoclip } bind def
/BT { } bind def
/ET { } bind def
/pdfmark where { pop globaldict /?pdfmark /exec load put }
    { globaldict begin /?pdfmark /pop load def /pdfmark
    /cleartomark load def end } ifelse
/BDC { mark 3 1 roll /BDC pdfmark } bind def
/EMC { mark /EMC pdfmark } bind def
/cairo_store_point { /cairo_point_y exch def /cairo_point_x exch def } def
/Tj { show currentpoint cairo_store_point } bind def
/TJ {
  {
    dup
    type /stringtype eq
    { show } { -0.001 mul 0 cairo_font_matrix dtransform rmoveto } ifelse
  } forall
  currentpoint cairo_store_point
} bind def
/cairo_selectfont { cairo_font_matrix aload pop pop pop 0 0 6 array astore
    cairo_font exch selectfont cairo_point_x cairo_point_y moveto } bind def
/Tf { pop /cairo_font exch def /cairo_font_matrix where
      { pop cairo_selectfont } if } bind def
/Td { matrix translate cairo_font_matrix matrix concatmatrix dup
      /cairo_font_matrix exch def dup 4 get exch 5 get cairo_store_point
      /cairo_font where { pop cairo_selectfont } if } bind def
/Tm { 2 copy 8 2 roll 6 array astore /cairo_font_matrix exch def
      cairo_store_point /cairo_font where { pop cairo_selectfont } if } bind def
/g { setgray } bind def
/rg { setrgbcolor } bind def
/d1 { setcachedevice } bind def
%%EndProlog
%%BeginSetup
%%EndSetup
%%Page: 1 1
%%BeginPageSetup
%%PageBoundingBox: 0 0 432 288
%%EndPageSetup
q 32 29 386 249 rectclip q
0 g
0.15 w
2 J
0 j
[ 0.2 2] 0 d
3.8 M q 1 0 0 -1 0 288 cm
32.75 258.75 m 417.148 258.75 l S Q
0.25 w
[] 0.0 d
q 1 0 0 -1 0 288 cm
32.75 258.75 m 36.449 258.75 l S Q
q 1 0 0 -1 0 288 cm
417.148 258.75 m 413.449 258.75 l S Q
0.15 w
[ 0.2 2] 0 d
q 1 0 0 -1 0 288 cm
32.75 223.301 m 417.148 223.301 l S Q
0.25 w
[] 0.0 d
q 1 0 0 -1 0 288 cm
32.75 223.301 m 36.449 223.301 l S Q
q 1 0 0 -1 0 288 cm
417.148 223.301 m 413.449 223.301 l S Q
0.15 w
[ 0.2 2] 0 d
q 1 0 0 -1 0 288 cm
32.75 187.898 m 417.148 187.898 l S Q
0.25 w
[] 0.0 d
q 1 0 0 -1 0 288 cm
32.75 187.898 m 36.449 187.898 l S Q
q 1 0 0 -1 0 288 cm
417.148 187.898 m 413.449 187.898 l S Q
0.15 w
[ 0.2 2] 0 d
q 1 0 0 -1 0 288 cm
32.75 152.449 m 417.148 152.449 l S Q
0.25 w
[] 0.0 d
q 1 0 0 -1 0 288 cm
32.75 152.449 m 36.449 152.449 l S Q
q 1 0 0 -1 0 288 cm
417.148 152.449 m 413.449 152.449 l S Q
0.15 w
[ 0.2 2] 0 d
q 1 0 0 -1 0 288 cm
32.75 117.051 m 417.148 117.051 l S Q
0.25 w
[] 0.0 d
q 1 0 0 -1 0 288 cm
32.75 117.051 m 36.449 117.051 l S Q
q 1 0 0 -1 0 288 cm
417.148 117.051 m 413.449 117.051 l S Q
0.15 w
[ 0.2 2] 0 d
q 1 0 0 -1 0 288 cm
32.75 81.602 m 417.148 81.602 l S Q
0.25 w
[] 0.0 d
q 1 0 0 -1 0 288 cm
32.75 81.602 m 36.449 81.602 l S Q
q 1 0 0 -1 0 288 cm
417.148 81.602 m 413.449 81.602 l S Q
0.15 w
[ 0.2 2] 0 d
q 1 0 0 -1 0 288 cm
32.75 46.199 m 417.148 46.199 l S Q
0.25 w
[] 0.0 d
q 1 0 0 -1 0 288 cm
32.75 46.199 m 36.449 46.199 l S Q
q 1 0 0 -1 0 288 cm
417.148 46.199 m 413.449 46.199 l S Q
0.15 w
[ 0.2 2] 0 d
q 1 0 0 -1 0 288 cm
32.75 10.75 m 417.148 10.75 l S Q
0.25 w
[] 0.0 d
q 1 0 0 -1 0 288 cm
32.75 10.75 m 36.449 10.75 l S Q
q 1 0 0 -1 0 288 cm
417.148 10.75 m 413.449 10.75 l S Q
0.15 w
[ 0.2 2] 0 d
q 1 0 0 -1 0 288 cm
32.75 258.75 m 32.75 10.75 l S Q
0.25 w
[] 0.0 d
q 1 0 0 -1 0 288 cm
32.75 258.75 m 32.75 255.051 l S Q
q 1 0 0 -1 0 288 cm
32.75 10.75 m 32.75 14.449 l S Q
q 1 0 0 -1 0 288 cm
45.551 258.75 m 45.551 256.898 l S Q
q 1 0 0 -1 0 288 cm
45.551 10.75 m 45.551 12.602 l S Q
q 1 0 0 -1 0 288 cm
58.398 258.75 m 58.398 256.898 l S Q
q 1 0 0 -1 0 288 cm
58.398 10.75 m 58.398 12.602 l S Q
q 1 0 0 -1 0 288 cm
71.199 258.75 m 71.199 256.898 l S Q
q 1 0 0 -1 0 288 cm
71.199 10.75 m 71.199 12.602 l S Q
q 1 0 0 -1 0 288 cm
84 258.75 m 84 256.898 l S Q
q 1 0 0 -1 0 288 cm
84 10.75 m 84 12.602 l S Q
0.15 w
[ 0.2 2] 0 d
q 1 0 0 -1 0 288 cm
96.801 258.75 m 96.801 10.75 l S Q
0.25 w
[] 0.0 d
q 1 0 0 -1 0 288 cm
96.801 258.75 m 96.801 255.051 l S Q
q 1 0 0 -1 0 288 cm
96.801 10.75 m 96.801 14.449 l S Q
q 1 0 0 -1 0 288 cm
109.648 258.75 m 109.648 256.898 l S Q
q 1 0 0 -1 0 288 cm
109.648 10.75 m 109.648 12.602 l S Q
q 1 0 0 -1 0 288 cm
122.449 258.75 m 122.449 256.898 l S Q
q 1 0 0 -1 0 288 cm
122.449 10.75 m 122.449 12.602 l S Q
q 1 0 0 -1 0 288 cm
135.25 258.75 m 135.25 256.898 l S Q
q 1 0 0 -1 0 288 cm
135.25 10.75 m 135.25 12.602 l S Q
q 1 0 0 -1 0 288 cm
148.051 258.75 m 148.051 256.898 l S Q
q 1 0 0 -1 0 288 cm
148.051 10.75 m 148.051 12.602 l S Q
0.15 w
[ 0.2 2] 0 d
q 1 0 0 -1 0 288 cm
160.898 258.75 m 160.898 10.75 l S Q
0.25 w
[] 0.0 d
q 1 0 0 -1 0 288 cm
160.898 258.75 m 160.898 255.051 l S Q
q 1 0 0 -1 0 288 cm
160.898 10.75 m 160.898 14.449 l S Q
q 1 0 0 -1 0 288 cm
173.699 258.75 m 173.699 256.898 l S Q
q 1 0 0 -1 0 288 cm
173.699 10.75 m 173.699 12.602 l S Q
q 1 0 0 -1 0 288 cm
186.5 258.75 m 186.5 256.898 l S Q
q 1 0 0 -1 0 288 cm
186.5 10.75 m 186.5 12.602 l S Q
q 1 0 0 -1 0 288 cm
199.301 258.75 m 199.301 256.898 l S Q
q 1 0 0 -1 0 288 cm
199.301 10.75 m 199.301 12.602 l S Q
q 1 0 0 -1 0 288 cm
212.148 258.75 m 212.148 256.898 l S Q
q 1 0 0 -1 0 288 cm
212.148 10.75 m 212.148 12.602 l S Q
0.15 w
[ 0.2 2] 0 d
q 1 0 0 -1 0 288 cm
224.949 258.75 m 224.949 33.051 l S Q
[ 0.2 2] 0 d
q 1 0 0 -1 0 288 cm
224.949 14.449 m 224.949 10.75 l S Q
0.25 w
[] 0.0 d
q 1 0 0 -1 0 288 cm
224.949 258.75 m 224.949 255.051 l S Q
q 1 0 0 -1 0 288 cm
224.949 10.75 m 224.949 14.449 l S Q
q 1 0 0 -1 0 288 cm
237.75 258.75 m 237.75 256.898 l S Q
q 1 0 0 -1 0 288 cm
237.75 10.75 m 237.75 12.602 l S Q
q 1 0 0 -1 0 288 cm
250.602 258.75 m 250.602 256.898 l S Q
q 1 0 0 -1 0 288 cm
250.602 10.75 m 250.602 12.602 l S Q
q 1 0 0 -1 0 288 cm
263.398 258.75 m 263.398 256.898 l S Q
q 1 0 0 -1 0 288 cm
263.398 10.75 m 263.398 12.602 l S Q
q 1 0 0 -1 0 288 cm
276.199 258.75 m 276.199 256.898 l S Q
q 1 0 0 -1 0 288 cm
276.199 10.75 m 276.199 12.602 l S Q
0.15 w
[ 0.2 2] 0 d
q 1 0 0 -1 0 288 cm
289 258.75 m 289 33.051 l S Q
[ 0.2 2] 0 d
q 1 0 0 -1 0 288 cm
289 14.449 m 289 10.75 l S Q
0.25 w
[] 0.0 d
q 1 0 0 -1 0 288 cm
289 258.75 m 289 255.051 l S Q
q 1 0 0 -1 0 288 cm
289 10.75 m 289 14.449 l S Q
q 1 0 0 -1 0 288 cm
301.852 258.75 m 301.852 256.898 l S Q
q 1 0 0 -1 0 288 cm
301.852 10.75 m 301.852 12.602 l S Q
q 1 0 0 -1 0 288 cm
314.648 258.75 m 314.648 256.898 l S Q
q 1 0 0 -1 0 288 cm
314.648 10.75 m 314.648 12.602 l S Q
q 1 0 0 -1 0 288 cm
327.449 258.75 m 327.449 256.898 l S Q
q 1 0 0 -1 0 288 cm
327.449 10.75 m 327.449 12.602 l S Q
q 1 0 0 -1 0 288 cm
340.25 258.75 m 340.25 256.898 l S Q
q 1 0 0 -1 0 288 cm
340.25 10.75 m 340.25 12.602 l S Q
0.15 w
[ 0.2 2] 0 d
q 1 0 0 -1 0 288 cm
353.102 258.75 m 353.102 33.051 l S Q
[ 0.2 2] 0 d
q 1 0 0 -1 0 288 cm
353.102 14.449 m 353.102 10.75 l S Q
0.25 w
[] 0.0 d
q 1 0 0 -1 0 288 cm
353.102 258.75 m 353.102 255.051 l S Q
q 1 0 0 -1 0 288 cm
353.102 10.75 m 353.102 14.449 l S Q
q 1 0 0 -1 0 288 cm
365.898 258.75 m 365.898 256.898 l S Q
q 1 0 0 -1 0 288 cm
365.898 10.75 m 365.898 12.602 l S Q
q 1 0 0 -1 0 288 cm
378.699 258.75 m 378.699 256.898 l S Q
q 1 0 0 -1 0 288 cm
378.699 10.75 m 378.699 12.602 l S Q
q 1 0 0 -1 0 288 cm
391.5 258.75 m 391.5 256.898 l S Q
q 1 0 0 -1 0 288 cm
391.5 10.75 m 391.5 12.602 l S Q
q 1 0 0 -1 0 288 cm
404.352 258.75 m 404.352 256.898 l S Q
q 1 0 0 -1 0 288 cm
404.352 10.75 m 404.352 12.602 l S Q
0.15 w
[ 0.2 2] 0 d
q 1 0 0 -1 0 288 cm
417.148 258.75 m 417.148 10.75 l S Q
0.25 w
[] 0.0 d
q 1 0 0 -1 0 288 cm
417.148 258.75 m 417.148 255.051 l S Q
q 1 0 0 -1 0 288 cm
417.148 10.75 m 417.148 14.449 l S Q
q 1 0 0 -1 0 288 cm
32.75 10.75 384.398 248 re S Q
q 1 0 0 -1 0 288 cm
32.75 187.898 m 417.148 187.898 l S Q
0.74902 0.145098 0.172549 rg
q 1 0 0 -1 0 288 cm
382.852 28.398 m 406.949 28.398 l S Q
q 1 0 0 -1 0 288 cm
33.398 10.75 m 33.398 43.898 l S Q
q 1 0 0 -1 0 288 cm
33.398 43.898 m 33.602 43.898 l 33.602 55.398 l S Q
q 1 0 0 -1 0 288 cm
33.602 55.398 m 33.801 55.398 l 33.801 69.148 l S Q
q 1 0 0 -1 0 288 cm
33.801 69.148 m 33.949 69.148 l 33.949 70.648 l S Q
q 1 0 0 -1 0 288 cm
33.949 70.648 m 34.051 70.648 l 34.051 97.602 l S Q
q 1 0 0 -1 0 288 cm
34.051 97.602 m 34.199 97.602 l 34.199 105.551 l S Q
q 1 0 0 -1 0 288 cm
34.199 105.551 m 34.648 105.551 l 34.648 129.75 l S Q
q 1 0 0 -1 0 288 cm
34.648 129.75 m 34.898 129.75 l 34.898 140.551 l S Q
q 1 0 0 -1 0 288 cm
34.898 140.551 m 35.199 140.551 l 35.199 140.602 l S Q
q 1 0 0 -1 0 288 cm
35.199 140.602 m 35.25 140.602 l S Q
q 1 0 0 -1 0 288 cm
35.25 140.602 m 35.449 140.602 l S Q
q 1 0 0 -1 0 288 cm
35.449 140.602 m 35.551 140.602 l 35.551 146.801 l S Q
q 1 0 0 -1 0 288 cm
35.551 146.801 m 35.648 146.801 l S Q
q 1 0 0 -1 0 288 cm
35.648 146.801 m 35.75 146.801 l S Q
q 1 0 0 -1 0 288 cm
35.75 146.801 m 35.852 146.801 l S Q
q 1 0 0 -1 0 288 cm
35.852 146.801 m 35.949 146.801 l S Q
q 1 0 0 -1 0 288 cm
35.949 146.801 m 36.102 146.801 l S Q
q 1 0 0 -1 0 288 cm
36.102 146.801 m 36.199 146.801 l S Q
q 1 0 0 -1 0 288 cm
36.199 146.801 m 36.301 146.801 l S Q
q 1 0 0 -1 0 288 cm
36.301 146.801 m 36.449 146.801 l S Q
q 1 0 0 -1 0 288 cm
36.449 146.801 m 36.551 146.801 l S Q
q 1 0 0 -1 0 288 cm
36.551 146.801 m 36.648 146.801 l S Q
q 1 0 0 -1 0 288 cm
36.648 146.801 m 36.801 146.801 l S Q
q 1 0 0 -1 0 288 cm
36.801 146.801 m 36.852 146.801 l S Q
q 1 0 0 -1 0 288 cm
36.852 146.801 m 37 146.801 l S Q
q 1 0 0 -1 0 288 cm
37 146.801 m 37.102 146.801 l S Q
q 1 0 0 -1 0 288 cm
37.102 146.801 m 37.199 146.801 l S Q
q 1 0 0 -1 0 288 cm
37.199 146.801 m 37.301 146.801 l S Q
q 1 0 0 -1 0 288 cm
37.301 146.801 m 37.352 146.801 l S Q
q 1 0 0 -1 0 288 cm
37.352 146.801 m 37.449 146.801 l S Q
q 1 0 0 -1 0 288 cm
37.449 146.801 m 37.551 146.801 l S Q
q 1 0 0 -1 0 288 cm
37.551 146.801 m 37.602 146.801 l S Q
q 1 0 0 -1 0 288 cm
37.602 146.801 m 37.699 146.801 l S Q
q 1 0 0 -1 0 288 cm
37.699 146.801 m 37.801 146.801 l S Q
q 1 0 0 -1 0 288 cm
37.801 146.801 m 37.852 146.801 l S Q
q 1 0 0 -1 0 288 cm
37.852 146.801 m 37.949 146.801 l S Q
q 1 0 0 -1 0 288 cm
37.949 146.801 m 38.051 146.801 l S Q
q 1 0 0 -1 0 288 cm
38.051 146.801 m 38.148 146.801 l S Q
q 1 0 0 -1 0 288 cm
38.148 146.801 m 39.852 146.801 l S Q
q 1 0 0 -1 0 288 cm
39.852 146.801 m 40.148 146.801 l S Q
q 1 0 0 -1 0 288 cm
40.148 146.801 m 40.25 146.801 l S Q
q 1 0 0 -1 0 288 cm
40.25 146.801 m 40.398 146.801 l S Q
q 1 0 0 -1 0 288 cm
40.398 146.801 m 40.551 146.801 l S Q
q 1 0 0 -1 0 288 cm
40.551 146.801 m 40.602 146.801 l S Q
q 1 0 0 -1 0 288 cm
40.602 146.801 m 40.75 146.801 l S Q
q 1 0 0 -1 0 288 cm
40.75 146.801 m 40.852 146.801 l S Q
q 1 0 0 -1 0 288 cm
40.852 146.801 m 41 146.801 l S Q
q 1 0 0 -1 0 288 cm
41 146.801 m 41.102 146.801 l S Q
q 1 0 0 -1 0 288 cm
41.102 146.801 m 41.199 146.801 l S Q
q 1 0 0 -1 0 288 cm
41.199 146.801 m 41.352 146.801 l S Q
q 1 0 0 -1 0 288 cm
41.352 146.801 m 41.449 146.801 l S Q
q 1 0 0 -1 0 288 cm
41.449 146.801 m 41.551 146.801 l S Q
q 1 0 0 -1 0 288 cm
41.551 146.801 m 41.699 146.801 l S Q
q 1 0 0 -1 0 288 cm
41.699 146.801 m 41.801 146.801 l S Q
q 1 0 0 -1 0 288 cm
41.801 146.801 m 41.852 146.801 l S Q
q 1 0 0 -1 0 288 cm
41.852 146.801 m 41.949 146.801 l S Q
q 1 0 0 -1 0 288 cm
41.949 146.801 m 42.051 146.801 l S Q
q 1 0 0 -1 0 288 cm
42.051 146.801 m 42.102 146.801 l S Q
q 1 0 0 -1 0 288 cm
42.102 146.801 m 42.199 146.801 l S Q
q 1 0 0 -1 0 288 cm
42.199 146.801 m 42.301 146.801 l S Q
q 1 0 0 -1 0 288 cm
42.301 146.801 m 44.551 146.801 l S Q
q 1 0 0 -1 0 288 cm
44.551 146.801 m 44.949 146.801 l S Q
q 1 0 0 -1 0 288 cm
44.949 146.801 m 45.051 146.801 l S Q
q 1 0 0 -1 0 288 cm
45.051 146.801 m 45.102 146.801 l S Q
q 1 0 0 -1 0 288 cm
45.102 146.801 m 45.199 146.801 l S Q
q 1 0 0 -1 0 288 cm
45.199 146.801 m 45.301 146.801 l S Q
q 1 0 0 -1 0 288 cm
45.301 146.801 m 45.449 146.801 l S Q
q 1 0 0 -1 0 288 cm
45.449 146.801 m 45.551 146.801 l S Q
q 1 0 0 -1 0 288 cm
45.551 146.801 m 45.699 146.801 l 45.699 158.352 l S Q
q 1 0 0 -1 0 288 cm
45.699 158.352 m 45.801 158.352 l S Q
q 1 0 0 -1 0 288 cm
45.801 158.352 m 45.949 158.352 l S Q
q 1 0 0 -1 0 288 cm
45.949 158.352 m 46.051 158.352 l S Q
q 1 0 0 -1 0 288 cm
46.051 158.352 m 46.148 158.352 l S Q
q 1 0 0 -1 0 288 cm
46.148 158.352 m 46.301 158.352 l S Q
q 1 0 0 -1 0 288 cm
46.301 158.352 m 46.398 158.352 l S Q
q 1 0 0 -1 0 288 cm
46.398 158.352 m 46.5 158.352 l S Q
q 1 0 0 -1 0 288 cm
46.5 158.352 m 48.449 158.352 l 48.449 174.102 l S Q
q 1 0 0 -1 0 288 cm
48.449 174.102 m 49 174.102 l S Q
q 1 0 0 -1 0 288 cm
49 174.102 m 49.051 174.102 l S Q
q 1 0 0 -1 0 288 cm
49.051 174.102 m 49.199 174.102 l S Q
q 1 0 0 -1 0 288 cm
49.199 174.102 m 49.25 174.102 l S Q
q 1 0 0 -1 0 288 cm
49.25 174.102 m 49.301 174.102 l S Q
q 1 0 0 -1 0 288 cm
49.301 174.102 m 51.25 174.102 l 51.25 182.199 l S Q
q 1 0 0 -1 0 288 cm
51.25 182.199 m 53.699 182.199 l 53.699 185.898 l S Q
q 1 0 0 -1 0 288 cm
53.699 185.898 m 57.398 185.898 l 57.398 185.949 l S Q
q 1 0 0 -1 0 288 cm
57.398 185.949 m 64.5 185.949 l S Q
q 1 0 0 -1 0 288 cm
64.5 185.949 m 64.898 185.949 l 64.898 186.199 l S Q
q 1 0 0 -1 0 288 cm
64.898 186.199 m 74.449 186.199 l S Q
q 1 0 0 -1 0 288 cm
74.449 186.199 m 85.051 186.199 l S Q
q 1 0 0 -1 0 288 cm
85.051 186.199 m 89.398 186.199 l S Q
q 1 0 0 -1 0 288 cm
89.398 186.199 m 94.602 186.199 l S Q
q 1 0 0 -1 0 288 cm
94.602 186.199 m 94.801 186.199 l S Q
q 1 0 0 -1 0 288 cm
94.801 186.199 m 95 186.199 l S Q
q 1 0 0 -1 0 288 cm
95 186.199 m 95.148 186.199 l S Q
q 1 0 0 -1 0 288 cm
95.148 186.199 m 95.352 186.199 l S Q
q 1 0 0 -1 0 288 cm
95.352 186.199 m 95.551 186.199 l S Q
q 1 0 0 -1 0 288 cm
95.551 186.199 m 95.699 186.199 l S Q
q 1 0 0 -1 0 288 cm
95.699 186.199 m 95.898 186.199 l S Q
q 1 0 0 -1 0 288 cm
95.898 186.199 m 96.102 186.199 l S Q
q 1 0 0 -1 0 288 cm
96.102 186.199 m 96.301 186.199 l S Q
q 1 0 0 -1 0 288 cm
96.301 186.199 m 96.449 186.199 l S Q
q 1 0 0 -1 0 288 cm
96.449 186.199 m 96.648 186.199 l S Q
q 1 0 0 -1 0 288 cm
96.648 186.199 m 96.852 186.199 l S Q
q 1 0 0 -1 0 288 cm
96.852 186.199 m 101.602 186.199 l S Q
q 1 0 0 -1 0 288 cm
101.602 186.199 m 102.898 186.199 l S Q
q 1 0 0 -1 0 288 cm
102.898 186.199 m 104.352 186.199 l S Q
q 1 0 0 -1 0 288 cm
104.352 186.199 m 105.648 186.199 l S Q
q 1 0 0 -1 0 288 cm
105.648 186.199 m 105.852 186.199 l S Q
q 1 0 0 -1 0 288 cm
105.852 186.199 m 105.949 186.199 l S Q
q 1 0 0 -1 0 288 cm
105.949 186.199 m 106.051 186.199 l S Q
q 1 0 0 -1 0 288 cm
106.051 186.199 m 106.102 186.199 l S Q
q 1 0 0 -1 0 288 cm
106.102 186.199 m 106.25 186.199 l S Q
q 1 0 0 -1 0 288 cm
106.25 186.199 m 106.301 186.199 l S Q
q 1 0 0 -1 0 288 cm
106.301 186.199 m 106.352 186.199 l S Q
q 1 0 0 -1 0 288 cm
106.352 186.199 m 106.449 186.199 l S Q
q 1 0 0 -1 0 288 cm
106.449 186.199 m 106.551 186.199 l S Q
q 1 0 0 -1 0 288 cm
106.551 186.199 m 106.648 186.199 l S Q
q 1 0 0 -1 0 288 cm
106.648 186.199 m 124.5 186.199 l S Q
q 1 0 0 -1 0 288 cm
124.5 186.199 m 137.102 186.199 l S Q
q 1 0 0 -1 0 288 cm
137.102 186.199 m 146.449 186.199 l S Q
q 1 0 0 -1 0 288 cm
146.449 186.199 m 149.949 186.199 l S Q
q 1 0 0 -1 0 288 cm
149.949 186.199 m 153.051 186.199 l S Q
q 1 0 0 -1 0 288 cm
153.051 186.199 m 156.949 186.199 l S Q
q 1 0 0 -1 0 288 cm
156.949 186.199 m 158.898 186.199 l S Q
q 1 0 0 -1 0 288 cm
158.898 186.199 m 161.25 186.199 l S Q
q 1 0 0 -1 0 288 cm
161.25 186.199 m 161.699 186.199 l S Q
q 1 0 0 -1 0 288 cm
161.699 186.199 m 164.199 186.199 l S Q
q 1 0 0 -1 0 288 cm
164.199 186.199 m 169.398 186.199 l S Q
q 1 0 0 -1 0 288 cm
169.398 186.199 m 170.852 186.199 l S Q
q 1 0 0 -1 0 288 cm
170.852 186.199 m 172.199 186.199 l S Q
q 1 0 0 -1 0 288 cm
172.199 186.199 m 173.75 186.199 l S Q
q 1 0 0 -1 0 288 cm
173.75 186.199 m 175.949 186.199 l S Q
q 1 0 0 -1 0 288 cm
175.949 186.199 m 178.051 186.199 l S Q
q 1 0 0 -1 0 288 cm
178.051 186.199 m 181.051 186.199 l S Q
q 1 0 0 -1 0 288 cm
181.051 186.199 m 183.25 186.199 l S Q
q 1 0 0 -1 0 288 cm
183.25 186.199 m 194.852 186.199 l S Q
q 1 0 0 -1 0 288 cm
194.852 186.199 m 197.398 186.199 l S Q
q 1 0 0 -1 0 288 cm
197.398 186.199 m 199.801 186.199 l S Q
q 1 0 0 -1 0 288 cm
199.801 186.199 m 203.25 186.199 l S Q
q 1 0 0 -1 0 288 cm
203.25 186.199 m 205.449 186.199 l S Q
q 1 0 0 -1 0 288 cm
205.449 186.199 m 208 186.199 l S Q
q 1 0 0 -1 0 288 cm
208 186.199 m 210.398 186.199 l S Q
q 1 0 0 -1 0 288 cm
210.398 186.199 m 211.801 186.199 l S Q
q 1 0 0 -1 0 288 cm
211.801 186.199 m 215.551 186.199 l S Q
q 1 0 0 -1 0 288 cm
215.551 186.199 m 217.199 186.199 l S Q
q 1 0 0 -1 0 288 cm
217.199 186.199 m 219.5 186.199 l S Q
q 1 0 0 -1 0 288 cm
219.5 186.199 m 221.5 186.199 l S Q
q 1 0 0 -1 0 288 cm
221.5 186.199 m 223.551 186.199 l S Q
q 1 0 0 -1 0 288 cm
223.551 186.199 m 227.648 186.199 l S Q
q 1 0 0 -1 0 288 cm
227.648 186.199 m 230.852 186.199 l S Q
q 1 0 0 -1 0 288 cm
230.852 186.199 m 233.75 186.199 l S Q
q 1 0 0 -1 0 288 cm
233.75 186.199 m 236.199 186.199 l S Q
q 1 0 0 -1 0 288 cm
236.199 186.199 m 239.449 186.199 l S Q
q 1 0 0 -1 0 288 cm
239.449 186.199 m 242.852 186.199 l S Q
q 1 0 0 -1 0 288 cm
242.852 186.199 m 255.852 186.199 l S Q
q 1 0 0 -1 0 288 cm
255.852 186.199 m 257.148 186.199 l S Q
q 1 0 0 -1 0 288 cm
257.148 186.199 m 259.949 186.199 l S Q
q 1 0 0 -1 0 288 cm
259.949 186.199 m 263.199 186.199 l S Q
q 1 0 0 -1 0 288 cm
263.199 186.199 m 265.602 186.199 l S Q
q 1 0 0 -1 0 288 cm
265.602 186.199 m 267.75 186.199 l S Q
q 1 0 0 -1 0 288 cm
267.75 186.199 m 272.5 186.199 l S Q
q 1 0 0 -1 0 288 cm
272.5 186.199 m 275.398 186.199 l S Q
q 1 0 0 -1 0 288 cm
275.398 186.199 m 278.352 186.199 l S Q
q 1 0 0 -1 0 288 cm
278.352 186.199 m 282 186.199 l S Q
q 1 0 0 -1 0 288 cm
282 186.199 m 284.602 186.199 l S Q
q 1 0 0 -1 0 288 cm
284.602 186.199 m 286.699 186.199 l S Q
q 1 0 0 -1 0 288 cm
286.699 186.199 m 289.801 186.199 l S Q
q 1 0 0 -1 0 288 cm
289.801 186.199 m 292.852 186.199 l S Q
q 1 0 0 -1 0 288 cm
292.852 186.199 m 294.25 186.199 l S Q
q 1 0 0 -1 0 288 cm
294.25 186.199 m 297.898 186.199 l S Q
q 1 0 0 -1 0 288 cm
297.898 186.199 m 300.398 186.199 l S Q
q 1 0 0 -1 0 288 cm
300.398 186.199 m 304.352 186.199 l S Q
q 1 0 0 -1 0 288 cm
304.352 186.199 m 306.551 186.199 l S Q
q 1 0 0 -1 0 288 cm
306.551 186.199 m 317.449 186.199 l S Q
q 1 0 0 -1 0 288 cm
317.449 186.199 m 319.801 186.199 l S Q
q 1 0 0 -1 0 288 cm
319.801 186.199 m 322.602 186.199 l S Q
q 1 0 0 -1 0 288 cm
322.602 186.199 m 325.949 186.199 l S Q
q 1 0 0 -1 0 288 cm
325.949 186.199 m 328.801 186.199 l S Q
q 1 0 0 -1 0 288 cm
328.801 186.199 m 331.551 186.199 l S Q
q 1 0 0 -1 0 288 cm
331.551 186.199 m 334.551 186.199 l S Q
q 1 0 0 -1 0 288 cm
334.551 186.199 m 337.25 186.199 l S Q
q 1 0 0 -1 0 288 cm
337.25 186.199 m 338.648 186.199 l S Q
q 1 0 0 -1 0 288 cm
338.648 186.199 m 343.398 186.199 l S Q
q 1 0 0 -1 0 288 cm
343.398 186.199 m 346.051 186.199 l S Q
q 1 0 0 -1 0 288 cm
346.051 186.199 m 349.301 186.199 l S Q
q 1 0 0 -1 0 288 cm
349.301 186.199 m 354.301 186.199 l S Q
q 1 0 0 -1 0 288 cm
354.301 186.199 m 356.301 186.199 l S Q
q 1 0 0 -1 0 288 cm
356.301 186.199 m 358.75 186.199 l S Q
q 1 0 0 -1 0 288 cm
358.75 186.199 m 361.051 186.199 l S Q
q 1 0 0 -1 0 288 cm
361.051 186.199 m 363.449 186.199 l S Q
q 1 0 0 -1 0 288 cm
363.449 186.199 m 366.648 186.199 l S Q
q 1 0 0 -1 0 288 cm
366.648 186.199 m 369.102 186.199 l S Q
q 1 0 0 -1 0 288 cm
369.102 186.199 m 381.148 186.199 l S Q
q 1 0 0 -1 0 288 cm
381.148 186.199 m 385.949 186.199 l S Q
q 1 0 0 -1 0 288 cm
385.949 186.199 m 386.898 186.199 l 386.898 187.898 l S Q
q 1 0 0 -1 0 288 cm
386.898 187.898 m 387.852 187.898 l S Q
q 1 0 0 -1 0 288 cm
387.852 187.898 m 392.801 187.898 l S Q
q 1 0 0 -1 0 288 cm
392.801 187.898 m 395.301 187.898 l S Q
q 1 0 0 -1 0 288 cm
395.301 187.898 m 397.449 187.898 l S Q
q 1 0 0 -1 0 288 cm
397.449 187.898 m 400.648 187.898 l S Q
q 1 0 0 -1 0 288 cm
400.648 187.898 m 404.051 187.898 l S Q
q 1 0 0 -1 0 288 cm
404.051 187.898 m 406.648 187.898 l S Q
q 1 0 0 -1 0 288 cm
406.648 187.898 m 411.449 187.898 l S Q
q 1 0 0 -1 0 288 cm
411.449 187.898 m 414.551 187.898 l S Q
q 1 0 0 -1 0 288 cm
414.551 187.898 m 417.148 187.898 l S Q
0 0.65098 0.552941 rg
q 1 0 0 -1 0 288 cm
382.852 19.102 m 406.949 19.102 l S Q
q 1 0 0 -1 0 288 cm
34 10.75 m 34 33.75 l S Q
q 1 0 0 -1 0 288 cm
34 33.75 m 34.449 33.75 l 34.449 77.102 l S Q
q 1 0 0 -1 0 288 cm
34.449 77.102 m 34.852 77.102 l 34.852 95.051 l S Q
q 1 0 0 -1 0 288 cm
34.852 95.051 m 35.301 95.051 l 35.301 117.199 l S Q
q 1 0 0 -1 0 288 cm
35.301 117.199 m 35.699 117.199 l 35.699 126.25 l S Q
q 1 0 0 -1 0 288 cm
35.699 126.25 m 36.102 126.25 l 36.102 154.102 l S Q
q 1 0 0 -1 0 288 cm
36.102 154.102 m 36.5 154.102 l 36.5 155.699 l S Q
q 1 0 0 -1 0 288 cm
36.5 155.699 m 36.898 155.699 l 36.898 175.648 l S Q
q 1 0 0 -1 0 288 cm
36.898 175.648 m 37.301 175.648 l 37.301 183 l S Q
q 1 0 0 -1 0 288 cm
37.301 183 m 37.75 183 l S Q
q 1 0 0 -1 0 288 cm
37.75 183 m 38.148 183 l 38.148 188.102 l S Q
q 1 0 0 -1 0 288 cm
38.148 188.102 m 38.551 188.102 l 38.551 191.051 l S Q
q 1 0 0 -1 0 288 cm
38.551 191.051 m 38.949 191.051 l S Q
q 1 0 0 -1 0 288 cm
38.949 191.051 m 39.352 191.051 l S Q
q 1 0 0 -1 0 288 cm
39.352 191.051 m 39.801 191.051 l S Q
q 1 0 0 -1 0 288 cm
39.801 191.051 m 40.199 191.051 l S Q
q 1 0 0 -1 0 288 cm
40.199 191.051 m 40.602 191.051 l S Q
q 1 0 0 -1 0 288 cm
40.602 191.051 m 41 191.051 l 41 191.148 l S Q
q 1 0 0 -1 0 288 cm
41 191.148 m 41.398 191.148 l 41.398 201.602 l S Q
q 1 0 0 -1 0 288 cm
41.398 201.602 m 41.801 201.602 l 41.801 202.449 l S Q
q 1 0 0 -1 0 288 cm
41.801 202.449 m 42.199 202.449 l 42.199 206.898 l S Q
q 1 0 0 -1 0 288 cm
42.199 206.898 m 42.602 206.898 l S Q
q 1 0 0 -1 0 288 cm
42.602 206.898 m 43.051 206.898 l 43.051 208.352 l S Q
q 1 0 0 -1 0 288 cm
43.051 208.352 m 43.449 208.352 l S Q
q 1 0 0 -1 0 288 cm
43.449 208.352 m 43.852 208.352 l S Q
q 1 0 0 -1 0 288 cm
43.852 208.352 m 44.25 208.352 l 44.25 208.75 l S Q
q 1 0 0 -1 0 288 cm
44.25 208.75 m 44.648 208.75 l S Q
q 1 0 0 -1 0 288 cm
44.648 208.75 m 45.051 208.75 l S Q
q 1 0 0 -1 0 288 cm
45.051 208.75 m 45.449 208.75 l S Q
q 1 0 0 -1 0 288 cm
45.449 208.75 m 45.852 208.75 l S Q
q 1 0 0 -1 0 288 cm
45.852 208.75 m 46.25 208.75 l S Q
q 1 0 0 -1 0 288 cm
46.25 208.75 m 46.648 208.75 l S Q
q 1 0 0 -1 0 288 cm
46.648 208.75 m 47.051 208.75 l S Q
q 1 0 0 -1 0 288 cm
47.051 208.75 m 47.5 208.75 l S Q
q 1 0 0 -1 0 288 cm
47.5 208.75 m 47.898 208.75 l S Q
q 1 0 0 -1 0 288 cm
47.898 208.75 m 48.301 208.75 l S Q
q 1 0 0 -1 0 288 cm
48.301 208.75 m 48.699 208.75 l S Q
q 1 0 0 -1 0 288 cm
48.699 208.75 m 49.102 208.75 l S Q
q 1 0 0 -1 0 288 cm
49.102 208.75 m 49.5 208.75 l S Q
q 1 0 0 -1 0 288 cm
49.5 208.75 m 49.898 208.75 l S Q
q 1 0 0 -1 0 288 cm
49.898 208.75 m 50.301 208.75 l S Q
q 1 0 0 -1 0 288 cm
50.301 208.75 m 50.699 208.75 l S Q
q 1 0 0 -1 0 288 cm
50.699 208.75 m 51.102 208.75 l 51.102 209.949 l S Q
q 1 0 0 -1 0 288 cm
51.102 209.949 m 51.5 209.949 l S Q
q 1 0 0 -1 0 288 cm
51.5 209.949 m 51.898 209.949 l 51.898 215.301 l S Q
q 1 0 0 -1 0 288 cm
51.898 215.301 m 52.352 215.301 l S Q
q 1 0 0 -1 0 288 cm
52.352 215.301 m 52.75 215.301 l S Q
q 1 0 0 -1 0 288 cm
52.75 215.301 m 53.148 215.301 l S Q
q 1 0 0 -1 0 288 cm
53.148 215.301 m 53.551 215.301 l 53.551 215.648 l S Q
q 1 0 0 -1 0 288 cm
53.551 215.648 m 53.949 215.648 l S Q
q 1 0 0 -1 0 288 cm
53.949 215.648 m 54.352 215.648 l S Q
q 1 0 0 -1 0 288 cm
54.352 215.648 m 54.75 215.648 l S Q
q 1 0 0 -1 0 288 cm
54.75 215.648 m 55.148 215.648 l S Q
q 1 0 0 -1 0 288 cm
55.148 215.648 m 55.551 215.648 l S Q
q 1 0 0 -1 0 288 cm
55.551 215.648 m 55.949 215.648 l S Q
q 1 0 0 -1 0 288 cm
55.949 215.648 m 56.352 215.648 l S Q
q 1 0 0 -1 0 288 cm
56.352 215.648 m 56.75 215.648 l S Q
q 1 0 0 -1 0 288 cm
56.75 215.648 m 57.148 215.648 l S Q
q 1 0 0 -1 0 288 cm
57.148 215.648 m 57.551 215.648 l S Q
q 1 0 0 -1 0 288 cm
57.551 215.648 m 58 215.648 l S Q
q 1 0 0 -1 0 288 cm
58 215.648 m 58.398 215.648 l S Q
q 1 0 0 -1 0 288 cm
58.398 215.648 m 58.801 215.648 l S Q
q 1 0 0 -1 0 288 cm
58.801 215.648 m 59.199 215.648 l S Q
q 1 0 0 -1 0 288 cm
59.199 215.648 m 59.602 215.648 l S Q
q 1 0 0 -1 0 288 cm
59.602 215.648 m 60 215.648 l S Q
q 1 0 0 -1 0 288 cm
60 215.648 m 60.398 215.648 l S Q
q 1 0 0 -1 0 288 cm
60.398 215.648 m 60.801 215.648 l S Q
q 1 0 0 -1 0 288 cm
60.801 215.648 m 61.199 215.648 l S Q
q 1 0 0 -1 0 288 cm
61.199 215.648 m 61.602 215.648 l S Q
q 1 0 0 -1 0 288 cm
61.602 215.648 m 62 215.648 l S Q
q 1 0 0 -1 0 288 cm
62 215.648 m 62.449 215.648 l S Q
q 1 0 0 -1 0 288 cm
62.449 215.648 m 62.852 215.648 l S Q
q 1 0 0 -1 0 288 cm
62.852 215.648 m 63.25 215.648 l S Q
q 1 0 0 -1 0 288 cm
63.25 215.648 m 63.648 215.648 l 63.648 215.75 l S Q
q 1 0 0 -1 0 288 cm
63.648 215.75 m 64.051 215.75 l 64.051 217.352 l S Q
q 1 0 0 -1 0 288 cm
64.051 217.352 m 64.449 217.352 l S Q
q 1 0 0 -1 0 288 cm
64.449 217.352 m 64.852 217.352 l S Q
q 1 0 0 -1 0 288 cm
64.852 217.352 m 65.25 217.352 l S Q
q 1 0 0 -1 0 288 cm
65.25 217.352 m 65.648 217.352 l S Q
q 1 0 0 -1 0 288 cm
65.648 217.352 m 66.051 217.352 l S Q
q 1 0 0 -1 0 288 cm
66.051 217.352 m 66.449 217.352 l S Q
q 1 0 0 -1 0 288 cm
66.449 217.352 m 66.898 217.352 l S Q
q 1 0 0 -1 0 288 cm
66.898 217.352 m 67.301 217.352 l S Q
q 1 0 0 -1 0 288 cm
67.301 217.352 m 67.699 217.352 l S Q
q 1 0 0 -1 0 288 cm
67.699 217.352 m 68.102 217.352 l S Q
q 1 0 0 -1 0 288 cm
68.102 217.352 m 68.5 217.352 l 68.5 220.949 l S Q
q 1 0 0 -1 0 288 cm
68.5 220.949 m 68.898 220.949 l 68.898 222.449 l S Q
q 1 0 0 -1 0 288 cm
68.898 222.449 m 69.301 222.449 l 69.301 223 l S Q
q 1 0 0 -1 0 288 cm
69.301 223 m 69.699 223 l S Q
q 1 0 0 -1 0 288 cm
69.699 223 m 70.102 223 l 70.102 224.449 l S Q
q 1 0 0 -1 0 288 cm
70.102 224.449 m 70.5 224.449 l S Q
q 1 0 0 -1 0 288 cm
70.5 224.449 m 70.852 224.449 l S Q
q 1 0 0 -1 0 288 cm
70.852 224.449 m 71.25 224.449 l S Q
q 1 0 0 -1 0 288 cm
71.25 224.449 m 71.648 224.449 l 71.648 225.5 l S Q
q 1 0 0 -1 0 288 cm
71.648 225.5 m 72.051 225.5 l S Q
q 1 0 0 -1 0 288 cm
72.051 225.5 m 72.449 225.5 l S Q
q 1 0 0 -1 0 288 cm
72.449 225.5 m 72.852 225.5 l S Q
q 1 0 0 -1 0 288 cm
72.852 225.5 m 73.25 225.5 l S Q
q 1 0 0 -1 0 288 cm
73.25 225.5 m 73.648 225.5 l S Q
q 1 0 0 -1 0 288 cm
73.648 225.5 m 74.051 225.5 l S Q
q 1 0 0 -1 0 288 cm
74.051 225.5 m 74.449 225.5 l S Q
q 1 0 0 -1 0 288 cm
74.449 225.5 m 74.852 225.5 l S Q
q 1 0 0 -1 0 288 cm
74.852 225.5 m 75.25 225.5 l S Q
q 1 0 0 -1 0 288 cm
75.25 225.5 m 75.648 225.5 l S Q
q 1 0 0 -1 0 288 cm
75.648 225.5 m 76.051 225.5 l S Q
q 1 0 0 -1 0 288 cm
76.051 225.5 m 76.449 225.5 l S Q
q 1 0 0 -1 0 288 cm
76.449 225.5 m 76.852 225.5 l S Q
q 1 0 0 -1 0 288 cm
76.852 225.5 m 77.25 225.5 l S Q
q 1 0 0 -1 0 288 cm
77.25 225.5 m 77.648 225.5 l S Q
q 1 0 0 -1 0 288 cm
77.648 225.5 m 78.051 225.5 l S Q
q 1 0 0 -1 0 288 cm
78.051 225.5 m 78.449 225.5 l S Q
q 1 0 0 -1 0 288 cm
78.449 225.5 m 78.852 225.5 l S Q
q 1 0 0 -1 0 288 cm
78.852 225.5 m 79.25 225.5 l S Q
q 1 0 0 -1 0 288 cm
79.25 225.5 m 79.648 225.5 l S Q
q 1 0 0 -1 0 288 cm
79.648 225.5 m 80.051 225.5 l S Q
q 1 0 0 -1 0 288 cm
80.051 225.5 m 80.449 225.5 l S Q
q 1 0 0 -1 0 288 cm
80.449 225.5 m 80.852 225.5 l S Q
q 1 0 0 -1 0 288 cm
80.852 225.5 m 81.25 225.5 l S Q
q 1 0 0 -1 0 288 cm
81.25 225.5 m 81.648 225.5 l S Q
q 1 0 0 -1 0 288 cm
81.648 225.5 m 82.051 225.5 l S Q
q 1 0 0 -1 0 288 cm
82.051 225.5 m 82.449 225.5 l S Q
q 1 0 0 -1 0 288 cm
82.449 225.5 m 82.801 225.5 l S Q
q 1 0 0 -1 0 288 cm
82.801 225.5 m 83.199 225.5 l S Q
q 1 0 0 -1 0 288 cm
83.199 225.5 m 83.602 225.5 l S Q
q 1 0 0 -1 0 288 cm
83.602 225.5 m 84 225.5 l S Q
q 1 0 0 -1 0 288 cm
84 225.5 m 84.398 225.5 l S Q
q 1 0 0 -1 0 288 cm
84.398 225.5 m 84.801 225.5 l S Q
q 1 0 0 -1 0 288 cm
84.801 225.5 m 85.199 225.5 l 85.199 225.852 l S Q
q 1 0 0 -1 0 288 cm
85.199 225.852 m 85.602 225.852 l S Q
q 1 0 0 -1 0 288 cm
85.602 225.852 m 86 225.852 l S Q
q 1 0 0 -1 0 288 cm
86 225.852 m 86.398 225.852 l S Q
q 1 0 0 -1 0 288 cm
86.398 225.852 m 86.801 225.852 l S Q
q 1 0 0 -1 0 288 cm
86.801 225.852 m 87.199 225.852 l S Q
q 1 0 0 -1 0 288 cm
87.199 225.852 m 87.602 225.852 l S Q
q 1 0 0 -1 0 288 cm
87.602 225.852 m 88 225.852 l S Q
q 1 0 0 -1 0 288 cm
88 225.852 m 88.398 225.852 l S Q
q 1 0 0 -1 0 288 cm
88.398 225.852 m 88.801 225.852 l S Q
q 1 0 0 -1 0 288 cm
88.801 225.852 m 89.199 225.852 l S Q
q 1 0 0 -1 0 288 cm
89.199 225.852 m 89.602 225.852 l S Q
q 1 0 0 -1 0 288 cm
89.602 225.852 m 90 225.852 l S Q
q 1 0 0 -1 0 288 cm
90 225.852 m 90.398 225.852 l S Q
q 1 0 0 -1 0 288 cm
90.398 225.852 m 90.801 225.852 l S Q
q 1 0 0 -1 0 288 cm
90.801 225.852 m 91.199 225.852 l S Q
q 1 0 0 -1 0 288 cm
91.199 225.852 m 91.602 225.852 l S Q
q 1 0 0 -1 0 288 cm
91.602 225.852 m 92 225.852 l S Q
q 1 0 0 -1 0 288 cm
92 225.852 m 92.398 225.852 l S Q
q 1 0 0 -1 0 288 cm
92.398 225.852 m 92.801 225.852 l S Q
q 1 0 0 -1 0 288 cm
92.801 225.852 m 93.199 225.852 l S Q
q 1 0 0 -1 0 288 cm
93.199 225.852 m 93.602 225.852 l S Q
q 1 0 0 -1 0 288 cm
93.602 225.852 m 94 225.852 l S Q
q 1 0 0 -1 0 288 cm
94 225.852 m 94.398 225.852 l S Q
q 1 0 0 -1 0 288 cm
94.398 225.852 m 94.801 225.852 l S Q
q 1 0 0 -1 0 288 cm
94.801 225.852 m 95.199 225.852 l S Q
q 1 0 0 -1 0 288 cm
95.199 225.852 m 95.602 225.852 l S Q
q 1 0 0 -1 0 288 cm
95.602 225.852 m 96 225.852 l S Q
q 1 0 0 -1 0 288 cm
96 225.852 m 96.398 225.852 l S Q
q 1 0 0 -1 0 288 cm
96.398 225.852 m 96.801 225.852 l S Q
q 1 0 0 -1 0 288 cm
96.801 225.852 m 97.148 225.852 l S Q
q 1 0 0 -1 0 288 cm
97.148 225.852 m 97.551 225.852 l S Q
q 1 0 0 -1 0 288 cm
97.551 225.852 m 97.949 225.852 l S Q
q 1 0 0 -1 0 288 cm
97.949 225.852 m 98.352 225.852 l S Q
q 1 0 0 -1 0 288 cm
98.352 225.852 m 98.75 225.852 l S Q
q 1 0 0 -1 0 288 cm
98.75 225.852 m 99.148 225.852 l S Q
q 1 0 0 -1 0 288 cm
99.148 225.852 m 99.602 225.852 l S Q
q 1 0 0 -1 0 288 cm
99.602 225.852 m 100 225.852 l S Q
q 1 0 0 -1 0 288 cm
100 225.852 m 100.398 225.852 l S Q
q 1 0 0 -1 0 288 cm
100.398 225.852 m 100.801 225.852 l S Q
q 1 0 0 -1 0 288 cm
100.801 225.852 m 101.199 225.852 l S Q
q 1 0 0 -1 0 288 cm
101.199 225.852 m 101.602 225.852 l S Q
q 1 0 0 -1 0 288 cm
101.602 225.852 m 102 225.852 l S Q
q 1 0 0 -1 0 288 cm
102 225.852 m 102.398 225.852 l S Q
q 1 0 0 -1 0 288 cm
102.398 225.852 m 102.801 225.852 l S Q
q 1 0 0 -1 0 288 cm
102.801 225.852 m 103.199 225.852 l S Q
q 1 0 0 -1 0 288 cm
103.199 225.852 m 103.648 225.852 l S Q
q 1 0 0 -1 0 288 cm
103.648 225.852 m 104.051 225.852 l S Q
q 1 0 0 -1 0 288 cm
104.051 225.852 m 104.449 225.852 l S Q
q 1 0 0 -1 0 288 cm
104.449 225.852 m 104.852 225.852 l S Q
q 1 0 0 -1 0 288 cm
104.852 225.852 m 105.25 225.852 l S Q
q 1 0 0 -1 0 288 cm
105.25 225.852 m 105.648 225.852 l S Q
q 1 0 0 -1 0 288 cm
105.648 225.852 m 106.102 225.852 l S Q
q 1 0 0 -1 0 288 cm
106.102 225.852 m 106.5 225.852 l S Q
q 1 0 0 -1 0 288 cm
106.5 225.852 m 106.898 225.852 l S Q
q 1 0 0 -1 0 288 cm
106.898 225.852 m 107.301 225.852 l S Q
q 1 0 0 -1 0 288 cm
107.301 225.852 m 107.699 225.852 l S Q
q 1 0 0 -1 0 288 cm
107.699 225.852 m 108.102 225.852 l S Q
q 1 0 0 -1 0 288 cm
108.102 225.852 m 108.5 225.852 l S Q
q 1 0 0 -1 0 288 cm
108.5 225.852 m 108.898 225.852 l S Q
q 1 0 0 -1 0 288 cm
108.898 225.852 m 109.301 225.852 l S Q
q 1 0 0 -1 0 288 cm
109.301 225.852 m 109.699 225.852 l S Q
q 1 0 0 -1 0 288 cm
109.699 225.852 m 110.102 225.852 l S Q
q 1 0 0 -1 0 288 cm
110.102 225.852 m 110.5 225.852 l S Q
q 1 0 0 -1 0 288 cm
110.5 225.852 m 110.898 225.852 l S Q
q 1 0 0 -1 0 288 cm
110.898 225.852 m 111.301 225.852 l S Q
q 1 0 0 -1 0 288 cm
111.301 225.852 m 111.699 225.852 l S Q
q 1 0 0 -1 0 288 cm
111.699 225.852 m 112.102 225.852 l S Q
q 1 0 0 -1 0 288 cm
112.102 225.852 m 112.5 225.852 l S Q
q 1 0 0 -1 0 288 cm
112.5 225.852 m 112.898 225.852 l S Q
q 1 0 0 -1 0 288 cm
112.898 225.852 m 113.301 225.852 l S Q
q 1 0 0 -1 0 288 cm
113.301 225.852 m 113.699 225.852 l S Q
q 1 0 0 -1 0 288 cm
113.699 225.852 m 114.102 225.852 l S Q
q 1 0 0 -1 0 288 cm
114.102 225.852 m 114.5 225.852 l S Q
q 1 0 0 -1 0 288 cm
114.5 225.852 m 114.898 225.852 l S Q
q 1 0 0 -1 0 288 cm
114.898 225.852 m 115.301 225.852 l S Q
q 1 0 0 -1 0 288 cm
115.301 225.852 m 115.699 225.852 l S Q
q 1 0 0 -1 0 288 cm
115.699 225.852 m 116.102 225.852 l S Q
q 1 0 0 -1 0 288 cm
116.102 225.852 m 116.5 225.852 l S Q
q 1 0 0 -1 0 288 cm
116.5 225.852 m 116.898 225.852 l S Q
q 1 0 0 -1 0 288 cm
116.898 225.852 m 117.301 225.852 l S Q
q 1 0 0 -1 0 288 cm
117.301 225.852 m 117.699 225.852 l S Q
q 1 0 0 -1 0 288 cm
117.699 225.852 m 118.102 225.852 l S Q
q 1 0 0 -1 0 288 cm
118.102 225.852 m 118.5 225.852 l S Q
q 1 0 0 -1 0 288 cm
118.5 225.852 m 118.898 225.852 l S Q
q 1 0 0 -1 0 288 cm
118.898 225.852 m 119.301 225.852 l S Q
q 1 0 0 -1 0 288 cm
119.301 225.852 m 119.648 225.852 l S Q
q 1 0 0 -1 0 288 cm
119.648 225.852 m 120.051 225.852 l S Q
q 1 0 0 -1 0 288 cm
120.051 225.852 m 120.449 225.852 l S Q
q 1 0 0 -1 0 288 cm
120.449 225.852 m 120.852 225.852 l S Q
q 1 0 0 -1 0 288 cm
120.852 225.852 m 121.25 225.852 l S Q
q 1 0 0 -1 0 288 cm
121.25 225.852 m 121.648 225.852 l S Q
q 1 0 0 -1 0 288 cm
121.648 225.852 m 122.051 225.852 l S Q
q 1 0 0 -1 0 288 cm
122.051 225.852 m 122.449 225.852 l S Q
q 1 0 0 -1 0 288 cm
122.449 225.852 m 122.852 225.852 l S Q
q 1 0 0 -1 0 288 cm
122.852 225.852 m 123.25 225.852 l S Q
q 1 0 0 -1 0 288 cm
123.25 225.852 m 123.648 225.852 l S Q
q 1 0 0 -1 0 288 cm
123.648 225.852 m 124.051 225.852 l S Q
q 1 0 0 -1 0 288 cm
124.051 225.852 m 124.449 225.852 l S Q
q 1 0 0 -1 0 288 cm
124.449 225.852 m 124.852 225.852 l S Q
q 1 0 0 -1 0 288 cm
124.852 225.852 m 125.25 225.852 l S Q
q 1 0 0 -1 0 288 cm
125.25 225.852 m 125.648 225.852 l S Q
q 1 0 0 -1 0 288 cm
125.648 225.852 m 126.051 225.852 l S Q
q 1 0 0 -1 0 288 cm
126.051 225.852 m 126.449 225.852 l S Q
q 1 0 0 -1 0 288 cm
126.449 225.852 m 126.852 225.852 l S Q
q 1 0 0 -1 0 288 cm
126.852 225.852 m 127.25 225.852 l S Q
q 1 0 0 -1 0 288 cm
127.25 225.852 m 127.648 225.852 l S Q
q 1 0 0 -1 0 288 cm
127.648 225.852 m 128.051 225.852 l S Q
q 1 0 0 -1 0 288 cm
128.051 225.852 m 128.449 225.852 l S Q
q 1 0 0 -1 0 288 cm
128.449 225.852 m 128.852 225.852 l S Q
q 1 0 0 -1 0 288 cm
128.852 225.852 m 129.25 225.852 l S Q
q 1 0 0 -1 0 288 cm
129.25 225.852 m 129.648 225.852 l S Q
q 1 0 0 -1 0 288 cm
129.648 225.852 m 130.051 225.852 l S Q
q 1 0 0 -1 0 288 cm
130.051 225.852 m 130.449 225.852 l S Q
q 1 0 0 -1 0 288 cm
130.449 225.852 m 130.852 225.852 l S Q
q 1 0 0 -1 0 288 cm
130.852 225.852 m 131.25 225.852 l S Q
q 1 0 0 -1 0 288 cm
131.25 225.852 m 131.648 225.852 l S Q
q 1 0 0 -1 0 288 cm
131.648 225.852 m 132.051 225.852 l S Q
q 1 0 0 -1 0 288 cm
132.051 225.852 m 132.449 225.852 l S Q
q 1 0 0 -1 0 288 cm
132.449 225.852 m 132.852 225.852 l S Q
q 1 0 0 -1 0 288 cm
132.852 225.852 m 133.25 225.852 l S Q
q 1 0 0 -1 0 288 cm
133.25 225.852 m 133.648 225.852 l S Q
q 1 0 0 -1 0 288 cm
133.648 225.852 m 134.051 225.852 l S Q
q 1 0 0 -1 0 288 cm
134.051 225.852 m 134.449 225.852 l S Q
q 1 0 0 -1 0 288 cm
134.449 225.852 m 134.852 225.852 l S Q
q 1 0 0 -1 0 288 cm
134.852 225.852 m 135.25 225.852 l S Q
q 1 0 0 -1 0 288 cm
135.25 225.852 m 135.699 225.852 l S Q
q 1 0 0 -1 0 288 cm
135.699 225.852 m 136.102 225.852 l S Q
q 1 0 0 -1 0 288 cm
136.102 225.852 m 136.449 225.852 l S Q
q 1 0 0 -1 0 288 cm
136.449 225.852 m 136.852 225.852 l S Q
q 1 0 0 -1 0 288 cm
136.852 225.852 m 137.25 225.852 l S Q
q 1 0 0 -1 0 288 cm
137.25 225.852 m 137.648 225.852 l S Q
q 1 0 0 -1 0 288 cm
137.648 225.852 m 138.102 225.852 l S Q
q 1 0 0 -1 0 288 cm
138.102 225.852 m 138.5 225.852 l S Q
q 1 0 0 -1 0 288 cm
138.5 225.852 m 138.898 225.852 l S Q
q 1 0 0 -1 0 288 cm
138.898 225.852 m 139.301 225.852 l S Q
q 1 0 0 -1 0 288 cm
139.301 225.852 m 139.699 225.852 l S Q
q 1 0 0 -1 0 288 cm
139.699 225.852 m 140.051 225.852 l S Q
q 1 0 0 -1 0 288 cm
140.051 225.852 m 140.449 225.852 l S Q
q 1 0 0 -1 0 288 cm
140.449 225.852 m 140.852 225.852 l S Q
q 1 0 0 -1 0 288 cm
140.852 225.852 m 141.25 225.852 l S Q
q 1 0 0 -1 0 288 cm
141.25 225.852 m 141.648 225.852 l S Q
q 1 0 0 -1 0 288 cm
141.648 225.852 m 142.051 225.852 l S Q
q 1 0 0 -1 0 288 cm
142.051 225.852 m 142.449 225.852 l S Q
q 1 0 0 -1 0 288 cm
142.449 225.852 m 142.852 225.852 l S Q
q 1 0 0 -1 0 288 cm
142.852 225.852 m 143.25 225.852 l S Q
q 1 0 0 -1 0 288 cm
143.25 225.852 m 143.648 225.852 l S Q
q 1 0 0 -1 0 288 cm
143.648 225.852 m 144.051 225.852 l S Q
q 1 0 0 -1 0 288 cm
144.051 225.852 m 144.449 225.852 l S Q
q 1 0 0 -1 0 288 cm
144.449 225.852 m 144.852 225.852 l S Q
q 1 0 0 -1 0 288 cm
144.852 225.852 m 145.25 225.852 l S Q
q 1 0 0 -1 0 288 cm
145.25 225.852 m 145.648 225.852 l S Q
q 1 0 0 -1 0 288 cm
145.648 225.852 m 146.051 225.852 l S Q
q 1 0 0 -1 0 288 cm
146.051 225.852 m 146.449 225.852 l S Q
q 1 0 0 -1 0 288 cm
146.449 225.852 m 146.852 225.852 l S Q
q 1 0 0 -1 0 288 cm
146.852 225.852 m 147.25 225.852 l S Q
q 1 0 0 -1 0 288 cm
147.25 225.852 m 147.648 225.852 l S Q
q 1 0 0 -1 0 288 cm
147.648 225.852 m 148.051 225.852 l S Q
q 1 0 0 -1 0 288 cm
148.051 225.852 m 148.449 225.852 l S Q
q 1 0 0 -1 0 288 cm
148.449 225.852 m 148.852 225.852 l S Q
q 1 0 0 -1 0 288 cm
148.852 225.852 m 149.25 225.852 l S Q
q 1 0 0 -1 0 288 cm
149.25 225.852 m 149.648 225.852 l S Q
q 1 0 0 -1 0 288 cm
149.648 225.852 m 150.051 225.852 l S Q
q 1 0 0 -1 0 288 cm
150.051 225.852 m 150.449 225.852 l S Q
q 1 0 0 -1 0 288 cm
150.449 225.852 m 150.852 225.852 l S Q
q 1 0 0 -1 0 288 cm
150.852 225.852 m 151.25 225.852 l S Q
q 1 0 0 -1 0 288 cm
151.25 225.852 m 151.648 225.852 l S Q
q 1 0 0 -1 0 288 cm
151.648 225.852 m 152.051 225.852 l S Q
q 1 0 0 -1 0 288 cm
152.051 225.852 m 152.449 225.852 l S Q
q 1 0 0 -1 0 288 cm
152.449 225.852 m 152.852 225.852 l S Q
q 1 0 0 -1 0 288 cm
152.852 225.852 m 153.25 225.852 l S Q
q 1 0 0 -1 0 288 cm
153.25 225.852 m 153.648 225.852 l S Q
q 1 0 0 -1 0 288 cm
153.648 225.852 m 154.051 225.852 l S Q
q 1 0 0 -1 0 288 cm
154.051 225.852 m 154.449 225.852 l S Q
q 1 0 0 -1 0 288 cm
154.449 225.852 m 154.852 225.852 l S Q
q 1 0 0 -1 0 288 cm
154.852 225.852 m 155.25 225.852 l S Q
q 1 0 0 -1 0 288 cm
155.25 225.852 m 155.699 225.852 l S Q
q 1 0 0 -1 0 288 cm
155.699 225.852 m 156.102 225.852 l S Q
q 1 0 0 -1 0 288 cm
156.102 225.852 m 156.5 225.852 l S Q
q 1 0 0 -1 0 288 cm
156.5 225.852 m 156.898 225.852 l S Q
q 1 0 0 -1 0 288 cm
156.898 225.852 m 157.301 225.852 l S Q
q 1 0 0 -1 0 288 cm
157.301 225.852 m 157.699 225.852 l S Q
q 1 0 0 -1 0 288 cm
157.699 225.852 m 158.102 225.852 l S Q
q 1 0 0 -1 0 288 cm
158.102 225.852 m 158.5 225.852 l S Q
q 1 0 0 -1 0 288 cm
158.5 225.852 m 158.898 225.852 l S Q
q 1 0 0 -1 0 288 cm
158.898 225.852 m 159.301 225.852 l S Q
q 1 0 0 -1 0 288 cm
159.301 225.852 m 159.699 225.852 l S Q
q 1 0 0 -1 0 288 cm
159.699 225.852 m 160.102 225.852 l S Q
q 1 0 0 -1 0 288 cm
160.102 225.852 m 160.5 225.852 l S Q
q 1 0 0 -1 0 288 cm
160.5 225.852 m 160.852 225.852 l S Q
q 1 0 0 -1 0 288 cm
160.852 225.852 m 161.25 225.852 l S Q
q 1 0 0 -1 0 288 cm
161.25 225.852 m 161.699 225.852 l S Q
q 1 0 0 -1 0 288 cm
161.699 225.852 m 162.102 225.852 l S Q
q 1 0 0 -1 0 288 cm
162.102 225.852 m 162.5 225.852 l S Q
q 1 0 0 -1 0 288 cm
162.5 225.852 m 162.898 225.852 l S Q
q 1 0 0 -1 0 288 cm
162.898 225.852 m 163.25 225.852 l S Q
q 1 0 0 -1 0 288 cm
163.25 225.852 m 163.648 225.852 l S Q
q 1 0 0 -1 0 288 cm
163.648 225.852 m 164.051 225.852 l S Q
q 1 0 0 -1 0 288 cm
164.051 225.852 m 164.449 225.852 l S Q
q 1 0 0 -1 0 288 cm
164.449 225.852 m 164.852 225.852 l S Q
q 1 0 0 -1 0 288 cm
164.852 225.852 m 165.25 225.852 l S Q
q 1 0 0 -1 0 288 cm
165.25 225.852 m 165.648 225.852 l S Q
q 1 0 0 -1 0 288 cm
165.648 225.852 m 166.051 225.852 l S Q
q 1 0 0 -1 0 288 cm
166.051 225.852 m 166.449 225.852 l S Q
q 1 0 0 -1 0 288 cm
166.449 225.852 m 166.852 225.852 l S Q
q 1 0 0 -1 0 288 cm
166.852 225.852 m 167.25 225.852 l S Q
q 1 0 0 -1 0 288 cm
167.25 225.852 m 167.648 225.852 l S Q
q 1 0 0 -1 0 288 cm
167.648 225.852 m 168.051 225.852 l S Q
q 1 0 0 -1 0 288 cm
168.051 225.852 m 168.449 225.852 l S Q
q 1 0 0 -1 0 288 cm
168.449 225.852 m 168.852 225.852 l S Q
q 1 0 0 -1 0 288 cm
168.852 225.852 m 169.25 225.852 l S Q
q 1 0 0 -1 0 288 cm
169.25 225.852 m 169.648 225.852 l S Q
q 1 0 0 -1 0 288 cm
169.648 225.852 m 170.051 225.852 l S Q
q 1 0 0 -1 0 288 cm
170.051 225.852 m 170.449 225.852 l S Q
q 1 0 0 -1 0 288 cm
170.449 225.852 m 170.852 225.852 l S Q
q 1 0 0 -1 0 288 cm
170.852 225.852 m 171.25 225.852 l S Q
q 1 0 0 -1 0 288 cm
171.25 225.852 m 171.648 225.852 l S Q
q 1 0 0 -1 0 288 cm
171.648 225.852 m 172.051 225.852 l S Q
q 1 0 0 -1 0 288 cm
172.051 225.852 m 172.449 225.852 l S Q
q 1 0 0 -1 0 288 cm
172.449 225.852 m 172.898 225.852 l S Q
q 1 0 0 -1 0 288 cm
172.898 225.852 m 173.301 225.852 l S Q
q 1 0 0 -1 0 288 cm
173.301 225.852 m 173.699 225.852 l S Q
q 1 0 0 -1 0 288 cm
173.699 225.852 m 174.102 225.852 l S Q
q 1 0 0 -1 0 288 cm
174.102 225.852 m 174.5 225.852 l S Q
q 1 0 0 -1 0 288 cm
174.5 225.852 m 174.898 225.852 l S Q
q 1 0 0 -1 0 288 cm
174.898 225.852 m 175.301 225.852 l S Q
q 1 0 0 -1 0 288 cm
175.301 225.852 m 175.699 225.852 l S Q
q 1 0 0 -1 0 288 cm
175.699 225.852 m 176.102 225.852 l S Q
q 1 0 0 -1 0 288 cm
176.102 225.852 m 176.5 225.852 l S Q
q 1 0 0 -1 0 288 cm
176.5 225.852 m 176.898 225.852 l S Q
q 1 0 0 -1 0 288 cm
176.898 225.852 m 177.301 225.852 l S Q
q 1 0 0 -1 0 288 cm
177.301 225.852 m 177.699 225.852 l S Q
q 1 0 0 -1 0 288 cm
177.699 225.852 m 178.102 225.852 l S Q
q 1 0 0 -1 0 288 cm
178.102 225.852 m 178.5 225.852 l S Q
q 1 0 0 -1 0 288 cm
178.5 225.852 m 178.898 225.852 l S Q
q 1 0 0 -1 0 288 cm
178.898 225.852 m 179.301 225.852 l S Q
q 1 0 0 -1 0 288 cm
179.301 225.852 m 179.699 225.852 l S Q
q 1 0 0 -1 0 288 cm
179.699 225.852 m 180.102 225.852 l S Q
q 1 0 0 -1 0 288 cm
180.102 225.852 m 180.5 225.852 l S Q
q 1 0 0 -1 0 288 cm
180.5 225.852 m 180.898 225.852 l S Q
q 1 0 0 -1 0 288 cm
180.898 225.852 m 181.301 225.852 l S Q
q 1 0 0 -1 0 288 cm
181.301 225.852 m 181.699 225.852 l S Q
q 1 0 0 -1 0 288 cm
181.699 225.852 m 182.102 225.852 l S Q
q 1 0 0 -1 0 288 cm
182.102 225.852 m 182.5 225.852 l S Q
q 1 0 0 -1 0 288 cm
182.5 225.852 m 182.898 225.852 l S Q
q 1 0 0 -1 0 288 cm
182.898 225.852 m 183.301 225.852 l S Q
q 1 0 0 -1 0 288 cm
183.301 225.852 m 183.699 225.852 l S Q
q 1 0 0 -1 0 288 cm
183.699 225.852 m 184.102 225.852 l S Q
q 1 0 0 -1 0 288 cm
184.102 225.852 m 184.5 225.852 l S Q
q 1 0 0 -1 0 288 cm
184.5 225.852 m 184.898 225.852 l S Q
q 1 0 0 -1 0 288 cm
184.898 225.852 m 185.301 225.852 l S Q
q 1 0 0 -1 0 288 cm
185.301 225.852 m 185.699 225.852 l S Q
q 1 0 0 -1 0 288 cm
185.699 225.852 m 186.102 225.852 l S Q
q 1 0 0 -1 0 288 cm
186.102 225.852 m 186.449 225.852 l S Q
q 1 0 0 -1 0 288 cm
186.449 225.852 m 186.898 225.852 l S Q
q 1 0 0 -1 0 288 cm
186.898 225.852 m 187.301 225.852 l S Q
q 1 0 0 -1 0 288 cm
187.301 225.852 m 187.699 225.852 l S Q
q 1 0 0 -1 0 288 cm
187.699 225.852 m 188.102 225.852 l S Q
q 1 0 0 -1 0 288 cm
188.102 225.852 m 188.5 225.852 l S Q
q 1 0 0 -1 0 288 cm
188.5 225.852 m 188.898 225.852 l S Q
q 1 0 0 -1 0 288 cm
188.898 225.852 m 189.301 225.852 l S Q
q 1 0 0 -1 0 288 cm
189.301 225.852 m 189.699 225.852 l S Q
q 1 0 0 -1 0 288 cm
189.699 225.852 m 190.102 225.852 l S Q
q 1 0 0 -1 0 288 cm
190.102 225.852 m 190.5 225.852 l S Q
q 1 0 0 -1 0 288 cm
190.5 225.852 m 190.898 225.852 l S Q
q 1 0 0 -1 0 288 cm
190.898 225.852 m 191.301 225.852 l S Q
q 1 0 0 -1 0 288 cm
191.301 225.852 m 191.648 225.852 l S Q
q 1 0 0 -1 0 288 cm
191.648 225.852 m 192.051 225.852 l S Q
q 1 0 0 -1 0 288 cm
192.051 225.852 m 192.449 225.852 l S Q
q 1 0 0 -1 0 288 cm
192.449 225.852 m 192.852 225.852 l S Q
q 1 0 0 -1 0 288 cm
192.852 225.852 m 193.25 225.852 l S Q
q 1 0 0 -1 0 288 cm
193.25 225.852 m 193.648 225.852 l S Q
q 1 0 0 -1 0 288 cm
193.648 225.852 m 194.051 225.852 l S Q
q 1 0 0 -1 0 288 cm
194.051 225.852 m 194.449 225.852 l S Q
q 1 0 0 -1 0 288 cm
194.449 225.852 m 194.852 225.852 l S Q
q 1 0 0 -1 0 288 cm
194.852 225.852 m 195.25 225.852 l S Q
q 1 0 0 -1 0 288 cm
195.25 225.852 m 195.699 225.852 l S Q
q 1 0 0 -1 0 288 cm
195.699 225.852 m 196.102 225.852 l S Q
q 1 0 0 -1 0 288 cm
196.102 225.852 m 196.449 225.852 l S Q
q 1 0 0 -1 0 288 cm
196.449 225.852 m 196.852 225.852 l S Q
q 1 0 0 -1 0 288 cm
196.852 225.852 m 197.301 225.852 l S Q
q 1 0 0 -1 0 288 cm
197.301 225.852 m 197.699 225.852 l S Q
q 1 0 0 -1 0 288 cm
197.699 225.852 m 198.051 225.852 l S Q
q 1 0 0 -1 0 288 cm
198.051 225.852 m 198.449 225.852 l S Q
q 1 0 0 -1 0 288 cm
198.449 225.852 m 198.852 225.852 l S Q
q 1 0 0 -1 0 288 cm
198.852 225.852 m 199.301 225.852 l S Q
q 1 0 0 -1 0 288 cm
199.301 225.852 m 199.699 225.852 l S Q
q 1 0 0 -1 0 288 cm
199.699 225.852 m 200.102 225.852 l S Q
q 1 0 0 -1 0 288 cm
200.102 225.852 m 200.5 225.852 l S Q
q 1 0 0 -1 0 288 cm
200.5 225.852 m 200.898 225.852 l S Q
q 1 0 0 -1 0 288 cm
200.898 225.852 m 201.301 225.852 l S Q
q 1 0 0 -1 0 288 cm
201.301 225.852 m 201.699 225.852 l S Q
q 1 0 0 -1 0 288 cm
201.699 225.852 m 202.102 225.852 l S Q
q 1 0 0 -1 0 288 cm
202.102 225.852 m 202.5 225.852 l S Q
q 1 0 0 -1 0 288 cm
202.5 225.852 m 202.852 225.852 l S Q
q 1 0 0 -1 0 288 cm
202.852 225.852 m 203.25 225.852 l S Q
q 1 0 0 -1 0 288 cm
203.25 225.852 m 203.648 225.852 l S Q
q 1 0 0 -1 0 288 cm
203.648 225.852 m 204.051 225.852 l S Q
q 1 0 0 -1 0 288 cm
204.051 225.852 m 204.449 225.852 l S Q
q 1 0 0 -1 0 288 cm
204.449 225.852 m 204.852 225.852 l S Q
q 1 0 0 -1 0 288 cm
204.852 225.852 m 205.25 225.852 l S Q
q 1 0 0 -1 0 288 cm
205.25 225.852 m 205.648 225.852 l S Q
q 1 0 0 -1 0 288 cm
205.648 225.852 m 206.051 225.852 l S Q
q 1 0 0 -1 0 288 cm
206.051 225.852 m 206.449 225.852 l S Q
q 1 0 0 -1 0 288 cm
206.449 225.852 m 206.852 225.852 l S Q
q 1 0 0 -1 0 288 cm
206.852 225.852 m 207.25 225.852 l S Q
q 1 0 0 -1 0 288 cm
207.25 225.852 m 207.648 225.852 l S Q
q 1 0 0 -1 0 288 cm
207.648 225.852 m 208.051 225.852 l S Q
q 1 0 0 -1 0 288 cm
208.051 225.852 m 208.449 225.852 l S Q
q 1 0 0 -1 0 288 cm
208.449 225.852 m 208.852 225.852 l S Q
q 1 0 0 -1 0 288 cm
208.852 225.852 m 209.25 225.852 l S Q
q 1 0 0 -1 0 288 cm
209.25 225.852 m 209.648 225.852 l S Q
q 1 0 0 -1 0 288 cm
209.648 225.852 m 210.051 225.852 l S Q
q 1 0 0 -1 0 288 cm
210.051 225.852 m 210.449 225.852 l S Q
q 1 0 0 -1 0 288 cm
210.449 225.852 m 210.852 225.852 l S Q
q 1 0 0 -1 0 288 cm
210.852 225.852 m 211.25 225.852 l S Q
q 1 0 0 -1 0 288 cm
211.25 225.852 m 211.648 225.852 l S Q
q 1 0 0 -1 0 288 cm
211.648 225.852 m 212.051 225.852 l S Q
q 1 0 0 -1 0 288 cm
212.051 225.852 m 212.5 225.852 l S Q
q 1 0 0 -1 0 288 cm
212.5 225.852 m 212.898 225.852 l S Q
q 1 0 0 -1 0 288 cm
212.898 225.852 m 213.301 225.852 l S Q
q 1 0 0 -1 0 288 cm
213.301 225.852 m 213.699 225.852 l S Q
q 1 0 0 -1 0 288 cm
213.699 225.852 m 214.102 225.852 l S Q
q 1 0 0 -1 0 288 cm
214.102 225.852 m 214.5 225.852 l S Q
q 1 0 0 -1 0 288 cm
214.5 225.852 m 214.898 225.852 l S Q
q 1 0 0 -1 0 288 cm
214.898 225.852 m 215.301 225.852 l S Q
q 1 0 0 -1 0 288 cm
215.301 225.852 m 215.699 225.852 l S Q
q 1 0 0 -1 0 288 cm
215.699 225.852 m 216.102 225.852 l S Q
q 1 0 0 -1 0 288 cm
216.102 225.852 m 216.5 225.852 l S Q
q 1 0 0 -1 0 288 cm
216.5 225.852 m 216.898 225.852 l S Q
q 1 0 0 -1 0 288 cm
216.898 225.852 m 217.301 225.852 l S Q
q 1 0 0 -1 0 288 cm
217.301 225.852 m 217.699 225.852 l S Q
q 1 0 0 -1 0 288 cm
217.699 225.852 m 218.102 225.852 l S Q
q 1 0 0 -1 0 288 cm
218.102 225.852 m 218.5 225.852 l S Q
q 1 0 0 -1 0 288 cm
218.5 225.852 m 218.898 225.852 l S Q
q 1 0 0 -1 0 288 cm
218.898 225.852 m 219.301 225.852 l S Q
q 1 0 0 -1 0 288 cm
219.301 225.852 m 219.699 225.852 l S Q
q 1 0 0 -1 0 288 cm
219.699 225.852 m 220.102 225.852 l S Q
q 1 0 0 -1 0 288 cm
220.102 225.852 m 220.5 225.852 l S Q
q 1 0 0 -1 0 288 cm
220.5 225.852 m 220.898 225.852 l S Q
q 1 0 0 -1 0 288 cm
220.898 225.852 m 221.301 225.852 l S Q
q 1 0 0 -1 0 288 cm
221.301 225.852 m 221.699 225.852 l S Q
q 1 0 0 -1 0 288 cm
221.699 225.852 m 222.102 225.852 l S Q
q 1 0 0 -1 0 288 cm
222.102 225.852 m 222.5 225.852 l S Q
q 1 0 0 -1 0 288 cm
222.5 225.852 m 222.898 225.852 l S Q
q 1 0 0 -1 0 288 cm
222.898 225.852 m 223.301 225.852 l S Q
q 1 0 0 -1 0 288 cm
223.301 225.852 m 223.699 225.852 l S Q
q 1 0 0 -1 0 288 cm
223.699 225.852 m 224.102 225.852 l S Q
q 1 0 0 -1 0 288 cm
224.102 225.852 m 224.5 225.852 l S Q
q 1 0 0 -1 0 288 cm
224.5 225.852 m 224.898 225.852 l S Q
q 1 0 0 -1 0 288 cm
224.898 225.852 m 225.301 225.852 l S Q
q 1 0 0 -1 0 288 cm
225.301 225.852 m 225.699 225.852 l S Q
q 1 0 0 -1 0 288 cm
225.699 225.852 m 226.102 225.852 l S Q
q 1 0 0 -1 0 288 cm
226.102 225.852 m 226.5 225.852 l S Q
q 1 0 0 -1 0 288 cm
226.5 225.852 m 226.898 225.852 l S Q
q 1 0 0 -1 0 288 cm
226.898 225.852 m 227.301 225.852 l S Q
q 1 0 0 -1 0 288 cm
227.301 225.852 m 227.699 225.852 l S Q
q 1 0 0 -1 0 288 cm
227.699 225.852 m 228.102 225.852 l S Q
q 1 0 0 -1 0 288 cm
228.102 225.852 m 228.5 225.852 l S Q
q 1 0 0 -1 0 288 cm
228.5 225.852 m 228.898 225.852 l S Q
q 1 0 0 -1 0 288 cm
228.898 225.852 m 229.301 225.852 l S Q
q 1 0 0 -1 0 288 cm
229.301 225.852 m 229.699 225.852 l S Q
q 1 0 0 -1 0 288 cm
229.699 225.852 m 230.102 225.852 l S Q
q 1 0 0 -1 0 288 cm
230.102 225.852 m 230.5 225.852 l S Q
q 1 0 0 -1 0 288 cm
230.5 225.852 m 230.898 225.852 l S Q
q 1 0 0 -1 0 288 cm
230.898 225.852 m 231.301 225.852 l S Q
q 1 0 0 -1 0 288 cm
231.301 225.852 m 231.699 225.852 l S Q
q 1 0 0 -1 0 288 cm
231.699 225.852 m 232.102 225.852 l S Q
q 1 0 0 -1 0 288 cm
232.102 225.852 m 232.5 225.852 l S Q
q 1 0 0 -1 0 288 cm
232.5 225.852 m 232.898 225.852 l S Q
q 1 0 0 -1 0 288 cm
232.898 225.852 m 233.301 225.852 l S Q
q 1 0 0 -1 0 288 cm
233.301 225.852 m 233.699 225.852 l S Q
q 1 0 0 -1 0 288 cm
233.699 225.852 m 234.102 225.852 l S Q
q 1 0 0 -1 0 288 cm
234.102 225.852 m 234.5 225.852 l S Q
q 1 0 0 -1 0 288 cm
234.5 225.852 m 234.898 225.852 l S Q
q 1 0 0 -1 0 288 cm
234.898 225.852 m 235.301 225.852 l S Q
q 1 0 0 -1 0 288 cm
235.301 225.852 m 235.699 225.852 l S Q
q 1 0 0 -1 0 288 cm
235.699 225.852 m 236.102 225.852 l S Q
q 1 0 0 -1 0 288 cm
236.102 225.852 m 236.5 225.852 l S Q
q 1 0 0 -1 0 288 cm
236.5 225.852 m 236.898 225.852 l S Q
q 1 0 0 -1 0 288 cm
236.898 225.852 m 237.301 225.852 l S Q
q 1 0 0 -1 0 288 cm
237.301 225.852 m 237.699 225.852 l S Q
q 1 0 0 -1 0 288 cm
237.699 225.852 m 238.102 225.852 l S Q
q 1 0 0 -1 0 288 cm
238.102 225.852 m 238.5 225.852 l S Q
q 1 0 0 -1 0 288 cm
238.5 225.852 m 238.898 225.852 l S Q
q 1 0 0 -1 0 288 cm
238.898 225.852 m 239.301 225.852 l S Q
q 1 0 0 -1 0 288 cm
239.301 225.852 m 239.699 225.852 l S Q
q 1 0 0 -1 0 288 cm
239.699 225.852 m 240.102 225.852 l S Q
q 1 0 0 -1 0 288 cm
240.102 225.852 m 240.5 225.852 l S Q
q 1 0 0 -1 0 288 cm
240.5 225.852 m 240.898 225.852 l S Q
q 1 0 0 -1 0 288 cm
240.898 225.852 m 241.301 225.852 l S Q
q 1 0 0 -1 0 288 cm
241.301 225.852 m 241.699 225.852 l S Q
q 1 0 0 -1 0 288 cm
241.699 225.852 m 242.102 225.852 l S Q
q 1 0 0 -1 0 288 cm
242.102 225.852 m 242.5 225.852 l S Q
q 1 0 0 -1 0 288 cm
242.5 225.852 m 242.898 225.852 l S Q
q 1 0 0 -1 0 288 cm
242.898 225.852 m 243.301 225.852 l S Q
q 1 0 0 -1 0 288 cm
243.301 225.852 m 243.699 225.852 l S Q
q 1 0 0 -1 0 288 cm
243.699 225.852 m 244.102 225.852 l S Q
q 1 0 0 -1 0 288 cm
244.102 225.852 m 244.5 225.852 l S Q
q 1 0 0 -1 0 288 cm
244.5 225.852 m 244.898 225.852 l S Q
q 1 0 0 -1 0 288 cm
244.898 225.852 m 245.301 225.852 l S Q
q 1 0 0 -1 0 288 cm
245.301 225.852 m 245.699 225.852 l S Q
q 1 0 0 -1 0 288 cm
245.699 225.852 m 246.102 225.852 l S Q
q 1 0 0 -1 0 288 cm
246.102 225.852 m 246.5 225.852 l S Q
q 1 0 0 -1 0 288 cm
246.5 225.852 m 246.898 225.852 l S Q
q 1 0 0 -1 0 288 cm
246.898 225.852 m 247.301 225.852 l S Q
q 1 0 0 -1 0 288 cm
247.301 225.852 m 247.699 225.852 l S Q
q 1 0 0 -1 0 288 cm
247.699 225.852 m 248.102 225.852 l S Q
q 1 0 0 -1 0 288 cm
248.102 225.852 m 248.5 225.852 l S Q
q 1 0 0 -1 0 288 cm
248.5 225.852 m 248.898 225.852 l S Q
q 1 0 0 -1 0 288 cm
248.898 225.852 m 249.301 225.852 l S Q
q 1 0 0 -1 0 288 cm
249.301 225.852 m 249.699 225.852 l S Q
q 1 0 0 -1 0 288 cm
249.699 225.852 m 250.102 225.852 l S Q
q 1 0 0 -1 0 288 cm
250.102 225.852 m 250.5 225.852 l S Q
q 1 0 0 -1 0 288 cm
250.5 225.852 m 250.898 225.852 l S Q
q 1 0 0 -1 0 288 cm
250.898 225.852 m 251.301 225.852 l S Q
q 1 0 0 -1 0 288 cm
251.301 225.852 m 251.699 225.852 l S Q
q 1 0 0 -1 0 288 cm
251.699 225.852 m 252.102 225.852 l S Q
q 1 0 0 -1 0 288 cm
252.102 225.852 m 252.5 225.852 l S Q
q 1 0 0 -1 0 288 cm
252.5 225.852 m 252.898 225.852 l S Q
q 1 0 0 -1 0 288 cm
252.898 225.852 m 253.301 225.852 l S Q
q 1 0 0 -1 0 288 cm
253.301 225.852 m 253.699 225.852 l S Q
q 1 0 0 -1 0 288 cm
253.699 225.852 m 254.102 225.852 l S Q
q 1 0 0 -1 0 288 cm
254.102 225.852 m 254.5 225.852 l S Q
q 1 0 0 -1 0 288 cm
254.5 225.852 m 254.898 225.852 l S Q
q 1 0 0 -1 0 288 cm
254.898 225.852 m 255.301 225.852 l S Q
q 1 0 0 -1 0 288 cm
255.301 225.852 m 255.699 225.852 l S Q
q 1 0 0 -1 0 288 cm
255.699 225.852 m 256.102 225.852 l S Q
q 1 0 0 -1 0 288 cm
256.102 225.852 m 256.5 225.852 l S Q
q 1 0 0 -1 0 288 cm
256.5 225.852 m 256.949 225.852 l S Q
q 1 0 0 -1 0 288 cm
256.949 225.852 m 257.352 225.852 l S Q
q 1 0 0 -1 0 288 cm
257.352 225.852 m 257.75 225.852 l S Q
q 1 0 0 -1 0 288 cm
257.75 225.852 m 258.148 225.852 l S Q
q 1 0 0 -1 0 288 cm
258.148 225.852 m 258.551 225.852 l S Q
q 1 0 0 -1 0 288 cm
258.551 225.852 m 258.949 225.852 l S Q
q 1 0 0 -1 0 288 cm
258.949 225.852 m 259.352 225.852 l S Q
q 1 0 0 -1 0 288 cm
259.352 225.852 m 259.75 225.852 l S Q
q 1 0 0 -1 0 288 cm
259.75 225.852 m 260.148 225.852 l S Q
q 1 0 0 -1 0 288 cm
260.148 225.852 m 260.551 225.852 l S Q
q 1 0 0 -1 0 288 cm
260.551 225.852 m 260.949 225.852 l S Q
q 1 0 0 -1 0 288 cm
260.949 225.852 m 261.352 225.852 l S Q
q 1 0 0 -1 0 288 cm
261.352 225.852 m 261.75 225.852 l S Q
q 1 0 0 -1 0 288 cm
261.75 225.852 m 262.148 225.852 l S Q
q 1 0 0 -1 0 288 cm
262.148 225.852 m 262.551 225.852 l S Q
q 1 0 0 -1 0 288 cm
262.551 225.852 m 262.949 225.852 l S Q
q 1 0 0 -1 0 288 cm
262.949 225.852 m 263.352 225.852 l S Q
q 1 0 0 -1 0 288 cm
263.352 225.852 m 263.75 225.852 l S Q
q 1 0 0 -1 0 288 cm
263.75 225.852 m 264.148 225.852 l S Q
q 1 0 0 -1 0 288 cm
264.148 225.852 m 264.551 225.852 l S Q
q 1 0 0 -1 0 288 cm
264.551 225.852 m 264.949 225.852 l S Q
q 1 0 0 -1 0 288 cm
264.949 225.852 m 265.352 225.852 l S Q
q 1 0 0 -1 0 288 cm
265.352 225.852 m 265.75 225.852 l S Q
q 1 0 0 -1 0 288 cm
265.75 225.852 m 266.148 225.852 l S Q
q 1 0 0 -1 0 288 cm
266.148 225.852 m 266.551 225.852 l S Q
q 1 0 0 -1 0 288 cm
266.551 225.852 m 266.949 225.852 l S Q
q 1 0 0 -1 0 288 cm
266.949 225.852 m 267.352 225.852 l S Q
q 1 0 0 -1 0 288 cm
267.352 225.852 m 267.75 225.852 l S Q
q 1 0 0 -1 0 288 cm
267.75 225.852 m 268.148 225.852 l S Q
q 1 0 0 -1 0 288 cm
268.148 225.852 m 268.551 225.852 l S Q
q 1 0 0 -1 0 288 cm
268.551 225.852 m 268.949 225.852 l S Q
q 1 0 0 -1 0 288 cm
268.949 225.852 m 269.352 225.852 l S Q
q 1 0 0 -1 0 288 cm
269.352 225.852 m 269.75 225.852 l S Q
q 1 0 0 -1 0 288 cm
269.75 225.852 m 270.148 225.852 l S Q
q 1 0 0 -1 0 288 cm
270.148 225.852 m 270.551 225.852 l S Q
q 1 0 0 -1 0 288 cm
270.551 225.852 m 270.949 225.852 l S Q
q 1 0 0 -1 0 288 cm
270.949 225.852 m 271.352 225.852 l S Q
q 1 0 0 -1 0 288 cm
271.352 225.852 m 271.75 225.852 l S Q
q 1 0 0 -1 0 288 cm
271.75 225.852 m 272.148 225.852 l S Q
q 1 0 0 -1 0 288 cm
272.148 225.852 m 272.551 225.852 l S Q
q 1 0 0 -1 0 288 cm
272.551 225.852 m 272.949 225.852 l S Q
q 1 0 0 -1 0 288 cm
272.949 225.852 m 273.352 225.852 l S Q
q 1 0 0 -1 0 288 cm
273.352 225.852 m 273.75 225.852 l S Q
q 1 0 0 -1 0 288 cm
273.75 225.852 m 274.148 225.852 l S Q
q 1 0 0 -1 0 288 cm
274.148 225.852 m 274.551 225.852 l S Q
q 1 0 0 -1 0 288 cm
274.551 225.852 m 274.949 225.852 l S Q
q 1 0 0 -1 0 288 cm
274.949 225.852 m 275.352 225.852 l S Q
q 1 0 0 -1 0 288 cm
275.352 225.852 m 275.75 225.852 l S Q
q 1 0 0 -1 0 288 cm
275.75 225.852 m 276.148 225.852 l S Q
q 1 0 0 -1 0 288 cm
276.148 225.852 m 276.551 225.852 l S Q
q 1 0 0 -1 0 288 cm
276.551 225.852 m 276.949 225.852 l S Q
q 1 0 0 -1 0 288 cm
276.949 225.852 m 277.352 225.852 l S Q
q 1 0 0 -1 0 288 cm
277.352 225.852 m 277.75 225.852 l S Q
q 1 0 0 -1 0 288 cm
277.75 225.852 m 278.148 225.852 l S Q
q 1 0 0 -1 0 288 cm
278.148 225.852 m 278.551 225.852 l S Q
q 1 0 0 -1 0 288 cm
278.551 225.852 m 278.949 225.852 l S Q
q 1 0 0 -1 0 288 cm
278.949 225.852 m 279.352 225.852 l S Q
q 1 0 0 -1 0 288 cm
279.352 225.852 m 279.75 225.852 l S Q
q 1 0 0 -1 0 288 cm
279.75 225.852 m 280.148 225.852 l S Q
q 1 0 0 -1 0 288 cm
280.148 225.852 m 280.551 225.852 l S Q
q 1 0 0 -1 0 288 cm
280.551 225.852 m 281 225.852 l S Q
q 1 0 0 -1 0 288 cm
281 225.852 m 281.398 225.852 l S Q
q 1 0 0 -1 0 288 cm
281.398 225.852 m 281.801 225.852 l S Q
q 1 0 0 -1 0 288 cm
281.801 225.852 m 282.199 225.852 l S Q
q 1 0 0 -1 0 288 cm
282.199 225.852 m 282.602 225.852 l S Q
q 1 0 0 -1 0 288 cm
282.602 225.852 m 283 225.852 l S Q
q 1 0 0 -1 0 288 cm
283 225.852 m 283.398 225.852 l S Q
q 1 0 0 -1 0 288 cm
283.398 225.852 m 283.801 225.852 l S Q
q 1 0 0 -1 0 288 cm
283.801 225.852 m 284.199 225.852 l S Q
q 1 0 0 -1 0 288 cm
284.199 225.852 m 284.602 225.852 l S Q
q 1 0 0 -1 0 288 cm
284.602 225.852 m 285 225.852 l S Q
q 1 0 0 -1 0 288 cm
285 225.852 m 285.398 225.852 l S Q
q 1 0 0 -1 0 288 cm
285.398 225.852 m 285.801 225.852 l S Q
q 1 0 0 -1 0 288 cm
285.801 225.852 m 286.199 225.852 l S Q
q 1 0 0 -1 0 288 cm
286.199 225.852 m 286.602 225.852 l S Q
q 1 0 0 -1 0 288 cm
286.602 225.852 m 287 225.852 l S Q
q 1 0 0 -1 0 288 cm
287 225.852 m 287.398 225.852 l S Q
q 1 0 0 -1 0 288 cm
287.398 225.852 m 287.801 225.852 l S Q
q 1 0 0 -1 0 288 cm
287.801 225.852 m 288.199 225.852 l S Q
q 1 0 0 -1 0 288 cm
288.199 225.852 m 288.602 225.852 l S Q
q 1 0 0 -1 0 288 cm
288.602 225.852 m 289 225.852 l S Q
q 1 0 0 -1 0 288 cm
289 225.852 m 289.398 225.852 l S Q
q 1 0 0 -1 0 288 cm
289.398 225.852 m 289.801 225.852 l S Q
q 1 0 0 -1 0 288 cm
289.801 225.852 m 290.199 225.852 l S Q
q 1 0 0 -1 0 288 cm
290.199 225.852 m 290.602 225.852 l S Q
q 1 0 0 -1 0 288 cm
290.602 225.852 m 291 225.852 l S Q
q 1 0 0 -1 0 288 cm
291 225.852 m 291.398 225.852 l S Q
q 1 0 0 -1 0 288 cm
291.398 225.852 m 291.801 225.852 l S Q
q 1 0 0 -1 0 288 cm
291.801 225.852 m 292.199 225.852 l S Q
q 1 0 0 -1 0 288 cm
292.199 225.852 m 292.602 225.852 l S Q
q 1 0 0 -1 0 288 cm
292.602 225.852 m 293 225.852 l S Q
q 1 0 0 -1 0 288 cm
293 225.852 m 293.398 225.852 l S Q
q 1 0 0 -1 0 288 cm
293.398 225.852 m 293.801 225.852 l S Q
q 1 0 0 -1 0 288 cm
293.801 225.852 m 294.199 225.852 l S Q
q 1 0 0 -1 0 288 cm
294.199 225.852 m 294.602 225.852 l S Q
q 1 0 0 -1 0 288 cm
294.602 225.852 m 295 225.852 l S Q
q 1 0 0 -1 0 288 cm
295 225.852 m 295.398 225.852 l S Q
q 1 0 0 -1 0 288 cm
295.398 225.852 m 295.801 225.852 l S Q
q 1 0 0 -1 0 288 cm
295.801 225.852 m 296.25 225.852 l S Q
q 1 0 0 -1 0 288 cm
296.25 225.852 m 296.648 225.852 l S Q
q 1 0 0 -1 0 288 cm
296.648 225.852 m 297.051 225.852 l S Q
q 1 0 0 -1 0 288 cm
297.051 225.852 m 297.449 225.852 l S Q
q 1 0 0 -1 0 288 cm
297.449 225.852 m 297.852 225.852 l S Q
q 1 0 0 -1 0 288 cm
297.852 225.852 m 298.25 225.852 l S Q
q 1 0 0 -1 0 288 cm
298.25 225.852 m 298.648 225.852 l S Q
q 1 0 0 -1 0 288 cm
298.648 225.852 m 299.051 225.852 l S Q
q 1 0 0 -1 0 288 cm
299.051 225.852 m 299.449 225.852 l S Q
q 1 0 0 -1 0 288 cm
299.449 225.852 m 299.852 225.852 l S Q
q 1 0 0 -1 0 288 cm
299.852 225.852 m 300.25 225.852 l S Q
q 1 0 0 -1 0 288 cm
300.25 225.852 m 300.648 225.852 l S Q
q 1 0 0 -1 0 288 cm
300.648 225.852 m 301.051 225.852 l S Q
q 1 0 0 -1 0 288 cm
301.051 225.852 m 301.449 225.852 l S Q
q 1 0 0 -1 0 288 cm
301.449 225.852 m 301.852 225.852 l S Q
q 1 0 0 -1 0 288 cm
301.852 225.852 m 302.25 225.852 l S Q
q 1 0 0 -1 0 288 cm
302.25 225.852 m 302.648 225.852 l S Q
q 1 0 0 -1 0 288 cm
302.648 225.852 m 303.051 225.852 l S Q
q 1 0 0 -1 0 288 cm
303.051 225.852 m 303.449 225.852 l S Q
q 1 0 0 -1 0 288 cm
303.449 225.852 m 303.898 225.852 l S Q
q 1 0 0 -1 0 288 cm
303.898 225.852 m 304.301 225.852 l S Q
q 1 0 0 -1 0 288 cm
304.301 225.852 m 304.699 225.852 l S Q
q 1 0 0 -1 0 288 cm
304.699 225.852 m 305.102 225.852 l S Q
q 1 0 0 -1 0 288 cm
305.102 225.852 m 305.5 225.852 l S Q
q 1 0 0 -1 0 288 cm
305.5 225.852 m 305.898 225.852 l S Q
q 1 0 0 -1 0 288 cm
305.898 225.852 m 306.301 225.852 l S Q
q 1 0 0 -1 0 288 cm
306.301 225.852 m 306.699 225.852 l S Q
q 1 0 0 -1 0 288 cm
306.699 225.852 m 307.102 225.852 l S Q
q 1 0 0 -1 0 288 cm
307.102 225.852 m 307.5 225.852 l S Q
q 1 0 0 -1 0 288 cm
307.5 225.852 m 307.949 225.852 l S Q
q 1 0 0 -1 0 288 cm
307.949 225.852 m 308.352 225.852 l S Q
q 1 0 0 -1 0 288 cm
308.352 225.852 m 308.75 225.852 l S Q
q 1 0 0 -1 0 288 cm
308.75 225.852 m 309.148 225.852 l S Q
q 1 0 0 -1 0 288 cm
309.148 225.852 m 309.551 225.852 l S Q
q 1 0 0 -1 0 288 cm
309.551 225.852 m 309.949 225.852 l S Q
q 1 0 0 -1 0 288 cm
309.949 225.852 m 310.352 225.852 l S Q
q 1 0 0 -1 0 288 cm
310.352 225.852 m 310.75 225.852 l S Q
q 1 0 0 -1 0 288 cm
310.75 225.852 m 311.148 225.852 l S Q
q 1 0 0 -1 0 288 cm
311.148 225.852 m 311.551 225.852 l S Q
q 1 0 0 -1 0 288 cm
311.551 225.852 m 311.949 225.852 l S Q
q 1 0 0 -1 0 288 cm
311.949 225.852 m 312.352 225.852 l S Q
q 1 0 0 -1 0 288 cm
312.352 225.852 m 312.75 225.852 l S Q
q 1 0 0 -1 0 288 cm
312.75 225.852 m 313.148 225.852 l S Q
q 1 0 0 -1 0 288 cm
313.148 225.852 m 313.551 225.852 l S Q
q 1 0 0 -1 0 288 cm
313.551 225.852 m 313.949 225.852 l S Q
q 1 0 0 -1 0 288 cm
313.949 225.852 m 314.352 225.852 l S Q
q 1 0 0 -1 0 288 cm
314.352 225.852 m 314.75 225.852 l S Q
q 1 0 0 -1 0 288 cm
314.75 225.852 m 315.148 225.852 l S Q
q 1 0 0 -1 0 288 cm
315.148 225.852 m 315.551 225.852 l S Q
q 1 0 0 -1 0 288 cm
315.551 225.852 m 315.949 225.852 l S Q
q 1 0 0 -1 0 288 cm
315.949 225.852 m 316.352 225.852 l S Q
q 1 0 0 -1 0 288 cm
316.352 225.852 m 316.75 225.852 l S Q
q 1 0 0 -1 0 288 cm
316.75 225.852 m 317.148 225.852 l S Q
q 1 0 0 -1 0 288 cm
317.148 225.852 m 317.551 225.852 l S Q
q 1 0 0 -1 0 288 cm
317.551 225.852 m 317.949 225.852 l S Q
q 1 0 0 -1 0 288 cm
317.949 225.852 m 318.352 225.852 l S Q
q 1 0 0 -1 0 288 cm
318.352 225.852 m 318.75 225.852 l S Q
q 1 0 0 -1 0 288 cm
318.75 225.852 m 319.148 225.852 l S Q
q 1 0 0 -1 0 288 cm
319.148 225.852 m 319.551 225.852 l S Q
q 1 0 0 -1 0 288 cm
319.551 225.852 m 320 225.852 l S Q
q 1 0 0 -1 0 288 cm
320 225.852 m 320.398 225.852 l S Q
q 1 0 0 -1 0 288 cm
320.398 225.852 m 320.801 225.852 l S Q
q 1 0 0 -1 0 288 cm
320.801 225.852 m 321.199 225.852 l S Q
q 1 0 0 -1 0 288 cm
321.199 225.852 m 321.602 225.852 l S Q
q 1 0 0 -1 0 288 cm
321.602 225.852 m 322 225.852 l S Q
q 1 0 0 -1 0 288 cm
322 225.852 m 322.398 225.852 l S Q
q 1 0 0 -1 0 288 cm
322.398 225.852 m 322.801 225.852 l S Q
q 1 0 0 -1 0 288 cm
322.801 225.852 m 323.199 225.852 l S Q
q 1 0 0 -1 0 288 cm
323.199 225.852 m 323.602 225.852 l S Q
q 1 0 0 -1 0 288 cm
323.602 225.852 m 324 225.852 l S Q
q 1 0 0 -1 0 288 cm
324 225.852 m 324.398 225.852 l S Q
q 1 0 0 -1 0 288 cm
324.398 225.852 m 324.801 225.852 l S Q
q 1 0 0 -1 0 288 cm
324.801 225.852 m 325.199 225.852 l S Q
q 1 0 0 -1 0 288 cm
325.199 225.852 m 325.602 225.852 l S Q
q 1 0 0 -1 0 288 cm
325.602 225.852 m 326 225.852 l S Q
q 1 0 0 -1 0 288 cm
326 225.852 m 326.398 225.852 l S Q
q 1 0 0 -1 0 288 cm
326.398 225.852 m 326.801 225.852 l S Q
q 1 0 0 -1 0 288 cm
326.801 225.852 m 327.199 225.852 l S Q
q 1 0 0 -1 0 288 cm
327.199 225.852 m 327.602 225.852 l S Q
q 1 0 0 -1 0 288 cm
327.602 225.852 m 328 225.852 l S Q
q 1 0 0 -1 0 288 cm
328 225.852 m 328.398 225.852 l S Q
q 1 0 0 -1 0 288 cm
328.398 225.852 m 328.801 225.852 l S Q
q 1 0 0 -1 0 288 cm
328.801 225.852 m 329.199 225.852 l S Q
q 1 0 0 -1 0 288 cm
329.199 225.852 m 329.602 225.852 l S Q
q 1 0 0 -1 0 288 cm
329.602 225.852 m 330.051 225.852 l S Q
q 1 0 0 -1 0 288 cm
330.051 225.852 m 330.449 225.852 l S Q
q 1 0 0 -1 0 288 cm
330.449 225.852 m 330.852 225.852 l S Q
q 1 0 0 -1 0 288 cm
330.852 225.852 m 331.25 225.852 l S Q
q 1 0 0 -1 0 288 cm
331.25 225.852 m 331.648 225.852 l S Q
q 1 0 0 -1 0 288 cm
331.648 225.852 m 332.051 225.852 l S Q
q 1 0 0 -1 0 288 cm
332.051 225.852 m 332.449 225.852 l S Q
q 1 0 0 -1 0 288 cm
332.449 225.852 m 332.852 225.852 l S Q
q 1 0 0 -1 0 288 cm
332.852 225.852 m 333.25 225.852 l S Q
q 1 0 0 -1 0 288 cm
333.25 225.852 m 333.648 225.852 l S Q
q 1 0 0 -1 0 288 cm
333.648 225.852 m 334.051 225.852 l S Q
q 1 0 0 -1 0 288 cm
334.051 225.852 m 334.449 225.852 l S Q
q 1 0 0 -1 0 288 cm
334.449 225.852 m 334.852 225.852 l S Q
q 1 0 0 -1 0 288 cm
334.852 225.852 m 335.25 225.852 l S Q
q 1 0 0 -1 0 288 cm
335.25 225.852 m 335.648 225.852 l S Q
q 1 0 0 -1 0 288 cm
335.648 225.852 m 336.051 225.852 l S Q
q 1 0 0 -1 0 288 cm
336.051 225.852 m 336.449 225.852 l S Q
q 1 0 0 -1 0 288 cm
336.449 225.852 m 336.852 225.852 l S Q
q 1 0 0 -1 0 288 cm
336.852 225.852 m 337.25 225.852 l S Q
q 1 0 0 -1 0 288 cm
337.25 225.852 m 337.648 225.852 l S Q
q 1 0 0 -1 0 288 cm
337.648 225.852 m 338.051 225.852 l S Q
q 1 0 0 -1 0 288 cm
338.051 225.852 m 338.449 225.852 l S Q
q 1 0 0 -1 0 288 cm
338.449 225.852 m 338.852 225.852 l S Q
q 1 0 0 -1 0 288 cm
338.852 225.852 m 339.25 225.852 l S Q
q 1 0 0 -1 0 288 cm
339.25 225.852 m 339.648 225.852 l S Q
q 1 0 0 -1 0 288 cm
339.648 225.852 m 340.051 225.852 l S Q
q 1 0 0 -1 0 288 cm
340.051 225.852 m 340.449 225.852 l S Q
q 1 0 0 -1 0 288 cm
340.449 225.852 m 340.852 225.852 l S Q
q 1 0 0 -1 0 288 cm
340.852 225.852 m 341.25 225.852 l S Q
q 1 0 0 -1 0 288 cm
341.25 225.852 m 341.648 225.852 l S Q
q 1 0 0 -1 0 288 cm
341.648 225.852 m 342.051 225.852 l S Q
q 1 0 0 -1 0 288 cm
342.051 225.852 m 342.449 225.852 l S Q
q 1 0 0 -1 0 288 cm
342.449 225.852 m 342.852 225.852 l S Q
q 1 0 0 -1 0 288 cm
342.852 225.852 m 343.25 225.852 l S Q
q 1 0 0 -1 0 288 cm
343.25 225.852 m 343.648 225.852 l S Q
q 1 0 0 -1 0 288 cm
343.648 225.852 m 344.051 225.852 l S Q
q 1 0 0 -1 0 288 cm
344.051 225.852 m 344.449 225.852 l S Q
q 1 0 0 -1 0 288 cm
344.449 225.852 m 344.852 225.852 l S Q
q 1 0 0 -1 0 288 cm
344.852 225.852 m 345.25 225.852 l S Q
q 1 0 0 -1 0 288 cm
345.25 225.852 m 345.648 225.852 l S Q
q 1 0 0 -1 0 288 cm
345.648 225.852 m 346.051 225.852 l S Q
q 1 0 0 -1 0 288 cm
346.051 225.852 m 346.449 225.852 l S Q
q 1 0 0 -1 0 288 cm
346.449 225.852 m 346.852 225.852 l S Q
q 1 0 0 -1 0 288 cm
346.852 225.852 m 347.25 225.852 l S Q
q 1 0 0 -1 0 288 cm
347.25 225.852 m 347.699 225.852 l S Q
q 1 0 0 -1 0 288 cm
347.699 225.852 m 348.102 225.852 l S Q
q 1 0 0 -1 0 288 cm
348.102 225.852 m 348.5 225.852 l S Q
q 1 0 0 -1 0 288 cm
348.5 225.852 m 348.898 225.852 l S Q
q 1 0 0 -1 0 288 cm
348.898 225.852 m 349.301 225.852 l S Q
q 1 0 0 -1 0 288 cm
349.301 225.852 m 349.699 225.852 l S Q
q 1 0 0 -1 0 288 cm
349.699 225.852 m 350.102 225.852 l S Q
q 1 0 0 -1 0 288 cm
350.102 225.852 m 350.5 225.852 l S Q
q 1 0 0 -1 0 288 cm
350.5 225.852 m 350.898 225.852 l S Q
q 1 0 0 -1 0 288 cm
350.898 225.852 m 351.301 225.852 l S Q
q 1 0 0 -1 0 288 cm
351.301 225.852 m 351.699 225.852 l S Q
q 1 0 0 -1 0 288 cm
351.699 225.852 m 352.102 225.852 l S Q
q 1 0 0 -1 0 288 cm
352.102 225.852 m 352.5 225.852 l S Q
q 1 0 0 -1 0 288 cm
352.5 225.852 m 352.898 225.852 l S Q
q 1 0 0 -1 0 288 cm
352.898 225.852 m 353.301 225.852 l S Q
q 1 0 0 -1 0 288 cm
353.301 225.852 m 353.699 225.852 l S Q
q 1 0 0 -1 0 288 cm
353.699 225.852 m 354.102 225.852 l S Q
q 1 0 0 -1 0 288 cm
354.102 225.852 m 354.5 225.852 l S Q
q 1 0 0 -1 0 288 cm
354.5 225.852 m 354.898 225.852 l S Q
q 1 0 0 -1 0 288 cm
354.898 225.852 m 355.301 225.852 l S Q
q 1 0 0 -1 0 288 cm
355.301 225.852 m 355.699 225.852 l S Q
q 1 0 0 -1 0 288 cm
355.699 225.852 m 356.102 225.852 l S Q
q 1 0 0 -1 0 288 cm
356.102 225.852 m 356.5 225.852 l S Q
q 1 0 0 -1 0 288 cm
356.5 225.852 m 356.898 225.852 l S Q
q 1 0 0 -1 0 288 cm
356.898 225.852 m 357.352 225.852 l S Q
q 1 0 0 -1 0 288 cm
357.352 225.852 m 357.75 225.852 l S Q
q 1 0 0 -1 0 288 cm
357.75 225.852 m 358.148 225.852 l S Q
q 1 0 0 -1 0 288 cm
358.148 225.852 m 358.551 225.852 l S Q
q 1 0 0 -1 0 288 cm
358.551 225.852 m 358.949 225.852 l S Q
q 1 0 0 -1 0 288 cm
358.949 225.852 m 359.352 225.852 l S Q
q 1 0 0 -1 0 288 cm
359.352 225.852 m 359.75 225.852 l S Q
q 1 0 0 -1 0 288 cm
359.75 225.852 m 360.148 225.852 l S Q
q 1 0 0 -1 0 288 cm
360.148 225.852 m 360.551 225.852 l S Q
q 1 0 0 -1 0 288 cm
360.551 225.852 m 360.949 225.852 l S Q
q 1 0 0 -1 0 288 cm
360.949 225.852 m 361.352 225.852 l S Q
q 1 0 0 -1 0 288 cm
361.352 225.852 m 361.75 225.852 l S Q
q 1 0 0 -1 0 288 cm
361.75 225.852 m 362.148 225.852 l S Q
q 1 0 0 -1 0 288 cm
362.148 225.852 m 362.551 225.852 l S Q
q 1 0 0 -1 0 288 cm
362.551 225.852 m 362.949 225.852 l S Q
q 1 0 0 -1 0 288 cm
362.949 225.852 m 363.352 225.852 l S Q
q 1 0 0 -1 0 288 cm
363.352 225.852 m 363.75 225.852 l S Q
q 1 0 0 -1 0 288 cm
363.75 225.852 m 364.148 225.852 l S Q
q 1 0 0 -1 0 288 cm
364.148 225.852 m 364.551 225.852 l S Q
q 1 0 0 -1 0 288 cm
364.551 225.852 m 364.949 225.852 l S Q
q 1 0 0 -1 0 288 cm
364.949 225.852 m 365.352 225.852 l S Q
q 1 0 0 -1 0 288 cm
365.352 225.852 m 365.801 225.852 l S Q
q 1 0 0 -1 0 288 cm
365.801 225.852 m 366.199 225.852 l S Q
q 1 0 0 -1 0 288 cm
366.199 225.852 m 366.602 225.852 l S Q
q 1 0 0 -1 0 288 cm
366.602 225.852 m 367 225.852 l S Q
q 1 0 0 -1 0 288 cm
367 225.852 m 367.398 225.852 l S Q
q 1 0 0 -1 0 288 cm
367.398 225.852 m 367.801 225.852 l S Q
q 1 0 0 -1 0 288 cm
367.801 225.852 m 368.199 225.852 l S Q
q 1 0 0 -1 0 288 cm
368.199 225.852 m 368.602 225.852 l S Q
q 1 0 0 -1 0 288 cm
368.602 225.852 m 369 225.852 l S Q
q 1 0 0 -1 0 288 cm
369 225.852 m 369.398 225.852 l S Q
q 1 0 0 -1 0 288 cm
369.398 225.852 m 369.801 225.852 l S Q
q 1 0 0 -1 0 288 cm
369.801 225.852 m 370.25 225.852 l S Q
q 1 0 0 -1 0 288 cm
370.25 225.852 m 370.648 225.852 l S Q
q 1 0 0 -1 0 288 cm
370.648 225.852 m 371.051 225.852 l S Q
q 1 0 0 -1 0 288 cm
371.051 225.852 m 371.449 225.852 l S Q
q 1 0 0 -1 0 288 cm
371.449 225.852 m 371.852 225.852 l S Q
q 1 0 0 -1 0 288 cm
371.852 225.852 m 372.25 225.852 l S Q
q 1 0 0 -1 0 288 cm
372.25 225.852 m 372.648 225.852 l S Q
q 1 0 0 -1 0 288 cm
372.648 225.852 m 373.051 225.852 l S Q
q 1 0 0 -1 0 288 cm
373.051 225.852 m 373.449 225.852 l S Q
q 1 0 0 -1 0 288 cm
373.449 225.852 m 373.852 225.852 l S Q
q 1 0 0 -1 0 288 cm
373.852 225.852 m 374.25 225.852 l S Q
q 1 0 0 -1 0 288 cm
374.25 225.852 m 374.648 225.852 l S Q
q 1 0 0 -1 0 288 cm
374.648 225.852 m 375.051 225.852 l S Q
q 1 0 0 -1 0 288 cm
375.051 225.852 m 375.449 225.852 l S Q
q 1 0 0 -1 0 288 cm
375.449 225.852 m 375.852 225.852 l S Q
q 1 0 0 -1 0 288 cm
375.852 225.852 m 376.25 225.852 l S Q
q 1 0 0 -1 0 288 cm
376.25 225.852 m 376.648 225.852 l S Q
q 1 0 0 -1 0 288 cm
376.648 225.852 m 377.051 225.852 l S Q
q 1 0 0 -1 0 288 cm
377.051 225.852 m 377.449 225.852 l S Q
q 1 0 0 -1 0 288 cm
377.449 225.852 m 377.852 225.852 l S Q
q 1 0 0 -1 0 288 cm
377.852 225.852 m 378.25 225.852 l S Q
q 1 0 0 -1 0 288 cm
378.25 225.852 m 378.648 225.852 l S Q
q 1 0 0 -1 0 288 cm
378.648 225.852 m 379.051 225.852 l S Q
q 1 0 0 -1 0 288 cm
379.051 225.852 m 379.449 225.852 l S Q
q 1 0 0 -1 0 288 cm
379.449 225.852 m 379.852 225.852 l S Q
q 1 0 0 -1 0 288 cm
379.852 225.852 m 380.25 225.852 l S Q
q 1 0 0 -1 0 288 cm
380.25 225.852 m 380.648 225.852 l S Q
q 1 0 0 -1 0 288 cm
380.648 225.852 m 381.051 225.852 l S Q
q 1 0 0 -1 0 288 cm
381.051 225.852 m 381.449 225.852 l S Q
q 1 0 0 -1 0 288 cm
381.449 225.852 m 381.852 225.852 l S Q
q 1 0 0 -1 0 288 cm
381.852 225.852 m 382.25 225.852 l S Q
q 1 0 0 -1 0 288 cm
382.25 225.852 m 382.648 225.852 l S Q
q 1 0 0 -1 0 288 cm
382.648 225.852 m 383.051 225.852 l S Q
q 1 0 0 -1 0 288 cm
383.051 225.852 m 383.449 225.852 l S Q
q 1 0 0 -1 0 288 cm
383.449 225.852 m 383.852 225.852 l S Q
q 1 0 0 -1 0 288 cm
383.852 225.852 m 384.25 225.852 l S Q
q 1 0 0 -1 0 288 cm
384.25 225.852 m 384.648 225.852 l S Q
q 1 0 0 -1 0 288 cm
384.648 225.852 m 385.051 225.852 l S Q
q 1 0 0 -1 0 288 cm
385.051 225.852 m 385.449 225.852 l S Q
q 1 0 0 -1 0 288 cm
385.449 225.852 m 385.852 225.852 l S Q
q 1 0 0 -1 0 288 cm
385.852 225.852 m 386.25 225.852 l S Q
q 1 0 0 -1 0 288 cm
386.25 225.852 m 386.648 225.852 l S Q
q 1 0 0 -1 0 288 cm
386.648 225.852 m 387.051 225.852 l S Q
q 1 0 0 -1 0 288 cm
387.051 225.852 m 387.449 225.852 l S Q
q 1 0 0 -1 0 288 cm
387.449 225.852 m 387.852 225.852 l S Q
q 1 0 0 -1 0 288 cm
387.852 225.852 m 388.25 225.852 l S Q
q 1 0 0 -1 0 288 cm
388.25 225.852 m 388.648 225.852 l S Q
q 1 0 0 -1 0 288 cm
388.648 225.852 m 389.051 225.852 l S Q
q 1 0 0 -1 0 288 cm
389.051 225.852 m 389.449 225.852 l S Q
q 1 0 0 -1 0 288 cm
389.449 225.852 m 389.852 225.852 l S Q
q 1 0 0 -1 0 288 cm
389.852 225.852 m 390.25 225.852 l S Q
q 1 0 0 -1 0 288 cm
390.25 225.852 m 390.648 225.852 l S Q
q 1 0 0 -1 0 288 cm
390.648 225.852 m 391.051 225.852 l S Q
q 1 0 0 -1 0 288 cm
391.051 225.852 m 391.449 225.852 l S Q
q 1 0 0 -1 0 288 cm
391.449 225.852 m 391.852 225.852 l S Q
q 1 0 0 -1 0 288 cm
391.852 225.852 m 392.25 225.852 l S Q
q 1 0 0 -1 0 288 cm
392.25 225.852 m 392.648 225.852 l S Q
q 1 0 0 -1 0 288 cm
392.648 225.852 m 393.051 225.852 l S Q
q 1 0 0 -1 0 288 cm
393.051 225.852 m 393.449 225.852 l S Q
q 1 0 0 -1 0 288 cm
393.449 225.852 m 393.852 225.852 l S Q
q 1 0 0 -1 0 288 cm
393.852 225.852 m 394.25 225.852 l S Q
q 1 0 0 -1 0 288 cm
394.25 225.852 m 394.648 225.852 l S Q
q 1 0 0 -1 0 288 cm
394.648 225.852 m 395.051 225.852 l S Q
q 1 0 0 -1 0 288 cm
395.051 225.852 m 395.449 225.852 l S Q
q 1 0 0 -1 0 288 cm
395.449 225.852 m 395.852 225.852 l S Q
q 1 0 0 -1 0 288 cm
395.852 225.852 m 396.25 225.852 l S Q
q 1 0 0 -1 0 288 cm
396.25 225.852 m 396.648 225.852 l S Q
q 1 0 0 -1 0 288 cm
396.648 225.852 m 397.051 225.852 l S Q
q 1 0 0 -1 0 288 cm
397.051 225.852 m 397.449 225.852 l S Q
q 1 0 0 -1 0 288 cm
397.449 225.852 m 397.852 225.852 l S Q
q 1 0 0 -1 0 288 cm
397.852 225.852 m 398.25 225.852 l S Q
q 1 0 0 -1 0 288 cm
398.25 225.852 m 398.648 225.852 l S Q
q 1 0 0 -1 0 288 cm
398.648 225.852 m 399.051 225.852 l S Q
q 1 0 0 -1 0 288 cm
399.051 225.852 m 399.449 225.852 l S Q
q 1 0 0 -1 0 288 cm
399.449 225.852 m 399.852 225.852 l S Q
q 1 0 0 -1 0 288 cm
399.852 225.852 m 400.25 225.852 l S Q
q 1 0 0 -1 0 288 cm
400.25 225.852 m 400.648 225.852 l S Q
q 1 0 0 -1 0 288 cm
400.648 225.852 m 401.051 225.852 l S Q
q 1 0 0 -1 0 288 cm
401.051 225.852 m 401.449 225.852 l S Q
q 1 0 0 -1 0 288 cm
401.449 225.852 m 401.852 225.852 l S Q
q 1 0 0 -1 0 288 cm
401.852 225.852 m 402.25 225.852 l S Q
q 1 0 0 -1 0 288 cm
402.25 225.852 m 402.648 225.852 l S Q
q 1 0 0 -1 0 288 cm
402.648 225.852 m 403.051 225.852 l S Q
q 1 0 0 -1 0 288 cm
403.051 225.852 m 403.449 225.852 l S Q
q 1 0 0 -1 0 288 cm
403.449 225.852 m 403.852 225.852 l S Q
q 1 0 0 -1 0 288 cm
403.852 225.852 m 404.25 225.852 l S Q
q 1 0 0 -1 0 288 cm
404.25 225.852 m 404.648 225.852 l S Q
q 1 0 0 -1 0 288 cm
404.648 225.852 m 405.051 225.852 l S Q
q 1 0 0 -1 0 288 cm
405.051 225.852 m 405.449 225.852 l S Q
q 1 0 0 -1 0 288 cm
405.449 225.852 m 405.852 225.852 l S Q
q 1 0 0 -1 0 288 cm
405.852 225.852 m 406.301 225.852 l S Q
q 1 0 0 -1 0 288 cm
406.301 225.852 m 406.699 225.852 l S Q
q 1 0 0 -1 0 288 cm
406.699 225.852 m 407.102 225.852 l S Q
q 1 0 0 -1 0 288 cm
407.102 225.852 m 407.5 225.852 l S Q
q 1 0 0 -1 0 288 cm
407.5 225.852 m 407.898 225.852 l S Q
q 1 0 0 -1 0 288 cm
407.898 225.852 m 408.301 225.852 l S Q
q 1 0 0 -1 0 288 cm
408.301 225.852 m 408.699 225.852 l S Q
q 1 0 0 -1 0 288 cm
408.699 225.852 m 409.102 225.852 l S Q
q 1 0 0 -1 0 288 cm
409.102 225.852 m 409.5 225.852 l S Q
q 1 0 0 -1 0 288 cm
409.5 225.852 m 409.898 225.852 l S Q
q 1 0 0 -1 0 288 cm
409.898 225.852 m 410.301 225.852 l S Q
q 1 0 0 -1 0 288 cm
410.301 225.852 m 410.699 225.852 l S Q
q 1 0 0 -1 0 288 cm
410.699 225.852 m 411.102 225.852 l S Q
q 1 0 0 -1 0 288 cm
411.102 225.852 m 411.5 225.852 l S Q
q 1 0 0 -1 0 288 cm
411.5 225.852 m 411.898 225.852 l S Q
q 1 0 0 -1 0 288 cm
411.898 225.852 m 412.301 225.852 l S Q
q 1 0 0 -1 0 288 cm
412.301 225.852 m 412.699 225.852 l S Q
q 1 0 0 -1 0 288 cm
412.699 225.852 m 413.102 225.852 l S Q
q 1 0 0 -1 0 288 cm
413.102 225.852 m 413.5 225.852 l S Q
q 1 0 0 -1 0 288 cm
413.5 225.852 m 413.898 225.852 l S Q
q 1 0 0 -1 0 288 cm
413.898 225.852 m 414.301 225.852 l S Q
q 1 0 0 -1 0 288 cm
414.301 225.852 m 414.699 225.852 l S Q
q 1 0 0 -1 0 288 cm
414.699 225.852 m 415.102 225.852 l S Q
q 1 0 0 -1 0 288 cm
415.102 225.852 m 415.5 225.852 l S Q
q 1 0 0 -1 0 288 cm
415.5 225.852 m 415.898 225.852 l S Q
q 1 0 0 -1 0 288 cm
415.898 225.852 m 416.301 225.852 l S Q
q 1 0 0 -1 0 288 cm
416.301 225.852 m 416.699 225.852 l S Q
0 g
q 1 0 0 -1 0 288 cm
32.75 10.75 384.398 248 re S Q
Q Q
showpage
%%Trailer
end restore
%%EOF
