%!PS-Adobe-3.0 EPSF-3.0
%%Creator: cairo 1.13.1 (http://cairographics.org)
%%CreationDate: Wed May 18 20:26:17 2016
%%Pages: 1
%%DocumentData: Clean7Bit
%%LanguageLevel: 2
%%BoundingBox: 0 0 360 216
%%EndComments
%%BeginProlog
save
50 dict begin
/q { gsave } bind def
/Q { grestore } bind def
/cm { 6 array astore concat } bind def
/w { setlinewidth } bind def
/J { setlinecap } bind def
/j { setlinejoin } bind def
/M { setmiterlimit } bind def
/d { setdash } bind def
/m { moveto } bind def
/l { lineto } bind def
/c { curveto } bind def
/h { closepath } bind def
/re { exch dup neg 3 1 roll 5 3 roll moveto 0 rlineto
      0 exch rlineto 0 rlineto closepath } bind def
/S { stroke } bind def
/f { fill } bind def
/f* { eofill } bind def
/n { newpath } bind def
/W { clip } bind def
/W* { eoclip } bind def
/BT { } bind def
/ET { } bind def
/pdfmark where { pop globaldict /?pdfmark /exec load put }
    { globaldict begin /?pdfmark /pop load def /pdfmark
    /cleartomark load def end } ifelse
/BDC { mark 3 1 roll /BDC pdfmark } bind def
/EMC { mark /EMC pdfmark } bind def
/cairo_store_point { /cairo_point_y exch def /cairo_point_x exch def } def
/Tj { show currentpoint cairo_store_point } bind def
/TJ {
  {
    dup
    type /stringtype eq
    { show } { -0.001 mul 0 cairo_font_matrix dtransform rmoveto } ifelse
  } forall
  currentpoint cairo_store_point
} bind def
/cairo_selectfont { cairo_font_matrix aload pop pop pop 0 0 6 array astore
    cairo_font exch selectfont cairo_point_x cairo_point_y moveto } bind def
/Tf { pop /cairo_font exch def /cairo_font_matrix where
      { pop cairo_selectfont } if } bind def
/Td { matrix translate cairo_font_matrix matrix concatmatrix dup
      /cairo_font_matrix exch def dup 4 get exch 5 get cairo_store_point
      /cairo_font where { pop cairo_selectfont } if } bind def
/Tm { 2 copy 8 2 roll 6 array astore /cairo_font_matrix exch def
      cairo_store_point /cairo_font where { pop cairo_selectfont } if } bind def
/g { setgray } bind def
/rg { setrgbcolor } bind def
/d1 { setcachedevice } bind def
%%EndProlog
%%BeginSetup
%%EndSetup
%%Page: 1 1
%%BeginPageSetup
%%PageBoundingBox: 0 0 360 216
%%EndPageSetup
q 42 29 304 177 rectclip q
0 g
0.15 w
2 J
0 j
[ 0.2 2] 0 d
3.8 M q 1 0 0 -1 0 216 cm
42.949 186.75 m 345.148 186.75 l S Q
0.25 w
[] 0.0 d
q 1 0 0 -1 0 216 cm
42.949 186.75 m 46.648 186.75 l S Q
q 1 0 0 -1 0 216 cm
345.148 186.75 m 341.449 186.75 l S Q
q 1 0 0 -1 0 216 cm
42.949 172.102 m 44.801 172.102 l S Q
q 1 0 0 -1 0 216 cm
345.148 172.102 m 343.301 172.102 l S Q
0.15 w
[ 0.2 2] 0 d
q 1 0 0 -1 0 216 cm
42.949 157.398 m 345.148 157.398 l S Q
0.25 w
[] 0.0 d
q 1 0 0 -1 0 216 cm
42.949 157.398 m 46.648 157.398 l S Q
q 1 0 0 -1 0 216 cm
345.148 157.398 m 341.449 157.398 l S Q
q 1 0 0 -1 0 216 cm
42.949 142.75 m 44.801 142.75 l S Q
q 1 0 0 -1 0 216 cm
345.148 142.75 m 343.301 142.75 l S Q
0.15 w
[ 0.2 2] 0 d
q 1 0 0 -1 0 216 cm
42.949 128.102 m 345.148 128.102 l S Q
0.25 w
[] 0.0 d
q 1 0 0 -1 0 216 cm
42.949 128.102 m 46.648 128.102 l S Q
q 1 0 0 -1 0 216 cm
345.148 128.102 m 341.449 128.102 l S Q
q 1 0 0 -1 0 216 cm
42.949 113.398 m 44.801 113.398 l S Q
q 1 0 0 -1 0 216 cm
345.148 113.398 m 343.301 113.398 l S Q
0.15 w
[ 0.2 2] 0 d
q 1 0 0 -1 0 216 cm
42.949 98.75 m 345.148 98.75 l S Q
0.25 w
[] 0.0 d
q 1 0 0 -1 0 216 cm
42.949 98.75 m 46.648 98.75 l S Q
q 1 0 0 -1 0 216 cm
345.148 98.75 m 341.449 98.75 l S Q
q 1 0 0 -1 0 216 cm
42.949 84.102 m 44.801 84.102 l S Q
q 1 0 0 -1 0 216 cm
345.148 84.102 m 343.301 84.102 l S Q
0.15 w
[ 0.2 2] 0 d
q 1 0 0 -1 0 216 cm
42.949 69.398 m 345.148 69.398 l S Q
0.25 w
[] 0.0 d
q 1 0 0 -1 0 216 cm
42.949 69.398 m 46.648 69.398 l S Q
q 1 0 0 -1 0 216 cm
345.148 69.398 m 341.449 69.398 l S Q
q 1 0 0 -1 0 216 cm
42.949 54.75 m 44.801 54.75 l S Q
q 1 0 0 -1 0 216 cm
345.148 54.75 m 343.301 54.75 l S Q
0.15 w
[ 0.2 2] 0 d
q 1 0 0 -1 0 216 cm
42.949 40.102 m 345.148 40.102 l S Q
0.25 w
[] 0.0 d
q 1 0 0 -1 0 216 cm
42.949 40.102 m 46.648 40.102 l S Q
q 1 0 0 -1 0 216 cm
345.148 40.102 m 341.449 40.102 l S Q
q 1 0 0 -1 0 216 cm
42.949 25.398 m 44.801 25.398 l S Q
q 1 0 0 -1 0 216 cm
345.148 25.398 m 343.301 25.398 l S Q
0.15 w
[ 0.2 2] 0 d
q 1 0 0 -1 0 216 cm
42.949 10.75 m 345.148 10.75 l S Q
0.25 w
[] 0.0 d
q 1 0 0 -1 0 216 cm
42.949 10.75 m 46.648 10.75 l S Q
q 1 0 0 -1 0 216 cm
345.148 10.75 m 341.449 10.75 l S Q
0.15 w
[ 0.2 2] 0 d
q 1 0 0 -1 0 216 cm
42.949 186.75 m 42.949 10.75 l S Q
0.25 w
[] 0.0 d
q 1 0 0 -1 0 216 cm
42.949 186.75 m 42.949 183.051 l S Q
q 1 0 0 -1 0 216 cm
42.949 10.75 m 42.949 14.449 l S Q
0.15 w
[ 0.2 2] 0 d
q 1 0 0 -1 0 216 cm
86.102 186.75 m 86.102 33.051 l S Q
[ 0.2 2] 0 d
q 1 0 0 -1 0 216 cm
86.102 14.449 m 86.102 10.75 l S Q
0.25 w
[] 0.0 d
q 1 0 0 -1 0 216 cm
86.102 186.75 m 86.102 183.051 l S Q
q 1 0 0 -1 0 216 cm
86.102 10.75 m 86.102 14.449 l S Q
0.15 w
[ 0.2 2] 0 d
q 1 0 0 -1 0 216 cm
129.301 186.75 m 129.301 33.051 l S Q
[ 0.2 2] 0 d
q 1 0 0 -1 0 216 cm
129.301 14.449 m 129.301 10.75 l S Q
0.25 w
[] 0.0 d
q 1 0 0 -1 0 216 cm
129.301 186.75 m 129.301 183.051 l S Q
q 1 0 0 -1 0 216 cm
129.301 10.75 m 129.301 14.449 l S Q
0.15 w
[ 0.2 2] 0 d
q 1 0 0 -1 0 216 cm
172.449 186.75 m 172.449 33.051 l S Q
[ 0.2 2] 0 d
q 1 0 0 -1 0 216 cm
172.449 14.449 m 172.449 10.75 l S Q
0.25 w
[] 0.0 d
q 1 0 0 -1 0 216 cm
172.449 186.75 m 172.449 183.051 l S Q
q 1 0 0 -1 0 216 cm
172.449 10.75 m 172.449 14.449 l S Q
0.15 w
[ 0.2 2] 0 d
q 1 0 0 -1 0 216 cm
215.648 186.75 m 215.648 10.75 l S Q
0.25 w
[] 0.0 d
q 1 0 0 -1 0 216 cm
215.648 186.75 m 215.648 183.051 l S Q
q 1 0 0 -1 0 216 cm
215.648 10.75 m 215.648 14.449 l S Q
0.15 w
[ 0.2 2] 0 d
q 1 0 0 -1 0 216 cm
258.801 186.75 m 258.801 10.75 l S Q
0.25 w
[] 0.0 d
q 1 0 0 -1 0 216 cm
258.801 186.75 m 258.801 183.051 l S Q
q 1 0 0 -1 0 216 cm
258.801 10.75 m 258.801 14.449 l S Q
0.15 w
[ 0.2 2] 0 d
q 1 0 0 -1 0 216 cm
302 186.75 m 302 10.75 l S Q
0.25 w
[] 0.0 d
q 1 0 0 -1 0 216 cm
302 186.75 m 302 183.051 l S Q
q 1 0 0 -1 0 216 cm
302 10.75 m 302 14.449 l S Q
0.15 w
[ 0.2 2] 0 d
q 1 0 0 -1 0 216 cm
345.148 186.75 m 345.148 10.75 l S Q
0.25 w
[] 0.0 d
q 1 0 0 -1 0 216 cm
345.148 186.75 m 345.148 183.051 l S Q
q 1 0 0 -1 0 216 cm
345.148 10.75 m 345.148 14.449 l S Q
q 1 0 0 -1 0 216 cm
42.949 10.75 302.199 176 re S Q
q 1 0 0 -1 0 216 cm
42.949 98.75 m 345.148 98.75 l S Q
0 1 0 rg
q 1 0 0 -1 0 216 cm
53.148 28.398 m 77.25 28.398 l S Q
q 1 0 0 -1 0 216 cm
53.148 26.551 m 53.148 30.25 l S Q
q 1 0 0 -1 0 216 cm
77.25 26.551 m 77.25 30.25 l S Q
q 1 0 0 -1 0 216 cm
65.398 121.051 m 108.551 116.449 l 151.75 105.602 l 194.898 110.148 l 238.102
 122.75 l 281.25 125.25 l 324.449 81.699 l S Q
q 1 0 0 -1 0 216 cm
65.398 143.75 m 65.398 98.398 l S Q
q 1 0 0 -1 0 216 cm
63.551 143.75 m 67.25 143.75 l S Q
q 1 0 0 -1 0 216 cm
63.551 98.398 m 67.25 98.398 l S Q
q 1 0 0 -1 0 216 cm
108.551 140.949 m 108.551 91.898 l S Q
q 1 0 0 -1 0 216 cm
106.699 140.949 m 110.398 140.949 l S Q
q 1 0 0 -1 0 216 cm
106.699 91.898 m 110.398 91.898 l S Q
q 1 0 0 -1 0 216 cm
151.75 138.551 m 151.75 72.699 l S Q
q 1 0 0 -1 0 216 cm
149.898 138.551 m 153.602 138.551 l S Q
q 1 0 0 -1 0 216 cm
149.898 72.699 m 153.602 72.699 l S Q
q 1 0 0 -1 0 216 cm
194.898 135.949 m 194.898 84.301 l S Q
q 1 0 0 -1 0 216 cm
193.051 135.949 m 196.75 135.949 l S Q
q 1 0 0 -1 0 216 cm
193.051 84.301 m 196.75 84.301 l S Q
q 1 0 0 -1 0 216 cm
238.102 166.199 m 238.102 79.352 l S Q
q 1 0 0 -1 0 216 cm
236.25 166.199 m 239.949 166.199 l S Q
q 1 0 0 -1 0 216 cm
236.25 79.352 m 239.949 79.352 l S Q
q 1 0 0 -1 0 216 cm
281.25 159.648 m 281.25 90.852 l S Q
q 1 0 0 -1 0 216 cm
279.398 159.648 m 283.102 159.648 l S Q
q 1 0 0 -1 0 216 cm
279.398 90.852 m 283.102 90.852 l S Q
q 1 0 0 -1 0 216 cm
324.449 121.852 m 324.449 41.5 l S Q
q 1 0 0 -1 0 216 cm
322.602 121.852 m 326.301 121.852 l S Q
q 1 0 0 -1 0 216 cm
322.602 41.5 m 326.301 41.5 l S Q
q 1 0 0 -1 0 216 cm
62.398 121.051 m 68.398 121.051 l S Q
q 1 0 0 -1 0 216 cm
65.398 118.051 m 65.398 124.051 l S Q
q 1 0 0 -1 0 216 cm
105.551 116.449 m 111.551 116.449 l S Q
q 1 0 0 -1 0 216 cm
108.551 113.449 m 108.551 119.449 l S Q
q 1 0 0 -1 0 216 cm
148.75 105.602 m 154.75 105.602 l S Q
q 1 0 0 -1 0 216 cm
151.75 102.602 m 151.75 108.602 l S Q
q 1 0 0 -1 0 216 cm
191.898 110.148 m 197.898 110.148 l S Q
q 1 0 0 -1 0 216 cm
194.898 107.148 m 194.898 113.148 l S Q
q 1 0 0 -1 0 216 cm
235.102 122.75 m 241.102 122.75 l S Q
q 1 0 0 -1 0 216 cm
238.102 119.75 m 238.102 125.75 l S Q
q 1 0 0 -1 0 216 cm
278.25 125.25 m 284.25 125.25 l S Q
q 1 0 0 -1 0 216 cm
281.25 122.25 m 281.25 128.25 l S Q
q 1 0 0 -1 0 216 cm
321.449 81.699 m 327.449 81.699 l S Q
q 1 0 0 -1 0 216 cm
324.449 78.699 m 324.449 84.699 l S Q
q 1 0 0 -1 0 216 cm
62.199 28.398 m 68.199 28.398 l S Q
q 1 0 0 -1 0 216 cm
65.199 25.398 m 65.199 31.398 l S Q
1 0 0 rg
q 1 0 0 -1 0 216 cm
53.148 19.102 m 77.25 19.102 l S Q
q 1 0 0 -1 0 216 cm
53.148 17.25 m 53.148 20.949 l S Q
q 1 0 0 -1 0 216 cm
77.25 17.25 m 77.25 20.949 l S Q
q 1 0 0 -1 0 216 cm
63.648 111.898 m 106.852 111.801 l 150 100.801 l 193.199 109.102 l 236.352
 113.301 l 279.551 140.648 l 322.699 83.898 l S Q
q 1 0 0 -1 0 216 cm
63.648 132.75 m 63.648 91 l S Q
q 1 0 0 -1 0 216 cm
61.801 132.75 m 65.5 132.75 l S Q
q 1 0 0 -1 0 216 cm
61.801 91 m 65.5 91 l S Q
q 1 0 0 -1 0 216 cm
106.852 134 m 106.852 89.602 l S Q
q 1 0 0 -1 0 216 cm
105 134 m 108.699 134 l S Q
q 1 0 0 -1 0 216 cm
105 89.602 m 108.699 89.602 l S Q
q 1 0 0 -1 0 216 cm
150 144.801 m 150 56.75 l S Q
q 1 0 0 -1 0 216 cm
148.148 144.801 m 151.852 144.801 l S Q
q 1 0 0 -1 0 216 cm
148.148 56.75 m 151.852 56.75 l S Q
q 1 0 0 -1 0 216 cm
193.199 128.898 m 193.199 89.352 l S Q
q 1 0 0 -1 0 216 cm
191.352 128.898 m 195.051 128.898 l S Q
q 1 0 0 -1 0 216 cm
191.352 89.352 m 195.051 89.352 l S Q
q 1 0 0 -1 0 216 cm
236.352 154.301 m 236.352 72.352 l S Q
q 1 0 0 -1 0 216 cm
234.5 154.301 m 238.199 154.301 l S Q
q 1 0 0 -1 0 216 cm
234.5 72.352 m 238.199 72.352 l S Q
q 1 0 0 -1 0 216 cm
279.551 168 m 279.551 113.301 l S Q
q 1 0 0 -1 0 216 cm
277.699 168 m 281.398 168 l S Q
q 1 0 0 -1 0 216 cm
277.699 113.301 m 281.398 113.301 l S Q
q 1 0 0 -1 0 216 cm
322.699 120.301 m 322.699 47.551 l S Q
q 1 0 0 -1 0 216 cm
320.852 120.301 m 324.551 120.301 l S Q
q 1 0 0 -1 0 216 cm
320.852 47.551 m 324.551 47.551 l S Q
q 1 0 0 -1 0 216 cm
60.648 108.898 m 66.648 114.898 l S Q
q 1 0 0 -1 0 216 cm
60.648 114.898 m 66.648 108.898 l S Q
q 1 0 0 -1 0 216 cm
103.852 108.801 m 109.852 114.801 l S Q
q 1 0 0 -1 0 216 cm
103.852 114.801 m 109.852 108.801 l S Q
q 1 0 0 -1 0 216 cm
147 97.801 m 153 103.801 l S Q
q 1 0 0 -1 0 216 cm
147 103.801 m 153 97.801 l S Q
q 1 0 0 -1 0 216 cm
190.199 106.102 m 196.199 112.102 l S Q
q 1 0 0 -1 0 216 cm
190.199 112.102 m 196.199 106.102 l S Q
q 1 0 0 -1 0 216 cm
233.352 110.301 m 239.352 116.301 l S Q
q 1 0 0 -1 0 216 cm
233.352 116.301 m 239.352 110.301 l S Q
q 1 0 0 -1 0 216 cm
276.551 137.648 m 282.551 143.648 l S Q
q 1 0 0 -1 0 216 cm
276.551 143.648 m 282.551 137.648 l S Q
q 1 0 0 -1 0 216 cm
319.699 80.898 m 325.699 86.898 l S Q
q 1 0 0 -1 0 216 cm
319.699 86.898 m 325.699 80.898 l S Q
q 1 0 0 -1 0 216 cm
62.199 16.102 m 68.199 22.102 l S Q
q 1 0 0 -1 0 216 cm
62.199 22.102 m 68.199 16.102 l S Q
0 g
q 1 0 0 -1 0 216 cm
42.949 10.75 302.199 176 re S Q
Q Q
showpage
%%Trailer
end restore
%%EOF
