%!PS-Adobe-3.0 EPSF-3.0
%%Creator: cairo 1.13.1 (http://cairographics.org)
%%CreationDate: Fri May 20 09:18:27 2016
%%Pages: 1
%%DocumentData: Clean7Bit
%%LanguageLevel: 2
%%BoundingBox: 0 0 360 216
%%EndComments
%%BeginProlog
save
50 dict begin
/q { gsave } bind def
/Q { grestore } bind def
/cm { 6 array astore concat } bind def
/w { setlinewidth } bind def
/J { setlinecap } bind def
/j { setlinejoin } bind def
/M { setmiterlimit } bind def
/d { setdash } bind def
/m { moveto } bind def
/l { lineto } bind def
/c { curveto } bind def
/h { closepath } bind def
/re { exch dup neg 3 1 roll 5 3 roll moveto 0 rlineto
      0 exch rlineto 0 rlineto closepath } bind def
/S { stroke } bind def
/f { fill } bind def
/f* { eofill } bind def
/n { newpath } bind def
/W { clip } bind def
/W* { eoclip } bind def
/BT { } bind def
/ET { } bind def
/pdfmark where { pop globaldict /?pdfmark /exec load put }
    { globaldict begin /?pdfmark /pop load def /pdfmark
    /cleartomark load def end } ifelse
/BDC { mark 3 1 roll /BDC pdfmark } bind def
/EMC { mark /EMC pdfmark } bind def
/cairo_store_point { /cairo_point_y exch def /cairo_point_x exch def } def
/Tj { show currentpoint cairo_store_point } bind def
/TJ {
  {
    dup
    type /stringtype eq
    { show } { -0.001 mul 0 cairo_font_matrix dtransform rmoveto } ifelse
  } forall
  currentpoint cairo_store_point
} bind def
/cairo_selectfont { cairo_font_matrix aload pop pop pop 0 0 6 array astore
    cairo_font exch selectfont cairo_point_x cairo_point_y moveto } bind def
/Tf { pop /cairo_font exch def /cairo_font_matrix where
      { pop cairo_selectfont } if } bind def
/Td { matrix translate cairo_font_matrix matrix concatmatrix dup
      /cairo_font_matrix exch def dup 4 get exch 5 get cairo_store_point
      /cairo_font where { pop cairo_selectfont } if } bind def
/Tm { 2 copy 8 2 roll 6 array astore /cairo_font_matrix exch def
      cairo_store_point /cairo_font where { pop cairo_selectfont } if } bind def
/g { setgray } bind def
/rg { setrgbcolor } bind def
/d1 { setcachedevice } bind def
%%EndProlog
%%BeginSetup
%%EndSetup
%%Page: 1 1
%%BeginPageSetup
%%PageBoundingBox: 0 0 360 216
%%EndPageSetup
q 47 29 299 177 rectclip q
0 g
0.15 w
2 J
0 j
[ 0.2 2] 0 d
3.8 M q 1 0 0 -1 0 216 cm
48.051 186.75 m 345.148 186.75 l S Q
0.25 w
[] 0.0 d
q 1 0 0 -1 0 216 cm
48.051 186.75 m 51.75 186.75 l S Q
q 1 0 0 -1 0 216 cm
345.148 186.75 m 341.449 186.75 l S Q
0.15 w
[ 0.2 2] 0 d
q 1 0 0 -1 0 216 cm
48.051 151.551 m 345.148 151.551 l S Q
0.25 w
[] 0.0 d
q 1 0 0 -1 0 216 cm
48.051 151.551 m 51.75 151.551 l S Q
q 1 0 0 -1 0 216 cm
345.148 151.551 m 341.449 151.551 l S Q
0.15 w
[ 0.2 2] 0 d
q 1 0 0 -1 0 216 cm
48.051 116.352 m 345.148 116.352 l S Q
0.25 w
[] 0.0 d
q 1 0 0 -1 0 216 cm
48.051 116.352 m 51.75 116.352 l S Q
q 1 0 0 -1 0 216 cm
345.148 116.352 m 341.449 116.352 l S Q
0.15 w
[ 0.2 2] 0 d
q 1 0 0 -1 0 216 cm
48.051 81.148 m 345.148 81.148 l S Q
0.25 w
[] 0.0 d
q 1 0 0 -1 0 216 cm
48.051 81.148 m 51.75 81.148 l S Q
q 1 0 0 -1 0 216 cm
345.148 81.148 m 341.449 81.148 l S Q
0.15 w
[ 0.2 2] 0 d
q 1 0 0 -1 0 216 cm
48.051 45.949 m 345.148 45.949 l S Q
0.25 w
[] 0.0 d
q 1 0 0 -1 0 216 cm
48.051 45.949 m 51.75 45.949 l S Q
q 1 0 0 -1 0 216 cm
345.148 45.949 m 341.449 45.949 l S Q
0.15 w
[ 0.2 2] 0 d
q 1 0 0 -1 0 216 cm
48.051 10.75 m 345.148 10.75 l S Q
0.25 w
[] 0.0 d
q 1 0 0 -1 0 216 cm
48.051 10.75 m 51.75 10.75 l S Q
q 1 0 0 -1 0 216 cm
345.148 10.75 m 341.449 10.75 l S Q
0.15 w
[ 0.2 2] 0 d
q 1 0 0 -1 0 216 cm
85.199 186.75 m 85.199 33.051 l S Q
[ 0.2 2] 0 d
q 1 0 0 -1 0 216 cm
85.199 14.449 m 85.199 10.75 l S Q
0.25 w
[] 0.0 d
q 1 0 0 -1 0 216 cm
85.199 186.75 m 85.199 183.051 l S Q
q 1 0 0 -1 0 216 cm
85.199 10.75 m 85.199 14.449 l S Q
0.15 w
[ 0.2 2] 0 d
q 1 0 0 -1 0 216 cm
159.449 186.75 m 159.449 33.051 l S Q
[ 0.2 2] 0 d
q 1 0 0 -1 0 216 cm
159.449 14.449 m 159.449 10.75 l S Q
0.25 w
[] 0.0 d
q 1 0 0 -1 0 216 cm
159.449 186.75 m 159.449 183.051 l S Q
q 1 0 0 -1 0 216 cm
159.449 10.75 m 159.449 14.449 l S Q
0.15 w
[ 0.2 2] 0 d
q 1 0 0 -1 0 216 cm
233.75 186.75 m 233.75 33.051 l S Q
[ 0.2 2] 0 d
q 1 0 0 -1 0 216 cm
233.75 14.449 m 233.75 10.75 l S Q
0.25 w
[] 0.0 d
q 1 0 0 -1 0 216 cm
233.75 186.75 m 233.75 183.051 l S Q
q 1 0 0 -1 0 216 cm
233.75 10.75 m 233.75 14.449 l S Q
0.15 w
[ 0.2 2] 0 d
q 1 0 0 -1 0 216 cm
308 186.75 m 308 10.75 l S Q
0.25 w
[] 0.0 d
q 1 0 0 -1 0 216 cm
308 186.75 m 308 183.051 l S Q
q 1 0 0 -1 0 216 cm
308 10.75 m 308 14.449 l S Q
0.15 w
[ 0.2 2] 0 d
q 1 0 0 -1 0 216 cm
85.199 186.75 m 85.199 33.051 l S Q
[ 0.2 2] 0 d
q 1 0 0 -1 0 216 cm
85.199 14.449 m 85.199 10.75 l S Q
0.25 w
[] 0.0 d
q 1 0 0 -1 0 216 cm
85.199 186.75 m 85.199 183.051 l S Q
q 1 0 0 -1 0 216 cm
85.199 10.75 m 85.199 14.449 l S Q
0.15 w
[ 0.2 2] 0 d
q 1 0 0 -1 0 216 cm
159.449 186.75 m 159.449 33.051 l S Q
[ 0.2 2] 0 d
q 1 0 0 -1 0 216 cm
159.449 14.449 m 159.449 10.75 l S Q
0.25 w
[] 0.0 d
q 1 0 0 -1 0 216 cm
159.449 186.75 m 159.449 183.051 l S Q
q 1 0 0 -1 0 216 cm
159.449 10.75 m 159.449 14.449 l S Q
0.15 w
[ 0.2 2] 0 d
q 1 0 0 -1 0 216 cm
233.75 186.75 m 233.75 33.051 l S Q
[ 0.2 2] 0 d
q 1 0 0 -1 0 216 cm
233.75 14.449 m 233.75 10.75 l S Q
0.25 w
[] 0.0 d
q 1 0 0 -1 0 216 cm
233.75 186.75 m 233.75 183.051 l S Q
q 1 0 0 -1 0 216 cm
233.75 10.75 m 233.75 14.449 l S Q
0.15 w
[ 0.2 2] 0 d
q 1 0 0 -1 0 216 cm
308 186.75 m 308 10.75 l S Q
0.25 w
[] 0.0 d
q 1 0 0 -1 0 216 cm
308 186.75 m 308 183.051 l S Q
q 1 0 0 -1 0 216 cm
308 10.75 m 308 14.449 l S Q
q 1 0 0 -1 0 216 cm
48.051 10.75 297.098 176 re S Q
q 1 0 0 -1 0 216 cm
48.051 116.352 m 345.148 116.352 l S Q
0.172549 0.462745 0.733333 rg
q 1 0 0 -1 0 216 cm
58.25 19.102 m 82.352 19.102 l S Q
q 1 0 0 -1 0 216 cm
58.25 17.25 m 58.25 20.949 l S Q
q 1 0 0 -1 0 216 cm
82.352 17.25 m 82.352 20.949 l S Q
q 1 0 0 -1 0 216 cm
84.051 99.75 m 158.352 99.352 l 232.602 98.25 l 306.898 98.25 l S Q
q 1 0 0 -1 0 216 cm
84.051 133.051 m 84.051 66.449 l S Q
q 1 0 0 -1 0 216 cm
82.199 133.051 m 85.898 133.051 l S Q
q 1 0 0 -1 0 216 cm
82.199 66.449 m 85.898 66.449 l S Q
q 1 0 0 -1 0 216 cm
158.352 130.398 m 158.352 68.25 l S Q
q 1 0 0 -1 0 216 cm
156.5 130.398 m 160.199 130.398 l S Q
q 1 0 0 -1 0 216 cm
156.5 68.25 m 160.199 68.25 l S Q
q 1 0 0 -1 0 216 cm
232.602 128.852 m 232.602 67.699 l S Q
q 1 0 0 -1 0 216 cm
230.75 128.852 m 234.449 128.852 l S Q
q 1 0 0 -1 0 216 cm
230.75 67.699 m 234.449 67.699 l S Q
q 1 0 0 -1 0 216 cm
306.898 128.852 m 306.898 67.699 l S Q
q 1 0 0 -1 0 216 cm
305.051 128.852 m 308.75 128.852 l S Q
q 1 0 0 -1 0 216 cm
305.051 67.699 m 308.75 67.699 l S Q
q 1 0 0 -1 0 216 cm
81.051 99.75 m 87.051 99.75 l S Q
q 1 0 0 -1 0 216 cm
84.051 96.75 m 84.051 102.75 l S Q
q 1 0 0 -1 0 216 cm
155.352 99.352 m 161.352 99.352 l S Q
q 1 0 0 -1 0 216 cm
158.352 96.352 m 158.352 102.352 l S Q
q 1 0 0 -1 0 216 cm
229.602 98.25 m 235.602 98.25 l S Q
q 1 0 0 -1 0 216 cm
232.602 95.25 m 232.602 101.25 l S Q
q 1 0 0 -1 0 216 cm
303.898 98.25 m 309.898 98.25 l S Q
q 1 0 0 -1 0 216 cm
306.898 95.25 m 306.898 101.25 l S Q
q 1 0 0 -1 0 216 cm
67.301 19.102 m 73.301 19.102 l S Q
q 1 0 0 -1 0 216 cm
70.301 16.102 m 70.301 22.102 l S Q
0.74902 0.145098 0.172549 rg
q 1 0 0 -1 0 216 cm
58.25 28.398 m 82.352 28.398 l S Q
q 1 0 0 -1 0 216 cm
58.25 26.551 m 58.25 30.25 l S Q
q 1 0 0 -1 0 216 cm
82.352 26.551 m 82.352 30.25 l S Q
q 1 0 0 -1 0 216 cm
86.301 91.5 m 160.602 102.449 l 234.852 97.898 l 309.148 87.301 l S Q
q 1 0 0 -1 0 216 cm
86.301 135.25 m 86.301 47.75 l S Q
q 1 0 0 -1 0 216 cm
84.449 135.25 m 88.148 135.25 l S Q
q 1 0 0 -1 0 216 cm
84.449 47.75 m 88.148 47.75 l S Q
q 1 0 0 -1 0 216 cm
160.602 163.051 m 160.602 41.801 l S Q
q 1 0 0 -1 0 216 cm
158.75 163.051 m 162.449 163.051 l S Q
q 1 0 0 -1 0 216 cm
158.75 41.801 m 162.449 41.801 l S Q
q 1 0 0 -1 0 216 cm
234.852 148.148 m 234.852 47.648 l S Q
q 1 0 0 -1 0 216 cm
233 148.148 m 236.699 148.148 l S Q
q 1 0 0 -1 0 216 cm
233 47.648 m 236.699 47.648 l S Q
q 1 0 0 -1 0 216 cm
309.148 127.102 m 309.148 47.5 l S Q
q 1 0 0 -1 0 216 cm
307.301 127.102 m 311 127.102 l S Q
q 1 0 0 -1 0 216 cm
307.301 47.5 m 311 47.5 l S Q
q 1 0 0 -1 0 216 cm
83.301 88.5 m 89.301 94.5 l S Q
q 1 0 0 -1 0 216 cm
83.301 94.5 m 89.301 88.5 l S Q
q 1 0 0 -1 0 216 cm
157.602 99.449 m 163.602 105.449 l S Q
q 1 0 0 -1 0 216 cm
157.602 105.449 m 163.602 99.449 l S Q
q 1 0 0 -1 0 216 cm
231.852 94.898 m 237.852 100.898 l S Q
q 1 0 0 -1 0 216 cm
231.852 100.898 m 237.852 94.898 l S Q
q 1 0 0 -1 0 216 cm
306.148 84.301 m 312.148 90.301 l S Q
q 1 0 0 -1 0 216 cm
306.148 90.301 m 312.148 84.301 l S Q
q 1 0 0 -1 0 216 cm
67.301 25.398 m 73.301 31.398 l S Q
q 1 0 0 -1 0 216 cm
67.301 31.398 m 73.301 25.398 l S Q
0 g
q 1 0 0 -1 0 216 cm
48.051 10.75 297.098 176 re S Q
Q Q
showpage
%%Trailer
end restore
%%EOF
