%!PS-Adobe-3.0 EPSF-3.0
%%Creator: cairo 1.13.1 (http://cairographics.org)
%%CreationDate: Fri May 20 09:16:23 2016
%%Pages: 1
%%DocumentData: Clean7Bit
%%LanguageLevel: 2
%%BoundingBox: 0 0 360 216
%%EndComments
%%BeginProlog
save
50 dict begin
/q { gsave } bind def
/Q { grestore } bind def
/cm { 6 array astore concat } bind def
/w { setlinewidth } bind def
/J { setlinecap } bind def
/j { setlinejoin } bind def
/M { setmiterlimit } bind def
/d { setdash } bind def
/m { moveto } bind def
/l { lineto } bind def
/c { curveto } bind def
/h { closepath } bind def
/re { exch dup neg 3 1 roll 5 3 roll moveto 0 rlineto
      0 exch rlineto 0 rlineto closepath } bind def
/S { stroke } bind def
/f { fill } bind def
/f* { eofill } bind def
/n { newpath } bind def
/W { clip } bind def
/W* { eoclip } bind def
/BT { } bind def
/ET { } bind def
/pdfmark where { pop globaldict /?pdfmark /exec load put }
    { globaldict begin /?pdfmark /pop load def /pdfmark
    /cleartomark load def end } ifelse
/BDC { mark 3 1 roll /BDC pdfmark } bind def
/EMC { mark /EMC pdfmark } bind def
/cairo_store_point { /cairo_point_y exch def /cairo_point_x exch def } def
/Tj { show currentpoint cairo_store_point } bind def
/TJ {
  {
    dup
    type /stringtype eq
    { show } { -0.001 mul 0 cairo_font_matrix dtransform rmoveto } ifelse
  } forall
  currentpoint cairo_store_point
} bind def
/cairo_selectfont { cairo_font_matrix aload pop pop pop 0 0 6 array astore
    cairo_font exch selectfont cairo_point_x cairo_point_y moveto } bind def
/Tf { pop /cairo_font exch def /cairo_font_matrix where
      { pop cairo_selectfont } if } bind def
/Td { matrix translate cairo_font_matrix matrix concatmatrix dup
      /cairo_font_matrix exch def dup 4 get exch 5 get cairo_store_point
      /cairo_font where { pop cairo_selectfont } if } bind def
/Tm { 2 copy 8 2 roll 6 array astore /cairo_font_matrix exch def
      cairo_store_point /cairo_font where { pop cairo_selectfont } if } bind def
/g { setgray } bind def
/rg { setrgbcolor } bind def
/d1 { setcachedevice } bind def
%%EndProlog
%%BeginSetup
%%EndSetup
%%Page: 1 1
%%BeginPageSetup
%%PageBoundingBox: 0 0 360 216
%%EndPageSetup
q 42 29 304 177 rectclip q
0 g
0.15 w
2 J
0 j
[ 0.2 2] 0 d
3.8 M q 1 0 0 -1 0 216 cm
42.949 186.75 m 345.148 186.75 l S Q
0.25 w
[] 0.0 d
q 1 0 0 -1 0 216 cm
42.949 186.75 m 46.648 186.75 l S Q
q 1 0 0 -1 0 216 cm
345.148 186.75 m 341.449 186.75 l S Q
q 1 0 0 -1 0 216 cm
42.949 172.102 m 44.801 172.102 l S Q
q 1 0 0 -1 0 216 cm
345.148 172.102 m 343.301 172.102 l S Q
0.15 w
[ 0.2 2] 0 d
q 1 0 0 -1 0 216 cm
42.949 157.398 m 345.148 157.398 l S Q
0.25 w
[] 0.0 d
q 1 0 0 -1 0 216 cm
42.949 157.398 m 46.648 157.398 l S Q
q 1 0 0 -1 0 216 cm
345.148 157.398 m 341.449 157.398 l S Q
q 1 0 0 -1 0 216 cm
42.949 142.75 m 44.801 142.75 l S Q
q 1 0 0 -1 0 216 cm
345.148 142.75 m 343.301 142.75 l S Q
0.15 w
[ 0.2 2] 0 d
q 1 0 0 -1 0 216 cm
42.949 128.102 m 345.148 128.102 l S Q
0.25 w
[] 0.0 d
q 1 0 0 -1 0 216 cm
42.949 128.102 m 46.648 128.102 l S Q
q 1 0 0 -1 0 216 cm
345.148 128.102 m 341.449 128.102 l S Q
q 1 0 0 -1 0 216 cm
42.949 113.398 m 44.801 113.398 l S Q
q 1 0 0 -1 0 216 cm
345.148 113.398 m 343.301 113.398 l S Q
0.15 w
[ 0.2 2] 0 d
q 1 0 0 -1 0 216 cm
42.949 98.75 m 345.148 98.75 l S Q
0.25 w
[] 0.0 d
q 1 0 0 -1 0 216 cm
42.949 98.75 m 46.648 98.75 l S Q
q 1 0 0 -1 0 216 cm
345.148 98.75 m 341.449 98.75 l S Q
q 1 0 0 -1 0 216 cm
42.949 84.102 m 44.801 84.102 l S Q
q 1 0 0 -1 0 216 cm
345.148 84.102 m 343.301 84.102 l S Q
0.15 w
[ 0.2 2] 0 d
q 1 0 0 -1 0 216 cm
42.949 69.398 m 345.148 69.398 l S Q
0.25 w
[] 0.0 d
q 1 0 0 -1 0 216 cm
42.949 69.398 m 46.648 69.398 l S Q
q 1 0 0 -1 0 216 cm
345.148 69.398 m 341.449 69.398 l S Q
q 1 0 0 -1 0 216 cm
42.949 54.75 m 44.801 54.75 l S Q
q 1 0 0 -1 0 216 cm
345.148 54.75 m 343.301 54.75 l S Q
0.15 w
[ 0.2 2] 0 d
q 1 0 0 -1 0 216 cm
42.949 40.102 m 345.148 40.102 l S Q
0.25 w
[] 0.0 d
q 1 0 0 -1 0 216 cm
42.949 40.102 m 46.648 40.102 l S Q
q 1 0 0 -1 0 216 cm
345.148 40.102 m 341.449 40.102 l S Q
q 1 0 0 -1 0 216 cm
42.949 25.398 m 44.801 25.398 l S Q
q 1 0 0 -1 0 216 cm
345.148 25.398 m 343.301 25.398 l S Q
0.15 w
[ 0.2 2] 0 d
q 1 0 0 -1 0 216 cm
42.949 10.75 m 345.148 10.75 l S Q
0.25 w
[] 0.0 d
q 1 0 0 -1 0 216 cm
42.949 10.75 m 46.648 10.75 l S Q
q 1 0 0 -1 0 216 cm
345.148 10.75 m 341.449 10.75 l S Q
0.15 w
[ 0.2 2] 0 d
q 1 0 0 -1 0 216 cm
42.949 186.75 m 42.949 10.75 l S Q
0.25 w
[] 0.0 d
q 1 0 0 -1 0 216 cm
42.949 186.75 m 42.949 183.051 l S Q
q 1 0 0 -1 0 216 cm
42.949 10.75 m 42.949 14.449 l S Q
0.15 w
[ 0.2 2] 0 d
q 1 0 0 -1 0 216 cm
86.102 186.75 m 86.102 33.051 l S Q
[ 0.2 2] 0 d
q 1 0 0 -1 0 216 cm
86.102 14.449 m 86.102 10.75 l S Q
0.25 w
[] 0.0 d
q 1 0 0 -1 0 216 cm
86.102 186.75 m 86.102 183.051 l S Q
q 1 0 0 -1 0 216 cm
86.102 10.75 m 86.102 14.449 l S Q
0.15 w
[ 0.2 2] 0 d
q 1 0 0 -1 0 216 cm
129.301 186.75 m 129.301 33.051 l S Q
[ 0.2 2] 0 d
q 1 0 0 -1 0 216 cm
129.301 14.449 m 129.301 10.75 l S Q
0.25 w
[] 0.0 d
q 1 0 0 -1 0 216 cm
129.301 186.75 m 129.301 183.051 l S Q
q 1 0 0 -1 0 216 cm
129.301 10.75 m 129.301 14.449 l S Q
0.15 w
[ 0.2 2] 0 d
q 1 0 0 -1 0 216 cm
172.449 186.75 m 172.449 33.051 l S Q
[ 0.2 2] 0 d
q 1 0 0 -1 0 216 cm
172.449 14.449 m 172.449 10.75 l S Q
0.25 w
[] 0.0 d
q 1 0 0 -1 0 216 cm
172.449 186.75 m 172.449 183.051 l S Q
q 1 0 0 -1 0 216 cm
172.449 10.75 m 172.449 14.449 l S Q
0.15 w
[ 0.2 2] 0 d
q 1 0 0 -1 0 216 cm
215.648 186.75 m 215.648 10.75 l S Q
0.25 w
[] 0.0 d
q 1 0 0 -1 0 216 cm
215.648 186.75 m 215.648 183.051 l S Q
q 1 0 0 -1 0 216 cm
215.648 10.75 m 215.648 14.449 l S Q
0.15 w
[ 0.2 2] 0 d
q 1 0 0 -1 0 216 cm
258.801 186.75 m 258.801 10.75 l S Q
0.25 w
[] 0.0 d
q 1 0 0 -1 0 216 cm
258.801 186.75 m 258.801 183.051 l S Q
q 1 0 0 -1 0 216 cm
258.801 10.75 m 258.801 14.449 l S Q
0.15 w
[ 0.2 2] 0 d
q 1 0 0 -1 0 216 cm
302 186.75 m 302 10.75 l S Q
0.25 w
[] 0.0 d
q 1 0 0 -1 0 216 cm
302 186.75 m 302 183.051 l S Q
q 1 0 0 -1 0 216 cm
302 10.75 m 302 14.449 l S Q
0.15 w
[ 0.2 2] 0 d
q 1 0 0 -1 0 216 cm
345.148 186.75 m 345.148 10.75 l S Q
0.25 w
[] 0.0 d
q 1 0 0 -1 0 216 cm
345.148 186.75 m 345.148 183.051 l S Q
q 1 0 0 -1 0 216 cm
345.148 10.75 m 345.148 14.449 l S Q
q 1 0 0 -1 0 216 cm
42.949 10.75 302.199 176 re S Q
q 1 0 0 -1 0 216 cm
42.949 98.75 m 345.148 98.75 l S Q
0.74902 0.145098 0.172549 rg
q 1 0 0 -1 0 216 cm
53.148 28.398 m 77.25 28.398 l S Q
q 1 0 0 -1 0 216 cm
53.148 26.551 m 53.148 30.25 l S Q
q 1 0 0 -1 0 216 cm
77.25 26.551 m 77.25 30.25 l S Q
q 1 0 0 -1 0 216 cm
65.398 132.051 m 108.551 139.102 l 151.75 141.699 l 194.898 130.648 l 238.102
 140.949 l 281.25 145.102 l 324.449 133.5 l S Q
q 1 0 0 -1 0 216 cm
65.398 153 m 65.398 111.148 l S Q
q 1 0 0 -1 0 216 cm
63.551 153 m 67.25 153 l S Q
q 1 0 0 -1 0 216 cm
63.551 111.148 m 67.25 111.148 l S Q
q 1 0 0 -1 0 216 cm
108.551 160.148 m 108.551 118.102 l S Q
q 1 0 0 -1 0 216 cm
106.699 160.148 m 110.398 160.148 l S Q
q 1 0 0 -1 0 216 cm
106.699 118.102 m 110.398 118.102 l S Q
q 1 0 0 -1 0 216 cm
151.75 168.25 m 151.75 115.148 l S Q
q 1 0 0 -1 0 216 cm
149.898 168.25 m 153.602 168.25 l S Q
q 1 0 0 -1 0 216 cm
149.898 115.148 m 153.602 115.148 l S Q
q 1 0 0 -1 0 216 cm
194.898 154.949 m 194.898 106.398 l S Q
q 1 0 0 -1 0 216 cm
193.051 154.949 m 196.75 154.949 l S Q
q 1 0 0 -1 0 216 cm
193.051 106.398 m 196.75 106.398 l S Q
q 1 0 0 -1 0 216 cm
238.102 167.898 m 238.102 114 l S Q
q 1 0 0 -1 0 216 cm
236.25 167.898 m 239.949 167.898 l S Q
q 1 0 0 -1 0 216 cm
236.25 114 m 239.949 114 l S Q
q 1 0 0 -1 0 216 cm
281.25 174.75 m 281.25 115.5 l S Q
q 1 0 0 -1 0 216 cm
279.398 174.75 m 283.102 174.75 l S Q
q 1 0 0 -1 0 216 cm
279.398 115.5 m 283.102 115.5 l S Q
q 1 0 0 -1 0 216 cm
324.449 168.102 m 324.449 98.898 l S Q
q 1 0 0 -1 0 216 cm
322.602 168.102 m 326.301 168.102 l S Q
q 1 0 0 -1 0 216 cm
322.602 98.898 m 326.301 98.898 l S Q
q 1 0 0 -1 0 216 cm
62.398 132.051 m 68.398 132.051 l S Q
q 1 0 0 -1 0 216 cm
65.398 129.051 m 65.398 135.051 l S Q
q 1 0 0 -1 0 216 cm
105.551 139.102 m 111.551 139.102 l S Q
q 1 0 0 -1 0 216 cm
108.551 136.102 m 108.551 142.102 l S Q
q 1 0 0 -1 0 216 cm
148.75 141.699 m 154.75 141.699 l S Q
q 1 0 0 -1 0 216 cm
151.75 138.699 m 151.75 144.699 l S Q
q 1 0 0 -1 0 216 cm
191.898 130.648 m 197.898 130.648 l S Q
q 1 0 0 -1 0 216 cm
194.898 127.648 m 194.898 133.648 l S Q
q 1 0 0 -1 0 216 cm
235.102 140.949 m 241.102 140.949 l S Q
q 1 0 0 -1 0 216 cm
238.102 137.949 m 238.102 143.949 l S Q
q 1 0 0 -1 0 216 cm
278.25 145.102 m 284.25 145.102 l S Q
q 1 0 0 -1 0 216 cm
281.25 142.102 m 281.25 148.102 l S Q
q 1 0 0 -1 0 216 cm
321.449 133.5 m 327.449 133.5 l S Q
q 1 0 0 -1 0 216 cm
324.449 130.5 m 324.449 136.5 l S Q
q 1 0 0 -1 0 216 cm
62.199 28.398 m 68.199 28.398 l S Q
q 1 0 0 -1 0 216 cm
65.199 25.398 m 65.199 31.398 l S Q
0.172549 0.462745 0.733333 rg
q 1 0 0 -1 0 216 cm
53.148 19.102 m 77.25 19.102 l S Q
q 1 0 0 -1 0 216 cm
53.148 17.25 m 53.148 20.949 l S Q
q 1 0 0 -1 0 216 cm
77.25 17.25 m 77.25 20.949 l S Q
q 1 0 0 -1 0 216 cm
63.648 130.301 m 106.852 132.102 l 150 135.648 l 193.199 133.25 l 236.352
 144 l 279.551 155.551 l 322.699 142.25 l S Q
q 1 0 0 -1 0 216 cm
63.648 150.301 m 63.648 110.301 l S Q
q 1 0 0 -1 0 216 cm
61.801 150.301 m 65.5 150.301 l S Q
q 1 0 0 -1 0 216 cm
61.801 110.301 m 65.5 110.301 l S Q
q 1 0 0 -1 0 216 cm
106.852 151.551 m 106.852 112.602 l S Q
q 1 0 0 -1 0 216 cm
105 151.551 m 108.699 151.551 l S Q
q 1 0 0 -1 0 216 cm
105 112.602 m 108.699 112.602 l S Q
q 1 0 0 -1 0 216 cm
150 160.398 m 150 110.898 l S Q
q 1 0 0 -1 0 216 cm
148.148 160.398 m 151.852 160.398 l S Q
q 1 0 0 -1 0 216 cm
148.148 110.898 m 151.852 110.898 l S Q
q 1 0 0 -1 0 216 cm
193.199 156.949 m 193.199 109.5 l S Q
q 1 0 0 -1 0 216 cm
191.352 156.949 m 195.051 156.949 l S Q
q 1 0 0 -1 0 216 cm
191.352 109.5 m 195.051 109.5 l S Q
q 1 0 0 -1 0 216 cm
236.352 169.199 m 236.352 118.801 l S Q
q 1 0 0 -1 0 216 cm
234.5 169.199 m 238.199 169.199 l S Q
q 1 0 0 -1 0 216 cm
234.5 118.801 m 238.199 118.801 l S Q
q 1 0 0 -1 0 216 cm
279.551 183.801 m 279.551 127.301 l S Q
q 1 0 0 -1 0 216 cm
277.699 183.801 m 281.398 183.801 l S Q
q 1 0 0 -1 0 216 cm
277.699 127.301 m 281.398 127.301 l S Q
q 1 0 0 -1 0 216 cm
322.699 176.699 m 322.699 107.801 l S Q
q 1 0 0 -1 0 216 cm
320.852 176.699 m 324.551 176.699 l S Q
q 1 0 0 -1 0 216 cm
320.852 107.801 m 324.551 107.801 l S Q
q 1 0 0 -1 0 216 cm
60.648 127.301 m 66.648 133.301 l S Q
q 1 0 0 -1 0 216 cm
60.648 133.301 m 66.648 127.301 l S Q
q 1 0 0 -1 0 216 cm
103.852 129.102 m 109.852 135.102 l S Q
q 1 0 0 -1 0 216 cm
103.852 135.102 m 109.852 129.102 l S Q
q 1 0 0 -1 0 216 cm
147 132.648 m 153 138.648 l S Q
q 1 0 0 -1 0 216 cm
147 138.648 m 153 132.648 l S Q
q 1 0 0 -1 0 216 cm
190.199 130.25 m 196.199 136.25 l S Q
q 1 0 0 -1 0 216 cm
190.199 136.25 m 196.199 130.25 l S Q
q 1 0 0 -1 0 216 cm
233.352 141 m 239.352 147 l S Q
q 1 0 0 -1 0 216 cm
233.352 147 m 239.352 141 l S Q
q 1 0 0 -1 0 216 cm
276.551 152.551 m 282.551 158.551 l S Q
q 1 0 0 -1 0 216 cm
276.551 158.551 m 282.551 152.551 l S Q
q 1 0 0 -1 0 216 cm
319.699 139.25 m 325.699 145.25 l S Q
q 1 0 0 -1 0 216 cm
319.699 145.25 m 325.699 139.25 l S Q
q 1 0 0 -1 0 216 cm
62.199 16.102 m 68.199 22.102 l S Q
q 1 0 0 -1 0 216 cm
62.199 22.102 m 68.199 16.102 l S Q
0 g
q 1 0 0 -1 0 216 cm
42.949 10.75 302.199 176 re S Q
Q Q
showpage
%%Trailer
end restore
%%EOF
