%!PS-Adobe-3.0 EPSF-3.0
%%Creator: cairo 1.13.1 (http://cairographics.org)
%%CreationDate: Wed May 11 16:52:32 2016
%%Pages: 1
%%DocumentData: Clean7Bit
%%LanguageLevel: 2
%%BoundingBox: 0 0 360 216
%%EndComments
%%BeginProlog
save
50 dict begin
/q { gsave } bind def
/Q { grestore } bind def
/cm { 6 array astore concat } bind def
/w { setlinewidth } bind def
/J { setlinecap } bind def
/j { setlinejoin } bind def
/M { setmiterlimit } bind def
/d { setdash } bind def
/m { moveto } bind def
/l { lineto } bind def
/c { curveto } bind def
/h { closepath } bind def
/re { exch dup neg 3 1 roll 5 3 roll moveto 0 rlineto
      0 exch rlineto 0 rlineto closepath } bind def
/S { stroke } bind def
/f { fill } bind def
/f* { eofill } bind def
/n { newpath } bind def
/W { clip } bind def
/W* { eoclip } bind def
/BT { } bind def
/ET { } bind def
/pdfmark where { pop globaldict /?pdfmark /exec load put }
    { globaldict begin /?pdfmark /pop load def /pdfmark
    /cleartomark load def end } ifelse
/BDC { mark 3 1 roll /BDC pdfmark } bind def
/EMC { mark /EMC pdfmark } bind def
/cairo_store_point { /cairo_point_y exch def /cairo_point_x exch def } def
/Tj { show currentpoint cairo_store_point } bind def
/TJ {
  {
    dup
    type /stringtype eq
    { show } { -0.001 mul 0 cairo_font_matrix dtransform rmoveto } ifelse
  } forall
  currentpoint cairo_store_point
} bind def
/cairo_selectfont { cairo_font_matrix aload pop pop pop 0 0 6 array astore
    cairo_font exch selectfont cairo_point_x cairo_point_y moveto } bind def
/Tf { pop /cairo_font exch def /cairo_font_matrix where
      { pop cairo_selectfont } if } bind def
/Td { matrix translate cairo_font_matrix matrix concatmatrix dup
      /cairo_font_matrix exch def dup 4 get exch 5 get cairo_store_point
      /cairo_font where { pop cairo_selectfont } if } bind def
/Tm { 2 copy 8 2 roll 6 array astore /cairo_font_matrix exch def
      cairo_store_point /cairo_font where { pop cairo_selectfont } if } bind def
/g { setgray } bind def
/rg { setrgbcolor } bind def
/d1 { setcachedevice } bind def
%%EndProlog
%%BeginSetup
%%EndSetup
%%Page: 1 1
%%BeginPageSetup
%%PageBoundingBox: 0 0 360 216
%%EndPageSetup
q 42 29 304 177 rectclip q
0 g
0.15 w
2 J
0 j
[ 0.2 2] 0 d
3.8 M q 1 0 0 -1 0 216 cm
42.949 186.75 m 345.148 186.75 l S Q
0.25 w
[] 0.0 d
q 1 0 0 -1 0 216 cm
42.949 186.75 m 46.648 186.75 l S Q
q 1 0 0 -1 0 216 cm
345.148 186.75 m 341.449 186.75 l S Q
0.15 w
[ 0.2 2] 0 d
q 1 0 0 -1 0 216 cm
42.949 167.199 m 345.148 167.199 l S Q
0.25 w
[] 0.0 d
q 1 0 0 -1 0 216 cm
42.949 167.199 m 46.648 167.199 l S Q
q 1 0 0 -1 0 216 cm
345.148 167.199 m 341.449 167.199 l S Q
0.15 w
[ 0.2 2] 0 d
q 1 0 0 -1 0 216 cm
42.949 147.648 m 345.148 147.648 l S Q
0.25 w
[] 0.0 d
q 1 0 0 -1 0 216 cm
42.949 147.648 m 46.648 147.648 l S Q
q 1 0 0 -1 0 216 cm
345.148 147.648 m 341.449 147.648 l S Q
0.15 w
[ 0.2 2] 0 d
q 1 0 0 -1 0 216 cm
42.949 128.102 m 345.148 128.102 l S Q
0.25 w
[] 0.0 d
q 1 0 0 -1 0 216 cm
42.949 128.102 m 46.648 128.102 l S Q
q 1 0 0 -1 0 216 cm
345.148 128.102 m 341.449 128.102 l S Q
0.15 w
[ 0.2 2] 0 d
q 1 0 0 -1 0 216 cm
42.949 108.551 m 345.148 108.551 l S Q
0.25 w
[] 0.0 d
q 1 0 0 -1 0 216 cm
42.949 108.551 m 46.648 108.551 l S Q
q 1 0 0 -1 0 216 cm
345.148 108.551 m 341.449 108.551 l S Q
0.15 w
[ 0.2 2] 0 d
q 1 0 0 -1 0 216 cm
42.949 88.949 m 345.148 88.949 l S Q
0.25 w
[] 0.0 d
q 1 0 0 -1 0 216 cm
42.949 88.949 m 46.648 88.949 l S Q
q 1 0 0 -1 0 216 cm
345.148 88.949 m 341.449 88.949 l S Q
0.15 w
[ 0.2 2] 0 d
q 1 0 0 -1 0 216 cm
42.949 69.398 m 345.148 69.398 l S Q
0.25 w
[] 0.0 d
q 1 0 0 -1 0 216 cm
42.949 69.398 m 46.648 69.398 l S Q
q 1 0 0 -1 0 216 cm
345.148 69.398 m 341.449 69.398 l S Q
0.15 w
[ 0.2 2] 0 d
q 1 0 0 -1 0 216 cm
42.949 49.852 m 345.148 49.852 l S Q
0.25 w
[] 0.0 d
q 1 0 0 -1 0 216 cm
42.949 49.852 m 46.648 49.852 l S Q
q 1 0 0 -1 0 216 cm
345.148 49.852 m 341.449 49.852 l S Q
0.15 w
[ 0.2 2] 0 d
q 1 0 0 -1 0 216 cm
42.949 30.301 m 345.148 30.301 l S Q
0.25 w
[] 0.0 d
q 1 0 0 -1 0 216 cm
42.949 30.301 m 46.648 30.301 l S Q
q 1 0 0 -1 0 216 cm
345.148 30.301 m 341.449 30.301 l S Q
0.15 w
[ 0.2 2] 0 d
q 1 0 0 -1 0 216 cm
42.949 10.75 m 345.148 10.75 l S Q
0.25 w
[] 0.0 d
q 1 0 0 -1 0 216 cm
42.949 10.75 m 46.648 10.75 l S Q
q 1 0 0 -1 0 216 cm
345.148 10.75 m 341.449 10.75 l S Q
0.15 w
[ 0.2 2] 0 d
q 1 0 0 -1 0 216 cm
42.949 186.75 m 42.949 10.75 l S Q
0.25 w
[] 0.0 d
q 1 0 0 -1 0 216 cm
42.949 186.75 m 42.949 183.051 l S Q
q 1 0 0 -1 0 216 cm
42.949 10.75 m 42.949 14.449 l S Q
0.15 w
[ 0.2 2] 0 d
q 1 0 0 -1 0 216 cm
93.301 186.75 m 93.301 10.75 l S Q
0.25 w
[] 0.0 d
q 1 0 0 -1 0 216 cm
93.301 186.75 m 93.301 183.051 l S Q
q 1 0 0 -1 0 216 cm
93.301 10.75 m 93.301 14.449 l S Q
0.15 w
[ 0.2 2] 0 d
q 1 0 0 -1 0 216 cm
143.699 186.75 m 143.699 10.75 l S Q
0.25 w
[] 0.0 d
q 1 0 0 -1 0 216 cm
143.699 186.75 m 143.699 183.051 l S Q
q 1 0 0 -1 0 216 cm
143.699 10.75 m 143.699 14.449 l S Q
0.15 w
[ 0.2 2] 0 d
q 1 0 0 -1 0 216 cm
194.051 186.75 m 194.051 10.75 l S Q
0.25 w
[] 0.0 d
q 1 0 0 -1 0 216 cm
194.051 186.75 m 194.051 183.051 l S Q
q 1 0 0 -1 0 216 cm
194.051 10.75 m 194.051 14.449 l S Q
0.15 w
[ 0.2 2] 0 d
q 1 0 0 -1 0 216 cm
244.398 186.75 m 244.398 10.75 l S Q
0.25 w
[] 0.0 d
q 1 0 0 -1 0 216 cm
244.398 186.75 m 244.398 183.051 l S Q
q 1 0 0 -1 0 216 cm
244.398 10.75 m 244.398 14.449 l S Q
0.15 w
[ 0.2 2] 0 d
q 1 0 0 -1 0 216 cm
294.801 186.75 m 294.801 10.75 l S Q
0.25 w
[] 0.0 d
q 1 0 0 -1 0 216 cm
294.801 186.75 m 294.801 183.051 l S Q
q 1 0 0 -1 0 216 cm
294.801 10.75 m 294.801 14.449 l S Q
0.15 w
[ 0.2 2] 0 d
q 1 0 0 -1 0 216 cm
345.148 186.75 m 345.148 10.75 l S Q
0.25 w
[] 0.0 d
q 1 0 0 -1 0 216 cm
345.148 186.75 m 345.148 183.051 l S Q
q 1 0 0 -1 0 216 cm
345.148 10.75 m 345.148 14.449 l S Q
q 1 0 0 -1 0 216 cm
42.949 10.75 302.199 176 re S Q
1 0 0 rg
q 1 0 0 -1 0 216 cm
80.25 156.898 m 86.25 156.898 l S Q
q 1 0 0 -1 0 216 cm
83.25 153.898 m 83.25 159.898 l S Q
q 1 0 0 -1 0 216 cm
231.352 67.398 m 237.352 67.398 l S Q
q 1 0 0 -1 0 216 cm
234.352 64.398 m 234.352 70.398 l S Q
q 1 0 0 -1 0 216 cm
175.949 138.301 m 181.949 138.301 l S Q
q 1 0 0 -1 0 216 cm
178.949 135.301 m 178.949 141.301 l S Q
q 1 0 0 -1 0 216 cm
173.398 115.5 m 179.398 115.5 l S Q
q 1 0 0 -1 0 216 cm
176.398 112.5 m 176.398 118.5 l S Q
q 1 0 0 -1 0 216 cm
155.801 160.699 m 161.801 160.699 l S Q
q 1 0 0 -1 0 216 cm
158.801 157.699 m 158.801 163.699 l S Q
q 1 0 0 -1 0 216 cm
226.301 114.301 m 232.301 114.301 l S Q
q 1 0 0 -1 0 216 cm
229.301 111.301 m 229.301 117.301 l S Q
q 1 0 0 -1 0 216 cm
130.602 107.898 m 136.602 107.898 l S Q
q 1 0 0 -1 0 216 cm
133.602 104.898 m 133.602 110.898 l S Q
q 1 0 0 -1 0 216 cm
102.898 119.398 m 108.898 119.398 l S Q
q 1 0 0 -1 0 216 cm
105.898 116.398 m 105.898 122.398 l S Q
q 1 0 0 -1 0 216 cm
241.398 122.602 m 247.398 122.602 l S Q
q 1 0 0 -1 0 216 cm
244.398 119.602 m 244.398 125.602 l S Q
q 1 0 0 -1 0 216 cm
72.699 130.852 m 78.699 130.852 l S Q
q 1 0 0 -1 0 216 cm
75.699 127.852 m 75.699 133.852 l S Q
q 1 0 0 -1 0 216 cm
150.75 140.75 m 156.75 140.75 l S Q
q 1 0 0 -1 0 216 cm
153.75 137.75 m 153.75 143.75 l S Q
q 1 0 0 -1 0 216 cm
80.25 132.801 m 86.25 132.801 l S Q
q 1 0 0 -1 0 216 cm
83.25 129.801 m 83.25 135.801 l S Q
q 1 0 0 -1 0 216 cm
55.051 133.648 m 61.051 133.648 l S Q
q 1 0 0 -1 0 216 cm
58.051 130.648 m 58.051 136.648 l S Q
q 1 0 0 -1 0 216 cm
87.801 136.148 m 93.801 136.148 l S Q
q 1 0 0 -1 0 216 cm
90.801 133.148 m 90.801 139.148 l S Q
q 1 0 0 -1 0 216 cm
77.75 136.898 m 83.75 136.898 l S Q
q 1 0 0 -1 0 216 cm
80.75 133.898 m 80.75 139.898 l S Q
q 1 0 0 -1 0 216 cm
90.301 129.699 m 96.301 129.699 l S Q
q 1 0 0 -1 0 216 cm
93.301 126.699 m 93.301 132.699 l S Q
q 1 0 0 -1 0 216 cm
259.051 144 m 265.051 144 l S Q
q 1 0 0 -1 0 216 cm
262.051 141 m 262.051 147 l S Q
q 1 0 0 -1 0 216 cm
70.148 122.352 m 76.148 122.352 l S Q
q 1 0 0 -1 0 216 cm
73.148 119.352 m 73.148 125.352 l S Q
q 1 0 0 -1 0 216 cm
274.148 131.852 m 280.148 131.852 l S Q
q 1 0 0 -1 0 216 cm
277.148 128.852 m 277.148 134.852 l S Q
q 1 0 0 -1 0 216 cm
218.75 137.301 m 224.75 137.301 l S Q
q 1 0 0 -1 0 216 cm
221.75 134.301 m 221.75 140.301 l S Q
q 1 0 0 -1 0 216 cm
284.25 118.949 m 290.25 118.949 l S Q
q 1 0 0 -1 0 216 cm
287.25 115.949 m 287.25 121.949 l S Q
q 1 0 0 -1 0 216 cm
102.898 141.25 m 108.898 141.25 l S Q
q 1 0 0 -1 0 216 cm
105.898 138.25 m 105.898 144.25 l S Q
q 1 0 0 -1 0 216 cm
57.602 138.898 m 63.602 138.898 l S Q
q 1 0 0 -1 0 216 cm
60.602 135.898 m 60.602 141.898 l S Q
q 1 0 0 -1 0 216 cm
158.301 132.898 m 164.301 132.898 l S Q
q 1 0 0 -1 0 216 cm
161.301 129.898 m 161.301 135.898 l S Q
q 1 0 0 -1 0 216 cm
165.852 128.5 m 171.852 128.5 l S Q
q 1 0 0 -1 0 216 cm
168.852 125.5 m 168.852 131.5 l S Q
q 1 0 0 -1 0 216 cm
95.352 128.449 m 101.352 128.449 l S Q
q 1 0 0 -1 0 216 cm
98.352 125.449 m 98.352 131.449 l S Q
q 1 0 0 -1 0 216 cm
155.801 130.25 m 161.801 130.25 l S Q
q 1 0 0 -1 0 216 cm
158.801 127.25 m 158.801 133.25 l S Q
q 1 0 0 -1 0 216 cm
148.25 154.102 m 154.25 154.102 l S Q
q 1 0 0 -1 0 216 cm
151.25 151.102 m 151.25 157.102 l S Q
q 1 0 0 -1 0 216 cm
133.148 155.852 m 139.148 155.852 l S Q
q 1 0 0 -1 0 216 cm
136.148 152.852 m 136.148 158.852 l S Q
q 1 0 0 -1 0 216 cm
153.301 126.102 m 159.301 126.102 l S Q
q 1 0 0 -1 0 216 cm
156.301 123.102 m 156.301 129.102 l S Q
q 1 0 0 -1 0 216 cm
77.75 140.051 m 83.75 140.051 l S Q
q 1 0 0 -1 0 216 cm
80.75 137.051 m 80.75 143.051 l S Q
q 1 0 0 -1 0 216 cm
150.75 122.551 m 156.75 122.551 l S Q
q 1 0 0 -1 0 216 cm
153.75 119.551 m 153.75 125.551 l S Q
q 1 0 0 -1 0 216 cm
67.648 132.148 m 73.648 132.148 l S Q
q 1 0 0 -1 0 216 cm
70.648 129.148 m 70.648 135.148 l S Q
q 1 0 0 -1 0 216 cm
248.949 128.699 m 254.949 128.699 l S Q
q 1 0 0 -1 0 216 cm
251.949 125.699 m 251.949 131.699 l S Q
q 1 0 0 -1 0 216 cm
123.051 136.398 m 129.051 136.398 l S Q
q 1 0 0 -1 0 216 cm
126.051 133.398 m 126.051 139.398 l S Q
q 1 0 0 -1 0 216 cm
140.699 134.398 m 146.699 134.398 l S Q
q 1 0 0 -1 0 216 cm
143.699 131.398 m 143.699 137.398 l S Q
q 1 0 0 -1 0 216 cm
80.25 163.449 m 86.25 163.449 l S Q
q 1 0 0 -1 0 216 cm
83.25 160.449 m 83.25 166.449 l S Q
q 1 0 0 -1 0 216 cm
92.852 141.5 m 98.852 141.5 l S Q
q 1 0 0 -1 0 216 cm
95.852 138.5 m 95.852 144.5 l S Q
q 1 0 0 -1 0 216 cm
87.801 126.5 m 93.801 126.5 l S Q
q 1 0 0 -1 0 216 cm
90.801 123.5 m 90.801 129.5 l S Q
q 1 0 0 -1 0 216 cm
221.25 121.352 m 227.25 121.352 l S Q
q 1 0 0 -1 0 216 cm
224.25 118.352 m 224.25 124.352 l S Q
q 1 0 0 -1 0 216 cm
261.551 124.102 m 267.551 124.102 l S Q
q 1 0 0 -1 0 216 cm
264.551 121.102 m 264.551 127.102 l S Q
q 1 0 0 -1 0 216 cm
113 140.449 m 119 140.449 l S Q
q 1 0 0 -1 0 216 cm
116 137.449 m 116 143.449 l S Q
q 1 0 0 -1 0 216 cm
130.602 133.949 m 136.602 133.949 l S Q
q 1 0 0 -1 0 216 cm
133.602 130.949 m 133.602 136.949 l S Q
q 1 0 0 -1 0 216 cm
87.801 128.75 m 93.801 128.75 l S Q
q 1 0 0 -1 0 216 cm
90.801 125.75 m 90.801 131.75 l S Q
q 1 0 0 -1 0 216 cm
60.102 145.75 m 66.102 145.75 l S Q
q 1 0 0 -1 0 216 cm
63.102 142.75 m 63.102 148.75 l S Q
q 1 0 0 -1 0 216 cm
113 139.352 m 119 139.352 l S Q
q 1 0 0 -1 0 216 cm
116 136.352 m 116 142.352 l S Q
q 1 0 0 -1 0 216 cm
57.602 130.551 m 63.602 130.551 l S Q
q 1 0 0 -1 0 216 cm
60.602 127.551 m 60.602 133.551 l S Q
q 1 0 0 -1 0 216 cm
178.449 134.102 m 184.449 134.102 l S Q
q 1 0 0 -1 0 216 cm
181.449 131.102 m 181.449 137.102 l S Q
q 1 0 0 -1 0 216 cm
143.199 139.648 m 149.199 139.648 l S Q
q 1 0 0 -1 0 216 cm
146.199 136.648 m 146.199 142.648 l S Q
q 1 0 0 -1 0 216 cm
125.551 112.898 m 131.551 112.898 l S Q
q 1 0 0 -1 0 216 cm
128.551 109.898 m 128.551 115.898 l S Q
q 1 0 0 -1 0 216 cm
160.852 105.449 m 166.852 105.449 l S Q
q 1 0 0 -1 0 216 cm
163.852 102.449 m 163.852 108.449 l S Q
q 1 0 0 -1 0 216 cm
113 114.352 m 119 114.352 l S Q
q 1 0 0 -1 0 216 cm
116 111.352 m 116 117.352 l S Q
q 1 0 0 -1 0 216 cm
115.5 123.398 m 121.5 123.398 l S Q
q 1 0 0 -1 0 216 cm
118.5 120.398 m 118.5 126.398 l S Q
q 1 0 0 -1 0 216 cm
155.801 141.051 m 161.801 141.051 l S Q
q 1 0 0 -1 0 216 cm
158.801 138.051 m 158.801 144.051 l S Q
q 1 0 0 -1 0 216 cm
314.449 27.25 m 320.449 27.25 l S Q
q 1 0 0 -1 0 216 cm
317.449 24.25 m 317.449 30.25 l S Q
q 1 0 0 -1 0 216 cm
107.949 142.551 m 113.949 142.551 l S Q
q 1 0 0 -1 0 216 cm
110.949 139.551 m 110.949 145.551 l S Q
q 1 0 0 -1 0 216 cm
123.051 135.898 m 129.051 135.898 l S Q
q 1 0 0 -1 0 216 cm
126.051 132.898 m 126.051 138.898 l S Q
q 1 0 0 -1 0 216 cm
92.852 144.051 m 98.852 144.051 l S Q
q 1 0 0 -1 0 216 cm
95.852 141.051 m 95.852 147.051 l S Q
q 1 0 0 -1 0 216 cm
216.25 129.199 m 222.25 129.199 l S Q
q 1 0 0 -1 0 216 cm
219.25 126.199 m 219.25 132.199 l S Q
q 1 0 0 -1 0 216 cm
248.949 138.352 m 254.949 138.352 l S Q
q 1 0 0 -1 0 216 cm
251.949 135.352 m 251.949 141.352 l S Q
q 1 0 0 -1 0 216 cm
50 134.301 m 56 134.301 l S Q
q 1 0 0 -1 0 216 cm
53 131.301 m 53 137.301 l S Q
q 1 0 0 -1 0 216 cm
233.852 124.352 m 239.852 124.352 l S Q
q 1 0 0 -1 0 216 cm
236.852 121.352 m 236.852 127.352 l S Q
q 1 0 0 -1 0 216 cm
72.699 119.852 m 78.699 119.852 l S Q
q 1 0 0 -1 0 216 cm
75.699 116.852 m 75.699 122.852 l S Q
q 1 0 0 -1 0 216 cm
62.602 133.199 m 68.602 133.199 l S Q
q 1 0 0 -1 0 216 cm
65.602 130.199 m 65.602 136.199 l S Q
q 1 0 0 -1 0 216 cm
118 121.852 m 124 121.852 l S Q
q 1 0 0 -1 0 216 cm
121 118.852 m 121 124.852 l S Q
q 1 0 0 -1 0 216 cm
97.852 156.5 m 103.852 156.5 l S Q
q 1 0 0 -1 0 216 cm
100.852 153.5 m 100.852 159.5 l S Q
q 1 0 0 -1 0 216 cm
254 112.102 m 260 112.102 l S Q
q 1 0 0 -1 0 216 cm
257 109.102 m 257 115.102 l S Q
q 1 0 0 -1 0 216 cm
87.801 125.699 m 93.801 125.699 l S Q
q 1 0 0 -1 0 216 cm
90.801 122.699 m 90.801 128.699 l S Q
q 1 0 0 -1 0 216 cm
269.102 124.449 m 275.102 124.449 l S Q
q 1 0 0 -1 0 216 cm
272.102 121.449 m 272.102 127.449 l S Q
q 1 0 0 -1 0 216 cm
271.648 111.148 m 277.648 111.148 l S Q
q 1 0 0 -1 0 216 cm
274.648 108.148 m 274.648 114.148 l S Q
q 1 0 0 -1 0 216 cm
183.5 125.551 m 189.5 125.551 l S Q
q 1 0 0 -1 0 216 cm
186.5 122.551 m 186.5 128.551 l S Q
q 1 0 0 -1 0 216 cm
85.301 127.449 m 91.301 127.449 l S Q
q 1 0 0 -1 0 216 cm
88.301 124.449 m 88.301 130.449 l S Q
q 1 0 0 -1 0 216 cm
110.449 133.199 m 116.449 133.199 l S Q
q 1 0 0 -1 0 216 cm
113.449 130.199 m 113.449 136.199 l S Q
q 1 0 0 -1 0 216 cm
95.352 124 m 101.352 124 l S Q
q 1 0 0 -1 0 216 cm
98.352 121 m 98.352 127 l S Q
q 1 0 0 -1 0 216 cm
311.949 114.949 m 317.949 114.949 l S Q
q 1 0 0 -1 0 216 cm
314.949 111.949 m 314.949 117.949 l S Q
q 1 0 0 -1 0 216 cm
105.449 131.949 m 111.449 131.949 l S Q
q 1 0 0 -1 0 216 cm
108.449 128.949 m 108.449 134.949 l S Q
q 1 0 0 -1 0 216 cm
188.551 128.602 m 194.551 128.602 l S Q
q 1 0 0 -1 0 216 cm
191.551 125.602 m 191.551 131.602 l S Q
q 1 0 0 -1 0 216 cm
274.148 124.5 m 280.148 124.5 l S Q
q 1 0 0 -1 0 216 cm
277.148 121.5 m 277.148 127.5 l S Q
q 1 0 0 -1 0 216 cm
158.301 125.352 m 164.301 125.352 l S Q
q 1 0 0 -1 0 216 cm
161.301 122.352 m 161.301 128.352 l S Q
q 1 0 0 -1 0 216 cm
95.352 145.449 m 101.352 145.449 l S Q
q 1 0 0 -1 0 216 cm
98.352 142.449 m 98.352 148.449 l S Q
q 1 0 0 -1 0 216 cm
135.648 123.75 m 141.648 123.75 l S Q
q 1 0 0 -1 0 216 cm
138.648 120.75 m 138.648 126.75 l S Q
q 1 0 0 -1 0 216 cm
57.602 170.648 m 63.602 170.648 l S Q
q 1 0 0 -1 0 216 cm
60.602 167.648 m 60.602 173.648 l S Q
q 1 0 0 -1 0 216 cm
82.75 137.398 m 88.75 137.398 l S Q
q 1 0 0 -1 0 216 cm
85.75 134.398 m 85.75 140.398 l S Q
q 1 0 0 -1 0 216 cm
60.102 148.699 m 66.102 148.699 l S Q
q 1 0 0 -1 0 216 cm
63.102 145.699 m 63.102 151.699 l S Q
q 1 0 0 -1 0 216 cm
246.449 124.551 m 252.449 124.551 l S Q
q 1 0 0 -1 0 216 cm
249.449 121.551 m 249.449 127.551 l S Q
q 1 0 0 -1 0 216 cm
67.648 130.949 m 73.648 130.949 l S Q
q 1 0 0 -1 0 216 cm
70.648 127.949 m 70.648 133.949 l S Q
q 1 0 0 -1 0 216 cm
163.352 138.699 m 169.352 138.699 l S Q
q 1 0 0 -1 0 216 cm
166.352 135.699 m 166.352 141.699 l S Q
q 1 0 0 -1 0 216 cm
246.449 158.648 m 252.449 158.648 l S Q
q 1 0 0 -1 0 216 cm
249.449 155.648 m 249.449 161.648 l S Q
q 1 0 0 -1 0 216 cm
70.148 130.199 m 76.148 130.199 l S Q
q 1 0 0 -1 0 216 cm
73.148 127.199 m 73.148 133.199 l S Q
q 1 0 0 -1 0 216 cm
82.75 135.148 m 88.75 135.148 l S Q
q 1 0 0 -1 0 216 cm
85.75 132.148 m 85.75 138.148 l S Q
q 1 0 0 -1 0 216 cm
110.449 135.602 m 116.449 135.602 l S Q
q 1 0 0 -1 0 216 cm
113.449 132.602 m 113.449 138.602 l S Q
q 1 0 0 -1 0 216 cm
175.949 117.551 m 181.949 117.551 l S Q
q 1 0 0 -1 0 216 cm
178.949 114.551 m 178.949 120.551 l S Q
q 1 0 0 -1 0 216 cm
85.301 146.352 m 91.301 146.352 l S Q
q 1 0 0 -1 0 216 cm
88.301 143.352 m 88.301 149.352 l S Q
q 1 0 0 -1 0 216 cm
105.449 123.648 m 111.449 123.648 l S Q
q 1 0 0 -1 0 216 cm
108.449 120.648 m 108.449 126.648 l S Q
q 1 0 0 -1 0 216 cm
188.551 134.102 m 194.551 134.102 l S Q
q 1 0 0 -1 0 216 cm
191.551 131.102 m 191.551 137.102 l S Q
q 1 0 0 -1 0 216 cm
279.199 52.301 m 285.199 52.301 l S Q
q 1 0 0 -1 0 216 cm
282.199 49.301 m 282.199 55.301 l S Q
q 1 0 0 -1 0 216 cm
100.398 132.551 m 106.398 132.551 l S Q
q 1 0 0 -1 0 216 cm
103.398 129.551 m 103.398 135.551 l S Q
q 1 0 0 -1 0 216 cm
223.801 150.5 m 229.801 150.5 l S Q
q 1 0 0 -1 0 216 cm
226.801 147.5 m 226.801 153.5 l S Q
q 1 0 0 -1 0 216 cm
92.852 132.301 m 98.852 132.301 l S Q
q 1 0 0 -1 0 216 cm
95.852 129.301 m 95.852 135.301 l S Q
q 1 0 0 -1 0 216 cm
67.648 129.102 m 73.648 129.102 l S Q
q 1 0 0 -1 0 216 cm
70.648 126.102 m 70.648 132.102 l S Q
q 1 0 0 -1 0 216 cm
128.102 139.898 m 134.102 139.898 l S Q
q 1 0 0 -1 0 216 cm
131.102 136.898 m 131.102 142.898 l S Q
q 1 0 0 -1 0 216 cm
80.25 124.5 m 86.25 124.5 l S Q
q 1 0 0 -1 0 216 cm
83.25 121.5 m 83.25 127.5 l S Q
q 1 0 0 -1 0 216 cm
115.5 116.25 m 121.5 116.25 l S Q
q 1 0 0 -1 0 216 cm
118.5 113.25 m 118.5 119.25 l S Q
q 1 0 0 -1 0 216 cm
173.398 145.602 m 179.398 145.602 l S Q
q 1 0 0 -1 0 216 cm
176.398 142.602 m 176.398 148.602 l S Q
q 1 0 0 -1 0 216 cm
130.602 131.352 m 136.602 131.352 l S Q
q 1 0 0 -1 0 216 cm
133.602 128.352 m 133.602 134.352 l S Q
q 1 0 0 -1 0 216 cm
110.449 117.898 m 116.449 117.898 l S Q
q 1 0 0 -1 0 216 cm
113.449 114.898 m 113.449 120.898 l S Q
q 1 0 0 -1 0 216 cm
92.852 127.648 m 98.852 127.648 l S Q
q 1 0 0 -1 0 216 cm
95.852 124.648 m 95.852 130.648 l S Q
q 1 0 0 -1 0 216 cm
143.199 132.25 m 149.199 132.25 l S Q
q 1 0 0 -1 0 216 cm
146.199 129.25 m 146.199 135.25 l S Q
q 1 0 0 -1 0 216 cm
52.551 172.648 m 58.551 172.648 l S Q
q 1 0 0 -1 0 216 cm
55.551 169.648 m 55.551 175.648 l S Q
q 1 0 0 -1 0 216 cm
65.148 115.949 m 71.148 115.949 l S Q
q 1 0 0 -1 0 216 cm
68.148 112.949 m 68.148 118.949 l S Q
q 1 0 0 -1 0 216 cm
208.699 97.301 m 214.699 97.301 l S Q
q 1 0 0 -1 0 216 cm
211.699 94.301 m 211.699 100.301 l S Q
q 1 0 0 -1 0 216 cm
163.352 128.801 m 169.352 128.801 l S Q
q 1 0 0 -1 0 216 cm
166.352 125.801 m 166.352 131.801 l S Q
q 1 0 0 -1 0 216 cm
165.852 137.449 m 171.852 137.449 l S Q
q 1 0 0 -1 0 216 cm
168.852 134.449 m 168.852 140.449 l S Q
q 1 0 0 -1 0 216 cm
92.852 136.051 m 98.852 136.051 l S Q
q 1 0 0 -1 0 216 cm
95.852 133.051 m 95.852 139.051 l S Q
q 1 0 0 -1 0 216 cm
175.949 142.199 m 181.949 142.199 l S Q
q 1 0 0 -1 0 216 cm
178.949 139.199 m 178.949 145.199 l S Q
q 1 0 0 -1 0 216 cm
92.852 116 m 98.852 116 l S Q
q 1 0 0 -1 0 216 cm
95.852 113 m 95.852 119 l S Q
q 1 0 0 -1 0 216 cm
251.5 142.301 m 257.5 142.301 l S Q
q 1 0 0 -1 0 216 cm
254.5 139.301 m 254.5 145.301 l S Q
q 1 0 0 -1 0 216 cm
145.699 119.398 m 151.699 119.398 l S Q
q 1 0 0 -1 0 216 cm
148.699 116.398 m 148.699 122.398 l S Q
q 1 0 0 -1 0 216 cm
77.75 111.301 m 83.75 111.301 l S Q
q 1 0 0 -1 0 216 cm
80.75 108.301 m 80.75 114.301 l S Q
q 1 0 0 -1 0 216 cm
65.148 145.602 m 71.148 145.602 l S Q
q 1 0 0 -1 0 216 cm
68.148 142.602 m 68.148 148.602 l S Q
q 1 0 0 -1 0 216 cm
118 128.5 m 124 128.5 l S Q
q 1 0 0 -1 0 216 cm
121 125.5 m 121 131.5 l S Q
q 1 0 0 -1 0 216 cm
82.75 133.852 m 88.75 133.852 l S Q
q 1 0 0 -1 0 216 cm
85.75 130.852 m 85.75 136.852 l S Q
q 1 0 0 -1 0 216 cm
92.852 133.449 m 98.852 133.449 l S Q
q 1 0 0 -1 0 216 cm
95.852 130.449 m 95.852 136.449 l S Q
q 1 0 0 -1 0 216 cm
67.648 120.25 m 73.648 120.25 l S Q
q 1 0 0 -1 0 216 cm
70.648 117.25 m 70.648 123.25 l S Q
q 1 0 0 -1 0 216 cm
120.551 138.051 m 126.551 138.051 l S Q
q 1 0 0 -1 0 216 cm
123.551 135.051 m 123.551 141.051 l S Q
q 1 0 0 -1 0 216 cm
211.199 128.449 m 217.199 128.449 l S Q
q 1 0 0 -1 0 216 cm
214.199 125.449 m 214.199 131.449 l S Q
q 1 0 0 -1 0 216 cm
87.801 120.199 m 93.801 120.199 l S Q
q 1 0 0 -1 0 216 cm
90.801 117.199 m 90.801 123.199 l S Q
q 1 0 0 -1 0 216 cm
115.5 126 m 121.5 126 l S Q
q 1 0 0 -1 0 216 cm
118.5 123 m 118.5 129 l S Q
q 1 0 0 -1 0 216 cm
90.301 130.5 m 96.301 130.5 l S Q
q 1 0 0 -1 0 216 cm
93.301 127.5 m 93.301 133.5 l S Q
q 1 0 0 -1 0 216 cm
100.398 131.352 m 106.398 131.352 l S Q
q 1 0 0 -1 0 216 cm
103.398 128.352 m 103.398 134.352 l S Q
q 1 0 0 -1 0 216 cm
50 128.148 m 56 128.148 l S Q
q 1 0 0 -1 0 216 cm
53 125.148 m 53 131.148 l S Q
q 1 0 0 -1 0 216 cm
50 122.398 m 56 122.398 l S Q
q 1 0 0 -1 0 216 cm
53 119.398 m 53 125.398 l S Q
q 1 0 0 -1 0 216 cm
75.199 135.5 m 81.199 135.5 l S Q
q 1 0 0 -1 0 216 cm
78.199 132.5 m 78.199 138.5 l S Q
q 1 0 0 -1 0 216 cm
246.449 129.148 m 252.449 129.148 l S Q
q 1 0 0 -1 0 216 cm
249.449 126.148 m 249.449 132.148 l S Q
q 1 0 0 -1 0 216 cm
128.102 122.949 m 134.102 122.949 l S Q
q 1 0 0 -1 0 216 cm
131.102 119.949 m 131.102 125.949 l S Q
q 1 0 0 -1 0 216 cm
70.148 138.852 m 76.148 138.852 l S Q
q 1 0 0 -1 0 216 cm
73.148 135.852 m 73.148 141.852 l S Q
q 1 0 0 -1 0 216 cm
128.102 111.199 m 134.102 111.199 l S Q
q 1 0 0 -1 0 216 cm
131.102 108.199 m 131.102 114.199 l S Q
q 1 0 0 -1 0 216 cm
60.102 122.051 m 66.102 122.051 l S Q
q 1 0 0 -1 0 216 cm
63.102 119.051 m 63.102 125.051 l S Q
q 1 0 0 -1 0 216 cm
67.648 124.301 m 73.648 124.301 l S Q
q 1 0 0 -1 0 216 cm
70.648 121.301 m 70.648 127.301 l S Q
q 1 0 0 -1 0 216 cm
77.75 137.102 m 83.75 137.102 l S Q
q 1 0 0 -1 0 216 cm
80.75 134.102 m 80.75 140.102 l S Q
q 1 0 0 -1 0 216 cm
223.801 137.801 m 229.801 137.801 l S Q
q 1 0 0 -1 0 216 cm
226.801 134.801 m 226.801 140.801 l S Q
q 1 0 0 -1 0 216 cm
92.852 130.852 m 98.852 130.852 l S Q
q 1 0 0 -1 0 216 cm
95.852 127.852 m 95.852 133.852 l S Q
q 1 0 0 -1 0 216 cm
143.199 152.648 m 149.199 152.648 l S Q
q 1 0 0 -1 0 216 cm
146.199 149.648 m 146.199 155.648 l S Q
q 1 0 0 -1 0 216 cm
140.699 130.051 m 146.699 130.051 l S Q
q 1 0 0 -1 0 216 cm
143.699 127.051 m 143.699 133.051 l S Q
q 1 0 0 -1 0 216 cm
228.852 157.602 m 234.852 157.602 l S Q
q 1 0 0 -1 0 216 cm
231.852 154.602 m 231.852 160.602 l S Q
q 1 0 0 -1 0 216 cm
231.352 119.301 m 237.352 119.301 l S Q
q 1 0 0 -1 0 216 cm
234.352 116.301 m 234.352 122.301 l S Q
q 1 0 0 -1 0 216 cm
70.148 131.551 m 76.148 131.551 l S Q
q 1 0 0 -1 0 216 cm
73.148 128.551 m 73.148 134.551 l S Q
q 1 0 0 -1 0 216 cm
181 112.648 m 187 112.648 l S Q
q 1 0 0 -1 0 216 cm
184 109.648 m 184 115.648 l S Q
q 1 0 0 -1 0 216 cm
92.852 137.551 m 98.852 137.551 l S Q
q 1 0 0 -1 0 216 cm
95.852 134.551 m 95.852 140.551 l S Q
q 1 0 0 -1 0 216 cm
125.551 140.852 m 131.551 140.852 l S Q
q 1 0 0 -1 0 216 cm
128.551 137.852 m 128.551 143.852 l S Q
q 1 0 0 -1 0 216 cm
77.75 132 m 83.75 132 l S Q
q 1 0 0 -1 0 216 cm
80.75 129 m 80.75 135 l S Q
q 1 0 0 -1 0 216 cm
70.148 116.801 m 76.148 116.801 l S Q
q 1 0 0 -1 0 216 cm
73.148 113.801 m 73.148 119.801 l S Q
q 1 0 0 -1 0 216 cm
113 132.648 m 119 132.648 l S Q
q 1 0 0 -1 0 216 cm
116 129.648 m 116 135.648 l S Q
q 1 0 0 -1 0 216 cm
155.801 120 m 161.801 120 l S Q
q 1 0 0 -1 0 216 cm
158.801 117 m 158.801 123 l S Q
q 1 0 0 -1 0 216 cm
125.551 126.051 m 131.551 126.051 l S Q
q 1 0 0 -1 0 216 cm
128.551 123.051 m 128.551 129.051 l S Q
q 1 0 0 -1 0 216 cm
97.852 139.551 m 103.852 139.551 l S Q
q 1 0 0 -1 0 216 cm
100.852 136.551 m 100.852 142.551 l S Q
q 1 0 0 -1 0 216 cm
284.25 104.852 m 290.25 104.852 l S Q
q 1 0 0 -1 0 216 cm
287.25 101.852 m 287.25 107.852 l S Q
q 1 0 0 -1 0 216 cm
155.801 138.051 m 161.801 138.051 l S Q
q 1 0 0 -1 0 216 cm
158.801 135.051 m 158.801 141.051 l S Q
q 1 0 0 -1 0 216 cm
57.602 140.352 m 63.602 140.352 l S Q
q 1 0 0 -1 0 216 cm
60.602 137.352 m 60.602 143.352 l S Q
q 1 0 0 -1 0 216 cm
102.898 131.949 m 108.898 131.949 l S Q
q 1 0 0 -1 0 216 cm
105.898 128.949 m 105.898 134.949 l S Q
q 1 0 0 -1 0 216 cm
82.75 113.199 m 88.75 113.199 l S Q
q 1 0 0 -1 0 216 cm
85.75 110.199 m 85.75 116.199 l S Q
q 1 0 0 -1 0 216 cm
102.898 137 m 108.898 137 l S Q
q 1 0 0 -1 0 216 cm
105.898 134 m 105.898 140 l S Q
q 1 0 0 -1 0 216 cm
95.352 145.551 m 101.352 145.551 l S Q
q 1 0 0 -1 0 216 cm
98.352 142.551 m 98.352 148.551 l S Q
q 1 0 0 -1 0 216 cm
95.352 132.852 m 101.352 132.852 l S Q
q 1 0 0 -1 0 216 cm
98.352 129.852 m 98.352 135.852 l S Q
q 1 0 0 -1 0 216 cm
107.949 120.5 m 113.949 120.5 l S Q
q 1 0 0 -1 0 216 cm
110.949 117.5 m 110.949 123.5 l S Q
q 1 0 0 -1 0 216 cm
77.75 117.852 m 83.75 117.852 l S Q
q 1 0 0 -1 0 216 cm
80.75 114.852 m 80.75 120.852 l S Q
q 1 0 0 -1 0 216 cm
155.801 146.301 m 161.801 146.301 l S Q
q 1 0 0 -1 0 216 cm
158.801 143.301 m 158.801 149.301 l S Q
q 1 0 0 -1 0 216 cm
259.051 76.801 m 265.051 76.801 l S Q
q 1 0 0 -1 0 216 cm
262.051 73.801 m 262.051 79.801 l S Q
q 1 0 0 -1 0 216 cm
110.449 136.148 m 116.449 136.148 l S Q
q 1 0 0 -1 0 216 cm
113.449 133.148 m 113.449 139.148 l S Q
q 1 0 0 -1 0 216 cm
82.75 132.25 m 88.75 132.25 l S Q
q 1 0 0 -1 0 216 cm
85.75 129.25 m 85.75 135.25 l S Q
q 1 0 0 -1 0 216 cm
178.449 138.051 m 184.449 138.051 l S Q
q 1 0 0 -1 0 216 cm
181.449 135.051 m 181.449 141.051 l S Q
q 1 0 0 -1 0 216 cm
97.852 117.398 m 103.852 117.398 l S Q
q 1 0 0 -1 0 216 cm
100.852 114.398 m 100.852 120.398 l S Q
q 1 0 0 -1 0 216 cm
50 159.352 m 56 159.352 l S Q
q 1 0 0 -1 0 216 cm
53 156.352 m 53 162.352 l S Q
q 1 0 0 -1 0 216 cm
123.051 136.148 m 129.051 136.148 l S Q
q 1 0 0 -1 0 216 cm
126.051 133.148 m 126.051 139.148 l S Q
q 1 0 0 -1 0 216 cm
150.75 135.301 m 156.75 135.301 l S Q
q 1 0 0 -1 0 216 cm
153.75 132.301 m 153.75 138.301 l S Q
q 1 0 0 -1 0 216 cm
52.551 131.551 m 58.551 131.551 l S Q
q 1 0 0 -1 0 216 cm
55.551 128.551 m 55.551 134.551 l S Q
q 1 0 0 -1 0 216 cm
140.699 149.449 m 146.699 149.449 l S Q
q 1 0 0 -1 0 216 cm
143.699 146.449 m 143.699 152.449 l S Q
q 1 0 0 -1 0 216 cm
107.949 136.699 m 113.949 136.699 l S Q
q 1 0 0 -1 0 216 cm
110.949 133.699 m 110.949 139.699 l S Q
q 1 0 0 -1 0 216 cm
50 128.199 m 56 128.199 l S Q
q 1 0 0 -1 0 216 cm
53 125.199 m 53 131.199 l S Q
q 1 0 0 -1 0 216 cm
123.051 140.551 m 129.051 140.551 l S Q
q 1 0 0 -1 0 216 cm
126.051 137.551 m 126.051 143.551 l S Q
q 1 0 0 -1 0 216 cm
231.352 128.898 m 237.352 128.898 l S Q
q 1 0 0 -1 0 216 cm
234.352 125.898 m 234.352 131.898 l S Q
q 1 0 0 -1 0 216 cm
286.75 110.551 m 292.75 110.551 l S Q
q 1 0 0 -1 0 216 cm
289.75 107.551 m 289.75 113.551 l S Q
q 1 0 0 -1 0 216 cm
90.301 119.898 m 96.301 119.898 l S Q
q 1 0 0 -1 0 216 cm
93.301 116.898 m 93.301 122.898 l S Q
q 1 0 0 -1 0 216 cm
82.75 139.5 m 88.75 139.5 l S Q
q 1 0 0 -1 0 216 cm
85.75 136.5 m 85.75 142.5 l S Q
q 1 0 0 -1 0 216 cm
168.398 125.898 m 174.398 125.898 l S Q
q 1 0 0 -1 0 216 cm
171.398 122.898 m 171.398 128.898 l S Q
q 1 0 0 -1 0 216 cm
118 136.699 m 124 136.699 l S Q
q 1 0 0 -1 0 216 cm
121 133.699 m 121 139.699 l S Q
q 1 0 0 -1 0 216 cm
85.301 179.051 m 91.301 179.051 l S Q
q 1 0 0 -1 0 216 cm
88.301 176.051 m 88.301 182.051 l S Q
q 1 0 0 -1 0 216 cm
113 153 m 119 153 l S Q
q 1 0 0 -1 0 216 cm
116 150 m 116 156 l S Q
q 1 0 0 -1 0 216 cm
60.102 131.699 m 66.102 131.699 l S Q
q 1 0 0 -1 0 216 cm
63.102 128.699 m 63.102 134.699 l S Q
q 1 0 0 -1 0 216 cm
115.5 134.051 m 121.5 134.051 l S Q
q 1 0 0 -1 0 216 cm
118.5 131.051 m 118.5 137.051 l S Q
q 1 0 0 -1 0 216 cm
70.148 131.852 m 76.148 131.852 l S Q
q 1 0 0 -1 0 216 cm
73.148 128.852 m 73.148 134.852 l S Q
q 1 0 0 -1 0 216 cm
110.449 149.898 m 116.449 149.898 l S Q
q 1 0 0 -1 0 216 cm
113.449 146.898 m 113.449 152.898 l S Q
q 1 0 0 -1 0 216 cm
145.699 144.75 m 151.699 144.75 l S Q
q 1 0 0 -1 0 216 cm
148.699 141.75 m 148.699 147.75 l S Q
q 1 0 0 -1 0 216 cm
201.102 155.148 m 207.102 155.148 l S Q
q 1 0 0 -1 0 216 cm
204.102 152.148 m 204.102 158.148 l S Q
q 1 0 0 -1 0 216 cm
85.301 149.148 m 91.301 149.148 l S Q
q 1 0 0 -1 0 216 cm
88.301 146.148 m 88.301 152.148 l S Q
q 1 0 0 -1 0 216 cm
170.898 141.148 m 176.898 141.148 l S Q
q 1 0 0 -1 0 216 cm
173.898 138.148 m 173.898 144.148 l S Q
q 1 0 0 -1 0 216 cm
191.051 158.148 m 197.051 158.148 l S Q
q 1 0 0 -1 0 216 cm
194.051 155.148 m 194.051 161.148 l S Q
q 1 0 0 -1 0 216 cm
304.398 150.801 m 310.398 150.801 l S Q
q 1 0 0 -1 0 216 cm
307.398 147.801 m 307.398 153.801 l S Q
q 1 0 0 -1 0 216 cm
75.199 140.551 m 81.199 140.551 l S Q
q 1 0 0 -1 0 216 cm
78.199 137.551 m 78.199 143.551 l S Q
q 1 0 0 -1 0 216 cm
87.801 126.352 m 93.801 126.352 l S Q
q 1 0 0 -1 0 216 cm
90.801 123.352 m 90.801 129.352 l S Q
q 1 0 0 -1 0 216 cm
133.148 132.648 m 139.148 132.648 l S Q
q 1 0 0 -1 0 216 cm
136.148 129.648 m 136.148 135.648 l S Q
q 1 0 0 -1 0 216 cm
246.449 111.449 m 252.449 111.449 l S Q
q 1 0 0 -1 0 216 cm
249.449 108.449 m 249.449 114.449 l S Q
q 1 0 0 -1 0 216 cm
203.648 138.852 m 209.648 138.852 l S Q
q 1 0 0 -1 0 216 cm
206.648 135.852 m 206.648 141.852 l S Q
q 1 0 0 -1 0 216 cm
57.602 130.199 m 63.602 130.199 l S Q
q 1 0 0 -1 0 216 cm
60.602 127.199 m 60.602 133.199 l S Q
q 1 0 0 -1 0 216 cm
138.148 138.801 m 144.148 138.801 l S Q
q 1 0 0 -1 0 216 cm
141.148 135.801 m 141.148 141.801 l S Q
q 1 0 0 -1 0 216 cm
60.102 133.398 m 66.102 133.398 l S Q
q 1 0 0 -1 0 216 cm
63.102 130.398 m 63.102 136.398 l S Q
q 1 0 0 -1 0 216 cm
85.301 138 m 91.301 138 l S Q
q 1 0 0 -1 0 216 cm
88.301 135 m 88.301 141 l S Q
q 1 0 0 -1 0 216 cm
311.949 140.852 m 317.949 140.852 l S Q
q 1 0 0 -1 0 216 cm
314.949 137.852 m 314.949 143.852 l S Q
q 1 0 0 -1 0 216 cm
85.301 132.75 m 91.301 132.75 l S Q
q 1 0 0 -1 0 216 cm
88.301 129.75 m 88.301 135.75 l S Q
q 1 0 0 -1 0 216 cm
153.301 139.25 m 159.301 139.25 l S Q
q 1 0 0 -1 0 216 cm
156.301 136.25 m 156.301 142.25 l S Q
q 1 0 0 -1 0 216 cm
82.75 131.801 m 88.75 131.801 l S Q
q 1 0 0 -1 0 216 cm
85.75 128.801 m 85.75 134.801 l S Q
q 1 0 0 -1 0 216 cm
72.699 128.648 m 78.699 128.648 l S Q
q 1 0 0 -1 0 216 cm
75.699 125.648 m 75.699 131.648 l S Q
q 1 0 0 -1 0 216 cm
274.148 94.449 m 280.148 94.449 l S Q
q 1 0 0 -1 0 216 cm
277.148 91.449 m 277.148 97.449 l S Q
q 1 0 0 -1 0 216 cm
90.301 128.75 m 96.301 128.75 l S Q
q 1 0 0 -1 0 216 cm
93.301 125.75 m 93.301 131.75 l S Q
q 1 0 0 -1 0 216 cm
221.25 94.051 m 227.25 94.051 l S Q
q 1 0 0 -1 0 216 cm
224.25 91.051 m 224.25 97.051 l S Q
q 1 0 0 -1 0 216 cm
181 130.051 m 187 130.051 l S Q
q 1 0 0 -1 0 216 cm
184 127.051 m 184 133.051 l S Q
q 1 0 0 -1 0 216 cm
105.449 143.898 m 111.449 143.898 l S Q
q 1 0 0 -1 0 216 cm
108.449 140.898 m 108.449 146.898 l S Q
q 1 0 0 -1 0 216 cm
186 123.648 m 192 123.648 l S Q
q 1 0 0 -1 0 216 cm
189 120.648 m 189 126.648 l S Q
q 1 0 0 -1 0 216 cm
188.551 151.352 m 194.551 151.352 l S Q
q 1 0 0 -1 0 216 cm
191.551 148.352 m 191.551 154.352 l S Q
q 1 0 0 -1 0 216 cm
70.148 123.801 m 76.148 123.801 l S Q
q 1 0 0 -1 0 216 cm
73.148 120.801 m 73.148 126.801 l S Q
q 1 0 0 -1 0 216 cm
221.25 127.898 m 227.25 127.898 l S Q
q 1 0 0 -1 0 216 cm
224.25 124.898 m 224.25 130.898 l S Q
q 1 0 0 -1 0 216 cm
75.199 144.898 m 81.199 144.898 l S Q
q 1 0 0 -1 0 216 cm
78.199 141.898 m 78.199 147.898 l S Q
q 1 0 0 -1 0 216 cm
138.148 137.25 m 144.148 137.25 l S Q
q 1 0 0 -1 0 216 cm
141.148 134.25 m 141.148 140.25 l S Q
q 1 0 0 -1 0 216 cm
70.148 128.898 m 76.148 128.898 l S Q
q 1 0 0 -1 0 216 cm
73.148 125.898 m 73.148 131.898 l S Q
q 1 0 0 -1 0 216 cm
75.199 136.551 m 81.199 136.551 l S Q
q 1 0 0 -1 0 216 cm
78.199 133.551 m 78.199 139.551 l S Q
q 1 0 0 -1 0 216 cm
160.852 137.551 m 166.852 137.551 l S Q
q 1 0 0 -1 0 216 cm
163.852 134.551 m 163.852 140.551 l S Q
q 1 0 0 -1 0 216 cm
72.699 135.551 m 78.699 135.551 l S Q
q 1 0 0 -1 0 216 cm
75.699 132.551 m 75.699 138.551 l S Q
q 1 0 0 -1 0 216 cm
173.398 125.352 m 179.398 125.352 l S Q
q 1 0 0 -1 0 216 cm
176.398 122.352 m 176.398 128.352 l S Q
q 1 0 0 -1 0 216 cm
150.75 104.602 m 156.75 104.602 l S Q
q 1 0 0 -1 0 216 cm
153.75 101.602 m 153.75 107.602 l S Q
q 1 0 0 -1 0 216 cm
218.75 124.648 m 224.75 124.648 l S Q
q 1 0 0 -1 0 216 cm
221.75 121.648 m 221.75 127.648 l S Q
q 1 0 0 -1 0 216 cm
87.801 120 m 93.801 120 l S Q
q 1 0 0 -1 0 216 cm
90.801 117 m 90.801 123 l S Q
q 1 0 0 -1 0 216 cm
62.602 130.551 m 68.602 130.551 l S Q
q 1 0 0 -1 0 216 cm
65.602 127.551 m 65.602 133.551 l S Q
q 1 0 0 -1 0 216 cm
100.398 136.602 m 106.398 136.602 l S Q
q 1 0 0 -1 0 216 cm
103.398 133.602 m 103.398 139.602 l S Q
q 1 0 0 -1 0 216 cm
100.398 134.398 m 106.398 134.398 l S Q
q 1 0 0 -1 0 216 cm
103.398 131.398 m 103.398 137.398 l S Q
q 1 0 0 -1 0 216 cm
110.449 127.352 m 116.449 127.352 l S Q
q 1 0 0 -1 0 216 cm
113.449 124.352 m 113.449 130.352 l S Q
q 1 0 0 -1 0 216 cm
140.699 134.5 m 146.699 134.5 l S Q
q 1 0 0 -1 0 216 cm
143.699 131.5 m 143.699 137.5 l S Q
q 1 0 0 -1 0 216 cm
80.25 125.051 m 86.25 125.051 l S Q
q 1 0 0 -1 0 216 cm
83.25 122.051 m 83.25 128.051 l S Q
q 1 0 0 -1 0 216 cm
82.75 141.648 m 88.75 141.648 l S Q
q 1 0 0 -1 0 216 cm
85.75 138.648 m 85.75 144.648 l S Q
q 1 0 0 -1 0 216 cm
60.102 118.852 m 66.102 118.852 l S Q
q 1 0 0 -1 0 216 cm
63.102 115.852 m 63.102 121.852 l S Q
q 1 0 0 -1 0 216 cm
150.75 99.648 m 156.75 99.648 l S Q
q 1 0 0 -1 0 216 cm
153.75 96.648 m 153.75 102.648 l S Q
q 1 0 0 -1 0 216 cm
90.301 141.148 m 96.301 141.148 l S Q
q 1 0 0 -1 0 216 cm
93.301 138.148 m 93.301 144.148 l S Q
q 1 0 0 -1 0 216 cm
150.75 147.852 m 156.75 147.852 l S Q
q 1 0 0 -1 0 216 cm
153.75 144.852 m 153.75 150.852 l S Q
q 1 0 0 -1 0 216 cm
82.75 149.148 m 88.75 149.148 l S Q
q 1 0 0 -1 0 216 cm
85.75 146.148 m 85.75 152.148 l S Q
q 1 0 0 -1 0 216 cm
80.25 151.5 m 86.25 151.5 l S Q
q 1 0 0 -1 0 216 cm
83.25 148.5 m 83.25 154.5 l S Q
q 1 0 0 -1 0 216 cm
276.648 129.449 m 282.648 129.449 l S Q
q 1 0 0 -1 0 216 cm
279.648 126.449 m 279.648 132.449 l S Q
q 1 0 0 -1 0 216 cm
100.398 133.801 m 106.398 133.801 l S Q
q 1 0 0 -1 0 216 cm
103.398 130.801 m 103.398 136.801 l S Q
q 1 0 0 -1 0 216 cm
80.25 113.75 m 86.25 113.75 l S Q
q 1 0 0 -1 0 216 cm
83.25 110.75 m 83.25 116.75 l S Q
q 1 0 0 -1 0 216 cm
95.352 122.852 m 101.352 122.852 l S Q
q 1 0 0 -1 0 216 cm
98.352 119.852 m 98.352 125.852 l S Q
q 1 0 0 -1 0 216 cm
62.602 145.148 m 68.602 145.148 l S Q
q 1 0 0 -1 0 216 cm
65.602 142.148 m 65.602 148.148 l S Q
q 1 0 0 -1 0 216 cm
113 143.5 m 119 143.5 l S Q
q 1 0 0 -1 0 216 cm
116 140.5 m 116 146.5 l S Q
q 1 0 0 -1 0 216 cm
130.602 149.199 m 136.602 149.199 l S Q
q 1 0 0 -1 0 216 cm
133.602 146.199 m 133.602 152.199 l S Q
q 1 0 0 -1 0 216 cm
115.5 154.648 m 121.5 154.648 l S Q
q 1 0 0 -1 0 216 cm
118.5 151.648 m 118.5 157.648 l S Q
q 1 0 0 -1 0 216 cm
95.352 131.648 m 101.352 131.648 l S Q
q 1 0 0 -1 0 216 cm
98.352 128.648 m 98.352 134.648 l S Q
q 1 0 0 -1 0 216 cm
55.051 129.449 m 61.051 129.449 l S Q
q 1 0 0 -1 0 216 cm
58.051 126.449 m 58.051 132.449 l S Q
q 1 0 0 -1 0 216 cm
77.75 129.648 m 83.75 129.648 l S Q
q 1 0 0 -1 0 216 cm
80.75 126.648 m 80.75 132.648 l S Q
q 1 0 0 -1 0 216 cm
206.148 139.301 m 212.148 139.301 l S Q
q 1 0 0 -1 0 216 cm
209.148 136.301 m 209.148 142.301 l S Q
q 1 0 0 -1 0 216 cm
92.852 129.801 m 98.852 129.801 l S Q
q 1 0 0 -1 0 216 cm
95.852 126.801 m 95.852 132.801 l S Q
q 1 0 0 -1 0 216 cm
75.199 140.602 m 81.199 140.602 l S Q
q 1 0 0 -1 0 216 cm
78.199 137.602 m 78.199 143.602 l S Q
q 1 0 0 -1 0 216 cm
191.051 143.551 m 197.051 143.551 l S Q
q 1 0 0 -1 0 216 cm
194.051 140.551 m 194.051 146.551 l S Q
q 1 0 0 -1 0 216 cm
221.25 84.051 m 227.25 84.051 l S Q
q 1 0 0 -1 0 216 cm
224.25 81.051 m 224.25 87.051 l S Q
q 1 0 0 -1 0 216 cm
95.352 129.352 m 101.352 129.352 l S Q
q 1 0 0 -1 0 216 cm
98.352 126.352 m 98.352 132.352 l S Q
q 1 0 0 -1 0 216 cm
133.148 141.199 m 139.148 141.199 l S Q
q 1 0 0 -1 0 216 cm
136.148 138.199 m 136.148 144.199 l S Q
q 1 0 0 -1 0 216 cm
57.602 131.699 m 63.602 131.699 l S Q
q 1 0 0 -1 0 216 cm
60.602 128.699 m 60.602 134.699 l S Q
q 1 0 0 -1 0 216 cm
55.051 144.949 m 61.051 144.949 l S Q
q 1 0 0 -1 0 216 cm
58.051 141.949 m 58.051 147.949 l S Q
q 1 0 0 -1 0 216 cm
125.551 143.199 m 131.551 143.199 l S Q
q 1 0 0 -1 0 216 cm
128.551 140.199 m 128.551 146.199 l S Q
q 1 0 0 -1 0 216 cm
191.051 110.648 m 197.051 110.648 l S Q
q 1 0 0 -1 0 216 cm
194.051 107.648 m 194.051 113.648 l S Q
q 1 0 0 -1 0 216 cm
67.648 152.102 m 73.648 152.102 l S Q
q 1 0 0 -1 0 216 cm
70.648 149.102 m 70.648 155.102 l S Q
q 1 0 0 -1 0 216 cm
173.398 134.25 m 179.398 134.25 l S Q
q 1 0 0 -1 0 216 cm
176.398 131.25 m 176.398 137.25 l S Q
q 1 0 0 -1 0 216 cm
120.551 118.301 m 126.551 118.301 l S Q
q 1 0 0 -1 0 216 cm
123.551 115.301 m 123.551 121.301 l S Q
q 1 0 0 -1 0 216 cm
75.199 142.051 m 81.199 142.051 l S Q
q 1 0 0 -1 0 216 cm
78.199 139.051 m 78.199 145.051 l S Q
q 1 0 0 -1 0 216 cm
77.75 136.5 m 83.75 136.5 l S Q
q 1 0 0 -1 0 216 cm
80.75 133.5 m 80.75 139.5 l S Q
q 1 0 0 -1 0 216 cm
72.699 134.801 m 78.699 134.801 l S Q
q 1 0 0 -1 0 216 cm
75.699 131.801 m 75.699 137.801 l S Q
q 1 0 0 -1 0 216 cm
259.051 114.898 m 265.051 114.898 l S Q
q 1 0 0 -1 0 216 cm
262.051 111.898 m 262.051 117.898 l S Q
q 1 0 0 -1 0 216 cm
140.699 148.5 m 146.699 148.5 l S Q
q 1 0 0 -1 0 216 cm
143.699 145.5 m 143.699 151.5 l S Q
q 1 0 0 -1 0 216 cm
95.352 123.449 m 101.352 123.449 l S Q
q 1 0 0 -1 0 216 cm
98.352 120.449 m 98.352 126.449 l S Q
q 1 0 0 -1 0 216 cm
294.301 130.648 m 300.301 130.648 l S Q
q 1 0 0 -1 0 216 cm
297.301 127.648 m 297.301 133.648 l S Q
q 1 0 0 -1 0 216 cm
130.602 134.699 m 136.602 134.699 l S Q
q 1 0 0 -1 0 216 cm
133.602 131.699 m 133.602 137.699 l S Q
q 1 0 0 -1 0 216 cm
110.449 127.648 m 116.449 127.648 l S Q
q 1 0 0 -1 0 216 cm
113.449 124.648 m 113.449 130.648 l S Q
q 1 0 0 -1 0 216 cm
286.75 129.199 m 292.75 129.199 l S Q
q 1 0 0 -1 0 216 cm
289.75 126.199 m 289.75 132.199 l S Q
q 1 0 0 -1 0 216 cm
254 99.648 m 260 99.648 l S Q
q 1 0 0 -1 0 216 cm
257 96.648 m 257 102.648 l S Q
q 1 0 0 -1 0 216 cm
233.852 113.75 m 239.852 113.75 l S Q
q 1 0 0 -1 0 216 cm
236.852 110.75 m 236.852 116.75 l S Q
q 1 0 0 -1 0 216 cm
90.301 124.602 m 96.301 124.602 l S Q
q 1 0 0 -1 0 216 cm
93.301 121.602 m 93.301 127.602 l S Q
q 1 0 0 -1 0 216 cm
105.449 120.801 m 111.449 120.801 l S Q
q 1 0 0 -1 0 216 cm
108.449 117.801 m 108.449 123.801 l S Q
q 1 0 0 -1 0 216 cm
65.148 136.551 m 71.148 136.551 l S Q
q 1 0 0 -1 0 216 cm
68.148 133.551 m 68.148 139.551 l S Q
q 1 0 0 -1 0 216 cm
118 138.551 m 124 138.551 l S Q
q 1 0 0 -1 0 216 cm
121 135.551 m 121 141.551 l S Q
q 1 0 0 -1 0 216 cm
125.551 139.352 m 131.551 139.352 l S Q
q 1 0 0 -1 0 216 cm
128.551 136.352 m 128.551 142.352 l S Q
q 1 0 0 -1 0 216 cm
70.148 142.051 m 76.148 142.051 l S Q
q 1 0 0 -1 0 216 cm
73.148 139.051 m 73.148 145.051 l S Q
q 1 0 0 -1 0 216 cm
90.301 139.398 m 96.301 139.398 l S Q
q 1 0 0 -1 0 216 cm
93.301 136.398 m 93.301 142.398 l S Q
q 1 0 0 -1 0 216 cm
186 130.199 m 192 130.199 l S Q
q 1 0 0 -1 0 216 cm
189 127.199 m 189 133.199 l S Q
q 1 0 0 -1 0 216 cm
82.75 135.352 m 88.75 135.352 l S Q
q 1 0 0 -1 0 216 cm
85.75 132.352 m 85.75 138.352 l S Q
q 1 0 0 -1 0 216 cm
72.699 128.102 m 78.699 128.102 l S Q
q 1 0 0 -1 0 216 cm
75.699 125.102 m 75.699 131.102 l S Q
0 g
q 1 0 0 -1 0 216 cm
42.949 10.75 302.199 176 re S Q
Q Q
showpage
%%Trailer
end restore
%%EOF
