%!PS-Adobe-3.0 EPSF-3.0
%%Creator: cairo 1.13.1 (http://cairographics.org)
%%CreationDate: Wed May 11 16:56:50 2016
%%Pages: 1
%%DocumentData: Clean7Bit
%%LanguageLevel: 2
%%BoundingBox: 0 0 360 216
%%EndComments
%%BeginProlog
save
50 dict begin
/q { gsave } bind def
/Q { grestore } bind def
/cm { 6 array astore concat } bind def
/w { setlinewidth } bind def
/J { setlinecap } bind def
/j { setlinejoin } bind def
/M { setmiterlimit } bind def
/d { setdash } bind def
/m { moveto } bind def
/l { lineto } bind def
/c { curveto } bind def
/h { closepath } bind def
/re { exch dup neg 3 1 roll 5 3 roll moveto 0 rlineto
      0 exch rlineto 0 rlineto closepath } bind def
/S { stroke } bind def
/f { fill } bind def
/f* { eofill } bind def
/n { newpath } bind def
/W { clip } bind def
/W* { eoclip } bind def
/BT { } bind def
/ET { } bind def
/pdfmark where { pop globaldict /?pdfmark /exec load put }
    { globaldict begin /?pdfmark /pop load def /pdfmark
    /cleartomark load def end } ifelse
/BDC { mark 3 1 roll /BDC pdfmark } bind def
/EMC { mark /EMC pdfmark } bind def
/cairo_store_point { /cairo_point_y exch def /cairo_point_x exch def } def
/Tj { show currentpoint cairo_store_point } bind def
/TJ {
  {
    dup
    type /stringtype eq
    { show } { -0.001 mul 0 cairo_font_matrix dtransform rmoveto } ifelse
  } forall
  currentpoint cairo_store_point
} bind def
/cairo_selectfont { cairo_font_matrix aload pop pop pop 0 0 6 array astore
    cairo_font exch selectfont cairo_point_x cairo_point_y moveto } bind def
/Tf { pop /cairo_font exch def /cairo_font_matrix where
      { pop cairo_selectfont } if } bind def
/Td { matrix translate cairo_font_matrix matrix concatmatrix dup
      /cairo_font_matrix exch def dup 4 get exch 5 get cairo_store_point
      /cairo_font where { pop cairo_selectfont } if } bind def
/Tm { 2 copy 8 2 roll 6 array astore /cairo_font_matrix exch def
      cairo_store_point /cairo_font where { pop cairo_selectfont } if } bind def
/g { setgray } bind def
/rg { setrgbcolor } bind def
/d1 { setcachedevice } bind def
%%EndProlog
%%BeginSetup
%%EndSetup
%%Page: 1 1
%%BeginPageSetup
%%PageBoundingBox: 0 0 360 216
%%EndPageSetup
q 47 29 299 177 rectclip q
0 g
0.15 w
2 J
0 j
[ 0.2 2] 0 d
3.8 M q 1 0 0 -1 0 216 cm
48.051 186.75 m 345.148 186.75 l S Q
0.25 w
[] 0.0 d
q 1 0 0 -1 0 216 cm
48.051 186.75 m 51.75 186.75 l S Q
q 1 0 0 -1 0 216 cm
345.148 186.75 m 341.449 186.75 l S Q
0.15 w
[ 0.2 2] 0 d
q 1 0 0 -1 0 216 cm
48.051 164.75 m 345.148 164.75 l S Q
0.25 w
[] 0.0 d
q 1 0 0 -1 0 216 cm
48.051 164.75 m 51.75 164.75 l S Q
q 1 0 0 -1 0 216 cm
345.148 164.75 m 341.449 164.75 l S Q
0.15 w
[ 0.2 2] 0 d
q 1 0 0 -1 0 216 cm
48.051 142.75 m 345.148 142.75 l S Q
0.25 w
[] 0.0 d
q 1 0 0 -1 0 216 cm
48.051 142.75 m 51.75 142.75 l S Q
q 1 0 0 -1 0 216 cm
345.148 142.75 m 341.449 142.75 l S Q
0.15 w
[ 0.2 2] 0 d
q 1 0 0 -1 0 216 cm
48.051 120.75 m 345.148 120.75 l S Q
0.25 w
[] 0.0 d
q 1 0 0 -1 0 216 cm
48.051 120.75 m 51.75 120.75 l S Q
q 1 0 0 -1 0 216 cm
345.148 120.75 m 341.449 120.75 l S Q
0.15 w
[ 0.2 2] 0 d
q 1 0 0 -1 0 216 cm
48.051 98.75 m 345.148 98.75 l S Q
0.25 w
[] 0.0 d
q 1 0 0 -1 0 216 cm
48.051 98.75 m 51.75 98.75 l S Q
q 1 0 0 -1 0 216 cm
345.148 98.75 m 341.449 98.75 l S Q
0.15 w
[ 0.2 2] 0 d
q 1 0 0 -1 0 216 cm
48.051 76.75 m 345.148 76.75 l S Q
0.25 w
[] 0.0 d
q 1 0 0 -1 0 216 cm
48.051 76.75 m 51.75 76.75 l S Q
q 1 0 0 -1 0 216 cm
345.148 76.75 m 341.449 76.75 l S Q
0.15 w
[ 0.2 2] 0 d
q 1 0 0 -1 0 216 cm
48.051 54.75 m 345.148 54.75 l S Q
0.25 w
[] 0.0 d
q 1 0 0 -1 0 216 cm
48.051 54.75 m 51.75 54.75 l S Q
q 1 0 0 -1 0 216 cm
345.148 54.75 m 341.449 54.75 l S Q
0.15 w
[ 0.2 2] 0 d
q 1 0 0 -1 0 216 cm
48.051 32.75 m 345.148 32.75 l S Q
0.25 w
[] 0.0 d
q 1 0 0 -1 0 216 cm
48.051 32.75 m 51.75 32.75 l S Q
q 1 0 0 -1 0 216 cm
345.148 32.75 m 341.449 32.75 l S Q
0.15 w
[ 0.2 2] 0 d
q 1 0 0 -1 0 216 cm
48.051 10.75 m 345.148 10.75 l S Q
0.25 w
[] 0.0 d
q 1 0 0 -1 0 216 cm
48.051 10.75 m 51.75 10.75 l S Q
q 1 0 0 -1 0 216 cm
345.148 10.75 m 341.449 10.75 l S Q
0.15 w
[ 0.2 2] 0 d
q 1 0 0 -1 0 216 cm
48.051 186.75 m 48.051 10.75 l S Q
0.25 w
[] 0.0 d
q 1 0 0 -1 0 216 cm
48.051 186.75 m 48.051 183.051 l S Q
q 1 0 0 -1 0 216 cm
48.051 10.75 m 48.051 14.449 l S Q
0.15 w
[ 0.2 2] 0 d
q 1 0 0 -1 0 216 cm
97.551 186.75 m 97.551 10.75 l S Q
0.25 w
[] 0.0 d
q 1 0 0 -1 0 216 cm
97.551 186.75 m 97.551 183.051 l S Q
q 1 0 0 -1 0 216 cm
97.551 10.75 m 97.551 14.449 l S Q
0.15 w
[ 0.2 2] 0 d
q 1 0 0 -1 0 216 cm
147.102 186.75 m 147.102 10.75 l S Q
0.25 w
[] 0.0 d
q 1 0 0 -1 0 216 cm
147.102 186.75 m 147.102 183.051 l S Q
q 1 0 0 -1 0 216 cm
147.102 10.75 m 147.102 14.449 l S Q
0.15 w
[ 0.2 2] 0 d
q 1 0 0 -1 0 216 cm
196.602 186.75 m 196.602 10.75 l S Q
0.25 w
[] 0.0 d
q 1 0 0 -1 0 216 cm
196.602 186.75 m 196.602 183.051 l S Q
q 1 0 0 -1 0 216 cm
196.602 10.75 m 196.602 14.449 l S Q
0.15 w
[ 0.2 2] 0 d
q 1 0 0 -1 0 216 cm
246.102 186.75 m 246.102 10.75 l S Q
0.25 w
[] 0.0 d
q 1 0 0 -1 0 216 cm
246.102 186.75 m 246.102 183.051 l S Q
q 1 0 0 -1 0 216 cm
246.102 10.75 m 246.102 14.449 l S Q
0.15 w
[ 0.2 2] 0 d
q 1 0 0 -1 0 216 cm
295.648 186.75 m 295.648 10.75 l S Q
0.25 w
[] 0.0 d
q 1 0 0 -1 0 216 cm
295.648 186.75 m 295.648 183.051 l S Q
q 1 0 0 -1 0 216 cm
295.648 10.75 m 295.648 14.449 l S Q
0.15 w
[ 0.2 2] 0 d
q 1 0 0 -1 0 216 cm
345.148 186.75 m 345.148 10.75 l S Q
0.25 w
[] 0.0 d
q 1 0 0 -1 0 216 cm
345.148 186.75 m 345.148 183.051 l S Q
q 1 0 0 -1 0 216 cm
345.148 10.75 m 345.148 14.449 l S Q
q 1 0 0 -1 0 216 cm
48.051 10.75 297.098 176 re S Q
1 0 0 rg
q 1 0 0 -1 0 216 cm
84.648 92.852 m 90.648 92.852 l S Q
q 1 0 0 -1 0 216 cm
87.648 89.852 m 87.648 95.852 l S Q
q 1 0 0 -1 0 216 cm
233.199 84.648 m 239.199 84.648 l S Q
q 1 0 0 -1 0 216 cm
236.199 81.648 m 236.199 87.648 l S Q
q 1 0 0 -1 0 216 cm
178.75 81.75 m 184.75 81.75 l S Q
q 1 0 0 -1 0 216 cm
181.75 78.75 m 181.75 84.75 l S Q
q 1 0 0 -1 0 216 cm
176.25 64.25 m 182.25 64.25 l S Q
q 1 0 0 -1 0 216 cm
179.25 61.25 m 179.25 67.25 l S Q
q 1 0 0 -1 0 216 cm
158.949 68 m 164.949 68 l S Q
q 1 0 0 -1 0 216 cm
161.949 65 m 161.949 71 l S Q
q 1 0 0 -1 0 216 cm
228.25 47.551 m 234.25 47.551 l S Q
q 1 0 0 -1 0 216 cm
231.25 44.551 m 231.25 50.551 l S Q
q 1 0 0 -1 0 216 cm
134.199 116.25 m 140.199 116.25 l S Q
q 1 0 0 -1 0 216 cm
137.199 113.25 m 137.199 119.25 l S Q
q 1 0 0 -1 0 216 cm
106.949 96.102 m 112.949 96.102 l S Q
q 1 0 0 -1 0 216 cm
109.949 93.102 m 109.949 99.102 l S Q
q 1 0 0 -1 0 216 cm
243.102 59.102 m 249.102 59.102 l S Q
q 1 0 0 -1 0 216 cm
246.102 56.102 m 246.102 62.102 l S Q
q 1 0 0 -1 0 216 cm
77.25 87.75 m 83.25 87.75 l S Q
q 1 0 0 -1 0 216 cm
80.25 84.75 m 80.25 90.75 l S Q
q 1 0 0 -1 0 216 cm
154 76.949 m 160 76.949 l S Q
q 1 0 0 -1 0 216 cm
157 73.949 m 157 79.949 l S Q
q 1 0 0 -1 0 216 cm
84.648 57.25 m 90.648 57.25 l S Q
q 1 0 0 -1 0 216 cm
87.648 54.25 m 87.648 60.25 l S Q
q 1 0 0 -1 0 216 cm
59.898 102.352 m 65.898 102.352 l S Q
q 1 0 0 -1 0 216 cm
62.898 99.352 m 62.898 105.352 l S Q
q 1 0 0 -1 0 216 cm
92.102 144.148 m 98.102 144.148 l S Q
q 1 0 0 -1 0 216 cm
95.102 141.148 m 95.102 147.148 l S Q
q 1 0 0 -1 0 216 cm
82.199 71.699 m 88.199 71.699 l S Q
q 1 0 0 -1 0 216 cm
85.199 68.699 m 85.199 74.699 l S Q
q 1 0 0 -1 0 216 cm
94.551 77.75 m 100.551 77.75 l S Q
q 1 0 0 -1 0 216 cm
97.551 74.75 m 97.551 80.75 l S Q
q 1 0 0 -1 0 216 cm
260.449 36.898 m 266.449 36.898 l S Q
q 1 0 0 -1 0 216 cm
263.449 33.898 m 263.449 39.898 l S Q
q 1 0 0 -1 0 216 cm
74.75 112.449 m 80.75 112.449 l S Q
q 1 0 0 -1 0 216 cm
77.75 109.449 m 77.75 115.449 l S Q
q 1 0 0 -1 0 216 cm
275.301 67.5 m 281.301 67.5 l S Q
q 1 0 0 -1 0 216 cm
278.301 64.5 m 278.301 70.5 l S Q
q 1 0 0 -1 0 216 cm
220.852 70.301 m 226.852 70.301 l S Q
q 1 0 0 -1 0 216 cm
223.852 67.301 m 223.852 73.301 l S Q
q 1 0 0 -1 0 216 cm
285.199 59.398 m 291.199 59.398 l S Q
q 1 0 0 -1 0 216 cm
288.199 56.398 m 288.199 62.398 l S Q
q 1 0 0 -1 0 216 cm
106.949 68.25 m 112.949 68.25 l S Q
q 1 0 0 -1 0 216 cm
109.949 65.25 m 109.949 71.25 l S Q
q 1 0 0 -1 0 216 cm
62.398 103.801 m 68.398 103.801 l S Q
q 1 0 0 -1 0 216 cm
65.398 100.801 m 65.398 106.801 l S Q
q 1 0 0 -1 0 216 cm
161.398 100.449 m 167.398 100.449 l S Q
q 1 0 0 -1 0 216 cm
164.398 97.449 m 164.398 103.449 l S Q
q 1 0 0 -1 0 216 cm
168.852 121 m 174.852 121 l S Q
q 1 0 0 -1 0 216 cm
171.852 118 m 171.852 124 l S Q
q 1 0 0 -1 0 216 cm
99.5 75.148 m 105.5 75.148 l S Q
q 1 0 0 -1 0 216 cm
102.5 72.148 m 102.5 78.148 l S Q
q 1 0 0 -1 0 216 cm
158.949 98.102 m 164.949 98.102 l S Q
q 1 0 0 -1 0 216 cm
161.949 95.102 m 161.949 101.102 l S Q
q 1 0 0 -1 0 216 cm
151.5 86.602 m 157.5 86.602 l S Q
q 1 0 0 -1 0 216 cm
154.5 83.602 m 154.5 89.602 l S Q
q 1 0 0 -1 0 216 cm
136.648 42.75 m 142.648 42.75 l S Q
q 1 0 0 -1 0 216 cm
139.648 39.75 m 139.648 45.75 l S Q
q 1 0 0 -1 0 216 cm
156.449 92.449 m 162.449 92.449 l S Q
q 1 0 0 -1 0 216 cm
159.449 89.449 m 159.449 95.449 l S Q
q 1 0 0 -1 0 216 cm
82.199 118.25 m 88.199 118.25 l S Q
q 1 0 0 -1 0 216 cm
85.199 115.25 m 85.199 121.25 l S Q
q 1 0 0 -1 0 216 cm
154 34.852 m 160 34.852 l S Q
q 1 0 0 -1 0 216 cm
157 31.852 m 157 37.852 l S Q
q 1 0 0 -1 0 216 cm
72.301 83.398 m 78.301 83.398 l S Q
q 1 0 0 -1 0 216 cm
75.301 80.398 m 75.301 86.398 l S Q
q 1 0 0 -1 0 216 cm
250.551 92.25 m 256.551 92.25 l S Q
q 1 0 0 -1 0 216 cm
253.551 89.25 m 253.551 95.25 l S Q
q 1 0 0 -1 0 216 cm
126.75 46.75 m 132.75 46.75 l S Q
q 1 0 0 -1 0 216 cm
129.75 43.75 m 129.75 49.75 l S Q
q 1 0 0 -1 0 216 cm
144.102 53.148 m 150.102 53.148 l S Q
q 1 0 0 -1 0 216 cm
147.102 50.148 m 147.102 56.148 l S Q
q 1 0 0 -1 0 216 cm
84.648 51.051 m 90.648 51.051 l S Q
q 1 0 0 -1 0 216 cm
87.648 48.051 m 87.648 54.051 l S Q
q 1 0 0 -1 0 216 cm
97.051 73.102 m 103.051 73.102 l S Q
q 1 0 0 -1 0 216 cm
100.051 70.102 m 100.051 76.102 l S Q
q 1 0 0 -1 0 216 cm
92.102 147.801 m 98.102 147.801 l S Q
q 1 0 0 -1 0 216 cm
95.102 144.801 m 95.102 150.801 l S Q
q 1 0 0 -1 0 216 cm
223.301 80.699 m 229.301 80.699 l S Q
q 1 0 0 -1 0 216 cm
226.301 77.699 m 226.301 83.699 l S Q
q 1 0 0 -1 0 216 cm
262.898 51.648 m 268.898 51.648 l S Q
q 1 0 0 -1 0 216 cm
265.898 48.648 m 265.898 54.648 l S Q
q 1 0 0 -1 0 216 cm
116.852 65.5 m 122.852 65.5 l S Q
q 1 0 0 -1 0 216 cm
119.852 62.5 m 119.852 68.5 l S Q
q 1 0 0 -1 0 216 cm
134.199 45.75 m 140.199 45.75 l S Q
q 1 0 0 -1 0 216 cm
137.199 42.75 m 137.199 48.75 l S Q
q 1 0 0 -1 0 216 cm
92.102 128.699 m 98.102 128.699 l S Q
q 1 0 0 -1 0 216 cm
95.102 125.699 m 95.102 131.699 l S Q
q 1 0 0 -1 0 216 cm
64.852 115.25 m 70.852 115.25 l S Q
q 1 0 0 -1 0 216 cm
67.852 112.25 m 67.852 118.25 l S Q
q 1 0 0 -1 0 216 cm
116.852 70.801 m 122.852 70.801 l S Q
q 1 0 0 -1 0 216 cm
119.852 67.801 m 119.852 73.801 l S Q
q 1 0 0 -1 0 216 cm
62.398 132.75 m 68.398 132.75 l S Q
q 1 0 0 -1 0 216 cm
65.398 129.75 m 65.398 135.75 l S Q
q 1 0 0 -1 0 216 cm
181.199 62.25 m 187.199 62.25 l S Q
q 1 0 0 -1 0 216 cm
184.199 59.25 m 184.199 65.25 l S Q
q 1 0 0 -1 0 216 cm
146.551 77.699 m 152.551 77.699 l S Q
q 1 0 0 -1 0 216 cm
149.551 74.699 m 149.551 80.699 l S Q
q 1 0 0 -1 0 216 cm
129.25 54.648 m 135.25 54.648 l S Q
q 1 0 0 -1 0 216 cm
132.25 51.648 m 132.25 57.648 l S Q
q 1 0 0 -1 0 216 cm
163.898 83.199 m 169.898 83.199 l S Q
q 1 0 0 -1 0 216 cm
166.898 80.199 m 166.898 86.199 l S Q
q 1 0 0 -1 0 216 cm
116.852 139.051 m 122.852 139.051 l S Q
q 1 0 0 -1 0 216 cm
119.852 136.051 m 119.852 142.051 l S Q
q 1 0 0 -1 0 216 cm
119.352 101.5 m 125.352 101.5 l S Q
q 1 0 0 -1 0 216 cm
122.352 98.5 m 122.352 104.5 l S Q
q 1 0 0 -1 0 216 cm
158.949 86.25 m 164.949 86.25 l S Q
q 1 0 0 -1 0 216 cm
161.949 83.25 m 161.949 89.25 l S Q
q 1 0 0 -1 0 216 cm
314.898 72.301 m 320.898 72.301 l S Q
q 1 0 0 -1 0 216 cm
317.898 69.301 m 317.898 75.301 l S Q
q 1 0 0 -1 0 216 cm
111.898 80.352 m 117.898 80.352 l S Q
q 1 0 0 -1 0 216 cm
114.898 77.352 m 114.898 83.352 l S Q
q 1 0 0 -1 0 216 cm
126.75 114.5 m 132.75 114.5 l S Q
q 1 0 0 -1 0 216 cm
129.75 111.5 m 129.75 117.5 l S Q
q 1 0 0 -1 0 216 cm
97.051 95.148 m 103.051 95.148 l S Q
q 1 0 0 -1 0 216 cm
100.051 92.148 m 100.051 98.148 l S Q
q 1 0 0 -1 0 216 cm
218.352 59.398 m 224.352 59.398 l S Q
q 1 0 0 -1 0 216 cm
221.352 56.398 m 221.352 62.398 l S Q
q 1 0 0 -1 0 216 cm
250.551 101.352 m 256.551 101.352 l S Q
q 1 0 0 -1 0 216 cm
253.551 98.352 m 253.551 104.352 l S Q
q 1 0 0 -1 0 216 cm
54.949 143.051 m 60.949 143.051 l S Q
q 1 0 0 -1 0 216 cm
57.949 140.051 m 57.949 146.051 l S Q
q 1 0 0 -1 0 216 cm
235.699 27.551 m 241.699 27.551 l S Q
q 1 0 0 -1 0 216 cm
238.699 24.551 m 238.699 30.551 l S Q
q 1 0 0 -1 0 216 cm
77.25 123.352 m 83.25 123.352 l S Q
q 1 0 0 -1 0 216 cm
80.25 120.352 m 80.25 126.352 l S Q
q 1 0 0 -1 0 216 cm
67.352 25.199 m 73.352 25.199 l S Q
q 1 0 0 -1 0 216 cm
70.352 22.199 m 70.352 28.199 l S Q
q 1 0 0 -1 0 216 cm
121.801 117.898 m 127.801 117.898 l S Q
q 1 0 0 -1 0 216 cm
124.801 114.898 m 124.801 120.898 l S Q
q 1 0 0 -1 0 216 cm
102 37.148 m 108 37.148 l S Q
q 1 0 0 -1 0 216 cm
105 34.148 m 105 40.148 l S Q
q 1 0 0 -1 0 216 cm
255.5 115.602 m 261.5 115.602 l S Q
q 1 0 0 -1 0 216 cm
258.5 112.602 m 258.5 118.602 l S Q
q 1 0 0 -1 0 216 cm
92.102 82.699 m 98.102 82.699 l S Q
q 1 0 0 -1 0 216 cm
95.102 79.699 m 95.102 85.699 l S Q
q 1 0 0 -1 0 216 cm
270.352 75.102 m 276.352 75.102 l S Q
q 1 0 0 -1 0 216 cm
273.352 72.102 m 273.352 78.102 l S Q
q 1 0 0 -1 0 216 cm
272.852 79.75 m 278.852 79.75 l S Q
q 1 0 0 -1 0 216 cm
275.852 76.75 m 275.852 82.75 l S Q
q 1 0 0 -1 0 216 cm
186.148 99.551 m 192.148 99.551 l S Q
q 1 0 0 -1 0 216 cm
189.148 96.551 m 189.148 102.551 l S Q
q 1 0 0 -1 0 216 cm
89.602 49.148 m 95.602 49.148 l S Q
q 1 0 0 -1 0 216 cm
92.602 46.148 m 92.602 52.148 l S Q
q 1 0 0 -1 0 216 cm
114.352 38.352 m 120.352 38.352 l S Q
q 1 0 0 -1 0 216 cm
117.352 35.352 m 117.352 41.352 l S Q
q 1 0 0 -1 0 216 cm
99.5 46.75 m 105.5 46.75 l S Q
q 1 0 0 -1 0 216 cm
102.5 43.75 m 102.5 49.75 l S Q
q 1 0 0 -1 0 216 cm
312.449 46.449 m 318.449 46.449 l S Q
q 1 0 0 -1 0 216 cm
315.449 43.449 m 315.449 49.449 l S Q
q 1 0 0 -1 0 216 cm
109.398 56.148 m 115.398 56.148 l S Q
q 1 0 0 -1 0 216 cm
112.398 53.148 m 112.398 59.148 l S Q
q 1 0 0 -1 0 216 cm
191.102 89.898 m 197.102 89.898 l S Q
q 1 0 0 -1 0 216 cm
194.102 86.898 m 194.102 92.898 l S Q
q 1 0 0 -1 0 216 cm
275.301 55.449 m 281.301 55.449 l S Q
q 1 0 0 -1 0 216 cm
278.301 52.449 m 278.301 58.449 l S Q
q 1 0 0 -1 0 216 cm
161.398 71.398 m 167.398 71.398 l S Q
q 1 0 0 -1 0 216 cm
164.398 68.398 m 164.398 74.398 l S Q
q 1 0 0 -1 0 216 cm
99.5 52.648 m 105.5 52.648 l S Q
q 1 0 0 -1 0 216 cm
102.5 49.648 m 102.5 55.648 l S Q
q 1 0 0 -1 0 216 cm
139.148 135.801 m 145.148 135.801 l S Q
q 1 0 0 -1 0 216 cm
142.148 132.801 m 142.148 138.801 l S Q
q 1 0 0 -1 0 216 cm
62.398 107.602 m 68.398 107.602 l S Q
q 1 0 0 -1 0 216 cm
65.398 104.602 m 65.398 110.602 l S Q
q 1 0 0 -1 0 216 cm
87.148 81.102 m 93.148 81.102 l S Q
q 1 0 0 -1 0 216 cm
90.148 78.102 m 90.148 84.102 l S Q
q 1 0 0 -1 0 216 cm
64.852 124.75 m 70.852 124.75 l S Q
q 1 0 0 -1 0 216 cm
67.852 121.75 m 67.852 127.75 l S Q
q 1 0 0 -1 0 216 cm
248.051 81.648 m 254.051 81.648 l S Q
q 1 0 0 -1 0 216 cm
251.051 78.648 m 251.051 84.648 l S Q
q 1 0 0 -1 0 216 cm
72.301 127.648 m 78.301 127.648 l S Q
q 1 0 0 -1 0 216 cm
75.301 124.648 m 75.301 130.648 l S Q
q 1 0 0 -1 0 216 cm
166.352 66.801 m 172.352 66.801 l S Q
q 1 0 0 -1 0 216 cm
169.352 63.801 m 169.352 69.801 l S Q
q 1 0 0 -1 0 216 cm
248.051 30.898 m 254.051 30.898 l S Q
q 1 0 0 -1 0 216 cm
251.051 27.898 m 251.051 33.898 l S Q
q 1 0 0 -1 0 216 cm
74.75 139.801 m 80.75 139.801 l S Q
q 1 0 0 -1 0 216 cm
77.75 136.801 m 77.75 142.801 l S Q
q 1 0 0 -1 0 216 cm
87.148 113.102 m 93.148 113.102 l S Q
q 1 0 0 -1 0 216 cm
90.148 110.102 m 90.148 116.102 l S Q
q 1 0 0 -1 0 216 cm
114.352 76.551 m 120.352 76.551 l S Q
q 1 0 0 -1 0 216 cm
117.352 73.551 m 117.352 79.551 l S Q
q 1 0 0 -1 0 216 cm
178.75 45.551 m 184.75 45.551 l S Q
q 1 0 0 -1 0 216 cm
181.75 42.551 m 181.75 48.551 l S Q
q 1 0 0 -1 0 216 cm
89.602 115.148 m 95.602 115.148 l S Q
q 1 0 0 -1 0 216 cm
92.602 112.148 m 92.602 118.148 l S Q
q 1 0 0 -1 0 216 cm
109.398 122 m 115.398 122 l S Q
q 1 0 0 -1 0 216 cm
112.398 119 m 112.398 125 l S Q
q 1 0 0 -1 0 216 cm
191.102 94.398 m 197.102 94.398 l S Q
q 1 0 0 -1 0 216 cm
194.102 91.398 m 194.102 97.398 l S Q
q 1 0 0 -1 0 216 cm
280.25 71.75 m 286.25 71.75 l S Q
q 1 0 0 -1 0 216 cm
283.25 68.75 m 283.25 74.75 l S Q
q 1 0 0 -1 0 216 cm
104.449 77.852 m 110.449 77.852 l S Q
q 1 0 0 -1 0 216 cm
107.449 74.852 m 107.449 80.852 l S Q
q 1 0 0 -1 0 216 cm
225.801 61.898 m 231.801 61.898 l S Q
q 1 0 0 -1 0 216 cm
228.801 58.898 m 228.801 64.898 l S Q
q 1 0 0 -1 0 216 cm
97.051 101.301 m 103.051 101.301 l S Q
q 1 0 0 -1 0 216 cm
100.051 98.301 m 100.051 104.301 l S Q
q 1 0 0 -1 0 216 cm
72.301 117.398 m 78.301 117.398 l S Q
q 1 0 0 -1 0 216 cm
75.301 114.398 m 75.301 120.398 l S Q
q 1 0 0 -1 0 216 cm
131.699 95.051 m 137.699 95.051 l S Q
q 1 0 0 -1 0 216 cm
134.699 92.051 m 134.699 98.051 l S Q
q 1 0 0 -1 0 216 cm
84.648 79.949 m 90.648 79.949 l S Q
q 1 0 0 -1 0 216 cm
87.648 76.949 m 87.648 82.949 l S Q
q 1 0 0 -1 0 216 cm
119.352 75.051 m 125.352 75.051 l S Q
q 1 0 0 -1 0 216 cm
122.352 72.051 m 122.352 78.051 l S Q
q 1 0 0 -1 0 216 cm
176.25 44.148 m 182.25 44.148 l S Q
q 1 0 0 -1 0 216 cm
179.25 41.148 m 179.25 47.148 l S Q
q 1 0 0 -1 0 216 cm
134.199 92.5 m 140.199 92.5 l S Q
q 1 0 0 -1 0 216 cm
137.199 89.5 m 137.199 95.5 l S Q
q 1 0 0 -1 0 216 cm
114.352 63.801 m 120.352 63.801 l S Q
q 1 0 0 -1 0 216 cm
117.352 60.801 m 117.352 66.801 l S Q
q 1 0 0 -1 0 216 cm
97.051 87.852 m 103.051 87.852 l S Q
q 1 0 0 -1 0 216 cm
100.051 84.852 m 100.051 90.852 l S Q
q 1 0 0 -1 0 216 cm
146.551 52.398 m 152.551 52.398 l S Q
q 1 0 0 -1 0 216 cm
149.551 49.398 m 149.551 55.398 l S Q
q 1 0 0 -1 0 216 cm
57.449 84.5 m 63.449 84.5 l S Q
q 1 0 0 -1 0 216 cm
60.449 81.5 m 60.449 87.5 l S Q
q 1 0 0 -1 0 216 cm
69.801 40.898 m 75.801 40.898 l S Q
q 1 0 0 -1 0 216 cm
72.801 37.898 m 72.801 43.898 l S Q
q 1 0 0 -1 0 216 cm
210.949 101.199 m 216.949 101.199 l S Q
q 1 0 0 -1 0 216 cm
213.949 98.199 m 213.949 104.199 l S Q
q 1 0 0 -1 0 216 cm
166.352 102.75 m 172.352 102.75 l S Q
q 1 0 0 -1 0 216 cm
169.352 99.75 m 169.352 105.75 l S Q
q 1 0 0 -1 0 216 cm
168.852 92.801 m 174.852 92.801 l S Q
q 1 0 0 -1 0 216 cm
171.852 89.801 m 171.852 95.801 l S Q
q 1 0 0 -1 0 216 cm
97.051 149.199 m 103.051 149.199 l S Q
q 1 0 0 -1 0 216 cm
100.051 146.199 m 100.051 152.199 l S Q
q 1 0 0 -1 0 216 cm
178.75 73.301 m 184.75 73.301 l S Q
q 1 0 0 -1 0 216 cm
181.75 70.301 m 181.75 76.301 l S Q
q 1 0 0 -1 0 216 cm
97.051 116.449 m 103.051 116.449 l S Q
q 1 0 0 -1 0 216 cm
100.051 113.449 m 100.051 119.449 l S Q
q 1 0 0 -1 0 216 cm
253 74.602 m 259 74.602 l S Q
q 1 0 0 -1 0 216 cm
256 71.602 m 256 77.602 l S Q
q 1 0 0 -1 0 216 cm
149.051 58.801 m 155.051 58.801 l S Q
q 1 0 0 -1 0 216 cm
152.051 55.801 m 152.051 61.801 l S Q
q 1 0 0 -1 0 216 cm
82.199 68.25 m 88.199 68.25 l S Q
q 1 0 0 -1 0 216 cm
85.199 65.25 m 85.199 71.25 l S Q
q 1 0 0 -1 0 216 cm
69.801 93.301 m 75.801 93.301 l S Q
q 1 0 0 -1 0 216 cm
72.801 90.301 m 72.801 96.301 l S Q
q 1 0 0 -1 0 216 cm
121.801 95.551 m 127.801 95.551 l S Q
q 1 0 0 -1 0 216 cm
124.801 92.551 m 124.801 98.551 l S Q
q 1 0 0 -1 0 216 cm
87.148 43.398 m 93.148 43.398 l S Q
q 1 0 0 -1 0 216 cm
90.148 40.398 m 90.148 46.398 l S Q
q 1 0 0 -1 0 216 cm
97.051 98.551 m 103.051 98.551 l S Q
q 1 0 0 -1 0 216 cm
100.051 95.551 m 100.051 101.551 l S Q
q 1 0 0 -1 0 216 cm
72.301 72.852 m 78.301 72.852 l S Q
q 1 0 0 -1 0 216 cm
75.301 69.852 m 75.301 75.852 l S Q
q 1 0 0 -1 0 216 cm
124.301 23.898 m 130.301 23.898 l S Q
q 1 0 0 -1 0 216 cm
127.301 20.898 m 127.301 26.898 l S Q
q 1 0 0 -1 0 216 cm
213.398 94 m 219.398 94 l S Q
q 1 0 0 -1 0 216 cm
216.398 91 m 216.398 97 l S Q
q 1 0 0 -1 0 216 cm
92.102 64.898 m 98.102 64.898 l S Q
q 1 0 0 -1 0 216 cm
95.102 61.898 m 95.102 67.898 l S Q
q 1 0 0 -1 0 216 cm
119.352 29.602 m 125.352 29.602 l S Q
q 1 0 0 -1 0 216 cm
122.352 26.602 m 122.352 32.602 l S Q
q 1 0 0 -1 0 216 cm
94.551 114.801 m 100.551 114.801 l S Q
q 1 0 0 -1 0 216 cm
97.551 111.801 m 97.551 117.801 l S Q
q 1 0 0 -1 0 216 cm
104.449 100.5 m 110.449 100.5 l S Q
q 1 0 0 -1 0 216 cm
107.449 97.5 m 107.449 103.5 l S Q
q 1 0 0 -1 0 216 cm
54.949 124.699 m 60.949 124.699 l S Q
q 1 0 0 -1 0 216 cm
57.949 121.699 m 57.949 127.699 l S Q
q 1 0 0 -1 0 216 cm
54.949 67.148 m 60.949 67.148 l S Q
q 1 0 0 -1 0 216 cm
57.949 64.148 m 57.949 70.148 l S Q
q 1 0 0 -1 0 216 cm
79.699 57.148 m 85.699 57.148 l S Q
q 1 0 0 -1 0 216 cm
82.699 54.148 m 82.699 60.148 l S Q
q 1 0 0 -1 0 216 cm
248.051 64.449 m 254.051 64.449 l S Q
q 1 0 0 -1 0 216 cm
251.051 61.449 m 251.051 67.449 l S Q
q 1 0 0 -1 0 216 cm
131.699 97.602 m 137.699 97.602 l S Q
q 1 0 0 -1 0 216 cm
134.699 94.602 m 134.699 100.602 l S Q
q 1 0 0 -1 0 216 cm
74.75 60.051 m 80.75 60.051 l S Q
q 1 0 0 -1 0 216 cm
77.75 57.051 m 77.75 63.051 l S Q
q 1 0 0 -1 0 216 cm
131.699 100.5 m 137.699 100.5 l S Q
q 1 0 0 -1 0 216 cm
134.699 97.5 m 134.699 103.5 l S Q
q 1 0 0 -1 0 216 cm
64.852 118.051 m 70.852 118.051 l S Q
q 1 0 0 -1 0 216 cm
67.852 115.051 m 67.852 121.051 l S Q
q 1 0 0 -1 0 216 cm
72.301 59.199 m 78.301 59.199 l S Q
q 1 0 0 -1 0 216 cm
75.301 56.199 m 75.301 62.199 l S Q
q 1 0 0 -1 0 216 cm
82.199 129.648 m 88.199 129.648 l S Q
q 1 0 0 -1 0 216 cm
85.199 126.648 m 85.199 132.648 l S Q
q 1 0 0 -1 0 216 cm
225.801 41.5 m 231.801 41.5 l S Q
q 1 0 0 -1 0 216 cm
228.801 38.5 m 228.801 44.5 l S Q
q 1 0 0 -1 0 216 cm
97.051 72.051 m 103.051 72.051 l S Q
q 1 0 0 -1 0 216 cm
100.051 69.051 m 100.051 75.051 l S Q
q 1 0 0 -1 0 216 cm
146.551 85.398 m 152.551 85.398 l S Q
q 1 0 0 -1 0 216 cm
149.551 82.398 m 149.551 88.398 l S Q
q 1 0 0 -1 0 216 cm
144.102 89.352 m 150.102 89.352 l S Q
q 1 0 0 -1 0 216 cm
147.102 86.352 m 147.102 92.352 l S Q
q 1 0 0 -1 0 216 cm
230.75 57.75 m 236.75 57.75 l S Q
q 1 0 0 -1 0 216 cm
233.75 54.75 m 233.75 60.75 l S Q
q 1 0 0 -1 0 216 cm
233.199 80.352 m 239.199 80.352 l S Q
q 1 0 0 -1 0 216 cm
236.199 77.352 m 236.199 83.352 l S Q
q 1 0 0 -1 0 216 cm
74.75 129.75 m 80.75 129.75 l S Q
q 1 0 0 -1 0 216 cm
77.75 126.75 m 77.75 132.75 l S Q
q 1 0 0 -1 0 216 cm
183.699 87.801 m 189.699 87.801 l S Q
q 1 0 0 -1 0 216 cm
186.699 84.801 m 186.699 90.801 l S Q
q 1 0 0 -1 0 216 cm
97.051 74.051 m 103.051 74.051 l S Q
q 1 0 0 -1 0 216 cm
100.051 71.051 m 100.051 77.051 l S Q
q 1 0 0 -1 0 216 cm
129.25 70.648 m 135.25 70.648 l S Q
q 1 0 0 -1 0 216 cm
132.25 67.648 m 132.25 73.648 l S Q
q 1 0 0 -1 0 216 cm
82.199 134.648 m 88.199 134.648 l S Q
q 1 0 0 -1 0 216 cm
85.199 131.648 m 85.199 137.648 l S Q
q 1 0 0 -1 0 216 cm
74.75 85.75 m 80.75 85.75 l S Q
q 1 0 0 -1 0 216 cm
77.75 82.75 m 77.75 88.75 l S Q
q 1 0 0 -1 0 216 cm
116.852 36.102 m 122.852 36.102 l S Q
q 1 0 0 -1 0 216 cm
119.852 33.102 m 119.852 39.102 l S Q
q 1 0 0 -1 0 216 cm
158.949 77.199 m 164.949 77.199 l S Q
q 1 0 0 -1 0 216 cm
161.949 74.199 m 161.949 80.199 l S Q
q 1 0 0 -1 0 216 cm
129.25 38.602 m 135.25 38.602 l S Q
q 1 0 0 -1 0 216 cm
132.25 35.602 m 132.25 41.602 l S Q
q 1 0 0 -1 0 216 cm
102 60.852 m 108 60.852 l S Q
q 1 0 0 -1 0 216 cm
105 57.852 m 105 63.852 l S Q
q 1 0 0 -1 0 216 cm
285.199 62.148 m 291.199 62.148 l S Q
q 1 0 0 -1 0 216 cm
288.199 59.148 m 288.199 65.148 l S Q
q 1 0 0 -1 0 216 cm
158.949 81.852 m 164.949 81.852 l S Q
q 1 0 0 -1 0 216 cm
161.949 78.852 m 161.949 84.852 l S Q
q 1 0 0 -1 0 216 cm
62.398 142.648 m 68.398 142.648 l S Q
q 1 0 0 -1 0 216 cm
65.398 139.648 m 65.398 145.648 l S Q
q 1 0 0 -1 0 216 cm
106.949 87.699 m 112.949 87.699 l S Q
q 1 0 0 -1 0 216 cm
109.949 84.699 m 109.949 90.699 l S Q
q 1 0 0 -1 0 216 cm
87.148 139.5 m 93.148 139.5 l S Q
q 1 0 0 -1 0 216 cm
90.148 136.5 m 90.148 142.5 l S Q
q 1 0 0 -1 0 216 cm
106.949 69.148 m 112.949 69.148 l S Q
q 1 0 0 -1 0 216 cm
109.949 66.148 m 109.949 72.148 l S Q
q 1 0 0 -1 0 216 cm
99.5 71.551 m 105.5 71.551 l S Q
q 1 0 0 -1 0 216 cm
102.5 68.551 m 102.5 74.551 l S Q
q 1 0 0 -1 0 216 cm
99.5 111.051 m 105.5 111.051 l S Q
q 1 0 0 -1 0 216 cm
102.5 108.051 m 102.5 114.051 l S Q
q 1 0 0 -1 0 216 cm
111.898 67.602 m 117.898 67.602 l S Q
q 1 0 0 -1 0 216 cm
114.898 64.602 m 114.898 70.602 l S Q
q 1 0 0 -1 0 216 cm
82.199 109.398 m 88.199 109.398 l S Q
q 1 0 0 -1 0 216 cm
85.199 106.398 m 85.199 112.398 l S Q
q 1 0 0 -1 0 216 cm
158.949 40 m 164.949 40 l S Q
q 1 0 0 -1 0 216 cm
161.949 37 m 161.949 43 l S Q
q 1 0 0 -1 0 216 cm
260.449 42.699 m 266.449 42.699 l S Q
q 1 0 0 -1 0 216 cm
263.449 39.699 m 263.449 45.699 l S Q
q 1 0 0 -1 0 216 cm
114.352 43.051 m 120.352 43.051 l S Q
q 1 0 0 -1 0 216 cm
117.352 40.051 m 117.352 46.051 l S Q
q 1 0 0 -1 0 216 cm
87.148 88.5 m 93.148 88.5 l S Q
q 1 0 0 -1 0 216 cm
90.148 85.5 m 90.148 91.5 l S Q
q 1 0 0 -1 0 216 cm
181.199 57.102 m 187.199 57.102 l S Q
q 1 0 0 -1 0 216 cm
184.199 54.102 m 184.199 60.102 l S Q
q 1 0 0 -1 0 216 cm
102 129.199 m 108 129.199 l S Q
q 1 0 0 -1 0 216 cm
105 126.199 m 105 132.199 l S Q
q 1 0 0 -1 0 216 cm
54.949 109.648 m 60.949 109.648 l S Q
q 1 0 0 -1 0 216 cm
57.949 106.648 m 57.949 112.648 l S Q
q 1 0 0 -1 0 216 cm
126.75 102.301 m 132.75 102.301 l S Q
q 1 0 0 -1 0 216 cm
129.75 99.301 m 129.75 105.301 l S Q
q 1 0 0 -1 0 216 cm
154 69 m 160 69 l S Q
q 1 0 0 -1 0 216 cm
157 66 m 157 72 l S Q
q 1 0 0 -1 0 216 cm
57.449 73.148 m 63.449 73.148 l S Q
q 1 0 0 -1 0 216 cm
60.449 70.148 m 60.449 76.148 l S Q
q 1 0 0 -1 0 216 cm
144.102 70.051 m 150.102 70.051 l S Q
q 1 0 0 -1 0 216 cm
147.102 67.051 m 147.102 73.051 l S Q
q 1 0 0 -1 0 216 cm
111.898 86.199 m 117.898 86.199 l S Q
q 1 0 0 -1 0 216 cm
114.898 83.199 m 114.898 89.199 l S Q
q 1 0 0 -1 0 216 cm
54.949 161 m 60.949 161 l S Q
q 1 0 0 -1 0 216 cm
57.949 158 m 57.949 164 l S Q
q 1 0 0 -1 0 216 cm
126.75 61.25 m 132.75 61.25 l S Q
q 1 0 0 -1 0 216 cm
129.75 58.25 m 129.75 64.25 l S Q
q 1 0 0 -1 0 216 cm
233.199 64.551 m 239.199 64.551 l S Q
q 1 0 0 -1 0 216 cm
236.199 61.551 m 236.199 67.551 l S Q
q 1 0 0 -1 0 216 cm
287.699 94.898 m 293.699 94.898 l S Q
q 1 0 0 -1 0 216 cm
290.699 91.898 m 290.699 97.898 l S Q
q 1 0 0 -1 0 216 cm
94.551 78.25 m 100.551 78.25 l S Q
q 1 0 0 -1 0 216 cm
97.551 75.25 m 97.551 81.25 l S Q
q 1 0 0 -1 0 216 cm
87.148 89.352 m 93.148 89.352 l S Q
q 1 0 0 -1 0 216 cm
90.148 86.352 m 90.148 92.352 l S Q
q 1 0 0 -1 0 216 cm
171.301 47.398 m 177.301 47.398 l S Q
q 1 0 0 -1 0 216 cm
174.301 44.398 m 174.301 50.398 l S Q
q 1 0 0 -1 0 216 cm
121.801 96.301 m 127.801 96.301 l S Q
q 1 0 0 -1 0 216 cm
124.801 93.301 m 124.801 99.301 l S Q
q 1 0 0 -1 0 216 cm
89.602 114.852 m 95.602 114.852 l S Q
q 1 0 0 -1 0 216 cm
92.602 111.852 m 92.602 117.852 l S Q
q 1 0 0 -1 0 216 cm
116.852 132.699 m 122.852 132.699 l S Q
q 1 0 0 -1 0 216 cm
119.852 129.699 m 119.852 135.699 l S Q
q 1 0 0 -1 0 216 cm
64.852 102.75 m 70.852 102.75 l S Q
q 1 0 0 -1 0 216 cm
67.852 99.75 m 67.852 105.75 l S Q
q 1 0 0 -1 0 216 cm
119.352 58.602 m 125.352 58.602 l S Q
q 1 0 0 -1 0 216 cm
122.352 55.602 m 122.352 61.602 l S Q
q 1 0 0 -1 0 216 cm
74.75 116.301 m 80.75 116.301 l S Q
q 1 0 0 -1 0 216 cm
77.75 113.301 m 77.75 119.301 l S Q
q 1 0 0 -1 0 216 cm
114.352 68.398 m 120.352 68.398 l S Q
q 1 0 0 -1 0 216 cm
117.352 65.398 m 117.352 71.398 l S Q
q 1 0 0 -1 0 216 cm
149.051 106.25 m 155.051 106.25 l S Q
q 1 0 0 -1 0 216 cm
152.051 103.25 m 152.051 109.25 l S Q
q 1 0 0 -1 0 216 cm
203.5 66.602 m 209.5 66.602 l S Q
q 1 0 0 -1 0 216 cm
206.5 63.602 m 206.5 69.602 l S Q
q 1 0 0 -1 0 216 cm
89.602 93.398 m 95.602 93.398 l S Q
q 1 0 0 -1 0 216 cm
92.602 90.398 m 92.602 96.398 l S Q
q 1 0 0 -1 0 216 cm
173.801 62.602 m 179.801 62.602 l S Q
q 1 0 0 -1 0 216 cm
176.801 59.602 m 176.801 65.602 l S Q
q 1 0 0 -1 0 216 cm
193.602 47 m 199.602 47 l S Q
q 1 0 0 -1 0 216 cm
196.602 44 m 196.602 50 l S Q
q 1 0 0 -1 0 216 cm
305 50.102 m 311 50.102 l S Q
q 1 0 0 -1 0 216 cm
308 47.102 m 308 53.102 l S Q
q 1 0 0 -1 0 216 cm
79.699 98.551 m 85.699 98.551 l S Q
q 1 0 0 -1 0 216 cm
82.699 95.551 m 82.699 101.551 l S Q
q 1 0 0 -1 0 216 cm
92.102 129.949 m 98.102 129.949 l S Q
q 1 0 0 -1 0 216 cm
95.102 126.949 m 95.102 132.949 l S Q
q 1 0 0 -1 0 216 cm
136.648 74.051 m 142.648 74.051 l S Q
q 1 0 0 -1 0 216 cm
139.648 71.051 m 139.648 77.051 l S Q
q 1 0 0 -1 0 216 cm
248.051 44.551 m 254.051 44.551 l S Q
q 1 0 0 -1 0 216 cm
251.051 41.551 m 251.051 47.551 l S Q
q 1 0 0 -1 0 216 cm
206 66 m 212 66 l S Q
q 1 0 0 -1 0 216 cm
209 63 m 209 69 l S Q
q 1 0 0 -1 0 216 cm
62.398 109.301 m 68.398 109.301 l S Q
q 1 0 0 -1 0 216 cm
65.398 106.301 m 65.398 112.301 l S Q
q 1 0 0 -1 0 216 cm
141.602 106.449 m 147.602 106.449 l S Q
q 1 0 0 -1 0 216 cm
144.602 103.449 m 144.602 109.449 l S Q
q 1 0 0 -1 0 216 cm
64.852 118.801 m 70.852 118.801 l S Q
q 1 0 0 -1 0 216 cm
67.852 115.801 m 67.852 121.801 l S Q
q 1 0 0 -1 0 216 cm
89.602 104.949 m 95.602 104.949 l S Q
q 1 0 0 -1 0 216 cm
92.602 101.949 m 92.602 107.949 l S Q
q 1 0 0 -1 0 216 cm
312.449 49.648 m 318.449 49.648 l S Q
q 1 0 0 -1 0 216 cm
315.449 46.648 m 315.449 52.648 l S Q
q 1 0 0 -1 0 216 cm
89.602 147.699 m 95.602 147.699 l S Q
q 1 0 0 -1 0 216 cm
92.602 144.699 m 92.602 150.699 l S Q
q 1 0 0 -1 0 216 cm
156.449 60.852 m 162.449 60.852 l S Q
q 1 0 0 -1 0 216 cm
159.449 57.852 m 159.449 63.852 l S Q
q 1 0 0 -1 0 216 cm
87.148 90.949 m 93.148 90.949 l S Q
q 1 0 0 -1 0 216 cm
90.148 87.949 m 90.148 93.949 l S Q
q 1 0 0 -1 0 216 cm
77.25 108.898 m 83.25 108.898 l S Q
q 1 0 0 -1 0 216 cm
80.25 105.898 m 80.25 111.898 l S Q
q 1 0 0 -1 0 216 cm
275.301 74.648 m 281.301 74.648 l S Q
q 1 0 0 -1 0 216 cm
278.301 71.648 m 278.301 77.648 l S Q
q 1 0 0 -1 0 216 cm
94.551 105.699 m 100.551 105.699 l S Q
q 1 0 0 -1 0 216 cm
97.551 102.699 m 97.551 108.699 l S Q
q 1 0 0 -1 0 216 cm
223.301 43.301 m 229.301 43.301 l S Q
q 1 0 0 -1 0 216 cm
226.301 40.301 m 226.301 46.301 l S Q
q 1 0 0 -1 0 216 cm
183.699 89.199 m 189.699 89.199 l S Q
q 1 0 0 -1 0 216 cm
186.699 86.199 m 186.699 92.199 l S Q
q 1 0 0 -1 0 216 cm
109.398 78.602 m 115.398 78.602 l S Q
q 1 0 0 -1 0 216 cm
112.398 75.602 m 112.398 81.602 l S Q
q 1 0 0 -1 0 216 cm
188.648 32.449 m 194.648 32.449 l S Q
q 1 0 0 -1 0 216 cm
191.648 29.449 m 191.648 35.449 l S Q
q 1 0 0 -1 0 216 cm
191.102 60 m 197.102 60 l S Q
q 1 0 0 -1 0 216 cm
194.102 57 m 194.102 63 l S Q
q 1 0 0 -1 0 216 cm
74.75 85.551 m 80.75 85.551 l S Q
q 1 0 0 -1 0 216 cm
77.75 82.551 m 77.75 88.551 l S Q
q 1 0 0 -1 0 216 cm
223.301 88.051 m 229.301 88.051 l S Q
q 1 0 0 -1 0 216 cm
226.301 85.051 m 226.301 91.051 l S Q
q 1 0 0 -1 0 216 cm
79.699 124.699 m 85.699 124.699 l S Q
q 1 0 0 -1 0 216 cm
82.699 121.699 m 82.699 127.699 l S Q
q 1 0 0 -1 0 216 cm
141.602 60.5 m 147.602 60.5 l S Q
q 1 0 0 -1 0 216 cm
144.602 57.5 m 144.602 63.5 l S Q
q 1 0 0 -1 0 216 cm
74.75 95.551 m 80.75 95.551 l S Q
q 1 0 0 -1 0 216 cm
77.75 92.551 m 77.75 98.551 l S Q
q 1 0 0 -1 0 216 cm
79.699 51.449 m 85.699 51.449 l S Q
q 1 0 0 -1 0 216 cm
82.699 48.449 m 82.699 54.449 l S Q
q 1 0 0 -1 0 216 cm
163.898 71.352 m 169.898 71.352 l S Q
q 1 0 0 -1 0 216 cm
166.898 68.352 m 166.898 74.352 l S Q
q 1 0 0 -1 0 216 cm
77.25 46.949 m 83.25 46.949 l S Q
q 1 0 0 -1 0 216 cm
80.25 43.949 m 80.25 49.949 l S Q
q 1 0 0 -1 0 216 cm
176.25 46.949 m 182.25 46.949 l S Q
q 1 0 0 -1 0 216 cm
179.25 43.949 m 179.25 49.949 l S Q
q 1 0 0 -1 0 216 cm
154 84.199 m 160 84.199 l S Q
q 1 0 0 -1 0 216 cm
157 81.199 m 157 87.199 l S Q
q 1 0 0 -1 0 216 cm
220.852 66.852 m 226.852 66.852 l S Q
q 1 0 0 -1 0 216 cm
223.852 63.852 m 223.852 69.852 l S Q
q 1 0 0 -1 0 216 cm
92.102 102.75 m 98.102 102.75 l S Q
q 1 0 0 -1 0 216 cm
95.102 99.75 m 95.102 105.75 l S Q
q 1 0 0 -1 0 216 cm
67.352 94.25 m 73.352 94.25 l S Q
q 1 0 0 -1 0 216 cm
70.352 91.25 m 70.352 97.25 l S Q
q 1 0 0 -1 0 216 cm
104.449 65 m 110.449 65 l S Q
q 1 0 0 -1 0 216 cm
107.449 62 m 107.449 68 l S Q
q 1 0 0 -1 0 216 cm
104.449 101.898 m 110.449 101.898 l S Q
q 1 0 0 -1 0 216 cm
107.449 98.898 m 107.449 104.898 l S Q
q 1 0 0 -1 0 216 cm
114.352 69.301 m 120.352 69.301 l S Q
q 1 0 0 -1 0 216 cm
117.352 66.301 m 117.352 72.301 l S Q
q 1 0 0 -1 0 216 cm
144.102 77.051 m 150.102 77.051 l S Q
q 1 0 0 -1 0 216 cm
147.102 74.051 m 147.102 80.051 l S Q
q 1 0 0 -1 0 216 cm
84.648 126.051 m 90.648 126.051 l S Q
q 1 0 0 -1 0 216 cm
87.648 123.051 m 87.648 129.051 l S Q
q 1 0 0 -1 0 216 cm
87.148 61.602 m 93.148 61.602 l S Q
q 1 0 0 -1 0 216 cm
90.148 58.602 m 90.148 64.602 l S Q
q 1 0 0 -1 0 216 cm
64.852 155.699 m 70.852 155.699 l S Q
q 1 0 0 -1 0 216 cm
67.852 152.699 m 67.852 158.699 l S Q
q 1 0 0 -1 0 216 cm
154 107.801 m 160 107.801 l S Q
q 1 0 0 -1 0 216 cm
157 104.801 m 157 110.801 l S Q
q 1 0 0 -1 0 216 cm
94.551 118.648 m 100.551 118.648 l S Q
q 1 0 0 -1 0 216 cm
97.551 115.648 m 97.551 121.648 l S Q
q 1 0 0 -1 0 216 cm
154 62.602 m 160 62.602 l S Q
q 1 0 0 -1 0 216 cm
157 59.602 m 157 65.602 l S Q
q 1 0 0 -1 0 216 cm
87.148 113.898 m 93.148 113.898 l S Q
q 1 0 0 -1 0 216 cm
90.148 110.898 m 90.148 116.898 l S Q
q 1 0 0 -1 0 216 cm
84.648 87.148 m 90.648 87.148 l S Q
q 1 0 0 -1 0 216 cm
87.648 84.148 m 87.648 90.148 l S Q
q 1 0 0 -1 0 216 cm
277.801 51.602 m 283.801 51.602 l S Q
q 1 0 0 -1 0 216 cm
280.801 48.602 m 280.801 54.602 l S Q
q 1 0 0 -1 0 216 cm
104.449 130.75 m 110.449 130.75 l S Q
q 1 0 0 -1 0 216 cm
107.449 127.75 m 107.449 133.75 l S Q
q 1 0 0 -1 0 216 cm
84.648 98.352 m 90.648 98.352 l S Q
q 1 0 0 -1 0 216 cm
87.648 95.352 m 87.648 101.352 l S Q
q 1 0 0 -1 0 216 cm
99.5 51.148 m 105.5 51.148 l S Q
q 1 0 0 -1 0 216 cm
102.5 48.148 m 102.5 54.148 l S Q
q 1 0 0 -1 0 216 cm
67.352 92.051 m 73.352 92.051 l S Q
q 1 0 0 -1 0 216 cm
70.352 89.051 m 70.352 95.051 l S Q
q 1 0 0 -1 0 216 cm
116.852 47.398 m 122.852 47.398 l S Q
q 1 0 0 -1 0 216 cm
119.852 44.398 m 119.852 50.398 l S Q
q 1 0 0 -1 0 216 cm
134.199 57.949 m 140.199 57.949 l S Q
q 1 0 0 -1 0 216 cm
137.199 54.949 m 137.199 60.949 l S Q
q 1 0 0 -1 0 216 cm
119.352 69.449 m 125.352 69.449 l S Q
q 1 0 0 -1 0 216 cm
122.352 66.449 m 122.352 72.449 l S Q
q 1 0 0 -1 0 216 cm
99.5 130.148 m 105.5 130.148 l S Q
q 1 0 0 -1 0 216 cm
102.5 127.148 m 102.5 133.148 l S Q
q 1 0 0 -1 0 216 cm
59.898 138.352 m 65.898 138.352 l S Q
q 1 0 0 -1 0 216 cm
62.898 135.352 m 62.898 141.352 l S Q
q 1 0 0 -1 0 216 cm
82.199 115.801 m 88.199 115.801 l S Q
q 1 0 0 -1 0 216 cm
85.199 112.801 m 85.199 118.801 l S Q
q 1 0 0 -1 0 216 cm
208.449 19.25 m 214.449 19.25 l S Q
q 1 0 0 -1 0 216 cm
211.449 16.25 m 211.449 22.25 l S Q
q 1 0 0 -1 0 216 cm
97.051 138.352 m 103.051 138.352 l S Q
q 1 0 0 -1 0 216 cm
100.051 135.352 m 100.051 141.352 l S Q
q 1 0 0 -1 0 216 cm
79.699 100.449 m 85.699 100.449 l S Q
q 1 0 0 -1 0 216 cm
82.699 97.449 m 82.699 103.449 l S Q
q 1 0 0 -1 0 216 cm
193.602 66.699 m 199.602 66.699 l S Q
q 1 0 0 -1 0 216 cm
196.602 63.699 m 196.602 69.699 l S Q
q 1 0 0 -1 0 216 cm
223.301 75.898 m 229.301 75.898 l S Q
q 1 0 0 -1 0 216 cm
226.301 72.898 m 226.301 78.898 l S Q
q 1 0 0 -1 0 216 cm
99.5 93.898 m 105.5 93.898 l S Q
q 1 0 0 -1 0 216 cm
102.5 90.898 m 102.5 96.898 l S Q
q 1 0 0 -1 0 216 cm
136.648 85 m 142.648 85 l S Q
q 1 0 0 -1 0 216 cm
139.648 82 m 139.648 88 l S Q
q 1 0 0 -1 0 216 cm
62.398 159.148 m 68.398 159.148 l S Q
q 1 0 0 -1 0 216 cm
65.398 156.148 m 65.398 162.148 l S Q
q 1 0 0 -1 0 216 cm
59.898 119.852 m 65.898 119.852 l S Q
q 1 0 0 -1 0 216 cm
62.898 116.852 m 62.898 122.852 l S Q
q 1 0 0 -1 0 216 cm
129.25 87.602 m 135.25 87.602 l S Q
q 1 0 0 -1 0 216 cm
132.25 84.602 m 132.25 90.602 l S Q
q 1 0 0 -1 0 216 cm
193.602 106.352 m 199.602 106.352 l S Q
q 1 0 0 -1 0 216 cm
196.602 103.352 m 196.602 109.352 l S Q
q 1 0 0 -1 0 216 cm
72.301 147.75 m 78.301 147.75 l S Q
q 1 0 0 -1 0 216 cm
75.301 144.75 m 75.301 150.75 l S Q
q 1 0 0 -1 0 216 cm
176.25 49.449 m 182.25 49.449 l S Q
q 1 0 0 -1 0 216 cm
179.25 46.449 m 179.25 52.449 l S Q
q 1 0 0 -1 0 216 cm
124.301 73 m 130.301 73 l S Q
q 1 0 0 -1 0 216 cm
127.301 70 m 127.301 76 l S Q
q 1 0 0 -1 0 216 cm
79.699 87.102 m 85.699 87.102 l S Q
q 1 0 0 -1 0 216 cm
82.699 84.102 m 82.699 90.102 l S Q
q 1 0 0 -1 0 216 cm
82.199 87.648 m 88.199 87.648 l S Q
q 1 0 0 -1 0 216 cm
85.199 84.648 m 85.199 90.648 l S Q
q 1 0 0 -1 0 216 cm
77.25 80.102 m 83.25 80.102 l S Q
q 1 0 0 -1 0 216 cm
80.25 77.102 m 80.25 83.102 l S Q
q 1 0 0 -1 0 216 cm
260.449 133.648 m 266.449 133.648 l S Q
q 1 0 0 -1 0 216 cm
263.449 130.648 m 263.449 136.648 l S Q
q 1 0 0 -1 0 216 cm
144.102 92 m 150.102 92 l S Q
q 1 0 0 -1 0 216 cm
147.102 89 m 147.102 95 l S Q
q 1 0 0 -1 0 216 cm
99.5 53.648 m 105.5 53.648 l S Q
q 1 0 0 -1 0 216 cm
102.5 50.648 m 102.5 56.648 l S Q
q 1 0 0 -1 0 216 cm
295.102 32.398 m 301.102 32.398 l S Q
q 1 0 0 -1 0 216 cm
298.102 29.398 m 298.102 35.398 l S Q
q 1 0 0 -1 0 216 cm
134.199 92.602 m 140.199 92.602 l S Q
q 1 0 0 -1 0 216 cm
137.199 89.602 m 137.199 95.602 l S Q
q 1 0 0 -1 0 216 cm
114.352 112.352 m 120.352 112.352 l S Q
q 1 0 0 -1 0 216 cm
117.352 109.352 m 117.352 115.352 l S Q
q 1 0 0 -1 0 216 cm
287.699 50.449 m 293.699 50.449 l S Q
q 1 0 0 -1 0 216 cm
290.699 47.449 m 290.699 53.449 l S Q
q 1 0 0 -1 0 216 cm
255.5 84.352 m 261.5 84.352 l S Q
q 1 0 0 -1 0 216 cm
258.5 81.352 m 258.5 87.352 l S Q
q 1 0 0 -1 0 216 cm
235.699 70.352 m 241.699 70.352 l S Q
q 1 0 0 -1 0 216 cm
238.699 67.352 m 238.699 73.352 l S Q
q 1 0 0 -1 0 216 cm
94.551 88.352 m 100.551 88.352 l S Q
q 1 0 0 -1 0 216 cm
97.551 85.352 m 97.551 91.352 l S Q
q 1 0 0 -1 0 216 cm
109.398 111.648 m 115.398 111.648 l S Q
q 1 0 0 -1 0 216 cm
112.398 108.648 m 112.398 114.648 l S Q
q 1 0 0 -1 0 216 cm
69.801 46.5 m 75.801 46.5 l S Q
q 1 0 0 -1 0 216 cm
72.801 43.5 m 72.801 49.5 l S Q
q 1 0 0 -1 0 216 cm
121.801 57.852 m 127.801 57.852 l S Q
q 1 0 0 -1 0 216 cm
124.801 54.852 m 124.801 60.852 l S Q
q 1 0 0 -1 0 216 cm
129.25 67.051 m 135.25 67.051 l S Q
q 1 0 0 -1 0 216 cm
132.25 64.051 m 132.25 70.051 l S Q
q 1 0 0 -1 0 216 cm
74.75 61.699 m 80.75 61.699 l S Q
q 1 0 0 -1 0 216 cm
77.75 58.699 m 77.75 64.699 l S Q
q 1 0 0 -1 0 216 cm
94.551 98.301 m 100.551 98.301 l S Q
q 1 0 0 -1 0 216 cm
97.551 95.301 m 97.551 101.301 l S Q
q 1 0 0 -1 0 216 cm
188.648 84.5 m 194.648 84.5 l S Q
q 1 0 0 -1 0 216 cm
191.648 81.5 m 191.648 87.5 l S Q
q 1 0 0 -1 0 216 cm
87.148 122.699 m 93.148 122.699 l S Q
q 1 0 0 -1 0 216 cm
90.148 119.699 m 90.148 125.699 l S Q
q 1 0 0 -1 0 216 cm
77.25 168.051 m 83.25 168.051 l S Q
q 1 0 0 -1 0 216 cm
80.25 165.051 m 80.25 171.051 l S Q
0 g
q 1 0 0 -1 0 216 cm
48.051 10.75 297.098 176 re S Q
Q Q
showpage
%%Trailer
end restore
%%EOF
