%!PS-Adobe-3.0 EPSF-3.0
%%Creator: cairo 1.13.1 (http://cairographics.org)
%%CreationDate: Fri May 20 09:12:05 2016
%%Pages: 1
%%DocumentData: Clean7Bit
%%LanguageLevel: 2
%%BoundingBox: 0 0 360 216
%%EndComments
%%BeginProlog
save
50 dict begin
/q { gsave } bind def
/Q { grestore } bind def
/cm { 6 array astore concat } bind def
/w { setlinewidth } bind def
/J { setlinecap } bind def
/j { setlinejoin } bind def
/M { setmiterlimit } bind def
/d { setdash } bind def
/m { moveto } bind def
/l { lineto } bind def
/c { curveto } bind def
/h { closepath } bind def
/re { exch dup neg 3 1 roll 5 3 roll moveto 0 rlineto
      0 exch rlineto 0 rlineto closepath } bind def
/S { stroke } bind def
/f { fill } bind def
/f* { eofill } bind def
/n { newpath } bind def
/W { clip } bind def
/W* { eoclip } bind def
/BT { } bind def
/ET { } bind def
/pdfmark where { pop globaldict /?pdfmark /exec load put }
    { globaldict begin /?pdfmark /pop load def /pdfmark
    /cleartomark load def end } ifelse
/BDC { mark 3 1 roll /BDC pdfmark } bind def
/EMC { mark /EMC pdfmark } bind def
/cairo_store_point { /cairo_point_y exch def /cairo_point_x exch def } def
/Tj { show currentpoint cairo_store_point } bind def
/TJ {
  {
    dup
    type /stringtype eq
    { show } { -0.001 mul 0 cairo_font_matrix dtransform rmoveto } ifelse
  } forall
  currentpoint cairo_store_point
} bind def
/cairo_selectfont { cairo_font_matrix aload pop pop pop 0 0 6 array astore
    cairo_font exch selectfont cairo_point_x cairo_point_y moveto } bind def
/Tf { pop /cairo_font exch def /cairo_font_matrix where
      { pop cairo_selectfont } if } bind def
/Td { matrix translate cairo_font_matrix matrix concatmatrix dup
      /cairo_font_matrix exch def dup 4 get exch 5 get cairo_store_point
      /cairo_font where { pop cairo_selectfont } if } bind def
/Tm { 2 copy 8 2 roll 6 array astore /cairo_font_matrix exch def
      cairo_store_point /cairo_font where { pop cairo_selectfont } if } bind def
/g { setgray } bind def
/rg { setrgbcolor } bind def
/d1 { setcachedevice } bind def
%%EndProlog
%%BeginSetup
%%EndSetup
%%Page: 1 1
%%BeginPageSetup
%%PageBoundingBox: 0 0 360 216
%%EndPageSetup
q 37 29 309 177 rectclip q
0 g
0.15 w
2 J
0 j
[ 0.2 2] 0 d
3.8 M q 1 0 0 -1 0 216 cm
37.852 186.75 m 345.148 186.75 l S Q
0.25 w
[] 0.0 d
q 1 0 0 -1 0 216 cm
37.852 186.75 m 41.551 186.75 l S Q
q 1 0 0 -1 0 216 cm
345.148 186.75 m 341.449 186.75 l S Q
0.15 w
[ 0.2 2] 0 d
q 1 0 0 -1 0 216 cm
37.852 151.551 m 345.148 151.551 l S Q
0.25 w
[] 0.0 d
q 1 0 0 -1 0 216 cm
37.852 151.551 m 41.551 151.551 l S Q
q 1 0 0 -1 0 216 cm
345.148 151.551 m 341.449 151.551 l S Q
0.15 w
[ 0.2 2] 0 d
q 1 0 0 -1 0 216 cm
37.852 116.352 m 345.148 116.352 l S Q
0.25 w
[] 0.0 d
q 1 0 0 -1 0 216 cm
37.852 116.352 m 41.551 116.352 l S Q
q 1 0 0 -1 0 216 cm
345.148 116.352 m 341.449 116.352 l S Q
0.15 w
[ 0.2 2] 0 d
q 1 0 0 -1 0 216 cm
37.852 81.148 m 345.148 81.148 l S Q
0.25 w
[] 0.0 d
q 1 0 0 -1 0 216 cm
37.852 81.148 m 41.551 81.148 l S Q
q 1 0 0 -1 0 216 cm
345.148 81.148 m 341.449 81.148 l S Q
0.15 w
[ 0.2 2] 0 d
q 1 0 0 -1 0 216 cm
37.852 45.949 m 345.148 45.949 l S Q
0.25 w
[] 0.0 d
q 1 0 0 -1 0 216 cm
37.852 45.949 m 41.551 45.949 l S Q
q 1 0 0 -1 0 216 cm
345.148 45.949 m 341.449 45.949 l S Q
0.15 w
[ 0.2 2] 0 d
q 1 0 0 -1 0 216 cm
37.852 10.75 m 345.148 10.75 l S Q
0.25 w
[] 0.0 d
q 1 0 0 -1 0 216 cm
37.852 10.75 m 41.551 10.75 l S Q
q 1 0 0 -1 0 216 cm
345.148 10.75 m 341.449 10.75 l S Q
0.15 w
[ 0.2 2] 0 d
q 1 0 0 -1 0 216 cm
37.852 186.75 m 37.852 10.75 l S Q
0.25 w
[] 0.0 d
q 1 0 0 -1 0 216 cm
37.852 186.75 m 37.852 183.051 l S Q
q 1 0 0 -1 0 216 cm
37.852 10.75 m 37.852 14.449 l S Q
0.15 w
[ 0.2 2] 0 d
q 1 0 0 -1 0 216 cm
72 186.75 m 72 10.75 l S Q
0.25 w
[] 0.0 d
q 1 0 0 -1 0 216 cm
72 186.75 m 72 183.051 l S Q
q 1 0 0 -1 0 216 cm
72 10.75 m 72 14.449 l S Q
0.15 w
[ 0.2 2] 0 d
q 1 0 0 -1 0 216 cm
106.148 186.75 m 106.148 10.75 l S Q
0.25 w
[] 0.0 d
q 1 0 0 -1 0 216 cm
106.148 186.75 m 106.148 183.051 l S Q
q 1 0 0 -1 0 216 cm
106.148 10.75 m 106.148 14.449 l S Q
0.15 w
[ 0.2 2] 0 d
q 1 0 0 -1 0 216 cm
140.301 186.75 m 140.301 10.75 l S Q
0.25 w
[] 0.0 d
q 1 0 0 -1 0 216 cm
140.301 186.75 m 140.301 183.051 l S Q
q 1 0 0 -1 0 216 cm
140.301 10.75 m 140.301 14.449 l S Q
0.15 w
[ 0.2 2] 0 d
q 1 0 0 -1 0 216 cm
174.449 186.75 m 174.449 10.75 l S Q
0.25 w
[] 0.0 d
q 1 0 0 -1 0 216 cm
174.449 186.75 m 174.449 183.051 l S Q
q 1 0 0 -1 0 216 cm
174.449 10.75 m 174.449 14.449 l S Q
0.15 w
[ 0.2 2] 0 d
q 1 0 0 -1 0 216 cm
208.551 186.75 m 208.551 10.75 l S Q
0.25 w
[] 0.0 d
q 1 0 0 -1 0 216 cm
208.551 186.75 m 208.551 183.051 l S Q
q 1 0 0 -1 0 216 cm
208.551 10.75 m 208.551 14.449 l S Q
0.15 w
[ 0.2 2] 0 d
q 1 0 0 -1 0 216 cm
242.699 186.75 m 242.699 10.75 l S Q
0.25 w
[] 0.0 d
q 1 0 0 -1 0 216 cm
242.699 186.75 m 242.699 183.051 l S Q
q 1 0 0 -1 0 216 cm
242.699 10.75 m 242.699 14.449 l S Q
0.15 w
[ 0.2 2] 0 d
q 1 0 0 -1 0 216 cm
276.852 186.75 m 276.852 10.75 l S Q
0.25 w
[] 0.0 d
q 1 0 0 -1 0 216 cm
276.852 186.75 m 276.852 183.051 l S Q
q 1 0 0 -1 0 216 cm
276.852 10.75 m 276.852 14.449 l S Q
0.15 w
[ 0.2 2] 0 d
q 1 0 0 -1 0 216 cm
311 186.75 m 311 10.75 l S Q
0.25 w
[] 0.0 d
q 1 0 0 -1 0 216 cm
311 186.75 m 311 183.051 l S Q
q 1 0 0 -1 0 216 cm
311 10.75 m 311 14.449 l S Q
0.15 w
[ 0.2 2] 0 d
q 1 0 0 -1 0 216 cm
345.148 186.75 m 345.148 10.75 l S Q
0.25 w
[] 0.0 d
q 1 0 0 -1 0 216 cm
345.148 186.75 m 345.148 183.051 l S Q
q 1 0 0 -1 0 216 cm
345.148 10.75 m 345.148 14.449 l S Q
q 1 0 0 -1 0 216 cm
37.852 10.75 307.297 176 re S Q
0.172549 0.462745 0.733333 rg
q 1 0 0 -1 0 216 cm
54.898 115.398 m 89.051 97.648 l 123.199 89.801 l 157.352 76.852 l 191.5
 79.852 l 225.648 65.949 l 259.801 50.898 l 293.949 50.699 l 328.102 64.699
 l S Q
q 1 0 0 -1 0 216 cm
54.898 127.602 m 54.898 103.148 l S Q
q 1 0 0 -1 0 216 cm
53.051 127.602 m 56.75 127.602 l S Q
q 1 0 0 -1 0 216 cm
53.051 103.148 m 56.75 103.148 l S Q
q 1 0 0 -1 0 216 cm
89.051 107.551 m 89.051 87.801 l S Q
q 1 0 0 -1 0 216 cm
87.199 107.551 m 90.898 107.551 l S Q
q 1 0 0 -1 0 216 cm
87.199 87.801 m 90.898 87.801 l S Q
q 1 0 0 -1 0 216 cm
123.199 98.699 m 123.199 80.949 l S Q
q 1 0 0 -1 0 216 cm
121.352 98.699 m 125.051 98.699 l S Q
q 1 0 0 -1 0 216 cm
121.352 80.949 m 125.051 80.949 l S Q
q 1 0 0 -1 0 216 cm
157.352 86 m 157.352 67.699 l S Q
q 1 0 0 -1 0 216 cm
155.5 86 m 159.199 86 l S Q
q 1 0 0 -1 0 216 cm
155.5 67.699 m 159.199 67.699 l S Q
q 1 0 0 -1 0 216 cm
191.5 89.949 m 191.5 69.75 l S Q
q 1 0 0 -1 0 216 cm
189.648 89.949 m 193.352 89.949 l S Q
q 1 0 0 -1 0 216 cm
189.648 69.75 m 193.352 69.75 l S Q
q 1 0 0 -1 0 216 cm
225.648 80.199 m 225.648 51.699 l S Q
q 1 0 0 -1 0 216 cm
223.801 80.199 m 227.5 80.199 l S Q
q 1 0 0 -1 0 216 cm
223.801 51.699 m 227.5 51.699 l S Q
q 1 0 0 -1 0 216 cm
259.801 64.301 m 259.801 37.449 l S Q
q 1 0 0 -1 0 216 cm
257.949 64.301 m 261.648 64.301 l S Q
q 1 0 0 -1 0 216 cm
257.949 37.449 m 261.648 37.449 l S Q
q 1 0 0 -1 0 216 cm
293.949 65.051 m 293.949 36.352 l S Q
q 1 0 0 -1 0 216 cm
292.102 65.051 m 295.801 65.051 l S Q
q 1 0 0 -1 0 216 cm
292.102 36.352 m 295.801 36.352 l S Q
q 1 0 0 -1 0 216 cm
328.102 84.699 m 328.102 44.699 l S Q
q 1 0 0 -1 0 216 cm
326.25 84.699 m 329.949 84.699 l S Q
q 1 0 0 -1 0 216 cm
326.25 44.699 m 329.949 44.699 l S Q
q 1 0 0 -1 0 216 cm
51.898 115.398 m 57.898 115.398 l S Q
q 1 0 0 -1 0 216 cm
54.898 112.398 m 54.898 118.398 l S Q
q 1 0 0 -1 0 216 cm
86.051 97.648 m 92.051 97.648 l S Q
q 1 0 0 -1 0 216 cm
89.051 94.648 m 89.051 100.648 l S Q
q 1 0 0 -1 0 216 cm
120.199 89.801 m 126.199 89.801 l S Q
q 1 0 0 -1 0 216 cm
123.199 86.801 m 123.199 92.801 l S Q
q 1 0 0 -1 0 216 cm
154.352 76.852 m 160.352 76.852 l S Q
q 1 0 0 -1 0 216 cm
157.352 73.852 m 157.352 79.852 l S Q
q 1 0 0 -1 0 216 cm
188.5 79.852 m 194.5 79.852 l S Q
q 1 0 0 -1 0 216 cm
191.5 76.852 m 191.5 82.852 l S Q
q 1 0 0 -1 0 216 cm
222.648 65.949 m 228.648 65.949 l S Q
q 1 0 0 -1 0 216 cm
225.648 62.949 m 225.648 68.949 l S Q
q 1 0 0 -1 0 216 cm
256.801 50.898 m 262.801 50.898 l S Q
q 1 0 0 -1 0 216 cm
259.801 47.898 m 259.801 53.898 l S Q
q 1 0 0 -1 0 216 cm
290.949 50.699 m 296.949 50.699 l S Q
q 1 0 0 -1 0 216 cm
293.949 47.699 m 293.949 53.699 l S Q
q 1 0 0 -1 0 216 cm
325.102 64.699 m 331.102 64.699 l S Q
q 1 0 0 -1 0 216 cm
328.102 61.699 m 328.102 67.699 l S Q
0 g
q 1 0 0 -1 0 216 cm
37.852 10.75 307.297 176 re S Q
Q Q
showpage
%%Trailer
end restore
%%EOF
