%!PS-Adobe-3.0 EPSF-3.0
%%Creator: cairo 1.13.1 (http://cairographics.org)
%%CreationDate: Fri May 20 09:12:23 2016
%%Pages: 1
%%DocumentData: Clean7Bit
%%LanguageLevel: 2
%%BoundingBox: 0 0 360 216
%%EndComments
%%BeginProlog
save
50 dict begin
/q { gsave } bind def
/Q { grestore } bind def
/cm { 6 array astore concat } bind def
/w { setlinewidth } bind def
/J { setlinecap } bind def
/j { setlinejoin } bind def
/M { setmiterlimit } bind def
/d { setdash } bind def
/m { moveto } bind def
/l { lineto } bind def
/c { curveto } bind def
/h { closepath } bind def
/re { exch dup neg 3 1 roll 5 3 roll moveto 0 rlineto
      0 exch rlineto 0 rlineto closepath } bind def
/S { stroke } bind def
/f { fill } bind def
/f* { eofill } bind def
/n { newpath } bind def
/W { clip } bind def
/W* { eoclip } bind def
/BT { } bind def
/ET { } bind def
/pdfmark where { pop globaldict /?pdfmark /exec load put }
    { globaldict begin /?pdfmark /pop load def /pdfmark
    /cleartomark load def end } ifelse
/BDC { mark 3 1 roll /BDC pdfmark } bind def
/EMC { mark /EMC pdfmark } bind def
/cairo_store_point { /cairo_point_y exch def /cairo_point_x exch def } def
/Tj { show currentpoint cairo_store_point } bind def
/TJ {
  {
    dup
    type /stringtype eq
    { show } { -0.001 mul 0 cairo_font_matrix dtransform rmoveto } ifelse
  } forall
  currentpoint cairo_store_point
} bind def
/cairo_selectfont { cairo_font_matrix aload pop pop pop 0 0 6 array astore
    cairo_font exch selectfont cairo_point_x cairo_point_y moveto } bind def
/Tf { pop /cairo_font exch def /cairo_font_matrix where
      { pop cairo_selectfont } if } bind def
/Td { matrix translate cairo_font_matrix matrix concatmatrix dup
      /cairo_font_matrix exch def dup 4 get exch 5 get cairo_store_point
      /cairo_font where { pop cairo_selectfont } if } bind def
/Tm { 2 copy 8 2 roll 6 array astore /cairo_font_matrix exch def
      cairo_store_point /cairo_font where { pop cairo_selectfont } if } bind def
/g { setgray } bind def
/rg { setrgbcolor } bind def
/d1 { setcachedevice } bind def
%%EndProlog
%%BeginSetup
%%EndSetup
%%Page: 1 1
%%BeginPageSetup
%%PageBoundingBox: 0 0 360 216
%%EndPageSetup
q 37 26 274 180 rectclip q
0 g
0.15 w
2 J
0 j
[ 0.2 2] 0 d
3.8 M q 1 0 0 -1 0 216 cm
37.852 186.75 m 310.352 186.75 l S Q
0.25 w
[] 0.0 d
q 1 0 0 -1 0 216 cm
37.852 186.75 m 41.551 186.75 l S Q
q 1 0 0 -1 0 216 cm
310.352 186.75 m 306.648 186.75 l S Q
0.15 w
[ 0.2 2] 0 d
q 1 0 0 -1 0 216 cm
37.852 159.25 m 310.352 159.25 l S Q
0.25 w
[] 0.0 d
q 1 0 0 -1 0 216 cm
37.852 159.25 m 41.551 159.25 l S Q
q 1 0 0 -1 0 216 cm
310.352 159.25 m 306.648 159.25 l S Q
0.15 w
[ 0.2 2] 0 d
q 1 0 0 -1 0 216 cm
37.852 131.75 m 310.352 131.75 l S Q
0.25 w
[] 0.0 d
q 1 0 0 -1 0 216 cm
37.852 131.75 m 41.551 131.75 l S Q
q 1 0 0 -1 0 216 cm
310.352 131.75 m 306.648 131.75 l S Q
0.15 w
[ 0.2 2] 0 d
q 1 0 0 -1 0 216 cm
37.852 104.25 m 310.352 104.25 l S Q
0.25 w
[] 0.0 d
q 1 0 0 -1 0 216 cm
37.852 104.25 m 41.551 104.25 l S Q
q 1 0 0 -1 0 216 cm
310.352 104.25 m 306.648 104.25 l S Q
0.15 w
[ 0.2 2] 0 d
q 1 0 0 -1 0 216 cm
37.852 76.75 m 310.352 76.75 l S Q
0.25 w
[] 0.0 d
q 1 0 0 -1 0 216 cm
37.852 76.75 m 41.551 76.75 l S Q
q 1 0 0 -1 0 216 cm
310.352 76.75 m 306.648 76.75 l S Q
0.15 w
[ 0.2 2] 0 d
q 1 0 0 -1 0 216 cm
37.852 49.25 m 310.352 49.25 l S Q
0.25 w
[] 0.0 d
q 1 0 0 -1 0 216 cm
37.852 49.25 m 41.551 49.25 l S Q
q 1 0 0 -1 0 216 cm
310.352 49.25 m 306.648 49.25 l S Q
0.15 w
[ 0.2 2] 0 d
q 1 0 0 -1 0 216 cm
37.852 21.75 m 310.352 21.75 l S Q
0.25 w
[] 0.0 d
q 1 0 0 -1 0 216 cm
37.852 21.75 m 41.551 21.75 l S Q
q 1 0 0 -1 0 216 cm
310.352 21.75 m 306.648 21.75 l S Q
0.15 w
[ 0.2 2] 0 d
q 1 0 0 -1 0 216 cm
50.25 186.75 m 50.25 10.75 l S Q
0.25 w
[] 0.0 d
q 1 0 0 -1 0 216 cm
50.25 186.75 m 50.25 183.051 l S Q
q 1 0 0 -1 0 216 cm
50.25 10.75 m 50.25 14.449 l S Q
0.15 w
[ 0.2 2] 0 d
q 1 0 0 -1 0 216 cm
75 186.75 m 75 10.75 l S Q
0.25 w
[] 0.0 d
q 1 0 0 -1 0 216 cm
75 186.75 m 75 183.051 l S Q
q 1 0 0 -1 0 216 cm
75 10.75 m 75 14.449 l S Q
0.15 w
[ 0.2 2] 0 d
q 1 0 0 -1 0 216 cm
99.801 186.75 m 99.801 10.75 l S Q
0.25 w
[] 0.0 d
q 1 0 0 -1 0 216 cm
99.801 186.75 m 99.801 183.051 l S Q
q 1 0 0 -1 0 216 cm
99.801 10.75 m 99.801 14.449 l S Q
0.15 w
[ 0.2 2] 0 d
q 1 0 0 -1 0 216 cm
124.551 186.75 m 124.551 10.75 l S Q
0.25 w
[] 0.0 d
q 1 0 0 -1 0 216 cm
124.551 186.75 m 124.551 183.051 l S Q
q 1 0 0 -1 0 216 cm
124.551 10.75 m 124.551 14.449 l S Q
0.15 w
[ 0.2 2] 0 d
q 1 0 0 -1 0 216 cm
149.352 186.75 m 149.352 10.75 l S Q
0.25 w
[] 0.0 d
q 1 0 0 -1 0 216 cm
149.352 186.75 m 149.352 183.051 l S Q
q 1 0 0 -1 0 216 cm
149.352 10.75 m 149.352 14.449 l S Q
0.15 w
[ 0.2 2] 0 d
q 1 0 0 -1 0 216 cm
174.102 186.75 m 174.102 10.75 l S Q
0.25 w
[] 0.0 d
q 1 0 0 -1 0 216 cm
174.102 186.75 m 174.102 183.051 l S Q
q 1 0 0 -1 0 216 cm
174.102 10.75 m 174.102 14.449 l S Q
0.15 w
[ 0.2 2] 0 d
q 1 0 0 -1 0 216 cm
198.852 186.75 m 198.852 10.75 l S Q
0.25 w
[] 0.0 d
q 1 0 0 -1 0 216 cm
198.852 186.75 m 198.852 183.051 l S Q
q 1 0 0 -1 0 216 cm
198.852 10.75 m 198.852 14.449 l S Q
0.15 w
[ 0.2 2] 0 d
q 1 0 0 -1 0 216 cm
223.648 186.75 m 223.648 183.051 l S Q
[ 0.2 2] 0 d
q 1 0 0 -1 0 216 cm
223.648 164.449 m 223.648 10.75 l S Q
0.25 w
[] 0.0 d
q 1 0 0 -1 0 216 cm
223.648 186.75 m 223.648 183.051 l S Q
q 1 0 0 -1 0 216 cm
223.648 10.75 m 223.648 14.449 l S Q
0.15 w
[ 0.2 2] 0 d
q 1 0 0 -1 0 216 cm
248.398 186.75 m 248.398 183.051 l S Q
[ 0.2 2] 0 d
q 1 0 0 -1 0 216 cm
248.398 164.449 m 248.398 10.75 l S Q
0.25 w
[] 0.0 d
q 1 0 0 -1 0 216 cm
248.398 186.75 m 248.398 183.051 l S Q
q 1 0 0 -1 0 216 cm
248.398 10.75 m 248.398 14.449 l S Q
0.15 w
[ 0.2 2] 0 d
q 1 0 0 -1 0 216 cm
273.199 186.75 m 273.199 183.051 l S Q
[ 0.2 2] 0 d
q 1 0 0 -1 0 216 cm
273.199 164.449 m 273.199 10.75 l S Q
0.25 w
[] 0.0 d
q 1 0 0 -1 0 216 cm
273.199 186.75 m 273.199 183.051 l S Q
q 1 0 0 -1 0 216 cm
273.199 10.75 m 273.199 14.449 l S Q
0.15 w
[ 0.2 2] 0 d
q 1 0 0 -1 0 216 cm
297.949 186.75 m 297.949 183.051 l S Q
[ 0.2 2] 0 d
q 1 0 0 -1 0 216 cm
297.949 164.449 m 297.949 10.75 l S Q
0.25 w
[] 0.0 d
q 1 0 0 -1 0 216 cm
297.949 186.75 m 297.949 183.051 l S Q
q 1 0 0 -1 0 216 cm
297.949 10.75 m 297.949 14.449 l S Q
q 1 0 0 -1 0 216 cm
310.352 186.75 m 306.648 186.75 l S Q
q 1 0 0 -1 0 216 cm
310.352 159.25 m 306.648 159.25 l S Q
q 1 0 0 -1 0 216 cm
310.352 131.75 m 306.648 131.75 l S Q
q 1 0 0 -1 0 216 cm
310.352 104.25 m 306.648 104.25 l S Q
q 1 0 0 -1 0 216 cm
310.352 76.75 m 306.648 76.75 l S Q
q 1 0 0 -1 0 216 cm
310.352 49.25 m 306.648 49.25 l S Q
q 1 0 0 -1 0 216 cm
310.352 21.75 m 306.648 21.75 l S Q
q 1 0 0 -1 0 216 cm
37.852 10.75 272.5 176 re S Q
0.172549 0.462745 0.733333 rg
q 1 0 0 -1 0 216 cm
276.051 169.102 m 300.148 169.102 l S Q
q 1 0 0 -1 0 216 cm
276.051 167.25 m 276.051 170.949 l S Q
q 1 0 0 -1 0 216 cm
300.148 167.25 m 300.148 170.949 l S Q
q 1 0 0 -1 0 216 cm
50.25 180.551 m 75 161.352 l 99.801 70.852 l 124.551 32.102 l 149.352 21.75
 l 297.949 21.75 l S Q
q 1 0 0 -1 0 216 cm
50.25 182.648 m 50.25 178.398 l S Q
q 1 0 0 -1 0 216 cm
48.398 182.648 m 52.102 182.648 l S Q
q 1 0 0 -1 0 216 cm
48.398 178.398 m 52.102 178.398 l S Q
q 1 0 0 -1 0 216 cm
75 167.148 m 75 155.602 l S Q
q 1 0 0 -1 0 216 cm
73.148 167.148 m 76.852 167.148 l S Q
q 1 0 0 -1 0 216 cm
73.148 155.602 m 76.852 155.602 l S Q
q 1 0 0 -1 0 216 cm
99.801 94.75 m 99.801 46.949 l S Q
q 1 0 0 -1 0 216 cm
97.949 94.75 m 101.648 94.75 l S Q
q 1 0 0 -1 0 216 cm
97.949 46.949 m 101.648 46.949 l S Q
q 1 0 0 -1 0 216 cm
124.551 46.352 m 124.551 17.852 l S Q
q 1 0 0 -1 0 216 cm
122.699 46.352 m 126.398 46.352 l S Q
q 1 0 0 -1 0 216 cm
122.699 17.852 m 126.398 17.852 l S Q
q 1 0 0 -1 0 216 cm
147.5 21.75 m 151.199 21.75 l S Q
q 1 0 0 -1 0 216 cm
147.5 21.75 m 151.199 21.75 l S Q
q 1 0 0 -1 0 216 cm
172.25 21.75 m 175.949 21.75 l S Q
q 1 0 0 -1 0 216 cm
172.25 21.75 m 175.949 21.75 l S Q
q 1 0 0 -1 0 216 cm
197 21.75 m 200.699 21.75 l S Q
q 1 0 0 -1 0 216 cm
197 21.75 m 200.699 21.75 l S Q
q 1 0 0 -1 0 216 cm
221.801 21.75 m 225.5 21.75 l S Q
q 1 0 0 -1 0 216 cm
221.801 21.75 m 225.5 21.75 l S Q
q 1 0 0 -1 0 216 cm
246.551 21.75 m 250.25 21.75 l S Q
q 1 0 0 -1 0 216 cm
246.551 21.75 m 250.25 21.75 l S Q
q 1 0 0 -1 0 216 cm
271.352 21.75 m 275.051 21.75 l S Q
q 1 0 0 -1 0 216 cm
271.352 21.75 m 275.051 21.75 l S Q
q 1 0 0 -1 0 216 cm
296.102 21.75 m 299.801 21.75 l S Q
q 1 0 0 -1 0 216 cm
296.102 21.75 m 299.801 21.75 l S Q
q 1 0 0 -1 0 216 cm
47.25 180.551 m 53.25 180.551 l S Q
q 1 0 0 -1 0 216 cm
50.25 177.551 m 50.25 183.551 l S Q
q 1 0 0 -1 0 216 cm
72 161.352 m 78 161.352 l S Q
q 1 0 0 -1 0 216 cm
75 158.352 m 75 164.352 l S Q
q 1 0 0 -1 0 216 cm
96.801 70.852 m 102.801 70.852 l S Q
q 1 0 0 -1 0 216 cm
99.801 67.852 m 99.801 73.852 l S Q
q 1 0 0 -1 0 216 cm
121.551 32.102 m 127.551 32.102 l S Q
q 1 0 0 -1 0 216 cm
124.551 29.102 m 124.551 35.102 l S Q
q 1 0 0 -1 0 216 cm
146.352 21.75 m 152.352 21.75 l S Q
q 1 0 0 -1 0 216 cm
149.352 18.75 m 149.352 24.75 l S Q
q 1 0 0 -1 0 216 cm
171.102 21.75 m 177.102 21.75 l S Q
q 1 0 0 -1 0 216 cm
174.102 18.75 m 174.102 24.75 l S Q
q 1 0 0 -1 0 216 cm
195.852 21.75 m 201.852 21.75 l S Q
q 1 0 0 -1 0 216 cm
198.852 18.75 m 198.852 24.75 l S Q
q 1 0 0 -1 0 216 cm
220.648 21.75 m 226.648 21.75 l S Q
q 1 0 0 -1 0 216 cm
223.648 18.75 m 223.648 24.75 l S Q
q 1 0 0 -1 0 216 cm
245.398 21.75 m 251.398 21.75 l S Q
q 1 0 0 -1 0 216 cm
248.398 18.75 m 248.398 24.75 l S Q
q 1 0 0 -1 0 216 cm
270.199 21.75 m 276.199 21.75 l S Q
q 1 0 0 -1 0 216 cm
273.199 18.75 m 273.199 24.75 l S Q
q 1 0 0 -1 0 216 cm
294.949 21.75 m 300.949 21.75 l S Q
q 1 0 0 -1 0 216 cm
297.949 18.75 m 297.949 24.75 l S Q
q 1 0 0 -1 0 216 cm
285.102 169.102 m 291.102 169.102 l S Q
q 1 0 0 -1 0 216 cm
288.102 166.102 m 288.102 172.102 l S Q
0.74902 0.145098 0.172549 rg
q 1 0 0 -1 0 216 cm
276.051 178.398 m 300.148 178.398 l S Q
q 1 0 0 -1 0 216 cm
276.051 176.551 m 276.051 180.25 l S Q
q 1 0 0 -1 0 216 cm
300.148 176.551 m 300.148 180.25 l S Q
q 1 0 0 -1 0 216 cm
50.25 186.301 m 75 186.602 l 99.801 179.602 l 124.551 152.852 l 149.352
 132 l 174.102 114.801 l 198.852 103.25 l 223.648 94.352 l 248.398 88.051
 l 273.199 84.199 l 297.949 76.852 l S Q
q 1 0 0 -1 0 216 cm
50.25 186.449 m 50.25 186.148 l S Q
q 1 0 0 -1 0 216 cm
48.398 186.449 m 52.102 186.449 l S Q
q 1 0 0 -1 0 216 cm
48.398 186.148 m 52.102 186.148 l S Q
q 1 0 0 -1 0 216 cm
75 186.648 m 75 186.602 l S Q
q 1 0 0 -1 0 216 cm
73.148 186.648 m 76.852 186.648 l S Q
q 1 0 0 -1 0 216 cm
73.148 186.602 m 76.852 186.602 l S Q
q 1 0 0 -1 0 216 cm
99.801 186.75 m 99.801 171.449 l S Q
q 1 0 0 -1 0 216 cm
97.949 171.449 m 101.648 171.449 l S Q
q 1 0 0 -1 0 216 cm
124.551 162.949 m 124.551 142.75 l S Q
q 1 0 0 -1 0 216 cm
122.699 162.949 m 126.398 162.949 l S Q
q 1 0 0 -1 0 216 cm
122.699 142.75 m 126.398 142.75 l S Q
q 1 0 0 -1 0 216 cm
149.352 139.852 m 149.352 124.199 l S Q
q 1 0 0 -1 0 216 cm
147.5 139.852 m 151.199 139.852 l S Q
q 1 0 0 -1 0 216 cm
147.5 124.199 m 151.199 124.199 l S Q
q 1 0 0 -1 0 216 cm
174.102 122.398 m 174.102 107.199 l S Q
q 1 0 0 -1 0 216 cm
172.25 122.398 m 175.949 122.398 l S Q
q 1 0 0 -1 0 216 cm
172.25 107.199 m 175.949 107.199 l S Q
q 1 0 0 -1 0 216 cm
198.852 109.102 m 198.852 97.352 l S Q
q 1 0 0 -1 0 216 cm
197 109.102 m 200.699 109.102 l S Q
q 1 0 0 -1 0 216 cm
197 97.352 m 200.699 97.352 l S Q
q 1 0 0 -1 0 216 cm
223.648 100.148 m 223.648 88.5 l S Q
q 1 0 0 -1 0 216 cm
221.801 100.148 m 225.5 100.148 l S Q
q 1 0 0 -1 0 216 cm
221.801 88.5 m 225.5 88.5 l S Q
q 1 0 0 -1 0 216 cm
248.398 91.301 m 248.398 84.75 l S Q
q 1 0 0 -1 0 216 cm
246.551 91.301 m 250.25 91.301 l S Q
q 1 0 0 -1 0 216 cm
246.551 84.75 m 250.25 84.75 l S Q
q 1 0 0 -1 0 216 cm
273.199 86.25 m 273.199 82.102 l S Q
q 1 0 0 -1 0 216 cm
271.352 86.25 m 275.051 86.25 l S Q
q 1 0 0 -1 0 216 cm
271.352 82.102 m 275.051 82.102 l S Q
q 1 0 0 -1 0 216 cm
297.949 80 m 297.949 73.699 l S Q
q 1 0 0 -1 0 216 cm
296.102 80 m 299.801 80 l S Q
q 1 0 0 -1 0 216 cm
296.102 73.699 m 299.801 73.699 l S Q
q 1 0 0 -1 0 216 cm
47.25 183.301 m 53.25 189.301 l S Q
q 1 0 0 -1 0 216 cm
47.25 189.301 m 53.25 183.301 l S Q
q 1 0 0 -1 0 216 cm
72 183.602 m 78 189.602 l S Q
q 1 0 0 -1 0 216 cm
72 189.602 m 78 183.602 l S Q
q 1 0 0 -1 0 216 cm
96.801 176.602 m 102.801 182.602 l S Q
q 1 0 0 -1 0 216 cm
96.801 182.602 m 102.801 176.602 l S Q
q 1 0 0 -1 0 216 cm
121.551 149.852 m 127.551 155.852 l S Q
q 1 0 0 -1 0 216 cm
121.551 155.852 m 127.551 149.852 l S Q
q 1 0 0 -1 0 216 cm
146.352 129 m 152.352 135 l S Q
q 1 0 0 -1 0 216 cm
146.352 135 m 152.352 129 l S Q
q 1 0 0 -1 0 216 cm
171.102 111.801 m 177.102 117.801 l S Q
q 1 0 0 -1 0 216 cm
171.102 117.801 m 177.102 111.801 l S Q
q 1 0 0 -1 0 216 cm
195.852 100.25 m 201.852 106.25 l S Q
q 1 0 0 -1 0 216 cm
195.852 106.25 m 201.852 100.25 l S Q
q 1 0 0 -1 0 216 cm
220.648 91.352 m 226.648 97.352 l S Q
q 1 0 0 -1 0 216 cm
220.648 97.352 m 226.648 91.352 l S Q
q 1 0 0 -1 0 216 cm
245.398 85.051 m 251.398 91.051 l S Q
q 1 0 0 -1 0 216 cm
245.398 91.051 m 251.398 85.051 l S Q
q 1 0 0 -1 0 216 cm
270.199 81.199 m 276.199 87.199 l S Q
q 1 0 0 -1 0 216 cm
270.199 87.199 m 276.199 81.199 l S Q
q 1 0 0 -1 0 216 cm
294.949 73.852 m 300.949 79.852 l S Q
q 1 0 0 -1 0 216 cm
294.949 79.852 m 300.949 73.852 l S Q
q 1 0 0 -1 0 216 cm
285.102 175.398 m 291.102 181.398 l S Q
q 1 0 0 -1 0 216 cm
285.102 181.398 m 291.102 175.398 l S Q
0 g
q 1 0 0 -1 0 216 cm
37.852 10.75 272.5 176 re S Q
Q Q
showpage
%%Trailer
end restore
%%EOF
