%!PS-Adobe-3.0 EPSF-3.0
%%Creator: cairo 1.13.1 (http://cairographics.org)
%%CreationDate: Fri May 20 09:17:05 2016
%%Pages: 1
%%DocumentData: Clean7Bit
%%LanguageLevel: 2
%%BoundingBox: 0 0 360 216
%%EndComments
%%BeginProlog
save
50 dict begin
/q { gsave } bind def
/Q { grestore } bind def
/cm { 6 array astore concat } bind def
/w { setlinewidth } bind def
/J { setlinecap } bind def
/j { setlinejoin } bind def
/M { setmiterlimit } bind def
/d { setdash } bind def
/m { moveto } bind def
/l { lineto } bind def
/c { curveto } bind def
/h { closepath } bind def
/re { exch dup neg 3 1 roll 5 3 roll moveto 0 rlineto
      0 exch rlineto 0 rlineto closepath } bind def
/S { stroke } bind def
/f { fill } bind def
/f* { eofill } bind def
/n { newpath } bind def
/W { clip } bind def
/W* { eoclip } bind def
/BT { } bind def
/ET { } bind def
/pdfmark where { pop globaldict /?pdfmark /exec load put }
    { globaldict begin /?pdfmark /pop load def /pdfmark
    /cleartomark load def end } ifelse
/BDC { mark 3 1 roll /BDC pdfmark } bind def
/EMC { mark /EMC pdfmark } bind def
/cairo_store_point { /cairo_point_y exch def /cairo_point_x exch def } def
/Tj { show currentpoint cairo_store_point } bind def
/TJ {
  {
    dup
    type /stringtype eq
    { show } { -0.001 mul 0 cairo_font_matrix dtransform rmoveto } ifelse
  } forall
  currentpoint cairo_store_point
} bind def
/cairo_selectfont { cairo_font_matrix aload pop pop pop 0 0 6 array astore
    cairo_font exch selectfont cairo_point_x cairo_point_y moveto } bind def
/Tf { pop /cairo_font exch def /cairo_font_matrix where
      { pop cairo_selectfont } if } bind def
/Td { matrix translate cairo_font_matrix matrix concatmatrix dup
      /cairo_font_matrix exch def dup 4 get exch 5 get cairo_store_point
      /cairo_font where { pop cairo_selectfont } if } bind def
/Tm { 2 copy 8 2 roll 6 array astore /cairo_font_matrix exch def
      cairo_store_point /cairo_font where { pop cairo_selectfont } if } bind def
/g { setgray } bind def
/rg { setrgbcolor } bind def
/d1 { setcachedevice } bind def
%%EndProlog
%%BeginSetup
%%EndSetup
%%Page: 1 1
%%BeginPageSetup
%%PageBoundingBox: 0 0 360 216
%%EndPageSetup
q 42 29 304 177 rectclip q
0 g
0.15 w
2 J
0 j
[ 0.2 2] 0 d
3.8 M q 1 0 0 -1 0 216 cm
42.949 186.75 m 345.148 186.75 l S Q
0.25 w
[] 0.0 d
q 1 0 0 -1 0 216 cm
42.949 186.75 m 46.648 186.75 l S Q
q 1 0 0 -1 0 216 cm
345.148 186.75 m 341.449 186.75 l S Q
0.15 w
[ 0.2 2] 0 d
q 1 0 0 -1 0 216 cm
42.949 169.148 m 345.148 169.148 l S Q
0.25 w
[] 0.0 d
q 1 0 0 -1 0 216 cm
42.949 169.148 m 46.648 169.148 l S Q
q 1 0 0 -1 0 216 cm
345.148 169.148 m 341.449 169.148 l S Q
0.15 w
[ 0.2 2] 0 d
q 1 0 0 -1 0 216 cm
42.949 151.551 m 345.148 151.551 l S Q
0.25 w
[] 0.0 d
q 1 0 0 -1 0 216 cm
42.949 151.551 m 46.648 151.551 l S Q
q 1 0 0 -1 0 216 cm
345.148 151.551 m 341.449 151.551 l S Q
0.15 w
[ 0.2 2] 0 d
q 1 0 0 -1 0 216 cm
42.949 133.949 m 345.148 133.949 l S Q
0.25 w
[] 0.0 d
q 1 0 0 -1 0 216 cm
42.949 133.949 m 46.648 133.949 l S Q
q 1 0 0 -1 0 216 cm
345.148 133.949 m 341.449 133.949 l S Q
0.15 w
[ 0.2 2] 0 d
q 1 0 0 -1 0 216 cm
42.949 116.352 m 345.148 116.352 l S Q
0.25 w
[] 0.0 d
q 1 0 0 -1 0 216 cm
42.949 116.352 m 46.648 116.352 l S Q
q 1 0 0 -1 0 216 cm
345.148 116.352 m 341.449 116.352 l S Q
0.15 w
[ 0.2 2] 0 d
q 1 0 0 -1 0 216 cm
42.949 98.75 m 345.148 98.75 l S Q
0.25 w
[] 0.0 d
q 1 0 0 -1 0 216 cm
42.949 98.75 m 46.648 98.75 l S Q
q 1 0 0 -1 0 216 cm
345.148 98.75 m 341.449 98.75 l S Q
0.15 w
[ 0.2 2] 0 d
q 1 0 0 -1 0 216 cm
42.949 81.148 m 345.148 81.148 l S Q
0.25 w
[] 0.0 d
q 1 0 0 -1 0 216 cm
42.949 81.148 m 46.648 81.148 l S Q
q 1 0 0 -1 0 216 cm
345.148 81.148 m 341.449 81.148 l S Q
0.15 w
[ 0.2 2] 0 d
q 1 0 0 -1 0 216 cm
42.949 63.551 m 345.148 63.551 l S Q
0.25 w
[] 0.0 d
q 1 0 0 -1 0 216 cm
42.949 63.551 m 46.648 63.551 l S Q
q 1 0 0 -1 0 216 cm
345.148 63.551 m 341.449 63.551 l S Q
0.15 w
[ 0.2 2] 0 d
q 1 0 0 -1 0 216 cm
42.949 45.949 m 345.148 45.949 l S Q
0.25 w
[] 0.0 d
q 1 0 0 -1 0 216 cm
42.949 45.949 m 46.648 45.949 l S Q
q 1 0 0 -1 0 216 cm
345.148 45.949 m 341.449 45.949 l S Q
0.15 w
[ 0.2 2] 0 d
q 1 0 0 -1 0 216 cm
42.949 28.352 m 48.051 28.352 l S Q
[ 0.2 2] 0 d
q 1 0 0 -1 0 216 cm
128.25 28.352 m 345.148 28.352 l S Q
0.25 w
[] 0.0 d
q 1 0 0 -1 0 216 cm
42.949 28.352 m 46.648 28.352 l S Q
q 1 0 0 -1 0 216 cm
345.148 28.352 m 341.449 28.352 l S Q
0.15 w
[ 0.2 2] 0 d
q 1 0 0 -1 0 216 cm
42.949 10.75 m 345.148 10.75 l S Q
0.25 w
[] 0.0 d
q 1 0 0 -1 0 216 cm
42.949 10.75 m 46.648 10.75 l S Q
q 1 0 0 -1 0 216 cm
345.148 10.75 m 341.449 10.75 l S Q
0.15 w
[ 0.2 2] 0 d
q 1 0 0 -1 0 216 cm
42.949 186.75 m 42.949 10.75 l S Q
0.25 w
[] 0.0 d
q 1 0 0 -1 0 216 cm
42.949 186.75 m 42.949 183.051 l S Q
q 1 0 0 -1 0 216 cm
42.949 10.75 m 42.949 14.449 l S Q
0.15 w
[ 0.2 2] 0 d
q 1 0 0 -1 0 216 cm
76.551 186.75 m 76.551 42.352 l S Q
[ 0.2 2] 0 d
q 1 0 0 -1 0 216 cm
76.551 14.449 m 76.551 10.75 l S Q
0.25 w
[] 0.0 d
q 1 0 0 -1 0 216 cm
76.551 186.75 m 76.551 183.051 l S Q
q 1 0 0 -1 0 216 cm
76.551 10.75 m 76.551 14.449 l S Q
0.15 w
[ 0.2 2] 0 d
q 1 0 0 -1 0 216 cm
110.102 186.75 m 110.102 42.352 l S Q
[ 0.2 2] 0 d
q 1 0 0 -1 0 216 cm
110.102 14.449 m 110.102 10.75 l S Q
0.25 w
[] 0.0 d
q 1 0 0 -1 0 216 cm
110.102 186.75 m 110.102 183.051 l S Q
q 1 0 0 -1 0 216 cm
110.102 10.75 m 110.102 14.449 l S Q
0.15 w
[ 0.2 2] 0 d
q 1 0 0 -1 0 216 cm
143.699 186.75 m 143.699 10.75 l S Q
0.25 w
[] 0.0 d
q 1 0 0 -1 0 216 cm
143.699 186.75 m 143.699 183.051 l S Q
q 1 0 0 -1 0 216 cm
143.699 10.75 m 143.699 14.449 l S Q
0.15 w
[ 0.2 2] 0 d
q 1 0 0 -1 0 216 cm
177.25 186.75 m 177.25 10.75 l S Q
0.25 w
[] 0.0 d
q 1 0 0 -1 0 216 cm
177.25 186.75 m 177.25 183.051 l S Q
q 1 0 0 -1 0 216 cm
177.25 10.75 m 177.25 14.449 l S Q
0.15 w
[ 0.2 2] 0 d
q 1 0 0 -1 0 216 cm
210.852 186.75 m 210.852 10.75 l S Q
0.25 w
[] 0.0 d
q 1 0 0 -1 0 216 cm
210.852 186.75 m 210.852 183.051 l S Q
q 1 0 0 -1 0 216 cm
210.852 10.75 m 210.852 14.449 l S Q
0.15 w
[ 0.2 2] 0 d
q 1 0 0 -1 0 216 cm
244.398 186.75 m 244.398 10.75 l S Q
0.25 w
[] 0.0 d
q 1 0 0 -1 0 216 cm
244.398 186.75 m 244.398 183.051 l S Q
q 1 0 0 -1 0 216 cm
244.398 10.75 m 244.398 14.449 l S Q
0.15 w
[ 0.2 2] 0 d
q 1 0 0 -1 0 216 cm
278 186.75 m 278 10.75 l S Q
0.25 w
[] 0.0 d
q 1 0 0 -1 0 216 cm
278 186.75 m 278 183.051 l S Q
q 1 0 0 -1 0 216 cm
278 10.75 m 278 14.449 l S Q
0.15 w
[ 0.2 2] 0 d
q 1 0 0 -1 0 216 cm
311.551 186.75 m 311.551 10.75 l S Q
0.25 w
[] 0.0 d
q 1 0 0 -1 0 216 cm
311.551 186.75 m 311.551 183.051 l S Q
q 1 0 0 -1 0 216 cm
311.551 10.75 m 311.551 14.449 l S Q
0.15 w
[ 0.2 2] 0 d
q 1 0 0 -1 0 216 cm
345.148 186.75 m 345.148 10.75 l S Q
0.25 w
[] 0.0 d
q 1 0 0 -1 0 216 cm
345.148 186.75 m 345.148 183.051 l S Q
q 1 0 0 -1 0 216 cm
345.148 10.75 m 345.148 14.449 l S Q
q 1 0 0 -1 0 216 cm
42.949 10.75 302.199 176 re S Q
q 1 0 0 -1 0 216 cm
42.949 133.949 m 345.148 133.949 l S Q
0.172549 0.462745 0.733333 rg
q 1 0 0 -1 0 216 cm
53.148 19.102 m 77.25 19.102 l S Q
q 1 0 0 -1 0 216 cm
53.148 17.25 m 53.148 20.949 l S Q
q 1 0 0 -1 0 216 cm
77.25 17.25 m 77.25 20.949 l S Q
q 1 0 0 -1 0 216 cm
58.398 141.102 m 91.949 146.602 l 125.551 137 l 159.148 140.699 l 192.699
 149.75 l 226.301 154.852 l 259.852 131 l 293.449 147.051 l 327 112.25 l
 S Q
q 1 0 0 -1 0 216 cm
58.398 155.648 m 58.398 126.602 l S Q
q 1 0 0 -1 0 216 cm
56.551 155.648 m 60.25 155.648 l S Q
q 1 0 0 -1 0 216 cm
56.551 126.602 m 60.25 126.602 l S Q
q 1 0 0 -1 0 216 cm
91.949 161.301 m 91.949 131.898 l S Q
q 1 0 0 -1 0 216 cm
90.102 161.301 m 93.801 161.301 l S Q
q 1 0 0 -1 0 216 cm
90.102 131.898 m 93.801 131.898 l S Q
q 1 0 0 -1 0 216 cm
125.551 157.699 m 125.551 116.25 l S Q
q 1 0 0 -1 0 216 cm
123.699 157.699 m 127.398 157.699 l S Q
q 1 0 0 -1 0 216 cm
123.699 116.25 m 127.398 116.25 l S Q
q 1 0 0 -1 0 216 cm
159.148 154.602 m 159.148 126.801 l S Q
q 1 0 0 -1 0 216 cm
157.301 154.602 m 161 154.602 l S Q
q 1 0 0 -1 0 216 cm
157.301 126.801 m 161 126.801 l S Q
q 1 0 0 -1 0 216 cm
192.699 169.398 m 192.699 130.102 l S Q
q 1 0 0 -1 0 216 cm
190.852 169.398 m 194.551 169.398 l S Q
q 1 0 0 -1 0 216 cm
190.852 130.102 m 194.551 130.102 l S Q
q 1 0 0 -1 0 216 cm
226.301 173.602 m 226.301 136.051 l S Q
q 1 0 0 -1 0 216 cm
224.449 173.602 m 228.148 173.602 l S Q
q 1 0 0 -1 0 216 cm
224.449 136.051 m 228.148 136.051 l S Q
q 1 0 0 -1 0 216 cm
259.852 159.602 m 259.852 102.352 l S Q
q 1 0 0 -1 0 216 cm
258 159.602 m 261.699 159.602 l S Q
q 1 0 0 -1 0 216 cm
258 102.352 m 261.699 102.352 l S Q
q 1 0 0 -1 0 216 cm
293.449 168.949 m 293.449 125.148 l S Q
q 1 0 0 -1 0 216 cm
291.602 168.949 m 295.301 168.949 l S Q
q 1 0 0 -1 0 216 cm
291.602 125.148 m 295.301 125.148 l S Q
q 1 0 0 -1 0 216 cm
327 149.648 m 327 74.852 l S Q
q 1 0 0 -1 0 216 cm
325.148 149.648 m 328.852 149.648 l S Q
q 1 0 0 -1 0 216 cm
325.148 74.852 m 328.852 74.852 l S Q
q 1 0 0 -1 0 216 cm
55.398 141.102 m 61.398 141.102 l S Q
q 1 0 0 -1 0 216 cm
58.398 138.102 m 58.398 144.102 l S Q
q 1 0 0 -1 0 216 cm
88.949 146.602 m 94.949 146.602 l S Q
q 1 0 0 -1 0 216 cm
91.949 143.602 m 91.949 149.602 l S Q
q 1 0 0 -1 0 216 cm
122.551 137 m 128.551 137 l S Q
q 1 0 0 -1 0 216 cm
125.551 134 m 125.551 140 l S Q
q 1 0 0 -1 0 216 cm
156.148 140.699 m 162.148 140.699 l S Q
q 1 0 0 -1 0 216 cm
159.148 137.699 m 159.148 143.699 l S Q
q 1 0 0 -1 0 216 cm
189.699 149.75 m 195.699 149.75 l S Q
q 1 0 0 -1 0 216 cm
192.699 146.75 m 192.699 152.75 l S Q
q 1 0 0 -1 0 216 cm
223.301 154.852 m 229.301 154.852 l S Q
q 1 0 0 -1 0 216 cm
226.301 151.852 m 226.301 157.852 l S Q
q 1 0 0 -1 0 216 cm
256.852 131 m 262.852 131 l S Q
q 1 0 0 -1 0 216 cm
259.852 128 m 259.852 134 l S Q
q 1 0 0 -1 0 216 cm
290.449 147.051 m 296.449 147.051 l S Q
q 1 0 0 -1 0 216 cm
293.449 144.051 m 293.449 150.051 l S Q
q 1 0 0 -1 0 216 cm
324 112.25 m 330 112.25 l S Q
q 1 0 0 -1 0 216 cm
327 109.25 m 327 115.25 l S Q
q 1 0 0 -1 0 216 cm
62.199 19.102 m 68.199 19.102 l S Q
q 1 0 0 -1 0 216 cm
65.199 16.102 m 65.199 22.102 l S Q
0.74902 0.145098 0.172549 rg
q 1 0 0 -1 0 216 cm
53.148 28.398 m 77.25 28.398 l S Q
q 1 0 0 -1 0 216 cm
53.148 26.551 m 53.148 30.25 l S Q
q 1 0 0 -1 0 216 cm
77.25 26.551 m 77.25 30.25 l S Q
q 1 0 0 -1 0 216 cm
59.75 150.801 m 93.301 153.852 l 126.898 142.398 l 160.449 146.352 l 194.051
 152.449 l 227.648 158.648 l 261.199 132.949 l 294.801 141.102 l 328.352
 103.898 l S Q
q 1 0 0 -1 0 216 cm
59.75 164.25 m 59.75 137.352 l S Q
q 1 0 0 -1 0 216 cm
57.898 164.25 m 61.602 164.25 l S Q
q 1 0 0 -1 0 216 cm
57.898 137.352 m 61.602 137.352 l S Q
q 1 0 0 -1 0 216 cm
93.301 167.551 m 93.301 140.148 l S Q
q 1 0 0 -1 0 216 cm
91.449 167.551 m 95.148 167.551 l S Q
q 1 0 0 -1 0 216 cm
91.449 140.148 m 95.148 140.148 l S Q
q 1 0 0 -1 0 216 cm
126.898 162.352 m 126.898 122.449 l S Q
q 1 0 0 -1 0 216 cm
125.051 162.352 m 128.75 162.352 l S Q
q 1 0 0 -1 0 216 cm
125.051 122.449 m 128.75 122.449 l S Q
q 1 0 0 -1 0 216 cm
160.449 158.551 m 160.449 134.199 l S Q
q 1 0 0 -1 0 216 cm
158.602 158.551 m 162.301 158.551 l S Q
q 1 0 0 -1 0 216 cm
158.602 134.199 m 162.301 134.199 l S Q
q 1 0 0 -1 0 216 cm
194.051 173.398 m 194.051 131.449 l S Q
q 1 0 0 -1 0 216 cm
192.199 173.398 m 195.898 173.398 l S Q
q 1 0 0 -1 0 216 cm
192.199 131.449 m 195.898 131.449 l S Q
q 1 0 0 -1 0 216 cm
227.648 178.449 m 227.648 138.801 l S Q
q 1 0 0 -1 0 216 cm
225.801 178.449 m 229.5 178.449 l S Q
q 1 0 0 -1 0 216 cm
225.801 138.801 m 229.5 138.801 l S Q
q 1 0 0 -1 0 216 cm
261.199 163.5 m 261.199 102.352 l S Q
q 1 0 0 -1 0 216 cm
259.352 163.5 m 263.051 163.5 l S Q
q 1 0 0 -1 0 216 cm
259.352 102.352 m 263.051 102.352 l S Q
q 1 0 0 -1 0 216 cm
294.801 165.449 m 294.801 116.75 l S Q
q 1 0 0 -1 0 216 cm
292.949 165.449 m 296.648 165.449 l S Q
q 1 0 0 -1 0 216 cm
292.949 116.75 m 296.648 116.75 l S Q
q 1 0 0 -1 0 216 cm
328.352 142.898 m 328.352 64.949 l S Q
q 1 0 0 -1 0 216 cm
326.5 142.898 m 330.199 142.898 l S Q
q 1 0 0 -1 0 216 cm
326.5 64.949 m 330.199 64.949 l S Q
q 1 0 0 -1 0 216 cm
56.75 147.801 m 62.75 153.801 l S Q
q 1 0 0 -1 0 216 cm
56.75 153.801 m 62.75 147.801 l S Q
q 1 0 0 -1 0 216 cm
90.301 150.852 m 96.301 156.852 l S Q
q 1 0 0 -1 0 216 cm
90.301 156.852 m 96.301 150.852 l S Q
q 1 0 0 -1 0 216 cm
123.898 139.398 m 129.898 145.398 l S Q
q 1 0 0 -1 0 216 cm
123.898 145.398 m 129.898 139.398 l S Q
q 1 0 0 -1 0 216 cm
157.449 143.352 m 163.449 149.352 l S Q
q 1 0 0 -1 0 216 cm
157.449 149.352 m 163.449 143.352 l S Q
q 1 0 0 -1 0 216 cm
191.051 149.449 m 197.051 155.449 l S Q
q 1 0 0 -1 0 216 cm
191.051 155.449 m 197.051 149.449 l S Q
q 1 0 0 -1 0 216 cm
224.648 155.648 m 230.648 161.648 l S Q
q 1 0 0 -1 0 216 cm
224.648 161.648 m 230.648 155.648 l S Q
q 1 0 0 -1 0 216 cm
258.199 129.949 m 264.199 135.949 l S Q
q 1 0 0 -1 0 216 cm
258.199 135.949 m 264.199 129.949 l S Q
q 1 0 0 -1 0 216 cm
291.801 138.102 m 297.801 144.102 l S Q
q 1 0 0 -1 0 216 cm
291.801 144.102 m 297.801 138.102 l S Q
q 1 0 0 -1 0 216 cm
325.352 100.898 m 331.352 106.898 l S Q
q 1 0 0 -1 0 216 cm
325.352 106.898 m 331.352 100.898 l S Q
q 1 0 0 -1 0 216 cm
62.199 25.398 m 68.199 31.398 l S Q
q 1 0 0 -1 0 216 cm
62.199 31.398 m 68.199 25.398 l S Q
0 0.65098 0.552941 rg
q 1 0 0 -1 0 216 cm
53.148 37.699 m 77.25 37.699 l S Q
q 1 0 0 -1 0 216 cm
53.148 35.852 m 53.148 39.551 l S Q
q 1 0 0 -1 0 216 cm
77.25 35.852 m 77.25 39.551 l S Q
q 1 0 0 -1 0 216 cm
61.102 154.551 m 94.648 158.102 l 128.25 147.898 l 161.801 149.5 l 195.398
 149.602 l 228.949 151.199 l 262.551 121.051 l 296.148 118.551 l 329.699
 72.551 l S Q
q 1 0 0 -1 0 216 cm
61.102 167.102 m 61.102 142 l S Q
q 1 0 0 -1 0 216 cm
59.25 167.102 m 62.949 167.102 l S Q
q 1 0 0 -1 0 216 cm
59.25 142 m 62.949 142 l S Q
q 1 0 0 -1 0 216 cm
94.648 171.148 m 94.648 145 l S Q
q 1 0 0 -1 0 216 cm
92.801 171.148 m 96.5 171.148 l S Q
q 1 0 0 -1 0 216 cm
92.801 145 m 96.5 145 l S Q
q 1 0 0 -1 0 216 cm
128.25 166.699 m 128.25 129.051 l S Q
q 1 0 0 -1 0 216 cm
126.398 166.699 m 130.102 166.699 l S Q
q 1 0 0 -1 0 216 cm
126.398 129.051 m 130.102 129.051 l S Q
q 1 0 0 -1 0 216 cm
161.801 162.949 m 161.801 136.051 l S Q
q 1 0 0 -1 0 216 cm
159.949 162.949 m 163.648 162.949 l S Q
q 1 0 0 -1 0 216 cm
159.949 136.051 m 163.648 136.051 l S Q
q 1 0 0 -1 0 216 cm
195.398 170.602 m 195.398 128.602 l S Q
q 1 0 0 -1 0 216 cm
193.551 170.602 m 197.25 170.602 l S Q
q 1 0 0 -1 0 216 cm
193.551 128.602 m 197.25 128.602 l S Q
q 1 0 0 -1 0 216 cm
228.949 169.25 m 228.949 133.199 l S Q
q 1 0 0 -1 0 216 cm
227.102 169.25 m 230.801 169.25 l S Q
q 1 0 0 -1 0 216 cm
227.102 133.199 m 230.801 133.199 l S Q
q 1 0 0 -1 0 216 cm
262.551 149.801 m 262.551 92.301 l S Q
q 1 0 0 -1 0 216 cm
260.699 149.801 m 264.398 149.801 l S Q
q 1 0 0 -1 0 216 cm
260.699 92.301 m 264.398 92.301 l S Q
q 1 0 0 -1 0 216 cm
296.148 144.551 m 296.148 92.5 l S Q
q 1 0 0 -1 0 216 cm
294.301 144.551 m 298 144.551 l S Q
q 1 0 0 -1 0 216 cm
294.301 92.5 m 298 92.5 l S Q
q 1 0 0 -1 0 216 cm
329.699 117.602 m 329.699 27.5 l S Q
q 1 0 0 -1 0 216 cm
327.852 117.602 m 331.551 117.602 l S Q
q 1 0 0 -1 0 216 cm
327.852 27.5 m 331.551 27.5 l S Q
q 1 0 0 -1 0 216 cm
58.102 154.551 m 64.102 154.551 l S Q
q 1 0 0 -1 0 216 cm
61.102 151.551 m 61.102 157.551 l S Q
q 1 0 0 -1 0 216 cm
58.102 151.551 m 64.102 157.551 l S Q
q 1 0 0 -1 0 216 cm
58.102 157.551 m 64.102 151.551 l S Q
q 1 0 0 -1 0 216 cm
91.648 158.102 m 97.648 158.102 l S Q
q 1 0 0 -1 0 216 cm
94.648 155.102 m 94.648 161.102 l S Q
q 1 0 0 -1 0 216 cm
91.648 155.102 m 97.648 161.102 l S Q
q 1 0 0 -1 0 216 cm
91.648 161.102 m 97.648 155.102 l S Q
q 1 0 0 -1 0 216 cm
125.25 147.898 m 131.25 147.898 l S Q
q 1 0 0 -1 0 216 cm
128.25 144.898 m 128.25 150.898 l S Q
q 1 0 0 -1 0 216 cm
125.25 144.898 m 131.25 150.898 l S Q
q 1 0 0 -1 0 216 cm
125.25 150.898 m 131.25 144.898 l S Q
q 1 0 0 -1 0 216 cm
158.801 149.5 m 164.801 149.5 l S Q
q 1 0 0 -1 0 216 cm
161.801 146.5 m 161.801 152.5 l S Q
q 1 0 0 -1 0 216 cm
158.801 146.5 m 164.801 152.5 l S Q
q 1 0 0 -1 0 216 cm
158.801 152.5 m 164.801 146.5 l S Q
q 1 0 0 -1 0 216 cm
192.398 149.602 m 198.398 149.602 l S Q
q 1 0 0 -1 0 216 cm
195.398 146.602 m 195.398 152.602 l S Q
q 1 0 0 -1 0 216 cm
192.398 146.602 m 198.398 152.602 l S Q
q 1 0 0 -1 0 216 cm
192.398 152.602 m 198.398 146.602 l S Q
q 1 0 0 -1 0 216 cm
225.949 151.199 m 231.949 151.199 l S Q
q 1 0 0 -1 0 216 cm
228.949 148.199 m 228.949 154.199 l S Q
q 1 0 0 -1 0 216 cm
225.949 148.199 m 231.949 154.199 l S Q
q 1 0 0 -1 0 216 cm
225.949 154.199 m 231.949 148.199 l S Q
q 1 0 0 -1 0 216 cm
259.551 121.051 m 265.551 121.051 l S Q
q 1 0 0 -1 0 216 cm
262.551 118.051 m 262.551 124.051 l S Q
q 1 0 0 -1 0 216 cm
259.551 118.051 m 265.551 124.051 l S Q
q 1 0 0 -1 0 216 cm
259.551 124.051 m 265.551 118.051 l S Q
q 1 0 0 -1 0 216 cm
293.148 118.551 m 299.148 118.551 l S Q
q 1 0 0 -1 0 216 cm
296.148 115.551 m 296.148 121.551 l S Q
q 1 0 0 -1 0 216 cm
293.148 115.551 m 299.148 121.551 l S Q
q 1 0 0 -1 0 216 cm
293.148 121.551 m 299.148 115.551 l S Q
q 1 0 0 -1 0 216 cm
326.699 72.551 m 332.699 72.551 l S Q
q 1 0 0 -1 0 216 cm
329.699 69.551 m 329.699 75.551 l S Q
q 1 0 0 -1 0 216 cm
326.699 69.551 m 332.699 75.551 l S Q
q 1 0 0 -1 0 216 cm
326.699 75.551 m 332.699 69.551 l S Q
q 1 0 0 -1 0 216 cm
62.199 37.699 m 68.199 37.699 l S Q
q 1 0 0 -1 0 216 cm
65.199 34.699 m 65.199 40.699 l S Q
q 1 0 0 -1 0 216 cm
62.199 34.699 m 68.199 40.699 l S Q
q 1 0 0 -1 0 216 cm
62.199 40.699 m 68.199 34.699 l S Q
0 g
q 1 0 0 -1 0 216 cm
42.949 10.75 302.199 176 re S Q
Q Q
showpage
%%Trailer
end restore
%%EOF
