%!PS-Adobe-3.0 EPSF-3.0
%%Creator: cairo 1.13.1 (http://cairographics.org)
%%CreationDate: Fri May 20 09:16:44 2016
%%Pages: 1
%%DocumentData: Clean7Bit
%%LanguageLevel: 2
%%BoundingBox: 0 0 360 216
%%EndComments
%%BeginProlog
save
50 dict begin
/q { gsave } bind def
/Q { grestore } bind def
/cm { 6 array astore concat } bind def
/w { setlinewidth } bind def
/J { setlinecap } bind def
/j { setlinejoin } bind def
/M { setmiterlimit } bind def
/d { setdash } bind def
/m { moveto } bind def
/l { lineto } bind def
/c { curveto } bind def
/h { closepath } bind def
/re { exch dup neg 3 1 roll 5 3 roll moveto 0 rlineto
      0 exch rlineto 0 rlineto closepath } bind def
/S { stroke } bind def
/f { fill } bind def
/f* { eofill } bind def
/n { newpath } bind def
/W { clip } bind def
/W* { eoclip } bind def
/BT { } bind def
/ET { } bind def
/pdfmark where { pop globaldict /?pdfmark /exec load put }
    { globaldict begin /?pdfmark /pop load def /pdfmark
    /cleartomark load def end } ifelse
/BDC { mark 3 1 roll /BDC pdfmark } bind def
/EMC { mark /EMC pdfmark } bind def
/cairo_store_point { /cairo_point_y exch def /cairo_point_x exch def } def
/Tj { show currentpoint cairo_store_point } bind def
/TJ {
  {
    dup
    type /stringtype eq
    { show } { -0.001 mul 0 cairo_font_matrix dtransform rmoveto } ifelse
  } forall
  currentpoint cairo_store_point
} bind def
/cairo_selectfont { cairo_font_matrix aload pop pop pop 0 0 6 array astore
    cairo_font exch selectfont cairo_point_x cairo_point_y moveto } bind def
/Tf { pop /cairo_font exch def /cairo_font_matrix where
      { pop cairo_selectfont } if } bind def
/Td { matrix translate cairo_font_matrix matrix concatmatrix dup
      /cairo_font_matrix exch def dup 4 get exch 5 get cairo_store_point
      /cairo_font where { pop cairo_selectfont } if } bind def
/Tm { 2 copy 8 2 roll 6 array astore /cairo_font_matrix exch def
      cairo_store_point /cairo_font where { pop cairo_selectfont } if } bind def
/g { setgray } bind def
/rg { setrgbcolor } bind def
/d1 { setcachedevice } bind def
%%EndProlog
%%BeginSetup
%%EndSetup
%%Page: 1 1
%%BeginPageSetup
%%PageBoundingBox: 0 0 360 216
%%EndPageSetup
q 42 29 304 177 rectclip q
0 g
0.15 w
2 J
0 j
[ 0.2 2] 0 d
3.8 M q 1 0 0 -1 0 216 cm
42.949 174.199 m 345.148 174.199 l S Q
0.25 w
[] 0.0 d
q 1 0 0 -1 0 216 cm
42.949 174.199 m 46.648 174.199 l S Q
q 1 0 0 -1 0 216 cm
345.148 174.199 m 341.449 174.199 l S Q
0.15 w
[ 0.2 2] 0 d
q 1 0 0 -1 0 216 cm
42.949 149.051 m 345.148 149.051 l S Q
0.25 w
[] 0.0 d
q 1 0 0 -1 0 216 cm
42.949 149.051 m 46.648 149.051 l S Q
q 1 0 0 -1 0 216 cm
345.148 149.051 m 341.449 149.051 l S Q
0.15 w
[ 0.2 2] 0 d
q 1 0 0 -1 0 216 cm
42.949 123.898 m 345.148 123.898 l S Q
0.25 w
[] 0.0 d
q 1 0 0 -1 0 216 cm
42.949 123.898 m 46.648 123.898 l S Q
q 1 0 0 -1 0 216 cm
345.148 123.898 m 341.449 123.898 l S Q
0.15 w
[ 0.2 2] 0 d
q 1 0 0 -1 0 216 cm
42.949 98.75 m 345.148 98.75 l S Q
0.25 w
[] 0.0 d
q 1 0 0 -1 0 216 cm
42.949 98.75 m 46.648 98.75 l S Q
q 1 0 0 -1 0 216 cm
345.148 98.75 m 341.449 98.75 l S Q
0.15 w
[ 0.2 2] 0 d
q 1 0 0 -1 0 216 cm
42.949 73.602 m 345.148 73.602 l S Q
0.25 w
[] 0.0 d
q 1 0 0 -1 0 216 cm
42.949 73.602 m 46.648 73.602 l S Q
q 1 0 0 -1 0 216 cm
345.148 73.602 m 341.449 73.602 l S Q
0.15 w
[ 0.2 2] 0 d
q 1 0 0 -1 0 216 cm
42.949 48.449 m 345.148 48.449 l S Q
0.25 w
[] 0.0 d
q 1 0 0 -1 0 216 cm
42.949 48.449 m 46.648 48.449 l S Q
q 1 0 0 -1 0 216 cm
345.148 48.449 m 341.449 48.449 l S Q
0.15 w
[ 0.2 2] 0 d
q 1 0 0 -1 0 216 cm
42.949 23.301 m 48.051 23.301 l S Q
[ 0.2 2] 0 d
q 1 0 0 -1 0 216 cm
220.051 23.301 m 345.148 23.301 l S Q
0.25 w
[] 0.0 d
q 1 0 0 -1 0 216 cm
42.949 23.301 m 46.648 23.301 l S Q
q 1 0 0 -1 0 216 cm
345.148 23.301 m 341.449 23.301 l S Q
0.15 w
[ 0.2 2] 0 d
q 1 0 0 -1 0 216 cm
64.551 186.75 m 64.551 33.051 l S Q
[ 0.2 2] 0 d
q 1 0 0 -1 0 216 cm
64.551 14.449 m 64.551 10.75 l S Q
0.25 w
[] 0.0 d
q 1 0 0 -1 0 216 cm
64.551 186.75 m 64.551 183.051 l S Q
q 1 0 0 -1 0 216 cm
64.551 10.75 m 64.551 14.449 l S Q
0.15 w
[ 0.2 2] 0 d
q 1 0 0 -1 0 216 cm
107.699 186.75 m 107.699 33.051 l S Q
[ 0.2 2] 0 d
q 1 0 0 -1 0 216 cm
107.699 14.449 m 107.699 10.75 l S Q
0.25 w
[] 0.0 d
q 1 0 0 -1 0 216 cm
107.699 186.75 m 107.699 183.051 l S Q
q 1 0 0 -1 0 216 cm
107.699 10.75 m 107.699 14.449 l S Q
0.15 w
[ 0.2 2] 0 d
q 1 0 0 -1 0 216 cm
150.898 186.75 m 150.898 33.051 l S Q
[ 0.2 2] 0 d
q 1 0 0 -1 0 216 cm
150.898 14.449 m 150.898 10.75 l S Q
0.25 w
[] 0.0 d
q 1 0 0 -1 0 216 cm
150.898 186.75 m 150.898 183.051 l S Q
q 1 0 0 -1 0 216 cm
150.898 10.75 m 150.898 14.449 l S Q
0.15 w
[ 0.2 2] 0 d
q 1 0 0 -1 0 216 cm
194.051 186.75 m 194.051 33.051 l S Q
[ 0.2 2] 0 d
q 1 0 0 -1 0 216 cm
194.051 14.449 m 194.051 10.75 l S Q
0.25 w
[] 0.0 d
q 1 0 0 -1 0 216 cm
194.051 186.75 m 194.051 183.051 l S Q
q 1 0 0 -1 0 216 cm
194.051 10.75 m 194.051 14.449 l S Q
0.15 w
[ 0.2 2] 0 d
q 1 0 0 -1 0 216 cm
237.199 186.75 m 237.199 10.75 l S Q
0.25 w
[] 0.0 d
q 1 0 0 -1 0 216 cm
237.199 186.75 m 237.199 183.051 l S Q
q 1 0 0 -1 0 216 cm
237.199 10.75 m 237.199 14.449 l S Q
0.15 w
[ 0.2 2] 0 d
q 1 0 0 -1 0 216 cm
280.398 186.75 m 280.398 10.75 l S Q
0.25 w
[] 0.0 d
q 1 0 0 -1 0 216 cm
280.398 186.75 m 280.398 183.051 l S Q
q 1 0 0 -1 0 216 cm
280.398 10.75 m 280.398 14.449 l S Q
0.15 w
[ 0.2 2] 0 d
q 1 0 0 -1 0 216 cm
323.551 186.75 m 323.551 10.75 l S Q
0.25 w
[] 0.0 d
q 1 0 0 -1 0 216 cm
323.551 186.75 m 323.551 183.051 l S Q
q 1 0 0 -1 0 216 cm
323.551 10.75 m 323.551 14.449 l S Q
0.15 w
[ 0.2 2] 0 d
q 1 0 0 -1 0 216 cm
64.551 186.75 m 64.551 33.051 l S Q
[ 0.2 2] 0 d
q 1 0 0 -1 0 216 cm
64.551 14.449 m 64.551 10.75 l S Q
0.25 w
[] 0.0 d
q 1 0 0 -1 0 216 cm
64.551 186.75 m 64.551 183.051 l S Q
q 1 0 0 -1 0 216 cm
64.551 10.75 m 64.551 14.449 l S Q
0.15 w
[ 0.2 2] 0 d
q 1 0 0 -1 0 216 cm
107.699 186.75 m 107.699 33.051 l S Q
[ 0.2 2] 0 d
q 1 0 0 -1 0 216 cm
107.699 14.449 m 107.699 10.75 l S Q
0.25 w
[] 0.0 d
q 1 0 0 -1 0 216 cm
107.699 186.75 m 107.699 183.051 l S Q
q 1 0 0 -1 0 216 cm
107.699 10.75 m 107.699 14.449 l S Q
0.15 w
[ 0.2 2] 0 d
q 1 0 0 -1 0 216 cm
150.898 186.75 m 150.898 33.051 l S Q
[ 0.2 2] 0 d
q 1 0 0 -1 0 216 cm
150.898 14.449 m 150.898 10.75 l S Q
0.25 w
[] 0.0 d
q 1 0 0 -1 0 216 cm
150.898 186.75 m 150.898 183.051 l S Q
q 1 0 0 -1 0 216 cm
150.898 10.75 m 150.898 14.449 l S Q
0.15 w
[ 0.2 2] 0 d
q 1 0 0 -1 0 216 cm
194.051 186.75 m 194.051 33.051 l S Q
[ 0.2 2] 0 d
q 1 0 0 -1 0 216 cm
194.051 14.449 m 194.051 10.75 l S Q
0.25 w
[] 0.0 d
q 1 0 0 -1 0 216 cm
194.051 186.75 m 194.051 183.051 l S Q
q 1 0 0 -1 0 216 cm
194.051 10.75 m 194.051 14.449 l S Q
0.15 w
[ 0.2 2] 0 d
q 1 0 0 -1 0 216 cm
237.199 186.75 m 237.199 10.75 l S Q
0.25 w
[] 0.0 d
q 1 0 0 -1 0 216 cm
237.199 186.75 m 237.199 183.051 l S Q
q 1 0 0 -1 0 216 cm
237.199 10.75 m 237.199 14.449 l S Q
0.15 w
[ 0.2 2] 0 d
q 1 0 0 -1 0 216 cm
280.398 186.75 m 280.398 10.75 l S Q
0.25 w
[] 0.0 d
q 1 0 0 -1 0 216 cm
280.398 186.75 m 280.398 183.051 l S Q
q 1 0 0 -1 0 216 cm
280.398 10.75 m 280.398 14.449 l S Q
0.15 w
[ 0.2 2] 0 d
q 1 0 0 -1 0 216 cm
323.551 186.75 m 323.551 10.75 l S Q
0.25 w
[] 0.0 d
q 1 0 0 -1 0 216 cm
323.551 186.75 m 323.551 183.051 l S Q
q 1 0 0 -1 0 216 cm
323.551 10.75 m 323.551 14.449 l S Q
q 1 0 0 -1 0 216 cm
42.949 10.75 302.199 176 re S Q
q 1 0 0 -1 0 216 cm
42.949 149.051 m 345.148 149.051 l S Q
0.172549 0.462745 0.733333 rg
q 1 0 0 -1 0 216 cm
53.148 19.102 m 77.25 19.102 l S Q
q 1 0 0 -1 0 216 cm
53.148 17.25 m 53.148 20.949 l S Q
q 1 0 0 -1 0 216 cm
77.25 17.25 m 77.25 20.949 l S Q
q 1 0 0 -1 0 216 cm
322.25 117.051 m 279.102 130.602 l 235.949 139.148 l 192.75 145.898 l 149.602
 156.898 l 106.398 151.648 l 63.25 153.352 l S Q
q 1 0 0 -1 0 216 cm
322.25 151.148 m 322.25 83 l S Q
q 1 0 0 -1 0 216 cm
320.398 151.148 m 324.102 151.148 l S Q
q 1 0 0 -1 0 216 cm
320.398 83 m 324.102 83 l S Q
q 1 0 0 -1 0 216 cm
279.102 166.398 m 279.102 94.75 l S Q
q 1 0 0 -1 0 216 cm
277.25 166.398 m 280.949 166.398 l S Q
q 1 0 0 -1 0 216 cm
277.25 94.75 m 280.949 94.75 l S Q
q 1 0 0 -1 0 216 cm
235.949 167.801 m 235.949 110.5 l S Q
q 1 0 0 -1 0 216 cm
234.102 167.801 m 237.801 167.801 l S Q
q 1 0 0 -1 0 216 cm
234.102 110.5 m 237.801 110.5 l S Q
q 1 0 0 -1 0 216 cm
192.75 172.75 m 192.75 119.051 l S Q
q 1 0 0 -1 0 216 cm
190.898 172.75 m 194.602 172.75 l S Q
q 1 0 0 -1 0 216 cm
190.898 119.051 m 194.602 119.051 l S Q
q 1 0 0 -1 0 216 cm
149.602 183.602 m 149.602 130.199 l S Q
q 1 0 0 -1 0 216 cm
147.75 183.602 m 151.449 183.602 l S Q
q 1 0 0 -1 0 216 cm
147.75 130.199 m 151.449 130.199 l S Q
q 1 0 0 -1 0 216 cm
106.398 168.5 m 106.398 134.801 l S Q
q 1 0 0 -1 0 216 cm
104.551 168.5 m 108.25 168.5 l S Q
q 1 0 0 -1 0 216 cm
104.551 134.801 m 108.25 134.801 l S Q
q 1 0 0 -1 0 216 cm
63.25 167.199 m 63.25 139.5 l S Q
q 1 0 0 -1 0 216 cm
61.398 167.199 m 65.102 167.199 l S Q
q 1 0 0 -1 0 216 cm
61.398 139.5 m 65.102 139.5 l S Q
q 1 0 0 -1 0 216 cm
319.25 117.051 m 325.25 117.051 l S Q
q 1 0 0 -1 0 216 cm
322.25 114.051 m 322.25 120.051 l S Q
q 1 0 0 -1 0 216 cm
276.102 130.602 m 282.102 130.602 l S Q
q 1 0 0 -1 0 216 cm
279.102 127.602 m 279.102 133.602 l S Q
q 1 0 0 -1 0 216 cm
232.949 139.148 m 238.949 139.148 l S Q
q 1 0 0 -1 0 216 cm
235.949 136.148 m 235.949 142.148 l S Q
q 1 0 0 -1 0 216 cm
189.75 145.898 m 195.75 145.898 l S Q
q 1 0 0 -1 0 216 cm
192.75 142.898 m 192.75 148.898 l S Q
q 1 0 0 -1 0 216 cm
146.602 156.898 m 152.602 156.898 l S Q
q 1 0 0 -1 0 216 cm
149.602 153.898 m 149.602 159.898 l S Q
q 1 0 0 -1 0 216 cm
103.398 151.648 m 109.398 151.648 l S Q
q 1 0 0 -1 0 216 cm
106.398 148.648 m 106.398 154.648 l S Q
q 1 0 0 -1 0 216 cm
60.25 153.352 m 66.25 153.352 l S Q
q 1 0 0 -1 0 216 cm
63.25 150.352 m 63.25 156.352 l S Q
q 1 0 0 -1 0 216 cm
62.199 19.102 m 68.199 19.102 l S Q
q 1 0 0 -1 0 216 cm
65.199 16.102 m 65.199 22.102 l S Q
0.74902 0.145098 0.172549 rg
q 1 0 0 -1 0 216 cm
53.148 28.398 m 77.25 28.398 l S Q
q 1 0 0 -1 0 216 cm
53.148 26.551 m 53.148 30.25 l S Q
q 1 0 0 -1 0 216 cm
77.25 26.551 m 77.25 30.25 l S Q
q 1 0 0 -1 0 216 cm
324.852 22.898 m 281.699 73.199 l 238.5 97.352 l 195.352 131.148 l 152.148
 146.102 l 109 149.949 l 65.852 153.398 l S Q
q 1 0 0 -1 0 216 cm
324.852 84.551 m 324.852 10.75 l S Q
q 1 0 0 -1 0 216 cm
323 84.551 m 326.699 84.551 l S Q
q 1 0 0 -1 0 216 cm
281.699 122.898 m 281.699 23.5 l S Q
q 1 0 0 -1 0 216 cm
279.852 122.898 m 283.551 122.898 l S Q
q 1 0 0 -1 0 216 cm
279.852 23.5 m 283.551 23.5 l S Q
q 1 0 0 -1 0 216 cm
238.5 141.102 m 238.5 53.648 l S Q
q 1 0 0 -1 0 216 cm
236.648 141.102 m 240.352 141.102 l S Q
q 1 0 0 -1 0 216 cm
236.648 53.648 m 240.352 53.648 l S Q
q 1 0 0 -1 0 216 cm
195.352 163.199 m 195.352 99.148 l S Q
q 1 0 0 -1 0 216 cm
193.5 163.199 m 197.199 163.199 l S Q
q 1 0 0 -1 0 216 cm
193.5 99.148 m 197.199 99.148 l S Q
q 1 0 0 -1 0 216 cm
152.148 167.602 m 152.148 124.602 l S Q
q 1 0 0 -1 0 216 cm
150.301 167.602 m 154 167.602 l S Q
q 1 0 0 -1 0 216 cm
150.301 124.602 m 154 124.602 l S Q
q 1 0 0 -1 0 216 cm
109 163.699 m 109 136.25 l S Q
q 1 0 0 -1 0 216 cm
107.148 163.699 m 110.852 163.699 l S Q
q 1 0 0 -1 0 216 cm
107.148 136.25 m 110.852 136.25 l S Q
q 1 0 0 -1 0 216 cm
65.852 162.949 m 65.852 143.801 l S Q
q 1 0 0 -1 0 216 cm
64 162.949 m 67.699 162.949 l S Q
q 1 0 0 -1 0 216 cm
64 143.801 m 67.699 143.801 l S Q
q 1 0 0 -1 0 216 cm
321.852 19.898 m 327.852 25.898 l S Q
q 1 0 0 -1 0 216 cm
321.852 25.898 m 327.852 19.898 l S Q
q 1 0 0 -1 0 216 cm
278.699 70.199 m 284.699 76.199 l S Q
q 1 0 0 -1 0 216 cm
278.699 76.199 m 284.699 70.199 l S Q
q 1 0 0 -1 0 216 cm
235.5 94.352 m 241.5 100.352 l S Q
q 1 0 0 -1 0 216 cm
235.5 100.352 m 241.5 94.352 l S Q
q 1 0 0 -1 0 216 cm
192.352 128.148 m 198.352 134.148 l S Q
q 1 0 0 -1 0 216 cm
192.352 134.148 m 198.352 128.148 l S Q
q 1 0 0 -1 0 216 cm
149.148 143.102 m 155.148 149.102 l S Q
q 1 0 0 -1 0 216 cm
149.148 149.102 m 155.148 143.102 l S Q
q 1 0 0 -1 0 216 cm
106 146.949 m 112 152.949 l S Q
q 1 0 0 -1 0 216 cm
106 152.949 m 112 146.949 l S Q
q 1 0 0 -1 0 216 cm
62.852 150.398 m 68.852 156.398 l S Q
q 1 0 0 -1 0 216 cm
62.852 156.398 m 68.852 150.398 l S Q
q 1 0 0 -1 0 216 cm
62.199 25.398 m 68.199 31.398 l S Q
q 1 0 0 -1 0 216 cm
62.199 31.398 m 68.199 25.398 l S Q
0 g
q 1 0 0 -1 0 216 cm
42.949 10.75 302.199 176 re S Q
Q Q
showpage
%%Trailer
end restore
%%EOF
