%!PS-Adobe-3.0 EPSF-3.0
%%Creator: cairo 1.13.1 (http://cairographics.org)
%%CreationDate: Fri May 20 09:13:30 2016
%%Pages: 1
%%DocumentData: Clean7Bit
%%LanguageLevel: 2
%%BoundingBox: 0 0 360 216
%%EndComments
%%BeginProlog
save
50 dict begin
/q { gsave } bind def
/Q { grestore } bind def
/cm { 6 array astore concat } bind def
/w { setlinewidth } bind def
/J { setlinecap } bind def
/j { setlinejoin } bind def
/M { setmiterlimit } bind def
/d { setdash } bind def
/m { moveto } bind def
/l { lineto } bind def
/c { curveto } bind def
/h { closepath } bind def
/re { exch dup neg 3 1 roll 5 3 roll moveto 0 rlineto
      0 exch rlineto 0 rlineto closepath } bind def
/S { stroke } bind def
/f { fill } bind def
/f* { eofill } bind def
/n { newpath } bind def
/W { clip } bind def
/W* { eoclip } bind def
/BT { } bind def
/ET { } bind def
/pdfmark where { pop globaldict /?pdfmark /exec load put }
    { globaldict begin /?pdfmark /pop load def /pdfmark
    /cleartomark load def end } ifelse
/BDC { mark 3 1 roll /BDC pdfmark } bind def
/EMC { mark /EMC pdfmark } bind def
/cairo_store_point { /cairo_point_y exch def /cairo_point_x exch def } def
/Tj { show currentpoint cairo_store_point } bind def
/TJ {
  {
    dup
    type /stringtype eq
    { show } { -0.001 mul 0 cairo_font_matrix dtransform rmoveto } ifelse
  } forall
  currentpoint cairo_store_point
} bind def
/cairo_selectfont { cairo_font_matrix aload pop pop pop 0 0 6 array astore
    cairo_font exch selectfont cairo_point_x cairo_point_y moveto } bind def
/Tf { pop /cairo_font exch def /cairo_font_matrix where
      { pop cairo_selectfont } if } bind def
/Td { matrix translate cairo_font_matrix matrix concatmatrix dup
      /cairo_font_matrix exch def dup 4 get exch 5 get cairo_store_point
      /cairo_font where { pop cairo_selectfont } if } bind def
/Tm { 2 copy 8 2 roll 6 array astore /cairo_font_matrix exch def
      cairo_store_point /cairo_font where { pop cairo_selectfont } if } bind def
/g { setgray } bind def
/rg { setrgbcolor } bind def
/d1 { setcachedevice } bind def
%%EndProlog
%%BeginSetup
%%EndSetup
%%Page: 1 1
%%BeginPageSetup
%%PageBoundingBox: 0 0 360 216
%%EndPageSetup
q 42 26 304 182 rectclip q
0 g
0.15 w
2 J
0 j
[ 0.2 2] 0 d
3.8 M q 1 0 0 -1 0 216 cm
42.949 186.75 m 345.148 186.75 l S Q
0.25 w
[] 0.0 d
q 1 0 0 -1 0 216 cm
42.949 186.75 m 46.648 186.75 l S Q
q 1 0 0 -1 0 216 cm
345.148 186.75 m 341.449 186.75 l S Q
0.15 w
[ 0.2 2] 0 d
q 1 0 0 -1 0 216 cm
42.949 151.551 m 345.148 151.551 l S Q
0.25 w
[] 0.0 d
q 1 0 0 -1 0 216 cm
42.949 151.551 m 46.648 151.551 l S Q
q 1 0 0 -1 0 216 cm
345.148 151.551 m 341.449 151.551 l S Q
0.15 w
[ 0.2 2] 0 d
q 1 0 0 -1 0 216 cm
42.949 116.352 m 345.148 116.352 l S Q
0.25 w
[] 0.0 d
q 1 0 0 -1 0 216 cm
42.949 116.352 m 46.648 116.352 l S Q
q 1 0 0 -1 0 216 cm
345.148 116.352 m 341.449 116.352 l S Q
0.15 w
[ 0.2 2] 0 d
q 1 0 0 -1 0 216 cm
42.949 81.148 m 345.148 81.148 l S Q
0.25 w
[] 0.0 d
q 1 0 0 -1 0 216 cm
42.949 81.148 m 46.648 81.148 l S Q
q 1 0 0 -1 0 216 cm
345.148 81.148 m 341.449 81.148 l S Q
0.15 w
[ 0.2 2] 0 d
q 1 0 0 -1 0 216 cm
42.949 45.949 m 345.148 45.949 l S Q
0.25 w
[] 0.0 d
q 1 0 0 -1 0 216 cm
42.949 45.949 m 46.648 45.949 l S Q
q 1 0 0 -1 0 216 cm
345.148 45.949 m 341.449 45.949 l S Q
0.15 w
[ 0.2 2] 0 d
q 1 0 0 -1 0 216 cm
42.949 10.75 m 345.148 10.75 l S Q
0.25 w
[] 0.0 d
q 1 0 0 -1 0 216 cm
42.949 10.75 m 46.648 10.75 l S Q
q 1 0 0 -1 0 216 cm
345.148 10.75 m 341.449 10.75 l S Q
0.15 w
[ 0.2 2] 0 d
q 1 0 0 -1 0 216 cm
64.551 186.75 m 64.551 33.051 l S Q
[ 0.2 2] 0 d
q 1 0 0 -1 0 216 cm
64.551 14.449 m 64.551 10.75 l S Q
0.25 w
[] 0.0 d
q 1 0 0 -1 0 216 cm
64.551 186.75 m 64.551 183.051 l S Q
q 1 0 0 -1 0 216 cm
64.551 10.75 m 64.551 14.449 l S Q
0.15 w
[ 0.2 2] 0 d
q 1 0 0 -1 0 216 cm
107.699 186.75 m 107.699 33.051 l S Q
[ 0.2 2] 0 d
q 1 0 0 -1 0 216 cm
107.699 14.449 m 107.699 10.75 l S Q
0.25 w
[] 0.0 d
q 1 0 0 -1 0 216 cm
107.699 186.75 m 107.699 183.051 l S Q
q 1 0 0 -1 0 216 cm
107.699 10.75 m 107.699 14.449 l S Q
0.15 w
[ 0.2 2] 0 d
q 1 0 0 -1 0 216 cm
150.898 186.75 m 150.898 33.051 l S Q
[ 0.2 2] 0 d
q 1 0 0 -1 0 216 cm
150.898 14.449 m 150.898 10.75 l S Q
0.25 w
[] 0.0 d
q 1 0 0 -1 0 216 cm
150.898 186.75 m 150.898 183.051 l S Q
q 1 0 0 -1 0 216 cm
150.898 10.75 m 150.898 14.449 l S Q
0.15 w
[ 0.2 2] 0 d
q 1 0 0 -1 0 216 cm
194.051 186.75 m 194.051 10.75 l S Q
0.25 w
[] 0.0 d
q 1 0 0 -1 0 216 cm
194.051 186.75 m 194.051 183.051 l S Q
q 1 0 0 -1 0 216 cm
194.051 10.75 m 194.051 14.449 l S Q
0.15 w
[ 0.2 2] 0 d
q 1 0 0 -1 0 216 cm
237.199 186.75 m 237.199 10.75 l S Q
0.25 w
[] 0.0 d
q 1 0 0 -1 0 216 cm
237.199 186.75 m 237.199 183.051 l S Q
q 1 0 0 -1 0 216 cm
237.199 10.75 m 237.199 14.449 l S Q
0.15 w
[ 0.2 2] 0 d
q 1 0 0 -1 0 216 cm
280.398 186.75 m 280.398 10.75 l S Q
0.25 w
[] 0.0 d
q 1 0 0 -1 0 216 cm
280.398 186.75 m 280.398 183.051 l S Q
q 1 0 0 -1 0 216 cm
280.398 10.75 m 280.398 14.449 l S Q
0.15 w
[ 0.2 2] 0 d
q 1 0 0 -1 0 216 cm
323.551 186.75 m 323.551 10.75 l S Q
0.25 w
[] 0.0 d
q 1 0 0 -1 0 216 cm
323.551 186.75 m 323.551 183.051 l S Q
q 1 0 0 -1 0 216 cm
323.551 10.75 m 323.551 14.449 l S Q
q 1 0 0 -1 0 216 cm
42.949 10.75 302.199 176 re S Q
0.172549 0.462745 0.733333 rg
q 1 0 0 -1 0 216 cm
134.75 19.102 m 158.852 19.102 l S Q
q 1 0 0 -1 0 216 cm
134.75 17.25 m 134.75 20.949 l S Q
q 1 0 0 -1 0 216 cm
158.852 17.25 m 158.852 20.949 l S Q
q 1 0 0 -1 0 216 cm
64.102 186.75 m 107.301 128.25 l 150.449 78.449 l 193.602 35.551 l 236.801
 20.551 l 279.949 18.25 l 323.148 11.352 l S Q
q 1 0 0 -1 0 216 cm
62.25 186.75 m 65.949 186.75 l S Q
q 1 0 0 -1 0 216 cm
62.25 186.75 m 65.949 186.75 l S Q
q 1 0 0 -1 0 216 cm
107.301 144.449 m 107.301 112 l S Q
q 1 0 0 -1 0 216 cm
105.449 144.449 m 109.148 144.449 l S Q
q 1 0 0 -1 0 216 cm
105.449 112 m 109.148 112 l S Q
q 1 0 0 -1 0 216 cm
150.449 100.551 m 150.449 56.352 l S Q
q 1 0 0 -1 0 216 cm
148.602 100.551 m 152.301 100.551 l S Q
q 1 0 0 -1 0 216 cm
148.602 56.352 m 152.301 56.352 l S Q
q 1 0 0 -1 0 216 cm
193.602 53.801 m 193.602 17.301 l S Q
q 1 0 0 -1 0 216 cm
191.75 53.801 m 195.449 53.801 l S Q
q 1 0 0 -1 0 216 cm
191.75 17.301 m 195.449 17.301 l S Q
q 1 0 0 -1 0 216 cm
236.801 29.301 m 236.801 11.75 l S Q
q 1 0 0 -1 0 216 cm
234.949 29.301 m 238.648 29.301 l S Q
q 1 0 0 -1 0 216 cm
234.949 11.75 m 238.648 11.75 l S Q
q 1 0 0 -1 0 216 cm
279.949 24.699 m 279.949 11.801 l S Q
q 1 0 0 -1 0 216 cm
278.102 24.699 m 281.801 24.699 l S Q
q 1 0 0 -1 0 216 cm
278.102 11.801 m 281.801 11.801 l S Q
q 1 0 0 -1 0 216 cm
323.148 12.102 m 323.148 10.75 l S Q
q 1 0 0 -1 0 216 cm
321.301 12.102 m 325 12.102 l S Q
q 1 0 0 -1 0 216 cm
61.102 186.75 m 67.102 186.75 l S Q
q 1 0 0 -1 0 216 cm
64.102 183.75 m 64.102 189.75 l S Q
q 1 0 0 -1 0 216 cm
104.301 128.25 m 110.301 128.25 l S Q
q 1 0 0 -1 0 216 cm
107.301 125.25 m 107.301 131.25 l S Q
q 1 0 0 -1 0 216 cm
147.449 78.449 m 153.449 78.449 l S Q
q 1 0 0 -1 0 216 cm
150.449 75.449 m 150.449 81.449 l S Q
q 1 0 0 -1 0 216 cm
190.602 35.551 m 196.602 35.551 l S Q
q 1 0 0 -1 0 216 cm
193.602 32.551 m 193.602 38.551 l S Q
q 1 0 0 -1 0 216 cm
233.801 20.551 m 239.801 20.551 l S Q
q 1 0 0 -1 0 216 cm
236.801 17.551 m 236.801 23.551 l S Q
q 1 0 0 -1 0 216 cm
276.949 18.25 m 282.949 18.25 l S Q
q 1 0 0 -1 0 216 cm
279.949 15.25 m 279.949 21.25 l S Q
q 1 0 0 -1 0 216 cm
320.148 11.352 m 326.148 11.352 l S Q
q 1 0 0 -1 0 216 cm
323.148 8.352 m 323.148 14.352 l S Q
q 1 0 0 -1 0 216 cm
143.801 19.102 m 149.801 19.102 l S Q
q 1 0 0 -1 0 216 cm
146.801 16.102 m 146.801 22.102 l S Q
0.74902 0.145098 0.172549 rg
q 1 0 0 -1 0 216 cm
134.75 28.398 m 158.852 28.398 l S Q
q 1 0 0 -1 0 216 cm
134.75 26.551 m 134.75 30.25 l S Q
q 1 0 0 -1 0 216 cm
158.852 26.551 m 158.852 30.25 l S Q
q 1 0 0 -1 0 216 cm
64.949 186.75 m 108.148 145.801 l 151.301 98.5 l 194.5 29.898 l 237.648
 35.449 l 280.801 29.449 l 324 22.699 l S Q
q 1 0 0 -1 0 216 cm
63.102 186.75 m 66.801 186.75 l S Q
q 1 0 0 -1 0 216 cm
63.102 186.75 m 66.801 186.75 l S Q
q 1 0 0 -1 0 216 cm
108.148 158.699 m 108.148 132.898 l S Q
q 1 0 0 -1 0 216 cm
106.301 158.699 m 110 158.699 l S Q
q 1 0 0 -1 0 216 cm
106.301 132.898 m 110 132.898 l S Q
q 1 0 0 -1 0 216 cm
151.301 123.051 m 151.301 73.949 l S Q
q 1 0 0 -1 0 216 cm
149.449 123.051 m 153.148 123.051 l S Q
q 1 0 0 -1 0 216 cm
149.449 73.949 m 153.148 73.949 l S Q
q 1 0 0 -1 0 216 cm
194.5 40.949 m 194.5 18.852 l S Q
q 1 0 0 -1 0 216 cm
192.648 40.949 m 196.352 40.949 l S Q
q 1 0 0 -1 0 216 cm
192.648 18.852 m 196.352 18.852 l S Q
q 1 0 0 -1 0 216 cm
237.648 53.801 m 237.648 17.102 l S Q
q 1 0 0 -1 0 216 cm
235.801 53.801 m 239.5 53.801 l S Q
q 1 0 0 -1 0 216 cm
235.801 17.102 m 239.5 17.102 l S Q
q 1 0 0 -1 0 216 cm
280.801 44.602 m 280.801 14.25 l S Q
q 1 0 0 -1 0 216 cm
278.949 44.602 m 282.648 44.602 l S Q
q 1 0 0 -1 0 216 cm
278.949 14.25 m 282.648 14.25 l S Q
q 1 0 0 -1 0 216 cm
324 31.602 m 324 13.852 l S Q
q 1 0 0 -1 0 216 cm
322.148 31.602 m 325.852 31.602 l S Q
q 1 0 0 -1 0 216 cm
322.148 13.852 m 325.852 13.852 l S Q
q 1 0 0 -1 0 216 cm
61.949 183.75 m 67.949 189.75 l S Q
q 1 0 0 -1 0 216 cm
61.949 189.75 m 67.949 183.75 l S Q
q 1 0 0 -1 0 216 cm
105.148 142.801 m 111.148 148.801 l S Q
q 1 0 0 -1 0 216 cm
105.148 148.801 m 111.148 142.801 l S Q
q 1 0 0 -1 0 216 cm
148.301 95.5 m 154.301 101.5 l S Q
q 1 0 0 -1 0 216 cm
148.301 101.5 m 154.301 95.5 l S Q
q 1 0 0 -1 0 216 cm
191.5 26.898 m 197.5 32.898 l S Q
q 1 0 0 -1 0 216 cm
191.5 32.898 m 197.5 26.898 l S Q
q 1 0 0 -1 0 216 cm
234.648 32.449 m 240.648 38.449 l S Q
q 1 0 0 -1 0 216 cm
234.648 38.449 m 240.648 32.449 l S Q
q 1 0 0 -1 0 216 cm
277.801 26.449 m 283.801 32.449 l S Q
q 1 0 0 -1 0 216 cm
277.801 32.449 m 283.801 26.449 l S Q
q 1 0 0 -1 0 216 cm
321 19.699 m 327 25.699 l S Q
q 1 0 0 -1 0 216 cm
321 25.699 m 327 19.699 l S Q
q 1 0 0 -1 0 216 cm
143.801 25.398 m 149.801 31.398 l S Q
q 1 0 0 -1 0 216 cm
143.801 31.398 m 149.801 25.398 l S Q
0 g
q 1 0 0 -1 0 216 cm
42.949 10.75 302.199 176 re S Q
Q Q
showpage
%%Trailer
end restore
%%EOF
