%!PS-Adobe-3.0 EPSF-3.0
%%Creator: cairo 1.13.1 (http://cairographics.org)
%%CreationDate: Fri May 20 09:13:52 2016
%%Pages: 1
%%DocumentData: Clean7Bit
%%LanguageLevel: 2
%%BoundingBox: 0 0 360 216
%%EndComments
%%BeginProlog
save
50 dict begin
/q { gsave } bind def
/Q { grestore } bind def
/cm { 6 array astore concat } bind def
/w { setlinewidth } bind def
/J { setlinecap } bind def
/j { setlinejoin } bind def
/M { setmiterlimit } bind def
/d { setdash } bind def
/m { moveto } bind def
/l { lineto } bind def
/c { curveto } bind def
/h { closepath } bind def
/re { exch dup neg 3 1 roll 5 3 roll moveto 0 rlineto
      0 exch rlineto 0 rlineto closepath } bind def
/S { stroke } bind def
/f { fill } bind def
/f* { eofill } bind def
/n { newpath } bind def
/W { clip } bind def
/W* { eoclip } bind def
/BT { } bind def
/ET { } bind def
/pdfmark where { pop globaldict /?pdfmark /exec load put }
    { globaldict begin /?pdfmark /pop load def /pdfmark
    /cleartomark load def end } ifelse
/BDC { mark 3 1 roll /BDC pdfmark } bind def
/EMC { mark /EMC pdfmark } bind def
/cairo_store_point { /cairo_point_y exch def /cairo_point_x exch def } def
/Tj { show currentpoint cairo_store_point } bind def
/TJ {
  {
    dup
    type /stringtype eq
    { show } { -0.001 mul 0 cairo_font_matrix dtransform rmoveto } ifelse
  } forall
  currentpoint cairo_store_point
} bind def
/cairo_selectfont { cairo_font_matrix aload pop pop pop 0 0 6 array astore
    cairo_font exch selectfont cairo_point_x cairo_point_y moveto } bind def
/Tf { pop /cairo_font exch def /cairo_font_matrix where
      { pop cairo_selectfont } if } bind def
/Td { matrix translate cairo_font_matrix matrix concatmatrix dup
      /cairo_font_matrix exch def dup 4 get exch 5 get cairo_store_point
      /cairo_font where { pop cairo_selectfont } if } bind def
/Tm { 2 copy 8 2 roll 6 array astore /cairo_font_matrix exch def
      cairo_store_point /cairo_font where { pop cairo_selectfont } if } bind def
/g { setgray } bind def
/rg { setrgbcolor } bind def
/d1 { setcachedevice } bind def
%%EndProlog
%%BeginSetup
%%EndSetup
%%Page: 1 1
%%BeginPageSetup
%%PageBoundingBox: 0 0 360 216
%%EndPageSetup
q 30 29 316 177 rectclip q
0 g
0.15 w
2 J
0 j
[ 0.2 2] 0 d
3.8 M q 1 0 0 -1 0 216 cm
32.75 164.75 m 345.148 164.75 l S Q
0.25 w
[] 0.0 d
q 1 0 0 -1 0 216 cm
32.75 164.75 m 36.449 164.75 l S Q
q 1 0 0 -1 0 216 cm
345.148 164.75 m 341.449 164.75 l S Q
0.15 w
[ 0.2 2] 0 d
q 1 0 0 -1 0 216 cm
32.75 120.75 m 345.148 120.75 l S Q
0.25 w
[] 0.0 d
q 1 0 0 -1 0 216 cm
32.75 120.75 m 36.449 120.75 l S Q
q 1 0 0 -1 0 216 cm
345.148 120.75 m 341.449 120.75 l S Q
0.15 w
[ 0.2 2] 0 d
q 1 0 0 -1 0 216 cm
32.75 76.75 m 345.148 76.75 l S Q
0.25 w
[] 0.0 d
q 1 0 0 -1 0 216 cm
32.75 76.75 m 36.449 76.75 l S Q
q 1 0 0 -1 0 216 cm
345.148 76.75 m 341.449 76.75 l S Q
0.15 w
[ 0.2 2] 0 d
q 1 0 0 -1 0 216 cm
32.75 32.75 m 290.449 32.75 l S Q
[ 0.2 2] 0 d
q 1 0 0 -1 0 216 cm
340.051 32.75 m 345.148 32.75 l S Q
0.25 w
[] 0.0 d
q 1 0 0 -1 0 216 cm
32.75 32.75 m 36.449 32.75 l S Q
q 1 0 0 -1 0 216 cm
345.148 32.75 m 341.449 32.75 l S Q
q 1 0 0 -1 0 216 cm
68 186.75 m 68 184.898 l S Q
q 1 0 0 -1 0 216 cm
68 10.75 m 68 12.602 l S Q
0.15 w
[ 0.2 2] 0 d
q 1 0 0 -1 0 216 cm
105.801 186.75 m 105.801 10.75 l S Q
0.25 w
[] 0.0 d
q 1 0 0 -1 0 216 cm
105.801 186.75 m 105.801 183.051 l S Q
q 1 0 0 -1 0 216 cm
105.801 10.75 m 105.801 14.449 l S Q
q 1 0 0 -1 0 216 cm
143.602 186.75 m 143.602 184.898 l S Q
q 1 0 0 -1 0 216 cm
143.602 10.75 m 143.602 12.602 l S Q
0.15 w
[ 0.2 2] 0 d
q 1 0 0 -1 0 216 cm
181.398 186.75 m 181.398 10.75 l S Q
0.25 w
[] 0.0 d
q 1 0 0 -1 0 216 cm
181.398 186.75 m 181.398 183.051 l S Q
q 1 0 0 -1 0 216 cm
181.398 10.75 m 181.398 14.449 l S Q
q 1 0 0 -1 0 216 cm
219.199 186.75 m 219.199 184.898 l S Q
q 1 0 0 -1 0 216 cm
219.199 10.75 m 219.199 12.602 l S Q
0.15 w
[ 0.2 2] 0 d
q 1 0 0 -1 0 216 cm
256.949 186.75 m 256.949 10.75 l S Q
0.25 w
[] 0.0 d
q 1 0 0 -1 0 216 cm
256.949 186.75 m 256.949 183.051 l S Q
q 1 0 0 -1 0 216 cm
256.949 10.75 m 256.949 14.449 l S Q
q 1 0 0 -1 0 216 cm
294.75 186.75 m 294.75 184.898 l S Q
q 1 0 0 -1 0 216 cm
294.75 10.75 m 294.75 12.602 l S Q
0.15 w
[ 0.2 2] 0 d
q 1 0 0 -1 0 216 cm
332.551 186.75 m 332.551 51.648 l S Q
[ 0.2 2] 0 d
q 1 0 0 -1 0 216 cm
332.551 14.449 m 332.551 10.75 l S Q
0.25 w
[] 0.0 d
q 1 0 0 -1 0 216 cm
332.551 186.75 m 332.551 183.051 l S Q
q 1 0 0 -1 0 216 cm
332.551 10.75 m 332.551 14.449 l S Q
q 1 0 0 -1 0 216 cm
32.75 10.75 312.398 176 re S Q
q 1 0 0 -1 0 216 cm
30.25 164.75 m 332.551 164.75 l S Q
0.172549 0.462745 0.733333 rg
q 1 0 0 -1 0 216 cm
310.852 19.102 m 334.949 19.102 l S Q
q 1 0 0 -1 0 216 cm
310.852 17.25 m 310.852 20.949 l S Q
q 1 0 0 -1 0 216 cm
334.949 17.25 m 334.949 20.949 l S Q
q 1 0 0 -1 0 216 cm
67.648 170.199 m 143.199 170.199 l 181 170.398 l 332.199 170.398 l S Q
q 1 0 0 -1 0 216 cm
67.648 176.148 m 67.648 164.25 l S Q
q 1 0 0 -1 0 216 cm
65.801 176.148 m 69.5 176.148 l S Q
q 1 0 0 -1 0 216 cm
65.801 164.25 m 69.5 164.25 l S Q
q 1 0 0 -1 0 216 cm
105.449 176.148 m 105.449 164.25 l S Q
q 1 0 0 -1 0 216 cm
103.602 176.148 m 107.301 176.148 l S Q
q 1 0 0 -1 0 216 cm
103.602 164.25 m 107.301 164.25 l S Q
q 1 0 0 -1 0 216 cm
143.199 176.199 m 143.199 164.25 l S Q
q 1 0 0 -1 0 216 cm
141.352 176.199 m 145.051 176.199 l S Q
q 1 0 0 -1 0 216 cm
141.352 164.25 m 145.051 164.25 l S Q
q 1 0 0 -1 0 216 cm
181 176.25 m 181 164.5 l S Q
q 1 0 0 -1 0 216 cm
179.148 176.25 m 182.852 176.25 l S Q
q 1 0 0 -1 0 216 cm
179.148 164.5 m 182.852 164.5 l S Q
q 1 0 0 -1 0 216 cm
218.801 176.25 m 218.801 164.5 l S Q
q 1 0 0 -1 0 216 cm
216.949 176.25 m 220.648 176.25 l S Q
q 1 0 0 -1 0 216 cm
216.949 164.5 m 220.648 164.5 l S Q
q 1 0 0 -1 0 216 cm
256.602 176.25 m 256.602 164.5 l S Q
q 1 0 0 -1 0 216 cm
254.75 176.25 m 258.449 176.25 l S Q
q 1 0 0 -1 0 216 cm
254.75 164.5 m 258.449 164.5 l S Q
q 1 0 0 -1 0 216 cm
294.398 176.25 m 294.398 164.5 l S Q
q 1 0 0 -1 0 216 cm
292.551 176.25 m 296.25 176.25 l S Q
q 1 0 0 -1 0 216 cm
292.551 164.5 m 296.25 164.5 l S Q
q 1 0 0 -1 0 216 cm
332.199 176.25 m 332.199 164.5 l S Q
q 1 0 0 -1 0 216 cm
330.352 176.25 m 334.051 176.25 l S Q
q 1 0 0 -1 0 216 cm
330.352 164.5 m 334.051 164.5 l S Q
q 1 0 0 -1 0 216 cm
64.648 170.199 m 70.648 170.199 l S Q
q 1 0 0 -1 0 216 cm
67.648 167.199 m 67.648 173.199 l S Q
q 1 0 0 -1 0 216 cm
102.449 170.199 m 108.449 170.199 l S Q
q 1 0 0 -1 0 216 cm
105.449 167.199 m 105.449 173.199 l S Q
q 1 0 0 -1 0 216 cm
140.199 170.199 m 146.199 170.199 l S Q
q 1 0 0 -1 0 216 cm
143.199 167.199 m 143.199 173.199 l S Q
q 1 0 0 -1 0 216 cm
178 170.398 m 184 170.398 l S Q
q 1 0 0 -1 0 216 cm
181 167.398 m 181 173.398 l S Q
q 1 0 0 -1 0 216 cm
215.801 170.398 m 221.801 170.398 l S Q
q 1 0 0 -1 0 216 cm
218.801 167.398 m 218.801 173.398 l S Q
q 1 0 0 -1 0 216 cm
253.602 170.398 m 259.602 170.398 l S Q
q 1 0 0 -1 0 216 cm
256.602 167.398 m 256.602 173.398 l S Q
q 1 0 0 -1 0 216 cm
291.398 170.398 m 297.398 170.398 l S Q
q 1 0 0 -1 0 216 cm
294.398 167.398 m 294.398 173.398 l S Q
q 1 0 0 -1 0 216 cm
329.199 170.398 m 335.199 170.398 l S Q
q 1 0 0 -1 0 216 cm
332.199 167.398 m 332.199 173.398 l S Q
q 1 0 0 -1 0 216 cm
319.898 19.102 m 325.898 19.102 l S Q
q 1 0 0 -1 0 216 cm
322.898 16.102 m 322.898 22.102 l S Q
0.74902 0.145098 0.172549 rg
q 1 0 0 -1 0 216 cm
310.852 28.398 m 334.949 28.398 l S Q
q 1 0 0 -1 0 216 cm
310.852 26.551 m 310.852 30.25 l S Q
q 1 0 0 -1 0 216 cm
334.949 26.551 m 334.949 30.25 l S Q
q 1 0 0 -1 0 216 cm
67.898 152.852 m 105.699 164.051 l 143.5 169.051 l 181.25 172.352 l 219.051
 173.648 l 256.852 174.051 l 294.648 174.801 l 332.449 175.051 l S Q
q 1 0 0 -1 0 216 cm
67.898 161.602 m 67.898 144.148 l S Q
q 1 0 0 -1 0 216 cm
66.051 161.602 m 69.75 161.602 l S Q
q 1 0 0 -1 0 216 cm
66.051 144.148 m 69.75 144.148 l S Q
q 1 0 0 -1 0 216 cm
105.699 171.648 m 105.699 156.5 l S Q
q 1 0 0 -1 0 216 cm
103.852 171.648 m 107.551 171.648 l S Q
q 1 0 0 -1 0 216 cm
103.852 156.5 m 107.551 156.5 l S Q
q 1 0 0 -1 0 216 cm
143.5 176.699 m 143.5 161.398 l S Q
q 1 0 0 -1 0 216 cm
141.648 176.699 m 145.352 176.699 l S Q
q 1 0 0 -1 0 216 cm
141.648 161.398 m 145.352 161.398 l S Q
q 1 0 0 -1 0 216 cm
181.25 179.898 m 181.25 164.801 l S Q
q 1 0 0 -1 0 216 cm
179.398 179.898 m 183.102 179.898 l S Q
q 1 0 0 -1 0 216 cm
179.398 164.801 m 183.102 164.801 l S Q
q 1 0 0 -1 0 216 cm
219.051 181.449 m 219.051 165.801 l S Q
q 1 0 0 -1 0 216 cm
217.199 181.449 m 220.898 181.449 l S Q
q 1 0 0 -1 0 216 cm
217.199 165.801 m 220.898 165.801 l S Q
q 1 0 0 -1 0 216 cm
256.852 181.852 m 256.852 166.25 l S Q
q 1 0 0 -1 0 216 cm
255 181.852 m 258.699 181.852 l S Q
q 1 0 0 -1 0 216 cm
255 166.25 m 258.699 166.25 l S Q
q 1 0 0 -1 0 216 cm
294.648 182.5 m 294.648 167.102 l S Q
q 1 0 0 -1 0 216 cm
292.801 182.5 m 296.5 182.5 l S Q
q 1 0 0 -1 0 216 cm
292.801 167.102 m 296.5 167.102 l S Q
q 1 0 0 -1 0 216 cm
332.449 182.801 m 332.449 167.301 l S Q
q 1 0 0 -1 0 216 cm
330.602 182.801 m 334.301 182.801 l S Q
q 1 0 0 -1 0 216 cm
330.602 167.301 m 334.301 167.301 l S Q
q 1 0 0 -1 0 216 cm
64.898 149.852 m 70.898 155.852 l S Q
q 1 0 0 -1 0 216 cm
64.898 155.852 m 70.898 149.852 l S Q
q 1 0 0 -1 0 216 cm
102.699 161.051 m 108.699 167.051 l S Q
q 1 0 0 -1 0 216 cm
102.699 167.051 m 108.699 161.051 l S Q
q 1 0 0 -1 0 216 cm
140.5 166.051 m 146.5 172.051 l S Q
q 1 0 0 -1 0 216 cm
140.5 172.051 m 146.5 166.051 l S Q
q 1 0 0 -1 0 216 cm
178.25 169.352 m 184.25 175.352 l S Q
q 1 0 0 -1 0 216 cm
178.25 175.352 m 184.25 169.352 l S Q
q 1 0 0 -1 0 216 cm
216.051 170.648 m 222.051 176.648 l S Q
q 1 0 0 -1 0 216 cm
216.051 176.648 m 222.051 170.648 l S Q
q 1 0 0 -1 0 216 cm
253.852 171.051 m 259.852 177.051 l S Q
q 1 0 0 -1 0 216 cm
253.852 177.051 m 259.852 171.051 l S Q
q 1 0 0 -1 0 216 cm
291.648 171.801 m 297.648 177.801 l S Q
q 1 0 0 -1 0 216 cm
291.648 177.801 m 297.648 171.801 l S Q
q 1 0 0 -1 0 216 cm
329.449 172.051 m 335.449 178.051 l S Q
q 1 0 0 -1 0 216 cm
329.449 178.051 m 335.449 172.051 l S Q
q 1 0 0 -1 0 216 cm
319.898 25.398 m 325.898 31.398 l S Q
q 1 0 0 -1 0 216 cm
319.898 31.398 m 325.898 25.398 l S Q
0 0.65098 0.552941 rg
q 1 0 0 -1 0 216 cm
310.852 37.699 m 334.949 37.699 l S Q
q 1 0 0 -1 0 216 cm
310.852 35.852 m 310.852 39.551 l S Q
q 1 0 0 -1 0 216 cm
334.949 35.852 m 334.949 39.551 l S Q
q 1 0 0 -1 0 216 cm
68.148 90.5 m 105.949 113.051 l 143.75 125 l 181.5 135.801 l 219.301 150.449
 l 257.102 157.5 l 294.898 161.199 l 332.699 164.602 l S Q
q 1 0 0 -1 0 216 cm
68.148 113.398 m 68.148 67.648 l S Q
q 1 0 0 -1 0 216 cm
66.301 113.398 m 70 113.398 l S Q
q 1 0 0 -1 0 216 cm
66.301 67.648 m 70 67.648 l S Q
q 1 0 0 -1 0 216 cm
105.949 135.602 m 105.949 90.449 l S Q
q 1 0 0 -1 0 216 cm
104.102 135.602 m 107.801 135.602 l S Q
q 1 0 0 -1 0 216 cm
104.102 90.449 m 107.801 90.449 l S Q
q 1 0 0 -1 0 216 cm
143.75 147.102 m 143.75 102.852 l S Q
q 1 0 0 -1 0 216 cm
141.898 147.102 m 145.602 147.102 l S Q
q 1 0 0 -1 0 216 cm
141.898 102.852 m 145.602 102.852 l S Q
q 1 0 0 -1 0 216 cm
181.5 154.852 m 181.5 116.699 l S Q
q 1 0 0 -1 0 216 cm
179.648 154.852 m 183.352 154.852 l S Q
q 1 0 0 -1 0 216 cm
179.648 116.699 m 183.352 116.699 l S Q
q 1 0 0 -1 0 216 cm
219.301 166.051 m 219.301 134.852 l S Q
q 1 0 0 -1 0 216 cm
217.449 166.051 m 221.148 166.051 l S Q
q 1 0 0 -1 0 216 cm
217.449 134.852 m 221.148 134.852 l S Q
q 1 0 0 -1 0 216 cm
257.102 171.5 m 257.102 143.5 l S Q
q 1 0 0 -1 0 216 cm
255.25 171.5 m 258.949 171.5 l S Q
q 1 0 0 -1 0 216 cm
255.25 143.5 m 258.949 143.5 l S Q
q 1 0 0 -1 0 216 cm
294.898 176.301 m 294.898 146.102 l S Q
q 1 0 0 -1 0 216 cm
293.051 176.301 m 296.75 176.301 l S Q
q 1 0 0 -1 0 216 cm
293.051 146.102 m 296.75 146.102 l S Q
q 1 0 0 -1 0 216 cm
332.699 179.25 m 332.699 150 l S Q
q 1 0 0 -1 0 216 cm
330.852 179.25 m 334.551 179.25 l S Q
q 1 0 0 -1 0 216 cm
330.852 150 m 334.551 150 l S Q
q 1 0 0 -1 0 216 cm
65.148 90.5 m 71.148 90.5 l S Q
q 1 0 0 -1 0 216 cm
68.148 87.5 m 68.148 93.5 l S Q
q 1 0 0 -1 0 216 cm
65.148 87.5 m 71.148 93.5 l S Q
q 1 0 0 -1 0 216 cm
65.148 93.5 m 71.148 87.5 l S Q
q 1 0 0 -1 0 216 cm
102.949 113.051 m 108.949 113.051 l S Q
q 1 0 0 -1 0 216 cm
105.949 110.051 m 105.949 116.051 l S Q
q 1 0 0 -1 0 216 cm
102.949 110.051 m 108.949 116.051 l S Q
q 1 0 0 -1 0 216 cm
102.949 116.051 m 108.949 110.051 l S Q
q 1 0 0 -1 0 216 cm
140.75 125 m 146.75 125 l S Q
q 1 0 0 -1 0 216 cm
143.75 122 m 143.75 128 l S Q
q 1 0 0 -1 0 216 cm
140.75 122 m 146.75 128 l S Q
q 1 0 0 -1 0 216 cm
140.75 128 m 146.75 122 l S Q
q 1 0 0 -1 0 216 cm
178.5 135.801 m 184.5 135.801 l S Q
q 1 0 0 -1 0 216 cm
181.5 132.801 m 181.5 138.801 l S Q
q 1 0 0 -1 0 216 cm
178.5 132.801 m 184.5 138.801 l S Q
q 1 0 0 -1 0 216 cm
178.5 138.801 m 184.5 132.801 l S Q
q 1 0 0 -1 0 216 cm
216.301 150.449 m 222.301 150.449 l S Q
q 1 0 0 -1 0 216 cm
219.301 147.449 m 219.301 153.449 l S Q
q 1 0 0 -1 0 216 cm
216.301 147.449 m 222.301 153.449 l S Q
q 1 0 0 -1 0 216 cm
216.301 153.449 m 222.301 147.449 l S Q
q 1 0 0 -1 0 216 cm
254.102 157.5 m 260.102 157.5 l S Q
q 1 0 0 -1 0 216 cm
257.102 154.5 m 257.102 160.5 l S Q
q 1 0 0 -1 0 216 cm
254.102 154.5 m 260.102 160.5 l S Q
q 1 0 0 -1 0 216 cm
254.102 160.5 m 260.102 154.5 l S Q
q 1 0 0 -1 0 216 cm
291.898 161.199 m 297.898 161.199 l S Q
q 1 0 0 -1 0 216 cm
294.898 158.199 m 294.898 164.199 l S Q
q 1 0 0 -1 0 216 cm
291.898 158.199 m 297.898 164.199 l S Q
q 1 0 0 -1 0 216 cm
291.898 164.199 m 297.898 158.199 l S Q
q 1 0 0 -1 0 216 cm
329.699 164.602 m 335.699 164.602 l S Q
q 1 0 0 -1 0 216 cm
332.699 161.602 m 332.699 167.602 l S Q
q 1 0 0 -1 0 216 cm
329.699 161.602 m 335.699 167.602 l S Q
q 1 0 0 -1 0 216 cm
329.699 167.602 m 335.699 161.602 l S Q
q 1 0 0 -1 0 216 cm
319.898 37.699 m 325.898 37.699 l S Q
q 1 0 0 -1 0 216 cm
322.898 34.699 m 322.898 40.699 l S Q
q 1 0 0 -1 0 216 cm
319.898 34.699 m 325.898 40.699 l S Q
q 1 0 0 -1 0 216 cm
319.898 40.699 m 325.898 34.699 l S Q
0.729412 0.0980392 0.545098 rg
q 1 0 0 -1 0 216 cm
310.852 47 m 334.949 47 l S Q
q 1 0 0 -1 0 216 cm
310.852 45.148 m 310.852 48.852 l S Q
q 1 0 0 -1 0 216 cm
334.949 45.148 m 334.949 48.852 l S Q
q 1 0 0 -1 0 216 cm
68.398 40.051 m 106.199 69.898 l 144 93.551 l 181.75 105.551 l 219.551 
114.051 l 257.352 123.25 l 295.148 128.648 l 332.949 133.949 l S Q
q 1 0 0 -1 0 216 cm
68.398 62.801 m 68.398 17.25 l S Q
q 1 0 0 -1 0 216 cm
66.551 62.801 m 70.25 62.801 l S Q
q 1 0 0 -1 0 216 cm
66.551 17.25 m 70.25 17.25 l S Q
q 1 0 0 -1 0 216 cm
106.199 88.801 m 106.199 51 l S Q
q 1 0 0 -1 0 216 cm
104.352 88.801 m 108.051 88.801 l S Q
q 1 0 0 -1 0 216 cm
104.352 51 m 108.051 51 l S Q
q 1 0 0 -1 0 216 cm
144 111.551 m 144 75.551 l S Q
q 1 0 0 -1 0 216 cm
142.148 111.551 m 145.852 111.551 l S Q
q 1 0 0 -1 0 216 cm
142.148 75.551 m 145.852 75.551 l S Q
q 1 0 0 -1 0 216 cm
181.75 123.648 m 181.75 87.449 l S Q
q 1 0 0 -1 0 216 cm
179.898 123.648 m 183.602 123.648 l S Q
q 1 0 0 -1 0 216 cm
179.898 87.449 m 183.602 87.449 l S Q
q 1 0 0 -1 0 216 cm
219.551 131.602 m 219.551 96.5 l S Q
q 1 0 0 -1 0 216 cm
217.699 131.602 m 221.398 131.602 l S Q
q 1 0 0 -1 0 216 cm
217.699 96.5 m 221.398 96.5 l S Q
q 1 0 0 -1 0 216 cm
257.352 139.199 m 257.352 107.301 l S Q
q 1 0 0 -1 0 216 cm
255.5 139.199 m 259.199 139.199 l S Q
q 1 0 0 -1 0 216 cm
255.5 107.301 m 259.199 107.301 l S Q
q 1 0 0 -1 0 216 cm
295.148 144.051 m 295.148 113.301 l S Q
q 1 0 0 -1 0 216 cm
293.301 144.051 m 297 144.051 l S Q
q 1 0 0 -1 0 216 cm
293.301 113.301 m 297 113.301 l S Q
q 1 0 0 -1 0 216 cm
332.949 148.449 m 332.949 119.449 l S Q
q 1 0 0 -1 0 216 cm
331.102 148.449 m 334.801 148.449 l S Q
q 1 0 0 -1 0 216 cm
331.102 119.449 m 334.801 119.449 l S Q
q 1 0 0 -1 0 216 cm
65.398 37.051 6 6 re S Q
q 1 0 0 -1 0 216 cm
103.199 66.898 6 6 re S Q
q 1 0 0 -1 0 216 cm
141 90.551 6 6 re S Q
q 1 0 0 -1 0 216 cm
178.75 102.551 6 6 re S Q
q 1 0 0 -1 0 216 cm
216.551 111.051 6 6 re S Q
q 1 0 0 -1 0 216 cm
254.352 120.25 6 6 re S Q
q 1 0 0 -1 0 216 cm
292.148 125.648 6 6 re S Q
q 1 0 0 -1 0 216 cm
329.949 130.949 6 6 re S Q
q 1 0 0 -1 0 216 cm
319.898 44 6 6 re S Q
0 g
q 1 0 0 -1 0 216 cm
32.75 10.75 312.398 176 re S Q
Q Q
showpage
%%Trailer
end restore
%%EOF
