%!PS-Adobe-3.0 EPSF-3.0
%%Creator: cairo 1.13.1 (http://cairographics.org)
%%CreationDate: Fri May 20 09:13:57 2016
%%Pages: 1
%%DocumentData: Clean7Bit
%%LanguageLevel: 2
%%BoundingBox: 0 0 360 216
%%EndComments
%%BeginProlog
save
50 dict begin
/q { gsave } bind def
/Q { grestore } bind def
/cm { 6 array astore concat } bind def
/w { setlinewidth } bind def
/J { setlinecap } bind def
/j { setlinejoin } bind def
/M { setmiterlimit } bind def
/d { setdash } bind def
/m { moveto } bind def
/l { lineto } bind def
/c { curveto } bind def
/h { closepath } bind def
/re { exch dup neg 3 1 roll 5 3 roll moveto 0 rlineto
      0 exch rlineto 0 rlineto closepath } bind def
/S { stroke } bind def
/f { fill } bind def
/f* { eofill } bind def
/n { newpath } bind def
/W { clip } bind def
/W* { eoclip } bind def
/BT { } bind def
/ET { } bind def
/pdfmark where { pop globaldict /?pdfmark /exec load put }
    { globaldict begin /?pdfmark /pop load def /pdfmark
    /cleartomark load def end } ifelse
/BDC { mark 3 1 roll /BDC pdfmark } bind def
/EMC { mark /EMC pdfmark } bind def
/cairo_store_point { /cairo_point_y exch def /cairo_point_x exch def } def
/Tj { show currentpoint cairo_store_point } bind def
/TJ {
  {
    dup
    type /stringtype eq
    { show } { -0.001 mul 0 cairo_font_matrix dtransform rmoveto } ifelse
  } forall
  currentpoint cairo_store_point
} bind def
/cairo_selectfont { cairo_font_matrix aload pop pop pop 0 0 6 array astore
    cairo_font exch selectfont cairo_point_x cairo_point_y moveto } bind def
/Tf { pop /cairo_font exch def /cairo_font_matrix where
      { pop cairo_selectfont } if } bind def
/Td { matrix translate cairo_font_matrix matrix concatmatrix dup
      /cairo_font_matrix exch def dup 4 get exch 5 get cairo_store_point
      /cairo_font where { pop cairo_selectfont } if } bind def
/Tm { 2 copy 8 2 roll 6 array astore /cairo_font_matrix exch def
      cairo_store_point /cairo_font where { pop cairo_selectfont } if } bind def
/g { setgray } bind def
/rg { setrgbcolor } bind def
/d1 { setcachedevice } bind def
%%EndProlog
%%BeginSetup
%%EndSetup
%%Page: 1 1
%%BeginPageSetup
%%PageBoundingBox: 0 0 360 216
%%EndPageSetup
q 30 29 316 177 rectclip q
0 g
0.15 w
2 J
0 j
[ 0.2 2] 0 d
3.8 M q 1 0 0 -1 0 216 cm
32.75 164.75 m 345.148 164.75 l S Q
0.25 w
[] 0.0 d
q 1 0 0 -1 0 216 cm
32.75 164.75 m 36.449 164.75 l S Q
q 1 0 0 -1 0 216 cm
345.148 164.75 m 341.449 164.75 l S Q
0.15 w
[ 0.2 2] 0 d
q 1 0 0 -1 0 216 cm
32.75 120.75 m 345.148 120.75 l S Q
0.25 w
[] 0.0 d
q 1 0 0 -1 0 216 cm
32.75 120.75 m 36.449 120.75 l S Q
q 1 0 0 -1 0 216 cm
345.148 120.75 m 341.449 120.75 l S Q
0.15 w
[ 0.2 2] 0 d
q 1 0 0 -1 0 216 cm
32.75 76.75 m 345.148 76.75 l S Q
0.25 w
[] 0.0 d
q 1 0 0 -1 0 216 cm
32.75 76.75 m 36.449 76.75 l S Q
q 1 0 0 -1 0 216 cm
345.148 76.75 m 341.449 76.75 l S Q
0.15 w
[ 0.2 2] 0 d
q 1 0 0 -1 0 216 cm
32.75 32.75 m 290.449 32.75 l S Q
[ 0.2 2] 0 d
q 1 0 0 -1 0 216 cm
340.051 32.75 m 345.148 32.75 l S Q
0.25 w
[] 0.0 d
q 1 0 0 -1 0 216 cm
32.75 32.75 m 36.449 32.75 l S Q
q 1 0 0 -1 0 216 cm
345.148 32.75 m 341.449 32.75 l S Q
q 1 0 0 -1 0 216 cm
68 186.75 m 68 184.898 l S Q
q 1 0 0 -1 0 216 cm
68 10.75 m 68 12.602 l S Q
0.15 w
[ 0.2 2] 0 d
q 1 0 0 -1 0 216 cm
105.801 186.75 m 105.801 10.75 l S Q
0.25 w
[] 0.0 d
q 1 0 0 -1 0 216 cm
105.801 186.75 m 105.801 183.051 l S Q
q 1 0 0 -1 0 216 cm
105.801 10.75 m 105.801 14.449 l S Q
q 1 0 0 -1 0 216 cm
143.602 186.75 m 143.602 184.898 l S Q
q 1 0 0 -1 0 216 cm
143.602 10.75 m 143.602 12.602 l S Q
0.15 w
[ 0.2 2] 0 d
q 1 0 0 -1 0 216 cm
181.398 186.75 m 181.398 10.75 l S Q
0.25 w
[] 0.0 d
q 1 0 0 -1 0 216 cm
181.398 186.75 m 181.398 183.051 l S Q
q 1 0 0 -1 0 216 cm
181.398 10.75 m 181.398 14.449 l S Q
q 1 0 0 -1 0 216 cm
219.199 186.75 m 219.199 184.898 l S Q
q 1 0 0 -1 0 216 cm
219.199 10.75 m 219.199 12.602 l S Q
0.15 w
[ 0.2 2] 0 d
q 1 0 0 -1 0 216 cm
256.949 186.75 m 256.949 10.75 l S Q
0.25 w
[] 0.0 d
q 1 0 0 -1 0 216 cm
256.949 186.75 m 256.949 183.051 l S Q
q 1 0 0 -1 0 216 cm
256.949 10.75 m 256.949 14.449 l S Q
q 1 0 0 -1 0 216 cm
294.75 186.75 m 294.75 184.898 l S Q
q 1 0 0 -1 0 216 cm
294.75 10.75 m 294.75 12.602 l S Q
0.15 w
[ 0.2 2] 0 d
q 1 0 0 -1 0 216 cm
332.551 186.75 m 332.551 51.648 l S Q
[ 0.2 2] 0 d
q 1 0 0 -1 0 216 cm
332.551 14.449 m 332.551 10.75 l S Q
0.25 w
[] 0.0 d
q 1 0 0 -1 0 216 cm
332.551 186.75 m 332.551 183.051 l S Q
q 1 0 0 -1 0 216 cm
332.551 10.75 m 332.551 14.449 l S Q
q 1 0 0 -1 0 216 cm
32.75 10.75 312.398 176 re S Q
q 1 0 0 -1 0 216 cm
30.25 164.75 m 332.551 164.75 l S Q
0.172549 0.462745 0.733333 rg
q 1 0 0 -1 0 216 cm
310.852 19.102 m 334.949 19.102 l S Q
q 1 0 0 -1 0 216 cm
310.852 17.25 m 310.852 20.949 l S Q
q 1 0 0 -1 0 216 cm
334.949 17.25 m 334.949 20.949 l S Q
q 1 0 0 -1 0 216 cm
67.648 165.102 m 332.199 165.102 l S Q
q 1 0 0 -1 0 216 cm
67.648 166.301 m 67.648 163.898 l S Q
q 1 0 0 -1 0 216 cm
65.801 166.301 m 69.5 166.301 l S Q
q 1 0 0 -1 0 216 cm
65.801 163.898 m 69.5 163.898 l S Q
q 1 0 0 -1 0 216 cm
105.449 166.301 m 105.449 163.898 l S Q
q 1 0 0 -1 0 216 cm
103.602 166.301 m 107.301 166.301 l S Q
q 1 0 0 -1 0 216 cm
103.602 163.898 m 107.301 163.898 l S Q
q 1 0 0 -1 0 216 cm
143.199 166.301 m 143.199 163.898 l S Q
q 1 0 0 -1 0 216 cm
141.352 166.301 m 145.051 166.301 l S Q
q 1 0 0 -1 0 216 cm
141.352 163.898 m 145.051 163.898 l S Q
q 1 0 0 -1 0 216 cm
181 166.301 m 181 163.898 l S Q
q 1 0 0 -1 0 216 cm
179.148 166.301 m 182.852 166.301 l S Q
q 1 0 0 -1 0 216 cm
179.148 163.898 m 182.852 163.898 l S Q
q 1 0 0 -1 0 216 cm
218.801 166.301 m 218.801 163.898 l S Q
q 1 0 0 -1 0 216 cm
216.949 166.301 m 220.648 166.301 l S Q
q 1 0 0 -1 0 216 cm
216.949 163.898 m 220.648 163.898 l S Q
q 1 0 0 -1 0 216 cm
256.602 166.301 m 256.602 163.898 l S Q
q 1 0 0 -1 0 216 cm
254.75 166.301 m 258.449 166.301 l S Q
q 1 0 0 -1 0 216 cm
254.75 163.898 m 258.449 163.898 l S Q
q 1 0 0 -1 0 216 cm
294.398 166.301 m 294.398 163.898 l S Q
q 1 0 0 -1 0 216 cm
292.551 166.301 m 296.25 166.301 l S Q
q 1 0 0 -1 0 216 cm
292.551 163.898 m 296.25 163.898 l S Q
q 1 0 0 -1 0 216 cm
332.199 166.301 m 332.199 163.898 l S Q
q 1 0 0 -1 0 216 cm
330.352 166.301 m 334.051 166.301 l S Q
q 1 0 0 -1 0 216 cm
330.352 163.898 m 334.051 163.898 l S Q
q 1 0 0 -1 0 216 cm
64.648 165.102 m 70.648 165.102 l S Q
q 1 0 0 -1 0 216 cm
67.648 162.102 m 67.648 168.102 l S Q
q 1 0 0 -1 0 216 cm
102.449 165.102 m 108.449 165.102 l S Q
q 1 0 0 -1 0 216 cm
105.449 162.102 m 105.449 168.102 l S Q
q 1 0 0 -1 0 216 cm
140.199 165.102 m 146.199 165.102 l S Q
q 1 0 0 -1 0 216 cm
143.199 162.102 m 143.199 168.102 l S Q
q 1 0 0 -1 0 216 cm
178 165.102 m 184 165.102 l S Q
q 1 0 0 -1 0 216 cm
181 162.102 m 181 168.102 l S Q
q 1 0 0 -1 0 216 cm
215.801 165.102 m 221.801 165.102 l S Q
q 1 0 0 -1 0 216 cm
218.801 162.102 m 218.801 168.102 l S Q
q 1 0 0 -1 0 216 cm
253.602 165.102 m 259.602 165.102 l S Q
q 1 0 0 -1 0 216 cm
256.602 162.102 m 256.602 168.102 l S Q
q 1 0 0 -1 0 216 cm
291.398 165.102 m 297.398 165.102 l S Q
q 1 0 0 -1 0 216 cm
294.398 162.102 m 294.398 168.102 l S Q
q 1 0 0 -1 0 216 cm
329.199 165.102 m 335.199 165.102 l S Q
q 1 0 0 -1 0 216 cm
332.199 162.102 m 332.199 168.102 l S Q
q 1 0 0 -1 0 216 cm
319.898 19.102 m 325.898 19.102 l S Q
q 1 0 0 -1 0 216 cm
322.898 16.102 m 322.898 22.102 l S Q
0.74902 0.145098 0.172549 rg
q 1 0 0 -1 0 216 cm
310.852 28.398 m 334.949 28.398 l S Q
q 1 0 0 -1 0 216 cm
310.852 26.551 m 310.852 30.25 l S Q
q 1 0 0 -1 0 216 cm
334.949 26.551 m 334.949 30.25 l S Q
q 1 0 0 -1 0 216 cm
67.898 165.449 m 105.699 168.898 l 143.5 169.699 l 181.25 171.051 l 219.051
 171.352 l 256.852 171.352 l 294.648 171.449 l 332.449 171.449 l S Q
q 1 0 0 -1 0 216 cm
67.898 173.75 m 67.898 157.102 l S Q
q 1 0 0 -1 0 216 cm
66.051 173.75 m 69.75 173.75 l S Q
q 1 0 0 -1 0 216 cm
66.051 157.102 m 69.75 157.102 l S Q
q 1 0 0 -1 0 216 cm
105.699 175.449 m 105.699 162.398 l S Q
q 1 0 0 -1 0 216 cm
103.852 175.449 m 107.551 175.449 l S Q
q 1 0 0 -1 0 216 cm
103.852 162.398 m 107.551 162.398 l S Q
q 1 0 0 -1 0 216 cm
143.5 176.801 m 143.5 162.648 l S Q
q 1 0 0 -1 0 216 cm
141.648 176.801 m 145.352 176.801 l S Q
q 1 0 0 -1 0 216 cm
141.648 162.648 m 145.352 162.648 l S Q
q 1 0 0 -1 0 216 cm
181.25 178.148 m 181.25 163.898 l S Q
q 1 0 0 -1 0 216 cm
179.398 178.148 m 183.102 178.148 l S Q
q 1 0 0 -1 0 216 cm
179.398 163.898 m 183.102 163.898 l S Q
q 1 0 0 -1 0 216 cm
219.051 178.352 m 219.051 164.352 l S Q
q 1 0 0 -1 0 216 cm
217.199 178.352 m 220.898 178.352 l S Q
q 1 0 0 -1 0 216 cm
217.199 164.352 m 220.898 164.352 l S Q
q 1 0 0 -1 0 216 cm
256.852 178.352 m 256.852 164.352 l S Q
q 1 0 0 -1 0 216 cm
255 178.352 m 258.699 178.352 l S Q
q 1 0 0 -1 0 216 cm
255 164.352 m 258.699 164.352 l S Q
q 1 0 0 -1 0 216 cm
294.648 178.449 m 294.648 164.398 l S Q
q 1 0 0 -1 0 216 cm
292.801 178.449 m 296.5 178.449 l S Q
q 1 0 0 -1 0 216 cm
292.801 164.398 m 296.5 164.398 l S Q
q 1 0 0 -1 0 216 cm
332.449 178.449 m 332.449 164.398 l S Q
q 1 0 0 -1 0 216 cm
330.602 178.449 m 334.301 178.449 l S Q
q 1 0 0 -1 0 216 cm
330.602 164.398 m 334.301 164.398 l S Q
q 1 0 0 -1 0 216 cm
64.898 162.449 m 70.898 168.449 l S Q
q 1 0 0 -1 0 216 cm
64.898 168.449 m 70.898 162.449 l S Q
q 1 0 0 -1 0 216 cm
102.699 165.898 m 108.699 171.898 l S Q
q 1 0 0 -1 0 216 cm
102.699 171.898 m 108.699 165.898 l S Q
q 1 0 0 -1 0 216 cm
140.5 166.699 m 146.5 172.699 l S Q
q 1 0 0 -1 0 216 cm
140.5 172.699 m 146.5 166.699 l S Q
q 1 0 0 -1 0 216 cm
178.25 168.051 m 184.25 174.051 l S Q
q 1 0 0 -1 0 216 cm
178.25 174.051 m 184.25 168.051 l S Q
q 1 0 0 -1 0 216 cm
216.051 168.352 m 222.051 174.352 l S Q
q 1 0 0 -1 0 216 cm
216.051 174.352 m 222.051 168.352 l S Q
q 1 0 0 -1 0 216 cm
253.852 168.352 m 259.852 174.352 l S Q
q 1 0 0 -1 0 216 cm
253.852 174.352 m 259.852 168.352 l S Q
q 1 0 0 -1 0 216 cm
291.648 168.449 m 297.648 174.449 l S Q
q 1 0 0 -1 0 216 cm
291.648 174.449 m 297.648 168.449 l S Q
q 1 0 0 -1 0 216 cm
329.449 168.449 m 335.449 174.449 l S Q
q 1 0 0 -1 0 216 cm
329.449 174.449 m 335.449 168.449 l S Q
q 1 0 0 -1 0 216 cm
319.898 25.398 m 325.898 31.398 l S Q
q 1 0 0 -1 0 216 cm
319.898 31.398 m 325.898 25.398 l S Q
0 0.65098 0.552941 rg
q 1 0 0 -1 0 216 cm
310.852 37.699 m 334.949 37.699 l S Q
q 1 0 0 -1 0 216 cm
310.852 35.852 m 310.852 39.551 l S Q
q 1 0 0 -1 0 216 cm
334.949 35.852 m 334.949 39.551 l S Q
q 1 0 0 -1 0 216 cm
68.148 150.148 m 105.949 163.398 l 143.75 167.551 l 181.5 171.25 l 219.301
 172.449 l 257.102 173 l 294.898 173.301 l 332.699 173.75 l S Q
q 1 0 0 -1 0 216 cm
68.148 162.25 m 68.148 138.051 l S Q
q 1 0 0 -1 0 216 cm
66.301 162.25 m 70 162.25 l S Q
q 1 0 0 -1 0 216 cm
66.301 138.051 m 70 138.051 l S Q
q 1 0 0 -1 0 216 cm
105.949 172.449 m 105.949 154.352 l S Q
q 1 0 0 -1 0 216 cm
104.102 172.449 m 107.801 172.449 l S Q
q 1 0 0 -1 0 216 cm
104.102 154.352 m 107.801 154.352 l S Q
q 1 0 0 -1 0 216 cm
143.75 176.102 m 143.75 159 l S Q
q 1 0 0 -1 0 216 cm
141.898 176.102 m 145.602 176.102 l S Q
q 1 0 0 -1 0 216 cm
141.898 159 m 145.602 159 l S Q
q 1 0 0 -1 0 216 cm
181.5 179 m 181.5 163.5 l S Q
q 1 0 0 -1 0 216 cm
179.648 179 m 183.352 179 l S Q
q 1 0 0 -1 0 216 cm
179.648 163.5 m 183.352 163.5 l S Q
q 1 0 0 -1 0 216 cm
219.301 180.25 m 219.301 164.602 l S Q
q 1 0 0 -1 0 216 cm
217.449 180.25 m 221.148 180.25 l S Q
q 1 0 0 -1 0 216 cm
217.449 164.602 m 221.148 164.602 l S Q
q 1 0 0 -1 0 216 cm
257.102 180.602 m 257.102 165.352 l S Q
q 1 0 0 -1 0 216 cm
255.25 180.602 m 258.949 180.602 l S Q
q 1 0 0 -1 0 216 cm
255.25 165.352 m 258.949 165.352 l S Q
q 1 0 0 -1 0 216 cm
294.898 181.051 m 294.898 165.551 l S Q
q 1 0 0 -1 0 216 cm
293.051 181.051 m 296.75 181.051 l S Q
q 1 0 0 -1 0 216 cm
293.051 165.551 m 296.75 165.551 l S Q
q 1 0 0 -1 0 216 cm
332.699 181.5 m 332.699 166.051 l S Q
q 1 0 0 -1 0 216 cm
330.852 181.5 m 334.551 181.5 l S Q
q 1 0 0 -1 0 216 cm
330.852 166.051 m 334.551 166.051 l S Q
q 1 0 0 -1 0 216 cm
65.148 150.148 m 71.148 150.148 l S Q
q 1 0 0 -1 0 216 cm
68.148 147.148 m 68.148 153.148 l S Q
q 1 0 0 -1 0 216 cm
65.148 147.148 m 71.148 153.148 l S Q
q 1 0 0 -1 0 216 cm
65.148 153.148 m 71.148 147.148 l S Q
q 1 0 0 -1 0 216 cm
102.949 163.398 m 108.949 163.398 l S Q
q 1 0 0 -1 0 216 cm
105.949 160.398 m 105.949 166.398 l S Q
q 1 0 0 -1 0 216 cm
102.949 160.398 m 108.949 166.398 l S Q
q 1 0 0 -1 0 216 cm
102.949 166.398 m 108.949 160.398 l S Q
q 1 0 0 -1 0 216 cm
140.75 167.551 m 146.75 167.551 l S Q
q 1 0 0 -1 0 216 cm
143.75 164.551 m 143.75 170.551 l S Q
q 1 0 0 -1 0 216 cm
140.75 164.551 m 146.75 170.551 l S Q
q 1 0 0 -1 0 216 cm
140.75 170.551 m 146.75 164.551 l S Q
q 1 0 0 -1 0 216 cm
178.5 171.25 m 184.5 171.25 l S Q
q 1 0 0 -1 0 216 cm
181.5 168.25 m 181.5 174.25 l S Q
q 1 0 0 -1 0 216 cm
178.5 168.25 m 184.5 174.25 l S Q
q 1 0 0 -1 0 216 cm
178.5 174.25 m 184.5 168.25 l S Q
q 1 0 0 -1 0 216 cm
216.301 172.449 m 222.301 172.449 l S Q
q 1 0 0 -1 0 216 cm
219.301 169.449 m 219.301 175.449 l S Q
q 1 0 0 -1 0 216 cm
216.301 169.449 m 222.301 175.449 l S Q
q 1 0 0 -1 0 216 cm
216.301 175.449 m 222.301 169.449 l S Q
q 1 0 0 -1 0 216 cm
254.102 173 m 260.102 173 l S Q
q 1 0 0 -1 0 216 cm
257.102 170 m 257.102 176 l S Q
q 1 0 0 -1 0 216 cm
254.102 170 m 260.102 176 l S Q
q 1 0 0 -1 0 216 cm
254.102 176 m 260.102 170 l S Q
q 1 0 0 -1 0 216 cm
291.898 173.301 m 297.898 173.301 l S Q
q 1 0 0 -1 0 216 cm
294.898 170.301 m 294.898 176.301 l S Q
q 1 0 0 -1 0 216 cm
291.898 170.301 m 297.898 176.301 l S Q
q 1 0 0 -1 0 216 cm
291.898 176.301 m 297.898 170.301 l S Q
q 1 0 0 -1 0 216 cm
329.699 173.75 m 335.699 173.75 l S Q
q 1 0 0 -1 0 216 cm
332.699 170.75 m 332.699 176.75 l S Q
q 1 0 0 -1 0 216 cm
329.699 170.75 m 335.699 176.75 l S Q
q 1 0 0 -1 0 216 cm
329.699 176.75 m 335.699 170.75 l S Q
q 1 0 0 -1 0 216 cm
319.898 37.699 m 325.898 37.699 l S Q
q 1 0 0 -1 0 216 cm
322.898 34.699 m 322.898 40.699 l S Q
q 1 0 0 -1 0 216 cm
319.898 34.699 m 325.898 40.699 l S Q
q 1 0 0 -1 0 216 cm
319.898 40.699 m 325.898 34.699 l S Q
0.729412 0.0980392 0.545098 rg
q 1 0 0 -1 0 216 cm
310.852 47 m 334.949 47 l S Q
q 1 0 0 -1 0 216 cm
310.852 45.148 m 310.852 48.852 l S Q
q 1 0 0 -1 0 216 cm
334.949 45.148 m 334.949 48.852 l S Q
q 1 0 0 -1 0 216 cm
68.398 113.102 m 106.199 134.801 l 144 146.949 l 181.75 152.5 l 219.551
 157.102 l 257.352 162.051 l 295.148 164.449 l 332.949 166.102 l S Q
q 1 0 0 -1 0 216 cm
68.398 127 m 68.398 99.199 l S Q
q 1 0 0 -1 0 216 cm
66.551 127 m 70.25 127 l S Q
q 1 0 0 -1 0 216 cm
66.551 99.199 m 70.25 99.199 l S Q
q 1 0 0 -1 0 216 cm
106.199 146.25 m 106.199 123.352 l S Q
q 1 0 0 -1 0 216 cm
104.352 146.25 m 108.051 146.25 l S Q
q 1 0 0 -1 0 216 cm
104.352 123.352 m 108.051 123.352 l S Q
q 1 0 0 -1 0 216 cm
144 156.75 m 144 137.148 l S Q
q 1 0 0 -1 0 216 cm
142.148 156.75 m 145.852 156.75 l S Q
q 1 0 0 -1 0 216 cm
142.148 137.148 m 145.852 137.148 l S Q
q 1 0 0 -1 0 216 cm
181.75 160.699 m 181.75 144.301 l S Q
q 1 0 0 -1 0 216 cm
179.898 160.699 m 183.602 160.699 l S Q
q 1 0 0 -1 0 216 cm
179.898 144.301 m 183.602 144.301 l S Q
q 1 0 0 -1 0 216 cm
219.551 165.699 m 219.551 148.5 l S Q
q 1 0 0 -1 0 216 cm
217.699 165.699 m 221.398 165.699 l S Q
q 1 0 0 -1 0 216 cm
217.699 148.5 m 221.398 148.5 l S Q
q 1 0 0 -1 0 216 cm
257.352 169.148 m 257.352 154.949 l S Q
q 1 0 0 -1 0 216 cm
255.5 169.148 m 259.199 169.148 l S Q
q 1 0 0 -1 0 216 cm
255.5 154.949 m 259.199 154.949 l S Q
q 1 0 0 -1 0 216 cm
295.148 171.301 m 295.148 157.602 l S Q
q 1 0 0 -1 0 216 cm
293.301 171.301 m 297 171.301 l S Q
q 1 0 0 -1 0 216 cm
293.301 157.602 m 297 157.602 l S Q
q 1 0 0 -1 0 216 cm
332.949 172.352 m 332.949 159.852 l S Q
q 1 0 0 -1 0 216 cm
331.102 172.352 m 334.801 172.352 l S Q
q 1 0 0 -1 0 216 cm
331.102 159.852 m 334.801 159.852 l S Q
q 1 0 0 -1 0 216 cm
65.398 110.102 6 6 re S Q
q 1 0 0 -1 0 216 cm
103.199 131.801 6 6 re S Q
q 1 0 0 -1 0 216 cm
141 143.949 6 6 re S Q
q 1 0 0 -1 0 216 cm
178.75 149.5 6 6 re S Q
q 1 0 0 -1 0 216 cm
216.551 154.102 6 6 re S Q
q 1 0 0 -1 0 216 cm
254.352 159.051 6 6 re S Q
q 1 0 0 -1 0 216 cm
292.148 161.449 6 6 re S Q
q 1 0 0 -1 0 216 cm
329.949 163.102 6 6 re S Q
q 1 0 0 -1 0 216 cm
319.898 44 6 6 re S Q
0 g
q 1 0 0 -1 0 216 cm
32.75 10.75 312.398 176 re S Q
Q Q
showpage
%%Trailer
end restore
%%EOF
