%!PS-Adobe-3.0 EPSF-3.0
%%Creator: cairo 1.13.1 (http://cairographics.org)
%%CreationDate: Fri May 20 09:12:46 2016
%%Pages: 1
%%DocumentData: Clean7Bit
%%LanguageLevel: 2
%%BoundingBox: 0 0 360 216
%%EndComments
%%BeginProlog
save
50 dict begin
/q { gsave } bind def
/Q { grestore } bind def
/cm { 6 array astore concat } bind def
/w { setlinewidth } bind def
/J { setlinecap } bind def
/j { setlinejoin } bind def
/M { setmiterlimit } bind def
/d { setdash } bind def
/m { moveto } bind def
/l { lineto } bind def
/c { curveto } bind def
/h { closepath } bind def
/re { exch dup neg 3 1 roll 5 3 roll moveto 0 rlineto
      0 exch rlineto 0 rlineto closepath } bind def
/S { stroke } bind def
/f { fill } bind def
/f* { eofill } bind def
/n { newpath } bind def
/W { clip } bind def
/W* { eoclip } bind def
/BT { } bind def
/ET { } bind def
/pdfmark where { pop globaldict /?pdfmark /exec load put }
    { globaldict begin /?pdfmark /pop load def /pdfmark
    /cleartomark load def end } ifelse
/BDC { mark 3 1 roll /BDC pdfmark } bind def
/EMC { mark /EMC pdfmark } bind def
/cairo_store_point { /cairo_point_y exch def /cairo_point_x exch def } def
/Tj { show currentpoint cairo_store_point } bind def
/TJ {
  {
    dup
    type /stringtype eq
    { show } { -0.001 mul 0 cairo_font_matrix dtransform rmoveto } ifelse
  } forall
  currentpoint cairo_store_point
} bind def
/cairo_selectfont { cairo_font_matrix aload pop pop pop 0 0 6 array astore
    cairo_font exch selectfont cairo_point_x cairo_point_y moveto } bind def
/Tf { pop /cairo_font exch def /cairo_font_matrix where
      { pop cairo_selectfont } if } bind def
/Td { matrix translate cairo_font_matrix matrix concatmatrix dup
      /cairo_font_matrix exch def dup 4 get exch 5 get cairo_store_point
      /cairo_font where { pop cairo_selectfont } if } bind def
/Tm { 2 copy 8 2 roll 6 array astore /cairo_font_matrix exch def
      cairo_store_point /cairo_font where { pop cairo_selectfont } if } bind def
/g { setgray } bind def
/rg { setrgbcolor } bind def
/d1 { setcachedevice } bind def
%%EndProlog
%%BeginSetup
%%EndSetup
%%Page: 1 1
%%BeginPageSetup
%%PageBoundingBox: 0 0 360 216
%%EndPageSetup
q 37 29 309 177 rectclip q
0 g
0.15 w
2 J
0 j
[ 0.2 2] 0 d
3.8 M q 1 0 0 -1 0 216 cm
37.852 174.199 m 345.148 174.199 l S Q
0.25 w
[] 0.0 d
q 1 0 0 -1 0 216 cm
37.852 174.199 m 41.551 174.199 l S Q
q 1 0 0 -1 0 216 cm
345.148 174.199 m 341.449 174.199 l S Q
q 1 0 0 -1 0 216 cm
37.852 149.051 m 39.699 149.051 l S Q
q 1 0 0 -1 0 216 cm
345.148 149.051 m 343.301 149.051 l S Q
0.15 w
[ 0.2 2] 0 d
q 1 0 0 -1 0 216 cm
37.852 123.898 m 345.148 123.898 l S Q
0.25 w
[] 0.0 d
q 1 0 0 -1 0 216 cm
37.852 123.898 m 41.551 123.898 l S Q
q 1 0 0 -1 0 216 cm
345.148 123.898 m 341.449 123.898 l S Q
q 1 0 0 -1 0 216 cm
37.852 98.75 m 39.699 98.75 l S Q
q 1 0 0 -1 0 216 cm
345.148 98.75 m 343.301 98.75 l S Q
0.15 w
[ 0.2 2] 0 d
q 1 0 0 -1 0 216 cm
37.852 73.602 m 345.148 73.602 l S Q
0.25 w
[] 0.0 d
q 1 0 0 -1 0 216 cm
37.852 73.602 m 41.551 73.602 l S Q
q 1 0 0 -1 0 216 cm
345.148 73.602 m 341.449 73.602 l S Q
q 1 0 0 -1 0 216 cm
37.852 48.449 m 39.699 48.449 l S Q
q 1 0 0 -1 0 216 cm
345.148 48.449 m 343.301 48.449 l S Q
0.15 w
[ 0.2 2] 0 d
q 1 0 0 -1 0 216 cm
37.852 23.301 m 239.449 23.301 l S Q
[ 0.2 2] 0 d
q 1 0 0 -1 0 216 cm
340.051 23.301 m 345.148 23.301 l S Q
0.25 w
[] 0.0 d
q 1 0 0 -1 0 216 cm
37.852 23.301 m 41.551 23.301 l S Q
q 1 0 0 -1 0 216 cm
345.148 23.301 m 341.449 23.301 l S Q
0.15 w
[ 0.2 2] 0 d
q 1 0 0 -1 0 216 cm
37.852 186.75 m 37.852 10.75 l S Q
0.25 w
[] 0.0 d
q 1 0 0 -1 0 216 cm
37.852 186.75 m 37.852 183.051 l S Q
q 1 0 0 -1 0 216 cm
37.852 10.75 m 37.852 14.449 l S Q
q 1 0 0 -1 0 216 cm
48.102 186.75 m 48.102 184.898 l S Q
q 1 0 0 -1 0 216 cm
48.102 10.75 m 48.102 12.602 l S Q
q 1 0 0 -1 0 216 cm
58.352 186.75 m 58.352 184.898 l S Q
q 1 0 0 -1 0 216 cm
58.352 10.75 m 58.352 12.602 l S Q
q 1 0 0 -1 0 216 cm
68.602 186.75 m 68.602 184.898 l S Q
q 1 0 0 -1 0 216 cm
68.602 10.75 m 68.602 12.602 l S Q
q 1 0 0 -1 0 216 cm
78.801 186.75 m 78.801 184.898 l S Q
q 1 0 0 -1 0 216 cm
78.801 10.75 m 78.801 12.602 l S Q
0.15 w
[ 0.2 2] 0 d
q 1 0 0 -1 0 216 cm
89.051 186.75 m 89.051 10.75 l S Q
0.25 w
[] 0.0 d
q 1 0 0 -1 0 216 cm
89.051 186.75 m 89.051 183.051 l S Q
q 1 0 0 -1 0 216 cm
89.051 10.75 m 89.051 14.449 l S Q
q 1 0 0 -1 0 216 cm
99.301 186.75 m 99.301 184.898 l S Q
q 1 0 0 -1 0 216 cm
99.301 10.75 m 99.301 12.602 l S Q
q 1 0 0 -1 0 216 cm
109.551 186.75 m 109.551 184.898 l S Q
q 1 0 0 -1 0 216 cm
109.551 10.75 m 109.551 12.602 l S Q
q 1 0 0 -1 0 216 cm
119.801 186.75 m 119.801 184.898 l S Q
q 1 0 0 -1 0 216 cm
119.801 10.75 m 119.801 12.602 l S Q
q 1 0 0 -1 0 216 cm
130.051 186.75 m 130.051 184.898 l S Q
q 1 0 0 -1 0 216 cm
130.051 10.75 m 130.051 12.602 l S Q
0.15 w
[ 0.2 2] 0 d
q 1 0 0 -1 0 216 cm
140.301 186.75 m 140.301 10.75 l S Q
0.25 w
[] 0.0 d
q 1 0 0 -1 0 216 cm
140.301 186.75 m 140.301 183.051 l S Q
q 1 0 0 -1 0 216 cm
140.301 10.75 m 140.301 14.449 l S Q
q 1 0 0 -1 0 216 cm
150.551 186.75 m 150.551 184.898 l S Q
q 1 0 0 -1 0 216 cm
150.551 10.75 m 150.551 12.602 l S Q
q 1 0 0 -1 0 216 cm
160.75 186.75 m 160.75 184.898 l S Q
q 1 0 0 -1 0 216 cm
160.75 10.75 m 160.75 12.602 l S Q
q 1 0 0 -1 0 216 cm
171 186.75 m 171 184.898 l S Q
q 1 0 0 -1 0 216 cm
171 10.75 m 171 12.602 l S Q
q 1 0 0 -1 0 216 cm
181.25 186.75 m 181.25 184.898 l S Q
q 1 0 0 -1 0 216 cm
181.25 10.75 m 181.25 12.602 l S Q
0.15 w
[ 0.2 2] 0 d
q 1 0 0 -1 0 216 cm
191.5 186.75 m 191.5 10.75 l S Q
0.25 w
[] 0.0 d
q 1 0 0 -1 0 216 cm
191.5 186.75 m 191.5 183.051 l S Q
q 1 0 0 -1 0 216 cm
191.5 10.75 m 191.5 14.449 l S Q
q 1 0 0 -1 0 216 cm
201.75 186.75 m 201.75 184.898 l S Q
q 1 0 0 -1 0 216 cm
201.75 10.75 m 201.75 12.602 l S Q
q 1 0 0 -1 0 216 cm
212 186.75 m 212 184.898 l S Q
q 1 0 0 -1 0 216 cm
212 10.75 m 212 12.602 l S Q
q 1 0 0 -1 0 216 cm
222.25 186.75 m 222.25 184.898 l S Q
q 1 0 0 -1 0 216 cm
222.25 10.75 m 222.25 12.602 l S Q
q 1 0 0 -1 0 216 cm
232.449 186.75 m 232.449 184.898 l S Q
q 1 0 0 -1 0 216 cm
232.449 10.75 m 232.449 12.602 l S Q
0.15 w
[ 0.2 2] 0 d
q 1 0 0 -1 0 216 cm
242.699 186.75 m 242.699 33.051 l S Q
[ 0.2 2] 0 d
q 1 0 0 -1 0 216 cm
242.699 14.449 m 242.699 10.75 l S Q
0.25 w
[] 0.0 d
q 1 0 0 -1 0 216 cm
242.699 186.75 m 242.699 183.051 l S Q
q 1 0 0 -1 0 216 cm
242.699 10.75 m 242.699 14.449 l S Q
q 1 0 0 -1 0 216 cm
252.949 186.75 m 252.949 184.898 l S Q
q 1 0 0 -1 0 216 cm
252.949 10.75 m 252.949 12.602 l S Q
q 1 0 0 -1 0 216 cm
263.199 186.75 m 263.199 184.898 l S Q
q 1 0 0 -1 0 216 cm
263.199 10.75 m 263.199 12.602 l S Q
q 1 0 0 -1 0 216 cm
273.449 186.75 m 273.449 184.898 l S Q
q 1 0 0 -1 0 216 cm
273.449 10.75 m 273.449 12.602 l S Q
q 1 0 0 -1 0 216 cm
283.699 186.75 m 283.699 184.898 l S Q
q 1 0 0 -1 0 216 cm
283.699 10.75 m 283.699 12.602 l S Q
0.15 w
[ 0.2 2] 0 d
q 1 0 0 -1 0 216 cm
293.949 186.75 m 293.949 33.051 l S Q
[ 0.2 2] 0 d
q 1 0 0 -1 0 216 cm
293.949 14.449 m 293.949 10.75 l S Q
0.25 w
[] 0.0 d
q 1 0 0 -1 0 216 cm
293.949 186.75 m 293.949 183.051 l S Q
q 1 0 0 -1 0 216 cm
293.949 10.75 m 293.949 14.449 l S Q
q 1 0 0 -1 0 216 cm
304.199 186.75 m 304.199 184.898 l S Q
q 1 0 0 -1 0 216 cm
304.199 10.75 m 304.199 12.602 l S Q
q 1 0 0 -1 0 216 cm
314.398 186.75 m 314.398 184.898 l S Q
q 1 0 0 -1 0 216 cm
314.398 10.75 m 314.398 12.602 l S Q
q 1 0 0 -1 0 216 cm
324.648 186.75 m 324.648 184.898 l S Q
q 1 0 0 -1 0 216 cm
324.648 10.75 m 324.648 12.602 l S Q
q 1 0 0 -1 0 216 cm
334.898 186.75 m 334.898 184.898 l S Q
q 1 0 0 -1 0 216 cm
334.898 10.75 m 334.898 12.602 l S Q
0.15 w
[ 0.2 2] 0 d
q 1 0 0 -1 0 216 cm
345.148 186.75 m 345.148 10.75 l S Q
0.25 w
[] 0.0 d
q 1 0 0 -1 0 216 cm
345.148 186.75 m 345.148 183.051 l S Q
q 1 0 0 -1 0 216 cm
345.148 10.75 m 345.148 14.449 l S Q
q 1 0 0 -1 0 216 cm
37.852 10.75 307.297 176 re S Q
q 1 0 0 -1 0 216 cm
37.852 73.602 m 345.148 73.602 l S Q
0.172549 0.462745 0.733333 rg
q 1 0 0 -1 0 216 cm
310.852 28.398 m 334.949 28.398 l S Q
q 1 0 0 -1 0 216 cm
37.949 10.75 m 37.949 26.301 l S Q
q 1 0 0 -1 0 216 cm
37.949 26.301 m 38 26.301 l S Q
q 1 0 0 -1 0 216 cm
38 26.301 m 38.051 26.301 l S Q
q 1 0 0 -1 0 216 cm
38.051 26.301 m 38.148 26.301 l 38.148 54.352 l S Q
q 1 0 0 -1 0 216 cm
38.148 54.352 m 38.25 54.352 l 38.25 59.699 l S Q
q 1 0 0 -1 0 216 cm
38.25 59.699 m 38.352 59.699 l 38.352 61.25 l S Q
q 1 0 0 -1 0 216 cm
38.352 61.25 m 38.449 61.25 l 38.449 61.75 l S Q
q 1 0 0 -1 0 216 cm
38.449 61.75 m 38.551 61.75 l 38.551 62.301 l S Q
q 1 0 0 -1 0 216 cm
38.551 62.301 m 38.648 62.301 l S Q
q 1 0 0 -1 0 216 cm
38.648 62.301 m 38.949 62.301 l 38.949 63.699 l S Q
q 1 0 0 -1 0 216 cm
38.949 63.699 m 39 63.699 l 39 63.949 l S Q
q 1 0 0 -1 0 216 cm
39 63.949 m 39.148 63.949 l 39.148 64.398 l S Q
q 1 0 0 -1 0 216 cm
39.148 64.398 m 39.199 64.398 l 39.199 64.852 l S Q
q 1 0 0 -1 0 216 cm
39.199 64.852 m 39.25 64.852 l 39.25 64.949 l S Q
q 1 0 0 -1 0 216 cm
39.25 64.949 m 39.449 64.949 l 39.449 65.352 l S Q
q 1 0 0 -1 0 216 cm
39.449 65.352 m 39.898 65.352 l 39.898 66.449 l S Q
q 1 0 0 -1 0 216 cm
39.898 66.449 m 40.102 66.449 l S Q
q 1 0 0 -1 0 216 cm
40.102 66.449 m 40.199 66.449 l S Q
q 1 0 0 -1 0 216 cm
40.199 66.449 m 40.301 66.449 l S Q
q 1 0 0 -1 0 216 cm
40.301 66.449 m 40.398 66.449 l S Q
q 1 0 0 -1 0 216 cm
40.398 66.449 m 40.449 66.449 l 40.449 66.551 l S Q
q 1 0 0 -1 0 216 cm
40.449 66.551 m 40.551 66.551 l S Q
q 1 0 0 -1 0 216 cm
40.551 66.551 m 40.648 66.551 l S Q
q 1 0 0 -1 0 216 cm
40.648 66.551 m 40.75 66.551 l S Q
q 1 0 0 -1 0 216 cm
40.75 66.551 m 40.852 66.551 l S Q
q 1 0 0 -1 0 216 cm
40.852 66.551 m 40.898 66.551 l S Q
q 1 0 0 -1 0 216 cm
40.898 66.551 m 40.949 66.551 l S Q
q 1 0 0 -1 0 216 cm
40.949 66.551 m 41 66.551 l S Q
q 1 0 0 -1 0 216 cm
41 66.551 m 41.051 66.551 l S Q
q 1 0 0 -1 0 216 cm
41.051 66.551 m 41.102 66.551 l S Q
q 1 0 0 -1 0 216 cm
41.102 66.551 m 41.199 66.551 l S Q
q 1 0 0 -1 0 216 cm
41.199 66.551 m 41.301 66.551 l S Q
q 1 0 0 -1 0 216 cm
41.301 66.551 m 41.352 66.551 l S Q
q 1 0 0 -1 0 216 cm
41.352 66.551 m 41.449 66.551 l S Q
q 1 0 0 -1 0 216 cm
41.449 66.551 m 41.5 66.551 l S Q
q 1 0 0 -1 0 216 cm
41.5 66.551 m 41.551 66.551 l S Q
q 1 0 0 -1 0 216 cm
41.551 66.551 m 41.602 66.551 l S Q
q 1 0 0 -1 0 216 cm
41.602 66.551 m 41.699 66.551 l S Q
q 1 0 0 -1 0 216 cm
41.699 66.551 m 41.75 66.551 l S Q
q 1 0 0 -1 0 216 cm
41.75 66.551 m 41.801 66.551 l S Q
q 1 0 0 -1 0 216 cm
41.801 66.551 m 41.852 66.551 l S Q
q 1 0 0 -1 0 216 cm
41.852 66.551 m 41.898 66.551 l S Q
q 1 0 0 -1 0 216 cm
41.898 66.551 m 41.949 66.551 l S Q
q 1 0 0 -1 0 216 cm
41.949 66.551 m 42 66.551 l S Q
q 1 0 0 -1 0 216 cm
42 66.551 m 42.051 66.551 l S Q
q 1 0 0 -1 0 216 cm
42.051 66.551 m 42.102 66.551 l S Q
q 1 0 0 -1 0 216 cm
42.102 66.551 m 42.148 66.551 l S Q
q 1 0 0 -1 0 216 cm
42.148 66.551 m 42.199 66.551 l S Q
q 1 0 0 -1 0 216 cm
42.199 66.551 m 42.25 66.551 l S Q
q 1 0 0 -1 0 216 cm
42.25 66.551 m 42.301 66.551 l S Q
q 1 0 0 -1 0 216 cm
42.301 66.551 m 42.352 66.551 l S Q
q 1 0 0 -1 0 216 cm
42.352 66.551 m 42.398 66.551 l S Q
q 1 0 0 -1 0 216 cm
42.398 66.551 m 42.449 66.551 l 42.449 66.602 l S Q
q 1 0 0 -1 0 216 cm
42.449 66.602 m 42.5 66.602 l S Q
q 1 0 0 -1 0 216 cm
42.5 66.602 m 42.551 66.602 l S Q
q 1 0 0 -1 0 216 cm
42.551 66.602 m 42.648 66.602 l S Q
q 1 0 0 -1 0 216 cm
42.648 66.602 m 42.699 66.602 l S Q
q 1 0 0 -1 0 216 cm
42.699 66.602 m 42.75 66.602 l S Q
q 1 0 0 -1 0 216 cm
42.75 66.602 m 42.898 66.602 l 42.898 67.102 l S Q
q 1 0 0 -1 0 216 cm
42.898 67.102 m 44.75 67.102 l S Q
q 1 0 0 -1 0 216 cm
44.75 67.102 m 45.148 67.102 l S Q
q 1 0 0 -1 0 216 cm
45.148 67.102 m 45.25 67.102 l S Q
q 1 0 0 -1 0 216 cm
45.25 67.102 m 45.352 67.102 l S Q
q 1 0 0 -1 0 216 cm
45.352 67.102 m 45.398 67.102 l S Q
q 1 0 0 -1 0 216 cm
45.398 67.102 m 45.449 67.102 l S Q
q 1 0 0 -1 0 216 cm
45.449 67.102 m 45.5 67.102 l S Q
q 1 0 0 -1 0 216 cm
45.5 67.102 m 45.602 67.102 l S Q
q 1 0 0 -1 0 216 cm
45.602 67.102 m 45.699 67.102 l S Q
q 1 0 0 -1 0 216 cm
45.699 67.102 m 45.801 67.102 l S Q
q 1 0 0 -1 0 216 cm
45.801 67.102 m 45.898 67.102 l S Q
q 1 0 0 -1 0 216 cm
45.898 67.102 m 46 67.102 l S Q
q 1 0 0 -1 0 216 cm
46 67.102 m 46.102 67.102 l S Q
q 1 0 0 -1 0 216 cm
46.102 67.102 m 46.199 67.102 l S Q
q 1 0 0 -1 0 216 cm
46.199 67.102 m 46.301 67.102 l S Q
q 1 0 0 -1 0 216 cm
46.301 67.102 m 46.352 67.102 l S Q
q 1 0 0 -1 0 216 cm
46.352 67.102 m 46.398 67.102 l S Q
q 1 0 0 -1 0 216 cm
46.398 67.102 m 46.5 67.102 l S Q
q 1 0 0 -1 0 216 cm
46.5 67.102 m 46.551 67.102 l 46.551 67.551 l S Q
q 1 0 0 -1 0 216 cm
46.551 67.551 m 46.602 67.551 l S Q
q 1 0 0 -1 0 216 cm
46.602 67.551 m 46.699 67.551 l S Q
q 1 0 0 -1 0 216 cm
46.699 67.551 m 46.75 67.551 l S Q
q 1 0 0 -1 0 216 cm
46.75 67.551 m 46.801 67.551 l S Q
q 1 0 0 -1 0 216 cm
46.801 67.551 m 46.852 67.551 l S Q
q 1 0 0 -1 0 216 cm
46.852 67.551 m 46.898 67.551 l S Q
q 1 0 0 -1 0 216 cm
46.898 67.551 m 46.949 67.551 l S Q
q 1 0 0 -1 0 216 cm
46.949 67.551 m 49.051 67.551 l S Q
q 1 0 0 -1 0 216 cm
49.051 67.551 m 49.449 67.551 l S Q
q 1 0 0 -1 0 216 cm
49.449 67.551 m 49.551 67.551 l S Q
q 1 0 0 -1 0 216 cm
49.551 67.551 m 49.648 67.551 l S Q
q 1 0 0 -1 0 216 cm
49.648 67.551 m 49.75 67.551 l S Q
q 1 0 0 -1 0 216 cm
49.75 67.551 m 49.852 67.551 l S Q
q 1 0 0 -1 0 216 cm
49.852 67.551 m 49.949 67.551 l S Q
q 1 0 0 -1 0 216 cm
49.949 67.551 m 50.051 67.551 l S Q
q 1 0 0 -1 0 216 cm
50.051 67.551 m 50.148 67.551 l S Q
q 1 0 0 -1 0 216 cm
50.148 67.551 m 50.25 67.551 l S Q
q 1 0 0 -1 0 216 cm
50.25 67.551 m 50.352 67.551 l S Q
q 1 0 0 -1 0 216 cm
50.352 67.551 m 50.449 67.551 l S Q
q 1 0 0 -1 0 216 cm
50.449 67.551 m 50.551 67.551 l 50.551 68.551 l S Q
q 1 0 0 -1 0 216 cm
50.551 68.551 m 50.648 68.551 l S Q
q 1 0 0 -1 0 216 cm
50.648 68.551 m 50.699 68.551 l S Q
q 1 0 0 -1 0 216 cm
50.699 68.551 m 50.75 68.551 l S Q
q 1 0 0 -1 0 216 cm
50.75 68.551 m 50.852 68.551 l S Q
q 1 0 0 -1 0 216 cm
50.852 68.551 m 51.75 68.551 l 51.75 68.75 l S Q
q 1 0 0 -1 0 216 cm
51.75 68.75 m 52.602 68.75 l 52.602 69.352 l S Q
q 1 0 0 -1 0 216 cm
52.602 69.352 m 53.199 69.352 l S Q
q 1 0 0 -1 0 216 cm
53.199 69.352 m 53.25 69.352 l S Q
q 1 0 0 -1 0 216 cm
53.25 69.352 m 53.301 69.352 l S Q
q 1 0 0 -1 0 216 cm
53.301 69.352 m 53.352 69.352 l S Q
q 1 0 0 -1 0 216 cm
53.352 69.352 m 53.398 69.352 l S Q
q 1 0 0 -1 0 216 cm
53.398 69.352 m 53.449 69.352 l S Q
q 1 0 0 -1 0 216 cm
53.449 69.352 m 53.5 69.352 l S Q
q 1 0 0 -1 0 216 cm
53.5 69.352 m 53.551 69.352 l S Q
q 1 0 0 -1 0 216 cm
53.551 69.352 m 53.602 69.352 l S Q
q 1 0 0 -1 0 216 cm
53.602 69.352 m 53.648 69.352 l S Q
q 1 0 0 -1 0 216 cm
53.648 69.352 m 53.699 69.352 l S Q
q 1 0 0 -1 0 216 cm
53.699 69.352 m 53.75 69.352 l S Q
q 1 0 0 -1 0 216 cm
53.75 69.352 m 53.801 69.352 l S Q
q 1 0 0 -1 0 216 cm
53.801 69.352 m 53.801 70 l S Q
q 1 0 0 -1 0 216 cm
53.801 70 m 53.852 70 l S Q
q 1 0 0 -1 0 216 cm
53.852 70 m 53.898 70 l S Q
q 1 0 0 -1 0 216 cm
53.898 70 m 53.949 70 l S Q
q 1 0 0 -1 0 216 cm
53.949 70 m 54 70 l S Q
q 1 0 0 -1 0 216 cm
54 70 m 57.75 70 l 57.75 70.051 l S Q
q 1 0 0 -1 0 216 cm
57.75 70.051 m 62.148 70.051 l 62.148 70.301 l S Q
q 1 0 0 -1 0 216 cm
62.148 70.301 m 68.148 70.301 l S Q
q 1 0 0 -1 0 216 cm
68.148 70.301 m 71.949 70.301 l 71.949 70.551 l S Q
q 1 0 0 -1 0 216 cm
71.949 70.551 m 73.398 70.551 l 73.398 70.801 l S Q
q 1 0 0 -1 0 216 cm
73.398 70.801 m 73.852 70.801 l 73.852 71.148 l S Q
q 1 0 0 -1 0 216 cm
73.852 71.148 m 79.051 71.148 l 79.051 71.25 l S Q
q 1 0 0 -1 0 216 cm
79.051 71.25 m 79.801 71.25 l S Q
q 1 0 0 -1 0 216 cm
79.801 71.25 m 80.699 71.25 l 80.699 71.602 l S Q
q 1 0 0 -1 0 216 cm
80.699 71.602 m 84.949 71.602 l 84.949 72.398 l S Q
q 1 0 0 -1 0 216 cm
84.949 72.398 m 92 72.398 l S Q
q 1 0 0 -1 0 216 cm
92 72.398 m 92.051 72.398 l S Q
q 1 0 0 -1 0 216 cm
92.051 72.398 m 92.25 72.398 l S Q
q 1 0 0 -1 0 216 cm
92.25 72.398 m 92.398 72.398 l S Q
q 1 0 0 -1 0 216 cm
92.398 72.398 m 92.602 72.398 l S Q
q 1 0 0 -1 0 216 cm
92.602 72.398 m 92.75 72.398 l S Q
q 1 0 0 -1 0 216 cm
92.75 72.398 m 92.801 72.398 l S Q
q 1 0 0 -1 0 216 cm
92.801 72.398 m 92.949 72.398 l S Q
q 1 0 0 -1 0 216 cm
92.949 72.398 m 93 72.398 l S Q
q 1 0 0 -1 0 216 cm
93 72.398 m 93.148 72.398 l S Q
q 1 0 0 -1 0 216 cm
93.148 72.398 m 93.301 72.398 l S Q
q 1 0 0 -1 0 216 cm
93.301 72.398 m 93.449 72.398 l S Q
q 1 0 0 -1 0 216 cm
93.449 72.398 m 93.602 72.398 l S Q
q 1 0 0 -1 0 216 cm
93.602 72.398 m 93.648 72.398 l S Q
q 1 0 0 -1 0 216 cm
93.648 72.398 m 93.801 72.398 l S Q
q 1 0 0 -1 0 216 cm
93.801 72.398 m 93.949 72.398 l S Q
q 1 0 0 -1 0 216 cm
93.949 72.398 m 94.102 72.398 l S Q
q 1 0 0 -1 0 216 cm
94.102 72.398 m 94.199 72.398 l S Q
q 1 0 0 -1 0 216 cm
94.199 72.398 m 94.25 72.398 l S Q
q 1 0 0 -1 0 216 cm
94.25 72.398 m 94.352 72.398 l S Q
q 1 0 0 -1 0 216 cm
94.352 72.398 m 94.449 72.398 l S Q
q 1 0 0 -1 0 216 cm
94.449 72.398 m 94.5 72.398 l S Q
q 1 0 0 -1 0 216 cm
94.5 72.398 m 94.602 72.398 l S Q
q 1 0 0 -1 0 216 cm
94.602 72.398 m 94.648 72.398 l S Q
q 1 0 0 -1 0 216 cm
94.648 72.398 m 94.75 72.398 l S Q
q 1 0 0 -1 0 216 cm
94.75 72.398 m 94.852 72.398 l S Q
q 1 0 0 -1 0 216 cm
94.852 72.398 m 94.949 72.398 l S Q
q 1 0 0 -1 0 216 cm
94.949 72.398 m 95 72.398 l S Q
q 1 0 0 -1 0 216 cm
95 72.398 m 95.102 72.398 l S Q
q 1 0 0 -1 0 216 cm
95.102 72.398 m 99.949 72.398 l S Q
q 1 0 0 -1 0 216 cm
99.949 72.398 m 101.699 72.398 l S Q
q 1 0 0 -1 0 216 cm
101.699 72.398 m 103.398 72.398 l S Q
q 1 0 0 -1 0 216 cm
103.398 72.398 m 113 72.398 l 113 72.801 l S Q
q 1 0 0 -1 0 216 cm
113 72.801 m 127.102 72.801 l S Q
q 1 0 0 -1 0 216 cm
127.102 72.801 m 127.148 72.801 l S Q
q 1 0 0 -1 0 216 cm
127.148 72.801 m 127.25 72.801 l S Q
q 1 0 0 -1 0 216 cm
127.25 72.801 m 127.301 72.801 l S Q
q 1 0 0 -1 0 216 cm
127.301 72.801 m 130.75 72.801 l S Q
q 1 0 0 -1 0 216 cm
130.75 72.801 m 132.102 72.801 l S Q
q 1 0 0 -1 0 216 cm
132.102 72.801 m 132.301 72.801 l 132.301 73.051 l S Q
q 1 0 0 -1 0 216 cm
132.301 73.051 m 133.398 73.051 l 133.398 73.102 l S Q
q 1 0 0 -1 0 216 cm
133.398 73.102 m 137.551 73.102 l 137.551 73.199 l S Q
q 1 0 0 -1 0 216 cm
137.551 73.199 m 142.5 73.199 l S Q
q 1 0 0 -1 0 216 cm
142.5 73.199 m 142.551 73.199 l S Q
q 1 0 0 -1 0 216 cm
142.551 73.199 m 155.398 73.199 l S Q
q 1 0 0 -1 0 216 cm
155.398 73.199 m 159 73.199 l S Q
q 1 0 0 -1 0 216 cm
159 73.199 m 160.898 73.199 l 160.898 73.398 l S Q
q 1 0 0 -1 0 216 cm
160.898 73.398 m 163.551 73.398 l S Q
q 1 0 0 -1 0 216 cm
163.551 73.398 m 167.898 73.398 l S Q
q 1 0 0 -1 0 216 cm
167.898 73.398 m 169.699 73.398 l 169.699 73.602 l S Q
q 1 0 0 -1 0 216 cm
169.699 73.602 m 170.102 73.602 l S Q
q 1 0 0 -1 0 216 cm
170.102 73.602 m 173.602 73.602 l S Q
q 1 0 0 -1 0 216 cm
173.602 73.602 m 174 73.602 l S Q
q 1 0 0 -1 0 216 cm
174 73.602 m 175.949 73.602 l S Q
q 1 0 0 -1 0 216 cm
175.949 73.602 m 180.449 73.602 l S Q
q 1 0 0 -1 0 216 cm
180.449 73.602 m 183.852 73.602 l S Q
q 1 0 0 -1 0 216 cm
183.852 73.602 m 185.352 73.602 l S Q
q 1 0 0 -1 0 216 cm
185.352 73.602 m 187.398 73.602 l S Q
q 1 0 0 -1 0 216 cm
187.398 73.602 m 189.75 73.602 l S Q
q 1 0 0 -1 0 216 cm
189.75 73.602 m 193.051 73.602 l S Q
q 1 0 0 -1 0 216 cm
193.051 73.602 m 196 73.602 l S Q
q 1 0 0 -1 0 216 cm
196 73.602 m 200.051 73.602 l S Q
q 1 0 0 -1 0 216 cm
200.051 73.602 m 215.449 73.602 l S Q
q 1 0 0 -1 0 216 cm
215.449 73.602 m 217.949 73.602 l S Q
q 1 0 0 -1 0 216 cm
217.949 73.602 m 220.551 73.602 l S Q
q 1 0 0 -1 0 216 cm
220.551 73.602 m 225.449 73.602 l S Q
q 1 0 0 -1 0 216 cm
225.449 73.602 m 228.051 73.602 l S Q
q 1 0 0 -1 0 216 cm
228.051 73.602 m 230.852 73.602 l S Q
q 1 0 0 -1 0 216 cm
230.852 73.602 m 234.25 73.602 l S Q
q 1 0 0 -1 0 216 cm
234.25 73.602 m 236.25 73.602 l S Q
q 1 0 0 -1 0 216 cm
236.25 73.602 m 238.449 73.602 l S Q
q 1 0 0 -1 0 216 cm
238.449 73.602 m 240.949 73.602 l S Q
q 1 0 0 -1 0 216 cm
240.949 73.602 m 243.551 73.602 l S Q
q 1 0 0 -1 0 216 cm
243.551 73.602 m 248.199 73.602 l S Q
q 1 0 0 -1 0 216 cm
248.199 73.602 m 250.352 73.602 l S Q
q 1 0 0 -1 0 216 cm
250.352 73.602 m 252.301 73.602 l S Q
q 1 0 0 -1 0 216 cm
252.301 73.602 m 257.5 73.602 l S Q
q 1 0 0 -1 0 216 cm
257.5 73.602 m 259.699 73.602 l S Q
q 1 0 0 -1 0 216 cm
259.699 73.602 m 262 73.602 l S Q
q 1 0 0 -1 0 216 cm
262 73.602 m 264.648 73.602 l S Q
q 1 0 0 -1 0 216 cm
264.648 73.602 m 267.898 73.602 l S Q
q 1 0 0 -1 0 216 cm
267.898 73.602 m 280.699 73.602 l S Q
q 1 0 0 -1 0 216 cm
280.699 73.602 m 282.699 73.602 l S Q
q 1 0 0 -1 0 216 cm
282.699 73.602 m 285.449 73.602 l S Q
q 1 0 0 -1 0 216 cm
285.449 73.602 m 289.102 73.602 l S Q
q 1 0 0 -1 0 216 cm
289.102 73.602 m 291.148 73.602 l S Q
q 1 0 0 -1 0 216 cm
291.148 73.602 m 293.75 73.602 l S Q
q 1 0 0 -1 0 216 cm
293.75 73.602 m 299.051 73.602 l S Q
q 1 0 0 -1 0 216 cm
299.051 73.602 m 301.301 73.602 l S Q
q 1 0 0 -1 0 216 cm
301.301 73.602 m 304.148 73.602 l S Q
q 1 0 0 -1 0 216 cm
304.148 73.602 m 307.449 73.602 l S Q
q 1 0 0 -1 0 216 cm
307.449 73.602 m 310.301 73.602 l S Q
q 1 0 0 -1 0 216 cm
310.301 73.602 m 312.75 73.602 l S Q
q 1 0 0 -1 0 216 cm
312.75 73.602 m 315.551 73.602 l S Q
q 1 0 0 -1 0 216 cm
315.551 73.602 m 319 73.602 l S Q
q 1 0 0 -1 0 216 cm
319 73.602 m 320.602 73.602 l S Q
q 1 0 0 -1 0 216 cm
320.602 73.602 m 322.949 73.602 l S Q
q 1 0 0 -1 0 216 cm
322.949 73.602 m 325.648 73.602 l S Q
q 1 0 0 -1 0 216 cm
325.648 73.602 m 330.699 73.602 l S Q
q 1 0 0 -1 0 216 cm
330.699 73.602 m 332.852 73.602 l S Q
q 1 0 0 -1 0 216 cm
332.852 73.602 m 345.148 73.602 l S Q
0.74902 0.145098 0.172549 rg
q 1 0 0 -1 0 216 cm
310.852 19.102 m 334.949 19.102 l S Q
q 1 0 0 -1 0 216 cm
37.949 186.75 m 37.949 177.551 l S Q
q 1 0 0 -1 0 216 cm
37.949 177.551 m 37.949 171.898 l S Q
q 1 0 0 -1 0 216 cm
37.949 171.898 m 38 171.898 l 38 171.199 l S Q
q 1 0 0 -1 0 216 cm
38 171.199 m 38.051 171.199 l S Q
q 1 0 0 -1 0 216 cm
38.051 171.199 m 38.051 171.102 l S Q
q 1 0 0 -1 0 216 cm
38.051 171.102 m 38.148 171.102 l 38.148 171 l S Q
q 1 0 0 -1 0 216 cm
38.148 171 m 38.25 171 l S Q
q 1 0 0 -1 0 216 cm
38.25 171 m 38.352 171 l S Q
q 1 0 0 -1 0 216 cm
38.352 171 m 38.449 171 l S Q
q 1 0 0 -1 0 216 cm
38.449 171 m 38.551 171 l S Q
q 1 0 0 -1 0 216 cm
38.551 171 m 38.648 171 l S Q
q 1 0 0 -1 0 216 cm
38.648 171 m 38.949 171 l S Q
q 1 0 0 -1 0 216 cm
38.949 171 m 39 171 l S Q
q 1 0 0 -1 0 216 cm
39 171 m 39.148 171 l S Q
q 1 0 0 -1 0 216 cm
39.148 171 m 39.199 171 l S Q
q 1 0 0 -1 0 216 cm
39.199 171 m 39.25 171 l S Q
q 1 0 0 -1 0 216 cm
39.25 171 m 39.449 171 l S Q
q 1 0 0 -1 0 216 cm
39.449 171 m 39.898 171 l S Q
q 1 0 0 -1 0 216 cm
39.898 171 m 39.898 170.949 l S Q
q 1 0 0 -1 0 216 cm
39.898 170.949 m 40.102 170.949 l 40.102 167.102 l S Q
q 1 0 0 -1 0 216 cm
40.102 167.102 m 40.102 166.699 l S Q
q 1 0 0 -1 0 216 cm
40.102 166.699 m 40.199 166.699 l 40.199 164.301 l S Q
q 1 0 0 -1 0 216 cm
40.199 164.301 m 40.199 163.852 l S Q
q 1 0 0 -1 0 216 cm
40.199 163.852 m 40.301 163.852 l 40.301 162.898 l S Q
q 1 0 0 -1 0 216 cm
40.301 162.898 m 40.301 162.648 l S Q
q 1 0 0 -1 0 216 cm
40.301 162.648 m 40.398 162.648 l 40.398 161.852 l S Q
q 1 0 0 -1 0 216 cm
40.398 161.852 m 40.449 161.852 l S Q
q 1 0 0 -1 0 216 cm
40.449 161.852 m 40.551 161.852 l 40.551 161.148 l S Q
q 1 0 0 -1 0 216 cm
40.551 161.148 m 40.551 161.051 l S Q
q 1 0 0 -1 0 216 cm
40.551 161.051 m 40.648 161.051 l 40.648 160.801 l S Q
q 1 0 0 -1 0 216 cm
40.648 160.801 m 40.648 160.648 l S Q
q 1 0 0 -1 0 216 cm
40.648 160.648 m 40.75 160.648 l 40.75 160.199 l S Q
q 1 0 0 -1 0 216 cm
40.75 160.199 m 40.75 160.148 l S Q
q 1 0 0 -1 0 216 cm
40.75 160.148 m 40.852 160.148 l 40.852 159.898 l S Q
q 1 0 0 -1 0 216 cm
40.852 159.898 m 40.852 159.801 l S Q
q 1 0 0 -1 0 216 cm
40.852 159.801 m 40.898 159.801 l 40.898 159.551 l S Q
q 1 0 0 -1 0 216 cm
40.898 159.551 m 40.949 159.551 l 40.949 159.449 l S Q
q 1 0 0 -1 0 216 cm
40.949 159.449 m 41 159.449 l 41 159.352 l S Q
q 1 0 0 -1 0 216 cm
41 159.352 m 41.051 159.352 l 41.051 159.25 l S Q
q 1 0 0 -1 0 216 cm
41.051 159.25 m 41.102 159.25 l 41.102 159.051 l S Q
q 1 0 0 -1 0 216 cm
41.102 159.051 m 41.102 159 l S Q
q 1 0 0 -1 0 216 cm
41.102 159 m 41.199 159 l 41.199 158.949 l S Q
q 1 0 0 -1 0 216 cm
41.199 158.949 m 41.301 158.949 l 41.301 158.852 l S Q
q 1 0 0 -1 0 216 cm
41.301 158.852 m 41.352 158.852 l 41.352 158.699 l S Q
q 1 0 0 -1 0 216 cm
41.352 158.699 m 41.449 158.699 l S Q
q 1 0 0 -1 0 216 cm
41.449 158.699 m 41.5 158.699 l 41.5 158.648 l S Q
q 1 0 0 -1 0 216 cm
41.5 158.648 m 41.551 158.648 l 41.551 158.602 l S Q
q 1 0 0 -1 0 216 cm
41.551 158.602 m 41.602 158.602 l S Q
q 1 0 0 -1 0 216 cm
41.602 158.602 m 41.699 158.602 l 41.699 158.449 l S Q
q 1 0 0 -1 0 216 cm
41.699 158.449 m 41.75 158.449 l 41.75 158.398 l S Q
q 1 0 0 -1 0 216 cm
41.75 158.398 m 41.801 158.398 l S Q
q 1 0 0 -1 0 216 cm
41.801 158.398 m 41.852 158.398 l S Q
q 1 0 0 -1 0 216 cm
41.852 158.398 m 41.898 158.398 l 41.898 158.352 l S Q
q 1 0 0 -1 0 216 cm
41.898 158.352 m 41.949 158.352 l S Q
q 1 0 0 -1 0 216 cm
41.949 158.352 m 42 158.352 l 42 158.25 l S Q
q 1 0 0 -1 0 216 cm
42 158.25 m 42.051 158.25 l 42.051 158.148 l S Q
q 1 0 0 -1 0 216 cm
42.051 158.148 m 42.102 158.148 l 42.102 158.102 l S Q
q 1 0 0 -1 0 216 cm
42.102 158.102 m 42.148 158.102 l 42.148 158.051 l S Q
q 1 0 0 -1 0 216 cm
42.148 158.051 m 42.199 158.051 l S Q
q 1 0 0 -1 0 216 cm
42.199 158.051 m 42.25 158.051 l 42.25 158 l S Q
q 1 0 0 -1 0 216 cm
42.25 158 m 42.301 158 l 42.301 157.898 l S Q
q 1 0 0 -1 0 216 cm
42.301 157.898 m 42.352 157.898 l S Q
q 1 0 0 -1 0 216 cm
42.352 157.898 m 42.398 157.898 l S Q
q 1 0 0 -1 0 216 cm
42.398 157.898 m 42.449 157.898 l S Q
q 1 0 0 -1 0 216 cm
42.449 157.898 m 42.5 157.898 l 42.5 157.852 l S Q
q 1 0 0 -1 0 216 cm
42.5 157.852 m 42.551 157.852 l S Q
q 1 0 0 -1 0 216 cm
42.551 157.852 m 42.648 157.852 l S Q
q 1 0 0 -1 0 216 cm
42.648 157.852 m 42.699 157.852 l S Q
q 1 0 0 -1 0 216 cm
42.699 157.852 m 42.75 157.852 l S Q
q 1 0 0 -1 0 216 cm
42.75 157.852 m 42.898 157.852 l S Q
q 1 0 0 -1 0 216 cm
42.898 157.852 m 44.75 157.852 l 44.75 157.801 l S Q
q 1 0 0 -1 0 216 cm
44.75 157.801 m 45.148 157.801 l 45.148 157.301 l S Q
q 1 0 0 -1 0 216 cm
45.148 157.301 m 45.148 157.199 l S Q
q 1 0 0 -1 0 216 cm
45.148 157.199 m 45.25 157.199 l 45.25 156.852 l S Q
q 1 0 0 -1 0 216 cm
45.25 156.852 m 45.25 156.801 l S Q
q 1 0 0 -1 0 216 cm
45.25 156.801 m 45.352 156.801 l 45.352 156.551 l S Q
q 1 0 0 -1 0 216 cm
45.352 156.551 m 45.398 156.551 l 45.398 156.5 l S Q
q 1 0 0 -1 0 216 cm
45.398 156.5 m 45.449 156.5 l 45.449 156.301 l S Q
q 1 0 0 -1 0 216 cm
45.449 156.301 m 45.5 156.301 l 45.5 156.25 l S Q
q 1 0 0 -1 0 216 cm
45.5 156.25 m 45.602 156.25 l 45.602 156 l S Q
q 1 0 0 -1 0 216 cm
45.602 156 m 45.602 155.949 l S Q
q 1 0 0 -1 0 216 cm
45.602 155.949 m 45.699 155.949 l 45.699 155.75 l S Q
q 1 0 0 -1 0 216 cm
45.699 155.75 m 45.699 155.648 l S Q
q 1 0 0 -1 0 216 cm
45.699 155.648 m 45.801 155.648 l 45.801 155.551 l S Q
q 1 0 0 -1 0 216 cm
45.801 155.551 m 45.801 155.5 l S Q
q 1 0 0 -1 0 216 cm
45.801 155.5 m 45.898 155.5 l 45.898 155.301 l S Q
q 1 0 0 -1 0 216 cm
45.898 155.301 m 45.898 155.25 l S Q
q 1 0 0 -1 0 216 cm
45.898 155.25 m 46 155.25 l 46 155.199 l S Q
q 1 0 0 -1 0 216 cm
46 155.199 m 46 155.148 l S Q
q 1 0 0 -1 0 216 cm
46 155.148 m 46.102 155.148 l S Q
q 1 0 0 -1 0 216 cm
46.102 155.148 m 46.102 155.102 l S Q
q 1 0 0 -1 0 216 cm
46.102 155.102 m 46.199 155.102 l S Q
q 1 0 0 -1 0 216 cm
46.199 155.102 m 46.301 155.102 l S Q
q 1 0 0 -1 0 216 cm
46.301 155.102 m 46.352 155.102 l 46.352 155.051 l S Q
q 1 0 0 -1 0 216 cm
46.352 155.051 m 46.398 155.051 l S Q
q 1 0 0 -1 0 216 cm
46.398 155.051 m 46.5 155.051 l 46.5 155 l S Q
q 1 0 0 -1 0 216 cm
46.5 155 m 46.551 155 l S Q
q 1 0 0 -1 0 216 cm
46.551 155 m 46.602 155 l S Q
q 1 0 0 -1 0 216 cm
46.602 155 m 46.699 155 l S Q
q 1 0 0 -1 0 216 cm
46.699 155 m 46.75 155 l S Q
q 1 0 0 -1 0 216 cm
46.75 155 m 46.801 155 l S Q
q 1 0 0 -1 0 216 cm
46.801 155 m 46.852 155 l 46.852 154.949 l S Q
q 1 0 0 -1 0 216 cm
46.852 154.949 m 46.898 154.949 l S Q
q 1 0 0 -1 0 216 cm
46.898 154.949 m 46.949 154.949 l S Q
q 1 0 0 -1 0 216 cm
46.949 154.949 m 49.051 154.949 l 49.051 154.898 l S Q
q 1 0 0 -1 0 216 cm
49.051 154.898 m 49.449 154.898 l 49.449 154.852 l S Q
q 1 0 0 -1 0 216 cm
49.449 154.852 m 49.551 154.852 l 49.551 154.648 l S Q
q 1 0 0 -1 0 216 cm
49.551 154.648 m 49.551 154.602 l S Q
q 1 0 0 -1 0 216 cm
49.551 154.602 m 49.648 154.602 l 49.648 154.5 l S Q
q 1 0 0 -1 0 216 cm
49.648 154.5 m 49.75 154.5 l 49.75 154.398 l S Q
q 1 0 0 -1 0 216 cm
49.75 154.398 m 49.852 154.398 l 49.852 154.301 l S Q
q 1 0 0 -1 0 216 cm
49.852 154.301 m 49.949 154.301 l 49.949 154.102 l S Q
q 1 0 0 -1 0 216 cm
49.949 154.102 m 50.051 154.102 l 50.051 154.051 l S Q
q 1 0 0 -1 0 216 cm
50.051 154.051 m 50.148 154.051 l 50.148 154 l S Q
q 1 0 0 -1 0 216 cm
50.148 154 m 50.25 154 l 50.25 153.949 l S Q
q 1 0 0 -1 0 216 cm
50.25 153.949 m 50.352 153.949 l S Q
q 1 0 0 -1 0 216 cm
50.352 153.949 m 50.449 153.949 l 50.449 153.801 l S Q
q 1 0 0 -1 0 216 cm
50.449 153.801 m 50.551 153.801 l S Q
q 1 0 0 -1 0 216 cm
50.551 153.801 m 50.648 153.801 l 50.648 153.699 l S Q
q 1 0 0 -1 0 216 cm
50.648 153.699 m 50.699 153.699 l S Q
q 1 0 0 -1 0 216 cm
50.699 153.699 m 50.75 153.699 l S Q
q 1 0 0 -1 0 216 cm
50.75 153.699 m 50.852 153.699 l S Q
q 1 0 0 -1 0 216 cm
50.852 153.699 m 51.75 153.699 l S Q
q 1 0 0 -1 0 216 cm
51.75 153.699 m 52.602 153.699 l S Q
q 1 0 0 -1 0 216 cm
52.602 153.699 m 53.199 153.699 l S Q
q 1 0 0 -1 0 216 cm
53.199 153.699 m 53.25 153.699 l 53.25 153.602 l S Q
q 1 0 0 -1 0 216 cm
53.25 153.602 m 53.301 153.602 l 53.301 153.551 l S Q
q 1 0 0 -1 0 216 cm
53.301 153.551 m 53.352 153.551 l S Q
q 1 0 0 -1 0 216 cm
53.352 153.551 m 53.398 153.551 l S Q
q 1 0 0 -1 0 216 cm
53.398 153.551 m 53.449 153.551 l S Q
q 1 0 0 -1 0 216 cm
53.449 153.551 m 53.5 153.551 l 53.5 153.5 l S Q
q 1 0 0 -1 0 216 cm
53.5 153.5 m 53.551 153.5 l S Q
q 1 0 0 -1 0 216 cm
53.551 153.5 m 53.551 153.449 l S Q
q 1 0 0 -1 0 216 cm
53.551 153.449 m 53.602 153.449 l S Q
q 1 0 0 -1 0 216 cm
53.602 153.449 m 53.648 153.449 l S Q
q 1 0 0 -1 0 216 cm
53.648 153.449 m 53.699 153.449 l 53.699 153.398 l S Q
q 1 0 0 -1 0 216 cm
53.699 153.398 m 53.75 153.398 l 53.75 153.352 l S Q
q 1 0 0 -1 0 216 cm
53.75 153.352 m 53.801 153.352 l S Q
q 1 0 0 -1 0 216 cm
53.801 153.352 m 53.852 153.352 l S Q
q 1 0 0 -1 0 216 cm
53.852 153.352 m 53.898 153.352 l S Q
q 1 0 0 -1 0 216 cm
53.898 153.352 m 53.949 153.352 l 53.949 153.25 l S Q
q 1 0 0 -1 0 216 cm
53.949 153.25 m 54 153.25 l 54 153.199 l S Q
q 1 0 0 -1 0 216 cm
54 153.199 m 57.75 153.199 l S Q
q 1 0 0 -1 0 216 cm
57.75 153.199 m 62.148 153.199 l S Q
q 1 0 0 -1 0 216 cm
62.148 153.199 m 68.148 153.199 l S Q
q 1 0 0 -1 0 216 cm
68.148 153.199 m 71.949 153.199 l S Q
q 1 0 0 -1 0 216 cm
71.949 153.199 m 73.398 153.199 l S Q
q 1 0 0 -1 0 216 cm
73.398 153.199 m 73.852 153.199 l S Q
q 1 0 0 -1 0 216 cm
73.852 153.199 m 79.051 153.199 l S Q
q 1 0 0 -1 0 216 cm
79.051 153.199 m 79.801 153.199 l 79.801 153.148 l S Q
q 1 0 0 -1 0 216 cm
79.801 153.148 m 80.699 153.148 l S Q
q 1 0 0 -1 0 216 cm
80.699 153.148 m 84.949 153.148 l S Q
q 1 0 0 -1 0 216 cm
84.949 153.148 m 92 153.148 l 92 152.648 l S Q
q 1 0 0 -1 0 216 cm
92 152.648 m 92.051 152.648 l 92.051 152.301 l S Q
q 1 0 0 -1 0 216 cm
92.051 152.301 m 92.25 152.301 l 92.25 151.801 l S Q
q 1 0 0 -1 0 216 cm
92.25 151.801 m 92.25 151.699 l S Q
q 1 0 0 -1 0 216 cm
92.25 151.699 m 92.398 151.699 l 92.398 151.602 l S Q
q 1 0 0 -1 0 216 cm
92.398 151.602 m 92.398 151.551 l S Q
q 1 0 0 -1 0 216 cm
92.398 151.551 m 92.602 151.551 l 92.602 151.449 l S Q
q 1 0 0 -1 0 216 cm
92.602 151.449 m 92.602 151.398 l S Q
q 1 0 0 -1 0 216 cm
92.602 151.398 m 92.75 151.398 l 92.75 151.352 l S Q
q 1 0 0 -1 0 216 cm
92.75 151.352 m 92.801 151.352 l S Q
q 1 0 0 -1 0 216 cm
92.801 151.352 m 92.949 151.352 l 92.949 151.301 l S Q
q 1 0 0 -1 0 216 cm
92.949 151.301 m 93 151.301 l S Q
q 1 0 0 -1 0 216 cm
93 151.301 m 93.148 151.301 l S Q
q 1 0 0 -1 0 216 cm
93.148 151.301 m 93.301 151.301 l S Q
q 1 0 0 -1 0 216 cm
93.301 151.301 m 93.449 151.301 l S Q
q 1 0 0 -1 0 216 cm
93.449 151.301 m 93.602 151.301 l S Q
q 1 0 0 -1 0 216 cm
93.602 151.301 m 93.648 151.301 l S Q
q 1 0 0 -1 0 216 cm
93.648 151.301 m 93.801 151.301 l 93.801 151.25 l S Q
q 1 0 0 -1 0 216 cm
93.801 151.25 m 93.949 151.25 l 93.949 151.148 l S Q
q 1 0 0 -1 0 216 cm
93.949 151.148 m 93.949 151.102 l S Q
q 1 0 0 -1 0 216 cm
93.949 151.102 m 94.102 151.102 l S Q
q 1 0 0 -1 0 216 cm
94.102 151.102 m 94.199 151.102 l 94.199 150.898 l S Q
q 1 0 0 -1 0 216 cm
94.199 150.898 m 94.25 150.898 l 94.25 150.852 l S Q
q 1 0 0 -1 0 216 cm
94.25 150.852 m 94.352 150.852 l S Q
q 1 0 0 -1 0 216 cm
94.352 150.852 m 94.352 150.801 l S Q
q 1 0 0 -1 0 216 cm
94.352 150.801 m 94.449 150.801 l 94.449 150.75 l S Q
q 1 0 0 -1 0 216 cm
94.449 150.75 m 94.5 150.75 l S Q
q 1 0 0 -1 0 216 cm
94.5 150.75 m 94.602 150.75 l S Q
q 1 0 0 -1 0 216 cm
94.602 150.75 m 94.648 150.75 l 94.648 150.699 l S Q
q 1 0 0 -1 0 216 cm
94.648 150.699 m 94.75 150.699 l S Q
q 1 0 0 -1 0 216 cm
94.75 150.699 m 94.852 150.699 l S Q
q 1 0 0 -1 0 216 cm
94.852 150.699 m 94.949 150.699 l 94.949 150.648 l S Q
q 1 0 0 -1 0 216 cm
94.949 150.648 m 95 150.648 l S Q
q 1 0 0 -1 0 216 cm
95 150.648 m 95.102 150.648 l S Q
q 1 0 0 -1 0 216 cm
95.102 150.648 m 99.949 150.648 l S Q
q 1 0 0 -1 0 216 cm
99.949 150.648 m 101.699 150.648 l 101.699 150.5 l S Q
q 1 0 0 -1 0 216 cm
101.699 150.5 m 103.398 150.5 l S Q
q 1 0 0 -1 0 216 cm
103.398 150.5 m 103.398 150.449 l S Q
q 1 0 0 -1 0 216 cm
103.398 150.449 m 113 150.449 l S Q
q 1 0 0 -1 0 216 cm
113 150.449 m 127.102 150.449 l 127.102 150.398 l S Q
q 1 0 0 -1 0 216 cm
127.102 150.398 m 127.148 150.398 l 127.148 150.25 l S Q
q 1 0 0 -1 0 216 cm
127.148 150.25 m 127.148 150.199 l S Q
q 1 0 0 -1 0 216 cm
127.148 150.199 m 127.25 150.199 l S Q
q 1 0 0 -1 0 216 cm
127.25 150.199 m 127.301 150.199 l S Q
q 1 0 0 -1 0 216 cm
127.301 150.199 m 130.75 150.199 l 130.75 150.148 l S Q
q 1 0 0 -1 0 216 cm
130.75 150.148 m 132.102 150.148 l S Q
q 1 0 0 -1 0 216 cm
132.102 150.148 m 132.301 150.148 l S Q
q 1 0 0 -1 0 216 cm
132.301 150.148 m 133.398 150.148 l S Q
q 1 0 0 -1 0 216 cm
133.398 150.148 m 137.551 150.148 l S Q
q 1 0 0 -1 0 216 cm
137.551 150.148 m 142.5 150.148 l 142.5 150.051 l S Q
q 1 0 0 -1 0 216 cm
142.5 150.051 m 142.551 150.051 l 142.551 149.898 l S Q
q 1 0 0 -1 0 216 cm
142.551 149.898 m 155.398 149.898 l 155.398 149.75 l S Q
q 1 0 0 -1 0 216 cm
155.398 149.75 m 159 149.75 l S Q
q 1 0 0 -1 0 216 cm
159 149.75 m 160.898 149.75 l S Q
q 1 0 0 -1 0 216 cm
160.898 149.75 m 163.551 149.75 l 163.551 149.699 l S Q
q 1 0 0 -1 0 216 cm
163.551 149.699 m 167.898 149.699 l S Q
q 1 0 0 -1 0 216 cm
167.898 149.699 m 169.699 149.699 l S Q
q 1 0 0 -1 0 216 cm
169.699 149.699 m 170.102 149.699 l 170.102 149.648 l S Q
q 1 0 0 -1 0 216 cm
170.102 149.648 m 173.602 149.648 l S Q
q 1 0 0 -1 0 216 cm
173.602 149.648 m 174 149.648 l S Q
q 1 0 0 -1 0 216 cm
174 149.648 m 175.949 149.648 l 175.949 149.602 l S Q
q 1 0 0 -1 0 216 cm
175.949 149.602 m 180.449 149.602 l S Q
q 1 0 0 -1 0 216 cm
180.449 149.602 m 183.852 149.602 l S Q
q 1 0 0 -1 0 216 cm
183.852 149.602 m 185.352 149.602 l 185.352 149.551 l S Q
q 1 0 0 -1 0 216 cm
185.352 149.551 m 187.398 149.551 l S Q
q 1 0 0 -1 0 216 cm
187.398 149.551 m 189.75 149.551 l S Q
q 1 0 0 -1 0 216 cm
189.75 149.551 m 193.051 149.551 l S Q
q 1 0 0 -1 0 216 cm
193.051 149.551 m 196 149.551 l S Q
q 1 0 0 -1 0 216 cm
196 149.551 m 200.051 149.551 l S Q
q 1 0 0 -1 0 216 cm
200.051 149.551 m 215.449 149.551 l 215.449 149.5 l S Q
q 1 0 0 -1 0 216 cm
215.449 149.5 m 217.949 149.5 l S Q
q 1 0 0 -1 0 216 cm
217.949 149.5 m 220.551 149.5 l S Q
q 1 0 0 -1 0 216 cm
220.551 149.5 m 225.449 149.5 l 225.449 149.449 l S Q
q 1 0 0 -1 0 216 cm
225.449 149.449 m 228.051 149.449 l S Q
q 1 0 0 -1 0 216 cm
228.051 149.449 m 230.852 149.449 l S Q
q 1 0 0 -1 0 216 cm
230.852 149.449 m 234.25 149.449 l S Q
q 1 0 0 -1 0 216 cm
234.25 149.449 m 236.25 149.449 l S Q
q 1 0 0 -1 0 216 cm
236.25 149.449 m 238.449 149.449 l S Q
q 1 0 0 -1 0 216 cm
238.449 149.449 m 240.949 149.449 l S Q
q 1 0 0 -1 0 216 cm
240.949 149.449 m 243.551 149.449 l S Q
q 1 0 0 -1 0 216 cm
243.551 149.449 m 248.199 149.449 l 248.199 149.398 l S Q
q 1 0 0 -1 0 216 cm
248.199 149.398 m 250.352 149.398 l S Q
q 1 0 0 -1 0 216 cm
250.352 149.398 m 252.301 149.398 l S Q
q 1 0 0 -1 0 216 cm
252.301 149.398 m 257.5 149.398 l S Q
q 1 0 0 -1 0 216 cm
257.5 149.398 m 259.699 149.398 l S Q
q 1 0 0 -1 0 216 cm
259.699 149.398 m 262 149.398 l S Q
q 1 0 0 -1 0 216 cm
262 149.398 m 264.648 149.398 l S Q
q 1 0 0 -1 0 216 cm
264.648 149.398 m 267.898 149.398 l 267.898 149.352 l S Q
q 1 0 0 -1 0 216 cm
267.898 149.352 m 280.699 149.352 l S Q
q 1 0 0 -1 0 216 cm
280.699 149.352 m 282.699 149.352 l S Q
q 1 0 0 -1 0 216 cm
282.699 149.352 m 285.449 149.352 l S Q
q 1 0 0 -1 0 216 cm
285.449 149.352 m 289.102 149.352 l S Q
q 1 0 0 -1 0 216 cm
289.102 149.352 m 291.148 149.352 l S Q
q 1 0 0 -1 0 216 cm
291.148 149.352 m 293.75 149.352 l S Q
q 1 0 0 -1 0 216 cm
293.75 149.352 m 299.051 149.352 l S Q
q 1 0 0 -1 0 216 cm
299.051 149.352 m 301.301 149.352 l S Q
q 1 0 0 -1 0 216 cm
301.301 149.352 m 304.148 149.352 l S Q
q 1 0 0 -1 0 216 cm
304.148 149.352 m 307.449 149.352 l S Q
q 1 0 0 -1 0 216 cm
307.449 149.352 m 310.301 149.352 l S Q
q 1 0 0 -1 0 216 cm
310.301 149.352 m 312.75 149.352 l S Q
q 1 0 0 -1 0 216 cm
312.75 149.352 m 315.551 149.352 l 315.551 149.301 l S Q
q 1 0 0 -1 0 216 cm
315.551 149.301 m 319 149.301 l S Q
q 1 0 0 -1 0 216 cm
319 149.301 m 320.602 149.301 l S Q
q 1 0 0 -1 0 216 cm
320.602 149.301 m 322.949 149.301 l S Q
q 1 0 0 -1 0 216 cm
322.949 149.301 m 325.648 149.301 l S Q
q 1 0 0 -1 0 216 cm
325.648 149.301 m 330.699 149.301 l S Q
q 1 0 0 -1 0 216 cm
330.699 149.301 m 332.852 149.301 l S Q
q 1 0 0 -1 0 216 cm
332.852 149.301 m 345.148 149.301 l S Q
0 g
q 1 0 0 -1 0 216 cm
37.852 10.75 307.297 176 re S Q
Q Q
showpage
%%Trailer
end restore
%%EOF
