%!PS-Adobe-3.0 EPSF-3.0
%%Creator: cairo 1.13.1 (http://cairographics.org)
%%CreationDate: Fri May 20 09:15:23 2016
%%Pages: 1
%%DocumentData: Clean7Bit
%%LanguageLevel: 2
%%BoundingBox: 0 0 360 216
%%EndComments
%%BeginProlog
save
50 dict begin
/q { gsave } bind def
/Q { grestore } bind def
/cm { 6 array astore concat } bind def
/w { setlinewidth } bind def
/J { setlinecap } bind def
/j { setlinejoin } bind def
/M { setmiterlimit } bind def
/d { setdash } bind def
/m { moveto } bind def
/l { lineto } bind def
/c { curveto } bind def
/h { closepath } bind def
/re { exch dup neg 3 1 roll 5 3 roll moveto 0 rlineto
      0 exch rlineto 0 rlineto closepath } bind def
/S { stroke } bind def
/f { fill } bind def
/f* { eofill } bind def
/n { newpath } bind def
/W { clip } bind def
/W* { eoclip } bind def
/BT { } bind def
/ET { } bind def
/pdfmark where { pop globaldict /?pdfmark /exec load put }
    { globaldict begin /?pdfmark /pop load def /pdfmark
    /cleartomark load def end } ifelse
/BDC { mark 3 1 roll /BDC pdfmark } bind def
/EMC { mark /EMC pdfmark } bind def
/cairo_store_point { /cairo_point_y exch def /cairo_point_x exch def } def
/Tj { show currentpoint cairo_store_point } bind def
/TJ {
  {
    dup
    type /stringtype eq
    { show } { -0.001 mul 0 cairo_font_matrix dtransform rmoveto } ifelse
  } forall
  currentpoint cairo_store_point
} bind def
/cairo_selectfont { cairo_font_matrix aload pop pop pop 0 0 6 array astore
    cairo_font exch selectfont cairo_point_x cairo_point_y moveto } bind def
/Tf { pop /cairo_font exch def /cairo_font_matrix where
      { pop cairo_selectfont } if } bind def
/Td { matrix translate cairo_font_matrix matrix concatmatrix dup
      /cairo_font_matrix exch def dup 4 get exch 5 get cairo_store_point
      /cairo_font where { pop cairo_selectfont } if } bind def
/Tm { 2 copy 8 2 roll 6 array astore /cairo_font_matrix exch def
      cairo_store_point /cairo_font where { pop cairo_selectfont } if } bind def
/g { setgray } bind def
/rg { setrgbcolor } bind def
/d1 { setcachedevice } bind def
%%EndProlog
%%BeginSetup
%%EndSetup
%%Page: 1 1
%%BeginPageSetup
%%PageBoundingBox: 0 0 360 216
%%EndPageSetup
q 32 29 314 177 rectclip q
0 g
0.15 w
2 J
0 j
[ 0.2 2] 0 d
3.8 M q 1 0 0 -1 0 216 cm
32.75 186.75 m 345.148 186.75 l S Q
0.25 w
[] 0.0 d
q 1 0 0 -1 0 216 cm
32.75 186.75 m 36.449 186.75 l S Q
q 1 0 0 -1 0 216 cm
345.148 186.75 m 341.449 186.75 l S Q
0.15 w
[ 0.2 2] 0 d
q 1 0 0 -1 0 216 cm
32.75 161.602 m 345.148 161.602 l S Q
0.25 w
[] 0.0 d
q 1 0 0 -1 0 216 cm
32.75 161.602 m 36.449 161.602 l S Q
q 1 0 0 -1 0 216 cm
345.148 161.602 m 341.449 161.602 l S Q
0.15 w
[ 0.2 2] 0 d
q 1 0 0 -1 0 216 cm
32.75 136.449 m 345.148 136.449 l S Q
0.25 w
[] 0.0 d
q 1 0 0 -1 0 216 cm
32.75 136.449 m 36.449 136.449 l S Q
q 1 0 0 -1 0 216 cm
345.148 136.449 m 341.449 136.449 l S Q
0.15 w
[ 0.2 2] 0 d
q 1 0 0 -1 0 216 cm
32.75 111.301 m 345.148 111.301 l S Q
0.25 w
[] 0.0 d
q 1 0 0 -1 0 216 cm
32.75 111.301 m 36.449 111.301 l S Q
q 1 0 0 -1 0 216 cm
345.148 111.301 m 341.449 111.301 l S Q
0.15 w
[ 0.2 2] 0 d
q 1 0 0 -1 0 216 cm
32.75 86.199 m 345.148 86.199 l S Q
0.25 w
[] 0.0 d
q 1 0 0 -1 0 216 cm
32.75 86.199 m 36.449 86.199 l S Q
q 1 0 0 -1 0 216 cm
345.148 86.199 m 341.449 86.199 l S Q
0.15 w
[ 0.2 2] 0 d
q 1 0 0 -1 0 216 cm
32.75 61.051 m 345.148 61.051 l S Q
0.25 w
[] 0.0 d
q 1 0 0 -1 0 216 cm
32.75 61.051 m 36.449 61.051 l S Q
q 1 0 0 -1 0 216 cm
345.148 61.051 m 341.449 61.051 l S Q
0.15 w
[ 0.2 2] 0 d
q 1 0 0 -1 0 216 cm
340.051 35.898 m 345.148 35.898 l S Q
0.25 w
[] 0.0 d
q 1 0 0 -1 0 216 cm
32.75 35.898 m 36.449 35.898 l S Q
q 1 0 0 -1 0 216 cm
345.148 35.898 m 341.449 35.898 l S Q
0.15 w
[ 0.2 2] 0 d
q 1 0 0 -1 0 216 cm
32.75 10.75 m 345.148 10.75 l S Q
0.25 w
[] 0.0 d
q 1 0 0 -1 0 216 cm
32.75 10.75 m 36.449 10.75 l S Q
q 1 0 0 -1 0 216 cm
345.148 10.75 m 341.449 10.75 l S Q
0.15 w
[ 0.2 2] 0 d
q 1 0 0 -1 0 216 cm
32.75 186.75 m 32.75 42.352 l S Q
[ 0.2 2] 0 d
q 1 0 0 -1 0 216 cm
32.75 14.449 m 32.75 10.75 l S Q
0.25 w
[] 0.0 d
q 1 0 0 -1 0 216 cm
32.75 186.75 m 32.75 183.051 l S Q
q 1 0 0 -1 0 216 cm
32.75 10.75 m 32.75 14.449 l S Q
q 1 0 0 -1 0 216 cm
43.148 186.75 m 43.148 184.898 l S Q
q 1 0 0 -1 0 216 cm
43.148 10.75 m 43.148 12.602 l S Q
q 1 0 0 -1 0 216 cm
53.602 186.75 m 53.602 184.898 l S Q
q 1 0 0 -1 0 216 cm
53.602 10.75 m 53.602 12.602 l S Q
q 1 0 0 -1 0 216 cm
64 186.75 m 64 184.898 l S Q
q 1 0 0 -1 0 216 cm
64 10.75 m 64 12.602 l S Q
q 1 0 0 -1 0 216 cm
74.398 186.75 m 74.398 184.898 l S Q
q 1 0 0 -1 0 216 cm
74.398 10.75 m 74.398 12.602 l S Q
0.15 w
[ 0.2 2] 0 d
q 1 0 0 -1 0 216 cm
84.801 186.75 m 84.801 42.352 l S Q
[ 0.2 2] 0 d
q 1 0 0 -1 0 216 cm
84.801 14.449 m 84.801 10.75 l S Q
0.25 w
[] 0.0 d
q 1 0 0 -1 0 216 cm
84.801 186.75 m 84.801 183.051 l S Q
q 1 0 0 -1 0 216 cm
84.801 10.75 m 84.801 14.449 l S Q
q 1 0 0 -1 0 216 cm
95.25 186.75 m 95.25 184.898 l S Q
q 1 0 0 -1 0 216 cm
95.25 10.75 m 95.25 12.602 l S Q
q 1 0 0 -1 0 216 cm
105.648 186.75 m 105.648 184.898 l S Q
q 1 0 0 -1 0 216 cm
105.648 10.75 m 105.648 12.602 l S Q
q 1 0 0 -1 0 216 cm
116.051 186.75 m 116.051 184.898 l S Q
q 1 0 0 -1 0 216 cm
116.051 10.75 m 116.051 12.602 l S Q
q 1 0 0 -1 0 216 cm
126.449 186.75 m 126.449 184.898 l S Q
q 1 0 0 -1 0 216 cm
126.449 10.75 m 126.449 12.602 l S Q
0.15 w
[ 0.2 2] 0 d
q 1 0 0 -1 0 216 cm
136.898 186.75 m 136.898 42.352 l S Q
[ 0.2 2] 0 d
q 1 0 0 -1 0 216 cm
136.898 14.449 m 136.898 10.75 l S Q
0.25 w
[] 0.0 d
q 1 0 0 -1 0 216 cm
136.898 186.75 m 136.898 183.051 l S Q
q 1 0 0 -1 0 216 cm
136.898 10.75 m 136.898 14.449 l S Q
q 1 0 0 -1 0 216 cm
147.301 186.75 m 147.301 184.898 l S Q
q 1 0 0 -1 0 216 cm
147.301 10.75 m 147.301 12.602 l S Q
q 1 0 0 -1 0 216 cm
157.699 186.75 m 157.699 184.898 l S Q
q 1 0 0 -1 0 216 cm
157.699 10.75 m 157.699 12.602 l S Q
q 1 0 0 -1 0 216 cm
168.102 186.75 m 168.102 184.898 l S Q
q 1 0 0 -1 0 216 cm
168.102 10.75 m 168.102 12.602 l S Q
q 1 0 0 -1 0 216 cm
178.551 186.75 m 178.551 184.898 l S Q
q 1 0 0 -1 0 216 cm
178.551 10.75 m 178.551 12.602 l S Q
0.15 w
[ 0.2 2] 0 d
q 1 0 0 -1 0 216 cm
188.949 186.75 m 188.949 42.352 l S Q
[ 0.2 2] 0 d
q 1 0 0 -1 0 216 cm
188.949 14.449 m 188.949 10.75 l S Q
0.25 w
[] 0.0 d
q 1 0 0 -1 0 216 cm
188.949 186.75 m 188.949 183.051 l S Q
q 1 0 0 -1 0 216 cm
188.949 10.75 m 188.949 14.449 l S Q
q 1 0 0 -1 0 216 cm
199.352 186.75 m 199.352 184.898 l S Q
q 1 0 0 -1 0 216 cm
199.352 10.75 m 199.352 12.602 l S Q
q 1 0 0 -1 0 216 cm
209.801 186.75 m 209.801 184.898 l S Q
q 1 0 0 -1 0 216 cm
209.801 10.75 m 209.801 12.602 l S Q
q 1 0 0 -1 0 216 cm
220.199 186.75 m 220.199 184.898 l S Q
q 1 0 0 -1 0 216 cm
220.199 10.75 m 220.199 12.602 l S Q
q 1 0 0 -1 0 216 cm
230.602 186.75 m 230.602 184.898 l S Q
q 1 0 0 -1 0 216 cm
230.602 10.75 m 230.602 12.602 l S Q
0.15 w
[ 0.2 2] 0 d
q 1 0 0 -1 0 216 cm
241 186.75 m 241 42.352 l S Q
[ 0.2 2] 0 d
q 1 0 0 -1 0 216 cm
241 14.449 m 241 10.75 l S Q
0.25 w
[] 0.0 d
q 1 0 0 -1 0 216 cm
241 186.75 m 241 183.051 l S Q
q 1 0 0 -1 0 216 cm
241 10.75 m 241 14.449 l S Q
q 1 0 0 -1 0 216 cm
251.449 186.75 m 251.449 184.898 l S Q
q 1 0 0 -1 0 216 cm
251.449 10.75 m 251.449 12.602 l S Q
q 1 0 0 -1 0 216 cm
261.852 186.75 m 261.852 184.898 l S Q
q 1 0 0 -1 0 216 cm
261.852 10.75 m 261.852 12.602 l S Q
q 1 0 0 -1 0 216 cm
272.25 186.75 m 272.25 184.898 l S Q
q 1 0 0 -1 0 216 cm
272.25 10.75 m 272.25 12.602 l S Q
q 1 0 0 -1 0 216 cm
282.648 186.75 m 282.648 184.898 l S Q
q 1 0 0 -1 0 216 cm
282.648 10.75 m 282.648 12.602 l S Q
0.15 w
[ 0.2 2] 0 d
q 1 0 0 -1 0 216 cm
293.102 186.75 m 293.102 42.352 l S Q
[ 0.2 2] 0 d
q 1 0 0 -1 0 216 cm
293.102 14.449 m 293.102 10.75 l S Q
0.25 w
[] 0.0 d
q 1 0 0 -1 0 216 cm
293.102 186.75 m 293.102 183.051 l S Q
q 1 0 0 -1 0 216 cm
293.102 10.75 m 293.102 14.449 l S Q
q 1 0 0 -1 0 216 cm
303.5 186.75 m 303.5 184.898 l S Q
q 1 0 0 -1 0 216 cm
303.5 10.75 m 303.5 12.602 l S Q
q 1 0 0 -1 0 216 cm
313.898 186.75 m 313.898 184.898 l S Q
q 1 0 0 -1 0 216 cm
313.898 10.75 m 313.898 12.602 l S Q
q 1 0 0 -1 0 216 cm
324.301 186.75 m 324.301 184.898 l S Q
q 1 0 0 -1 0 216 cm
324.301 10.75 m 324.301 12.602 l S Q
q 1 0 0 -1 0 216 cm
334.75 186.75 m 334.75 184.898 l S Q
q 1 0 0 -1 0 216 cm
334.75 10.75 m 334.75 12.602 l S Q
0.15 w
[ 0.2 2] 0 d
q 1 0 0 -1 0 216 cm
345.148 186.75 m 345.148 10.75 l S Q
0.25 w
[] 0.0 d
q 1 0 0 -1 0 216 cm
345.148 186.75 m 345.148 183.051 l S Q
q 1 0 0 -1 0 216 cm
345.148 10.75 m 345.148 14.449 l S Q
q 1 0 0 -1 0 216 cm
32.75 10.75 312.398 176 re S Q
q 1 0 0 -1 0 216 cm
32.75 136.449 m 345.148 136.449 l S Q
0.74902 0.145098 0.172549 rg
q 1 0 0 -1 0 216 cm
310.852 37.699 m 334.949 37.699 l S Q
q 1 0 0 -1 0 216 cm
33.801 10.75 m 33.801 12.949 l S Q
q 1 0 0 -1 0 216 cm
33.801 12.949 m 34 12.949 l 34 17.898 l S Q
q 1 0 0 -1 0 216 cm
34 17.898 m 34.199 17.898 l 34.199 23.148 l S Q
q 1 0 0 -1 0 216 cm
34.199 23.148 m 34.398 23.148 l 34.398 23.199 l S Q
q 1 0 0 -1 0 216 cm
34.398 23.199 m 34.949 23.199 l 34.949 37.25 l S Q
q 1 0 0 -1 0 216 cm
34.949 37.25 m 35.102 37.25 l 35.102 39.648 l S Q
q 1 0 0 -1 0 216 cm
35.102 39.648 m 35.398 39.648 l 35.398 44.398 l S Q
q 1 0 0 -1 0 216 cm
35.398 44.398 m 35.449 44.398 l 35.449 48.949 l S Q
q 1 0 0 -1 0 216 cm
35.449 48.949 m 35.551 48.949 l 35.551 49.648 l S Q
q 1 0 0 -1 0 216 cm
35.551 49.648 m 36.051 49.648 l 36.051 53.648 l S Q
q 1 0 0 -1 0 216 cm
36.051 53.648 m 36.898 53.648 l 36.898 65.051 l S Q
q 1 0 0 -1 0 216 cm
36.898 65.051 m 36.949 65.051 l S Q
q 1 0 0 -1 0 216 cm
36.949 65.051 m 37.301 65.051 l S Q
q 1 0 0 -1 0 216 cm
37.301 65.051 m 37.5 65.051 l S Q
q 1 0 0 -1 0 216 cm
37.5 65.051 m 37.551 65.051 l S Q
q 1 0 0 -1 0 216 cm
37.551 65.051 m 37.699 65.051 l S Q
q 1 0 0 -1 0 216 cm
37.699 65.051 m 37.75 65.051 l S Q
q 1 0 0 -1 0 216 cm
37.75 65.051 m 37.949 65.051 l S Q
q 1 0 0 -1 0 216 cm
37.949 65.051 m 38.051 65.051 l 38.051 65.852 l S Q
q 1 0 0 -1 0 216 cm
38.051 65.852 m 38.25 65.852 l S Q
q 1 0 0 -1 0 216 cm
38.25 65.852 m 38.449 65.852 l S Q
q 1 0 0 -1 0 216 cm
38.449 65.852 m 38.602 65.852 l S Q
q 1 0 0 -1 0 216 cm
38.602 65.852 m 38.648 65.852 l S Q
q 1 0 0 -1 0 216 cm
38.648 65.852 m 38.801 65.852 l S Q
q 1 0 0 -1 0 216 cm
38.801 65.852 m 39 65.852 l S Q
q 1 0 0 -1 0 216 cm
39 65.852 m 39.199 65.852 l S Q
q 1 0 0 -1 0 216 cm
39.199 65.852 m 39.352 65.852 l S Q
q 1 0 0 -1 0 216 cm
39.352 65.852 m 39.398 65.852 l S Q
q 1 0 0 -1 0 216 cm
39.398 65.852 m 39.551 65.852 l S Q
q 1 0 0 -1 0 216 cm
39.551 65.852 m 39.75 65.852 l S Q
q 1 0 0 -1 0 216 cm
39.75 65.852 m 39.898 65.852 l S Q
q 1 0 0 -1 0 216 cm
39.898 65.852 m 40.051 65.852 l 40.051 66 l S Q
q 1 0 0 -1 0 216 cm
40.051 66 m 40.199 66 l S Q
q 1 0 0 -1 0 216 cm
40.199 66 m 40.301 66 l S Q
q 1 0 0 -1 0 216 cm
40.301 66 m 40.398 66 l S Q
q 1 0 0 -1 0 216 cm
40.398 66 m 40.551 66 l S Q
q 1 0 0 -1 0 216 cm
40.551 66 m 40.648 66 l S Q
q 1 0 0 -1 0 216 cm
40.648 66 m 40.801 66 l S Q
q 1 0 0 -1 0 216 cm
40.801 66 m 40.898 66 l S Q
q 1 0 0 -1 0 216 cm
40.898 66 m 41 66 l S Q
q 1 0 0 -1 0 216 cm
41 66 m 41.051 66 l S Q
q 1 0 0 -1 0 216 cm
41.051 66 m 41.148 66 l S Q
q 1 0 0 -1 0 216 cm
41.148 66 m 41.301 66 l S Q
q 1 0 0 -1 0 216 cm
41.301 66 m 41.398 66 l S Q
q 1 0 0 -1 0 216 cm
41.398 66 m 41.449 66 l S Q
q 1 0 0 -1 0 216 cm
41.449 66 m 41.551 66 l S Q
q 1 0 0 -1 0 216 cm
41.551 66 m 41.648 66 l S Q
q 1 0 0 -1 0 216 cm
41.648 66 m 41.801 66 l S Q
q 1 0 0 -1 0 216 cm
41.801 66 m 41.898 66 l S Q
q 1 0 0 -1 0 216 cm
41.898 66 m 42.051 66 l S Q
q 1 0 0 -1 0 216 cm
42.051 66 m 42.051 66.148 l S Q
q 1 0 0 -1 0 216 cm
42.051 66.148 m 42.199 66.148 l S Q
q 1 0 0 -1 0 216 cm
42.199 66.148 m 42.301 66.148 l S Q
q 1 0 0 -1 0 216 cm
42.301 66.148 m 42.352 66.148 l 42.352 66.602 l S Q
q 1 0 0 -1 0 216 cm
42.352 66.602 m 42.449 66.602 l S Q
q 1 0 0 -1 0 216 cm
42.449 66.602 m 42.602 66.602 l S Q
q 1 0 0 -1 0 216 cm
42.602 66.602 m 42.699 66.602 l S Q
q 1 0 0 -1 0 216 cm
42.699 66.602 m 43 66.602 l 43 71.352 l S Q
q 1 0 0 -1 0 216 cm
43 71.352 m 46.801 71.352 l S Q
q 1 0 0 -1 0 216 cm
46.801 71.352 m 47.602 71.352 l S Q
q 1 0 0 -1 0 216 cm
47.602 71.352 m 47.801 71.352 l S Q
q 1 0 0 -1 0 216 cm
47.801 71.352 m 47.852 71.352 l S Q
q 1 0 0 -1 0 216 cm
47.852 71.352 m 48.051 71.352 l S Q
q 1 0 0 -1 0 216 cm
48.051 71.352 m 48.25 71.352 l S Q
q 1 0 0 -1 0 216 cm
48.25 71.352 m 48.301 71.352 l S Q
q 1 0 0 -1 0 216 cm
48.301 71.352 m 48.449 71.352 l S Q
q 1 0 0 -1 0 216 cm
48.449 71.352 m 48.5 71.352 l S Q
q 1 0 0 -1 0 216 cm
48.5 71.352 m 48.648 71.352 l S Q
q 1 0 0 -1 0 216 cm
48.648 71.352 m 48.699 71.352 l S Q
q 1 0 0 -1 0 216 cm
48.699 71.352 m 48.898 71.352 l S Q
q 1 0 0 -1 0 216 cm
48.898 71.352 m 49.102 71.352 l S Q
q 1 0 0 -1 0 216 cm
49.102 71.352 m 49.301 71.352 l S Q
q 1 0 0 -1 0 216 cm
49.301 71.352 m 49.352 71.352 l S Q
q 1 0 0 -1 0 216 cm
49.352 71.352 m 49.5 71.352 l S Q
q 1 0 0 -1 0 216 cm
49.5 71.352 m 49.551 71.352 l S Q
q 1 0 0 -1 0 216 cm
49.551 71.352 m 49.699 71.352 l S Q
q 1 0 0 -1 0 216 cm
49.699 71.352 m 49.898 71.352 l S Q
q 1 0 0 -1 0 216 cm
49.898 71.352 m 50.051 71.352 l S Q
q 1 0 0 -1 0 216 cm
50.051 71.352 m 50.148 71.352 l S Q
q 1 0 0 -1 0 216 cm
50.148 71.352 m 50.301 71.352 l S Q
q 1 0 0 -1 0 216 cm
50.301 71.352 m 50.449 71.352 l 50.449 75.898 l S Q
q 1 0 0 -1 0 216 cm
50.449 75.898 m 50.602 75.898 l S Q
q 1 0 0 -1 0 216 cm
50.602 75.898 m 50.699 75.898 l S Q
q 1 0 0 -1 0 216 cm
50.699 75.898 m 50.801 75.898 l S Q
q 1 0 0 -1 0 216 cm
50.801 75.898 m 50.949 75.898 l S Q
q 1 0 0 -1 0 216 cm
50.949 75.898 m 51.051 75.898 l S Q
q 1 0 0 -1 0 216 cm
51.051 75.898 m 51.148 75.898 l S Q
q 1 0 0 -1 0 216 cm
51.148 75.898 m 51.301 75.898 l S Q
q 1 0 0 -1 0 216 cm
51.301 75.898 m 55.551 75.898 l S Q
q 1 0 0 -1 0 216 cm
55.551 75.898 m 56.352 75.898 l S Q
q 1 0 0 -1 0 216 cm
56.352 75.898 m 56.551 75.898 l S Q
q 1 0 0 -1 0 216 cm
56.551 75.898 m 56.602 75.898 l S Q
q 1 0 0 -1 0 216 cm
56.602 75.898 m 56.75 75.898 l S Q
q 1 0 0 -1 0 216 cm
56.75 75.898 m 56.801 75.898 l S Q
q 1 0 0 -1 0 216 cm
56.801 75.898 m 56.949 75.898 l S Q
q 1 0 0 -1 0 216 cm
56.949 75.898 m 57.148 75.898 l S Q
q 1 0 0 -1 0 216 cm
57.148 75.898 m 57.352 75.898 l S Q
q 1 0 0 -1 0 216 cm
57.352 75.898 m 57.398 75.898 l S Q
q 1 0 0 -1 0 216 cm
57.398 75.898 m 57.551 75.898 l S Q
q 1 0 0 -1 0 216 cm
57.551 75.898 m 57.75 75.898 l S Q
q 1 0 0 -1 0 216 cm
57.75 75.898 m 57.949 75.898 l S Q
q 1 0 0 -1 0 216 cm
57.949 75.898 m 58 75.898 l S Q
q 1 0 0 -1 0 216 cm
58 75.898 m 58.148 75.898 l S Q
q 1 0 0 -1 0 216 cm
58.148 75.898 m 58.398 75.898 l S Q
q 1 0 0 -1 0 216 cm
58.398 75.898 m 58.5 75.898 l 58.5 85.801 l S Q
q 1 0 0 -1 0 216 cm
58.5 85.801 m 58.75 85.801 l S Q
q 1 0 0 -1 0 216 cm
58.75 85.801 m 58.898 85.801 l S Q
q 1 0 0 -1 0 216 cm
58.898 85.801 m 59 85.801 l S Q
q 1 0 0 -1 0 216 cm
59 85.801 m 59.148 85.801 l S Q
q 1 0 0 -1 0 216 cm
59.148 85.801 m 61.051 85.801 l 61.051 87.699 l S Q
q 1 0 0 -1 0 216 cm
61.051 87.699 m 62.75 87.699 l 62.75 93.75 l S Q
q 1 0 0 -1 0 216 cm
62.75 93.75 m 63.949 93.75 l S Q
q 1 0 0 -1 0 216 cm
63.949 93.75 m 64.051 93.75 l S Q
q 1 0 0 -1 0 216 cm
64.051 93.75 m 64.148 93.75 l S Q
q 1 0 0 -1 0 216 cm
64.148 93.75 m 64.301 93.75 l S Q
q 1 0 0 -1 0 216 cm
64.301 93.75 m 64.398 93.75 l S Q
q 1 0 0 -1 0 216 cm
64.398 93.75 m 64.449 93.75 l S Q
q 1 0 0 -1 0 216 cm
64.449 93.75 m 64.5 93.75 l S Q
q 1 0 0 -1 0 216 cm
64.5 93.75 m 64.602 93.75 l S Q
q 1 0 0 -1 0 216 cm
64.602 93.75 m 64.699 93.75 l S Q
q 1 0 0 -1 0 216 cm
64.699 93.75 m 64.801 93.75 l S Q
q 1 0 0 -1 0 216 cm
64.801 93.75 m 64.852 93.75 l S Q
q 1 0 0 -1 0 216 cm
64.852 93.75 m 64.949 93.75 l S Q
q 1 0 0 -1 0 216 cm
64.949 93.75 m 65 93.75 l S Q
q 1 0 0 -1 0 216 cm
65 93.75 m 65.102 93.75 l S Q
q 1 0 0 -1 0 216 cm
65.102 93.75 m 65.199 93.75 l S Q
q 1 0 0 -1 0 216 cm
65.199 93.75 m 65.199 100.352 l S Q
q 1 0 0 -1 0 216 cm
65.199 100.352 m 65.301 100.352 l S Q
q 1 0 0 -1 0 216 cm
65.301 100.352 m 65.352 100.352 l S Q
q 1 0 0 -1 0 216 cm
65.352 100.352 m 65.398 100.352 l S Q
q 1 0 0 -1 0 216 cm
65.398 100.352 m 65.449 100.352 l S Q
q 1 0 0 -1 0 216 cm
65.449 100.352 m 65.5 100.352 l S Q
q 1 0 0 -1 0 216 cm
65.5 100.352 m 65.551 100.352 l S Q
q 1 0 0 -1 0 216 cm
65.551 100.352 m 73.199 100.352 l 73.199 100.75 l S Q
q 1 0 0 -1 0 216 cm
73.199 100.75 m 82.199 100.75 l 82.199 103.25 l S Q
q 1 0 0 -1 0 216 cm
82.199 103.25 m 94.352 103.25 l S Q
q 1 0 0 -1 0 216 cm
94.352 103.25 m 102.102 103.25 l 102.102 106.148 l S Q
q 1 0 0 -1 0 216 cm
102.102 106.148 m 105.051 106.148 l 105.051 108.602 l S Q
q 1 0 0 -1 0 216 cm
105.051 108.602 m 106 108.602 l 106 111.75 l S Q
q 1 0 0 -1 0 216 cm
106 111.75 m 116.5 111.75 l 116.5 113.102 l S Q
q 1 0 0 -1 0 216 cm
116.5 113.102 m 118 113.102 l S Q
q 1 0 0 -1 0 216 cm
118 113.102 m 119.898 113.102 l 119.898 116.398 l S Q
q 1 0 0 -1 0 216 cm
119.898 116.398 m 128.551 116.398 l 128.551 124.352 l S Q
q 1 0 0 -1 0 216 cm
128.551 124.352 m 142.852 124.352 l S Q
q 1 0 0 -1 0 216 cm
142.852 124.352 m 143 124.352 l S Q
q 1 0 0 -1 0 216 cm
143 124.352 m 143.301 124.352 l S Q
q 1 0 0 -1 0 216 cm
143.301 124.352 m 143.352 124.352 l S Q
q 1 0 0 -1 0 216 cm
143.352 124.352 m 143.648 124.352 l S Q
q 1 0 0 -1 0 216 cm
143.648 124.352 m 143.699 124.352 l S Q
q 1 0 0 -1 0 216 cm
143.699 124.352 m 144.051 124.352 l S Q
q 1 0 0 -1 0 216 cm
144.051 124.352 m 144.352 124.352 l S Q
q 1 0 0 -1 0 216 cm
144.352 124.352 m 144.5 124.352 l S Q
q 1 0 0 -1 0 216 cm
144.5 124.352 m 144.801 124.352 l S Q
q 1 0 0 -1 0 216 cm
144.801 124.352 m 144.852 124.352 l S Q
q 1 0 0 -1 0 216 cm
144.852 124.352 m 145.148 124.352 l S Q
q 1 0 0 -1 0 216 cm
145.148 124.352 m 145.449 124.352 l S Q
q 1 0 0 -1 0 216 cm
145.449 124.352 m 145.801 124.352 l S Q
q 1 0 0 -1 0 216 cm
145.801 124.352 m 146.102 124.352 l S Q
q 1 0 0 -1 0 216 cm
146.102 124.352 m 146.148 124.352 l S Q
q 1 0 0 -1 0 216 cm
146.148 124.352 m 146.449 124.352 l S Q
q 1 0 0 -1 0 216 cm
146.449 124.352 m 146.5 124.352 l S Q
q 1 0 0 -1 0 216 cm
146.5 124.352 m 146.801 124.352 l S Q
q 1 0 0 -1 0 216 cm
146.801 124.352 m 147.102 124.352 l S Q
q 1 0 0 -1 0 216 cm
147.102 124.352 m 147.352 124.352 l S Q
q 1 0 0 -1 0 216 cm
147.352 124.352 m 147.398 124.352 l S Q
q 1 0 0 -1 0 216 cm
147.398 124.352 m 147.602 124.352 l S Q
q 1 0 0 -1 0 216 cm
147.602 124.352 m 147.648 124.352 l S Q
q 1 0 0 -1 0 216 cm
147.648 124.352 m 147.852 124.352 l S Q
q 1 0 0 -1 0 216 cm
147.852 124.352 m 147.898 124.352 l S Q
q 1 0 0 -1 0 216 cm
147.898 124.352 m 148.102 124.352 l S Q
q 1 0 0 -1 0 216 cm
148.102 124.352 m 148.199 124.352 l S Q
q 1 0 0 -1 0 216 cm
148.199 124.352 m 148.398 124.352 l S Q
q 1 0 0 -1 0 216 cm
148.398 124.352 m 148.648 124.352 l S Q
q 1 0 0 -1 0 216 cm
148.648 124.352 m 148.898 124.352 l S Q
q 1 0 0 -1 0 216 cm
148.898 124.352 m 148.949 124.352 l S Q
q 1 0 0 -1 0 216 cm
148.949 124.352 m 149.148 124.352 l S Q
q 1 0 0 -1 0 216 cm
149.148 124.352 m 159 124.352 l S Q
q 1 0 0 -1 0 216 cm
159 124.352 m 162.602 124.352 l S Q
q 1 0 0 -1 0 216 cm
162.602 124.352 m 166.051 124.352 l S Q
q 1 0 0 -1 0 216 cm
166.051 124.352 m 185.551 124.352 l 185.551 128.199 l S Q
q 1 0 0 -1 0 216 cm
185.551 128.199 m 214.199 128.199 l S Q
q 1 0 0 -1 0 216 cm
214.199 128.199 m 214.301 128.199 l S Q
q 1 0 0 -1 0 216 cm
214.301 128.199 m 214.352 128.199 l S Q
q 1 0 0 -1 0 216 cm
214.352 128.199 m 214.551 128.199 l S Q
q 1 0 0 -1 0 216 cm
214.551 128.199 m 214.602 128.199 l S Q
q 1 0 0 -1 0 216 cm
214.602 128.199 m 221.648 128.199 l 221.648 128.5 l S Q
q 1 0 0 -1 0 216 cm
221.648 128.5 m 224.398 128.5 l 224.398 128.551 l S Q
q 1 0 0 -1 0 216 cm
224.398 128.551 m 224.75 128.551 l 224.75 130.949 l S Q
q 1 0 0 -1 0 216 cm
224.75 130.949 m 227.051 130.949 l 227.051 131.5 l S Q
q 1 0 0 -1 0 216 cm
227.051 131.5 m 235.398 131.5 l 235.398 132.602 l S Q
q 1 0 0 -1 0 216 cm
235.398 132.602 m 245.551 132.602 l S Q
q 1 0 0 -1 0 216 cm
245.551 132.602 m 245.602 132.602 l S Q
q 1 0 0 -1 0 216 cm
245.602 132.602 m 271.75 132.602 l S Q
q 1 0 0 -1 0 216 cm
271.75 132.602 m 279.102 132.602 l S Q
q 1 0 0 -1 0 216 cm
279.102 132.602 m 282.949 132.602 l 282.949 134.5 l S Q
q 1 0 0 -1 0 216 cm
282.949 134.5 m 288.301 134.5 l S Q
q 1 0 0 -1 0 216 cm
288.301 134.5 m 297.148 134.5 l S Q
q 1 0 0 -1 0 216 cm
297.148 134.5 m 300.801 134.5 l 300.801 136.449 l S Q
q 1 0 0 -1 0 216 cm
300.801 136.449 m 301.648 136.449 l S Q
q 1 0 0 -1 0 216 cm
301.648 136.449 m 308.699 136.449 l S Q
q 1 0 0 -1 0 216 cm
308.699 136.449 m 309.551 136.449 l S Q
q 1 0 0 -1 0 216 cm
309.551 136.449 m 313.551 136.449 l S Q
q 1 0 0 -1 0 216 cm
313.551 136.449 m 322.699 136.449 l S Q
q 1 0 0 -1 0 216 cm
322.699 136.449 m 329.551 136.449 l S Q
q 1 0 0 -1 0 216 cm
329.551 136.449 m 332.648 136.449 l S Q
q 1 0 0 -1 0 216 cm
332.648 136.449 m 336.852 136.449 l S Q
q 1 0 0 -1 0 216 cm
336.852 136.449 m 341.551 136.449 l S Q
q 1 0 0 -1 0 216 cm
341.551 136.449 m 345.148 136.449 l S Q
0 0.65098 0.552941 rg
q 1 0 0 -1 0 216 cm
310.852 28.398 m 334.949 28.398 l S Q
q 1 0 0 -1 0 216 cm
35.699 10.75 m 35.699 23.898 l S Q
q 1 0 0 -1 0 216 cm
35.699 23.898 m 36.301 23.898 l 36.301 37.352 l S Q
q 1 0 0 -1 0 216 cm
36.301 37.352 m 36.852 37.352 l S Q
q 1 0 0 -1 0 216 cm
36.852 37.352 m 37.449 37.352 l 37.449 39.199 l S Q
q 1 0 0 -1 0 216 cm
37.449 39.199 m 38 39.199 l 38 48.449 l S Q
q 1 0 0 -1 0 216 cm
38 48.449 m 38.602 48.449 l 38.602 60.602 l S Q
q 1 0 0 -1 0 216 cm
38.602 60.602 m 39.199 60.602 l S Q
q 1 0 0 -1 0 216 cm
39.199 60.602 m 39.75 60.602 l 39.75 60.699 l S Q
q 1 0 0 -1 0 216 cm
39.75 60.699 m 40.352 60.699 l S Q
q 1 0 0 -1 0 216 cm
40.352 60.699 m 40.949 60.699 l 40.949 62.398 l S Q
q 1 0 0 -1 0 216 cm
40.949 62.398 m 41.5 62.398 l 41.5 68.398 l S Q
q 1 0 0 -1 0 216 cm
41.5 68.398 m 42.102 68.398 l 42.102 71.898 l S Q
q 1 0 0 -1 0 216 cm
42.102 71.898 m 42.648 71.898 l 42.648 73.949 l S Q
q 1 0 0 -1 0 216 cm
42.648 73.949 m 43.25 73.949 l S Q
q 1 0 0 -1 0 216 cm
43.25 73.949 m 43.801 73.949 l S Q
q 1 0 0 -1 0 216 cm
43.801 73.949 m 44.398 73.949 l 44.398 77.398 l S Q
q 1 0 0 -1 0 216 cm
44.398 77.398 m 45 77.398 l S Q
q 1 0 0 -1 0 216 cm
45 77.398 m 45.551 77.398 l 45.551 80.801 l S Q
q 1 0 0 -1 0 216 cm
45.551 80.801 m 46.148 80.801 l S Q
q 1 0 0 -1 0 216 cm
46.148 80.801 m 46.699 80.801 l 46.699 86.449 l S Q
q 1 0 0 -1 0 216 cm
46.699 86.449 m 47.301 86.449 l S Q
q 1 0 0 -1 0 216 cm
47.301 86.449 m 47.852 86.449 l S Q
q 1 0 0 -1 0 216 cm
47.852 86.449 m 48.449 86.449 l S Q
q 1 0 0 -1 0 216 cm
48.449 86.449 m 49 86.449 l S Q
q 1 0 0 -1 0 216 cm
49 86.449 m 49.602 86.449 l 49.602 87 l S Q
q 1 0 0 -1 0 216 cm
49.602 87 m 50.199 87 l S Q
q 1 0 0 -1 0 216 cm
50.199 87 m 50.75 87 l S Q
q 1 0 0 -1 0 216 cm
50.75 87 m 51.352 87 l 51.352 113.449 l S Q
q 1 0 0 -1 0 216 cm
51.352 113.449 m 51.898 113.449 l 51.898 115.949 l S Q
q 1 0 0 -1 0 216 cm
51.898 115.949 m 52.449 115.949 l S Q
q 1 0 0 -1 0 216 cm
52.449 115.949 m 53.051 115.949 l 53.051 120.648 l S Q
q 1 0 0 -1 0 216 cm
53.051 120.648 m 53.602 120.648 l 53.602 123.199 l S Q
q 1 0 0 -1 0 216 cm
53.602 123.199 m 54.199 123.199 l S Q
q 1 0 0 -1 0 216 cm
54.199 123.199 m 54.75 123.199 l S Q
q 1 0 0 -1 0 216 cm
54.75 123.199 m 55.352 123.199 l S Q
q 1 0 0 -1 0 216 cm
55.352 123.199 m 55.949 123.199 l 55.949 123.801 l S Q
q 1 0 0 -1 0 216 cm
55.949 123.801 m 56.5 123.801 l S Q
q 1 0 0 -1 0 216 cm
56.5 123.801 m 57.051 123.801 l S Q
q 1 0 0 -1 0 216 cm
57.051 123.801 m 57.648 123.801 l S Q
q 1 0 0 -1 0 216 cm
57.648 123.801 m 58.199 123.801 l S Q
q 1 0 0 -1 0 216 cm
58.199 123.801 m 58.801 123.801 l 58.801 124.352 l S Q
q 1 0 0 -1 0 216 cm
58.801 124.352 m 59.352 124.352 l S Q
q 1 0 0 -1 0 216 cm
59.352 124.352 m 59.949 124.352 l S Q
q 1 0 0 -1 0 216 cm
59.949 124.352 m 60.5 124.352 l S Q
q 1 0 0 -1 0 216 cm
60.5 124.352 m 61.102 124.352 l S Q
q 1 0 0 -1 0 216 cm
61.102 124.352 m 61.648 124.352 l S Q
q 1 0 0 -1 0 216 cm
61.648 124.352 m 62.25 124.352 l 62.25 126 l S Q
q 1 0 0 -1 0 216 cm
62.25 126 m 62.801 126 l S Q
q 1 0 0 -1 0 216 cm
62.801 126 m 63.398 126 l 63.398 126.148 l S Q
q 1 0 0 -1 0 216 cm
63.398 126.148 m 63.949 126.148 l S Q
q 1 0 0 -1 0 216 cm
63.949 126.148 m 64.551 126.148 l 64.551 126.75 l S Q
q 1 0 0 -1 0 216 cm
64.551 126.75 m 65.102 126.75 l S Q
q 1 0 0 -1 0 216 cm
65.102 126.75 m 65.648 126.75 l S Q
q 1 0 0 -1 0 216 cm
65.648 126.75 m 66.25 126.75 l 66.25 127.648 l S Q
q 1 0 0 -1 0 216 cm
66.25 127.648 m 66.801 127.648 l 66.801 129.352 l S Q
q 1 0 0 -1 0 216 cm
66.801 129.352 m 67.398 129.352 l 67.398 131.051 l S Q
q 1 0 0 -1 0 216 cm
67.398 131.051 m 67.949 131.051 l S Q
q 1 0 0 -1 0 216 cm
67.949 131.051 m 68.551 131.051 l S Q
q 1 0 0 -1 0 216 cm
68.551 131.051 m 69.102 131.051 l 69.102 133.199 l S Q
q 1 0 0 -1 0 216 cm
69.102 133.199 m 69.648 133.199 l 69.648 133.75 l S Q
q 1 0 0 -1 0 216 cm
69.648 133.75 m 70.25 133.75 l S Q
q 1 0 0 -1 0 216 cm
70.25 133.75 m 70.801 133.75 l S Q
q 1 0 0 -1 0 216 cm
70.801 133.75 m 71.398 133.75 l S Q
q 1 0 0 -1 0 216 cm
71.398 133.75 m 71.949 133.75 l S Q
q 1 0 0 -1 0 216 cm
71.949 133.75 m 72.551 133.75 l 72.551 136.602 l S Q
q 1 0 0 -1 0 216 cm
72.551 136.602 m 73.102 136.602 l S Q
q 1 0 0 -1 0 216 cm
73.102 136.602 m 73.699 136.602 l S Q
q 1 0 0 -1 0 216 cm
73.699 136.602 m 74.25 136.602 l S Q
q 1 0 0 -1 0 216 cm
74.25 136.602 m 74.852 136.602 l 74.852 136.898 l S Q
q 1 0 0 -1 0 216 cm
74.852 136.898 m 75.449 136.898 l S Q
q 1 0 0 -1 0 216 cm
75.449 136.898 m 76.051 136.898 l S Q
q 1 0 0 -1 0 216 cm
76.051 136.898 m 76.602 136.898 l S Q
q 1 0 0 -1 0 216 cm
76.602 136.898 m 77.199 136.898 l S Q
q 1 0 0 -1 0 216 cm
77.199 136.898 m 77.75 136.898 l 77.75 137.051 l S Q
q 1 0 0 -1 0 216 cm
77.75 137.051 m 78.352 137.051 l S Q
q 1 0 0 -1 0 216 cm
78.352 137.051 m 78.949 137.051 l S Q
q 1 0 0 -1 0 216 cm
78.949 137.051 m 79.551 137.051 l S Q
q 1 0 0 -1 0 216 cm
79.551 137.051 m 80.102 137.051 l S Q
q 1 0 0 -1 0 216 cm
80.102 137.051 m 80.699 137.051 l 80.699 137.199 l S Q
q 1 0 0 -1 0 216 cm
80.699 137.199 m 81.25 137.199 l S Q
q 1 0 0 -1 0 216 cm
81.25 137.199 m 81.852 137.199 l 81.852 138.051 l S Q
q 1 0 0 -1 0 216 cm
81.852 138.051 m 82.398 138.051 l S Q
q 1 0 0 -1 0 216 cm
82.398 138.051 m 83 138.051 l S Q
q 1 0 0 -1 0 216 cm
83 138.051 m 83.602 138.051 l S Q
q 1 0 0 -1 0 216 cm
83.602 138.051 m 84.148 138.051 l S Q
q 1 0 0 -1 0 216 cm
84.148 138.051 m 84.75 138.051 l S Q
q 1 0 0 -1 0 216 cm
84.75 138.051 m 85.352 138.051 l 85.352 138.449 l S Q
q 1 0 0 -1 0 216 cm
85.352 138.449 m 85.898 138.449 l S Q
q 1 0 0 -1 0 216 cm
85.898 138.449 m 86.5 138.449 l S Q
q 1 0 0 -1 0 216 cm
86.5 138.449 m 87.051 138.449 l 87.051 139.148 l S Q
q 1 0 0 -1 0 216 cm
87.051 139.148 m 87.648 139.148 l 87.648 139.301 l S Q
q 1 0 0 -1 0 216 cm
87.648 139.301 m 88.199 139.301 l S Q
q 1 0 0 -1 0 216 cm
88.199 139.301 m 88.801 139.301 l S Q
q 1 0 0 -1 0 216 cm
88.801 139.301 m 89.352 139.301 l S Q
q 1 0 0 -1 0 216 cm
89.352 139.301 m 89.949 139.301 l S Q
q 1 0 0 -1 0 216 cm
89.949 139.301 m 90.5 139.301 l S Q
q 1 0 0 -1 0 216 cm
90.5 139.301 m 91.102 139.301 l S Q
q 1 0 0 -1 0 216 cm
91.102 139.301 m 91.648 139.301 l S Q
q 1 0 0 -1 0 216 cm
91.648 139.301 m 92.25 139.301 l S Q
q 1 0 0 -1 0 216 cm
92.25 139.301 m 92.801 139.301 l S Q
q 1 0 0 -1 0 216 cm
92.801 139.301 m 93.398 139.301 l S Q
q 1 0 0 -1 0 216 cm
93.398 139.301 m 93.949 139.301 l S Q
q 1 0 0 -1 0 216 cm
93.949 139.301 m 94.551 139.301 l S Q
q 1 0 0 -1 0 216 cm
94.551 139.301 m 95.148 139.301 l S Q
q 1 0 0 -1 0 216 cm
95.148 139.301 m 95.699 139.301 l S Q
q 1 0 0 -1 0 216 cm
95.699 139.301 m 96.301 139.301 l S Q
q 1 0 0 -1 0 216 cm
96.301 139.301 m 96.852 139.301 l S Q
q 1 0 0 -1 0 216 cm
96.852 139.301 m 97.449 139.301 l S Q
q 1 0 0 -1 0 216 cm
97.449 139.301 m 98 139.301 l S Q
q 1 0 0 -1 0 216 cm
98 139.301 m 98.602 139.301 l S Q
q 1 0 0 -1 0 216 cm
98.602 139.301 m 99.148 139.301 l S Q
q 1 0 0 -1 0 216 cm
99.148 139.301 m 99.75 139.301 l S Q
q 1 0 0 -1 0 216 cm
99.75 139.301 m 100.352 139.301 l S Q
q 1 0 0 -1 0 216 cm
100.352 139.301 m 100.898 139.301 l S Q
q 1 0 0 -1 0 216 cm
100.898 139.301 m 101.5 139.301 l S Q
q 1 0 0 -1 0 216 cm
101.5 139.301 m 102.051 139.301 l S Q
q 1 0 0 -1 0 216 cm
102.051 139.301 m 102.648 139.301 l S Q
q 1 0 0 -1 0 216 cm
102.648 139.301 m 103.199 139.301 l S Q
q 1 0 0 -1 0 216 cm
103.199 139.301 m 103.801 139.301 l S Q
q 1 0 0 -1 0 216 cm
103.801 139.301 m 104.352 139.301 l S Q
q 1 0 0 -1 0 216 cm
104.352 139.301 m 104.949 139.301 l S Q
q 1 0 0 -1 0 216 cm
104.949 139.301 m 105.551 139.301 l S Q
q 1 0 0 -1 0 216 cm
105.551 139.301 m 106.102 139.301 l S Q
q 1 0 0 -1 0 216 cm
106.102 139.301 m 106.699 139.301 l S Q
q 1 0 0 -1 0 216 cm
106.699 139.301 m 107.25 139.301 l S Q
q 1 0 0 -1 0 216 cm
107.25 139.301 m 107.852 139.301 l S Q
q 1 0 0 -1 0 216 cm
107.852 139.301 m 108.398 139.301 l S Q
q 1 0 0 -1 0 216 cm
108.398 139.301 m 109 139.301 l S Q
q 1 0 0 -1 0 216 cm
109 139.301 m 109.551 139.301 l S Q
q 1 0 0 -1 0 216 cm
109.551 139.301 m 110.148 139.301 l S Q
q 1 0 0 -1 0 216 cm
110.148 139.301 m 110.75 139.301 l S Q
q 1 0 0 -1 0 216 cm
110.75 139.301 m 111.301 139.301 l S Q
q 1 0 0 -1 0 216 cm
111.301 139.301 m 111.898 139.301 l S Q
q 1 0 0 -1 0 216 cm
111.898 139.301 m 112.5 139.301 l S Q
q 1 0 0 -1 0 216 cm
112.5 139.301 m 113.051 139.301 l S Q
q 1 0 0 -1 0 216 cm
113.051 139.301 m 113.648 139.301 l 113.648 139.801 l S Q
q 1 0 0 -1 0 216 cm
113.648 139.801 m 114.199 139.801 l S Q
q 1 0 0 -1 0 216 cm
114.199 139.801 m 114.801 139.801 l S Q
q 1 0 0 -1 0 216 cm
114.801 139.801 m 115.352 139.801 l S Q
q 1 0 0 -1 0 216 cm
115.352 139.801 m 115.949 139.801 l S Q
q 1 0 0 -1 0 216 cm
115.949 139.801 m 116.5 139.801 l S Q
q 1 0 0 -1 0 216 cm
116.5 139.801 m 117.102 139.801 l S Q
q 1 0 0 -1 0 216 cm
117.102 139.801 m 117.648 139.801 l S Q
q 1 0 0 -1 0 216 cm
117.648 139.801 m 118.25 139.801 l S Q
q 1 0 0 -1 0 216 cm
118.25 139.801 m 118.801 139.801 l S Q
q 1 0 0 -1 0 216 cm
118.801 139.801 m 119.398 139.801 l S Q
q 1 0 0 -1 0 216 cm
119.398 139.801 m 119.949 139.801 l S Q
q 1 0 0 -1 0 216 cm
119.949 139.801 m 120.5 139.801 l S Q
q 1 0 0 -1 0 216 cm
120.5 139.801 m 121.102 139.801 l S Q
q 1 0 0 -1 0 216 cm
121.102 139.801 m 121.648 139.801 l S Q
q 1 0 0 -1 0 216 cm
121.648 139.801 m 122.25 139.801 l S Q
q 1 0 0 -1 0 216 cm
122.25 139.801 m 122.801 139.801 l S Q
q 1 0 0 -1 0 216 cm
122.801 139.801 m 123.398 139.801 l S Q
q 1 0 0 -1 0 216 cm
123.398 139.801 m 123.949 139.801 l S Q
q 1 0 0 -1 0 216 cm
123.949 139.801 m 124.5 139.801 l S Q
q 1 0 0 -1 0 216 cm
124.5 139.801 m 125.102 139.801 l S Q
q 1 0 0 -1 0 216 cm
125.102 139.801 m 125.699 139.801 l S Q
q 1 0 0 -1 0 216 cm
125.699 139.801 m 126.25 139.801 l S Q
q 1 0 0 -1 0 216 cm
126.25 139.801 m 126.801 139.801 l 126.801 140.699 l S Q
q 1 0 0 -1 0 216 cm
126.801 140.699 m 127.398 140.699 l S Q
q 1 0 0 -1 0 216 cm
127.398 140.699 m 127.949 140.699 l S Q
q 1 0 0 -1 0 216 cm
127.949 140.699 m 128.551 140.699 l S Q
q 1 0 0 -1 0 216 cm
128.551 140.699 m 129.102 140.699 l S Q
q 1 0 0 -1 0 216 cm
129.102 140.699 m 129.699 140.699 l S Q
q 1 0 0 -1 0 216 cm
129.699 140.699 m 130.25 140.699 l 130.25 141.199 l S Q
q 1 0 0 -1 0 216 cm
130.25 141.199 m 130.801 141.199 l S Q
q 1 0 0 -1 0 216 cm
130.801 141.199 m 131.398 141.199 l S Q
q 1 0 0 -1 0 216 cm
131.398 141.199 m 131.949 141.199 l S Q
q 1 0 0 -1 0 216 cm
131.949 141.199 m 132.551 141.199 l S Q
q 1 0 0 -1 0 216 cm
132.551 141.199 m 133.102 141.199 l S Q
q 1 0 0 -1 0 216 cm
133.102 141.199 m 133.648 141.199 l 133.648 145.75 l S Q
q 1 0 0 -1 0 216 cm
133.648 145.75 m 134.25 145.75 l 134.25 147.602 l S Q
q 1 0 0 -1 0 216 cm
134.25 147.602 m 134.801 147.602 l S Q
q 1 0 0 -1 0 216 cm
134.801 147.602 m 135.352 147.602 l 135.352 149 l S Q
q 1 0 0 -1 0 216 cm
135.352 149 m 135.949 149 l 135.949 149.5 l S Q
q 1 0 0 -1 0 216 cm
135.949 149.5 m 136.5 149.5 l S Q
q 1 0 0 -1 0 216 cm
136.5 149.5 m 137.051 149.5 l S Q
q 1 0 0 -1 0 216 cm
137.051 149.5 m 137.602 149.5 l S Q
q 1 0 0 -1 0 216 cm
137.602 149.5 m 138.148 149.5 l 138.148 149.648 l S Q
q 1 0 0 -1 0 216 cm
138.148 149.648 m 138.75 149.648 l S Q
q 1 0 0 -1 0 216 cm
138.75 149.648 m 139.301 149.648 l S Q
q 1 0 0 -1 0 216 cm
139.301 149.648 m 139.852 149.648 l S Q
q 1 0 0 -1 0 216 cm
139.852 149.648 m 140.398 149.648 l S Q
q 1 0 0 -1 0 216 cm
140.398 149.648 m 140.949 149.648 l S Q
q 1 0 0 -1 0 216 cm
140.949 149.648 m 141.551 149.648 l S Q
q 1 0 0 -1 0 216 cm
141.551 149.648 m 142.102 149.648 l S Q
q 1 0 0 -1 0 216 cm
142.102 149.648 m 142.648 149.648 l S Q
q 1 0 0 -1 0 216 cm
142.648 149.648 m 143.25 149.648 l S Q
q 1 0 0 -1 0 216 cm
143.25 149.648 m 143.801 149.648 l S Q
q 1 0 0 -1 0 216 cm
143.801 149.648 m 144.352 149.648 l S Q
q 1 0 0 -1 0 216 cm
144.352 149.648 m 144.898 149.648 l S Q
q 1 0 0 -1 0 216 cm
144.898 149.648 m 145.5 149.648 l S Q
q 1 0 0 -1 0 216 cm
145.5 149.648 m 146.051 149.648 l S Q
q 1 0 0 -1 0 216 cm
146.051 149.648 m 146.602 149.648 l S Q
q 1 0 0 -1 0 216 cm
146.602 149.648 m 147.148 149.648 l S Q
q 1 0 0 -1 0 216 cm
147.148 149.648 m 147.699 149.648 l S Q
q 1 0 0 -1 0 216 cm
147.699 149.648 m 148.301 149.648 l S Q
q 1 0 0 -1 0 216 cm
148.301 149.648 m 148.852 149.648 l S Q
q 1 0 0 -1 0 216 cm
148.852 149.648 m 149.398 149.648 l S Q
q 1 0 0 -1 0 216 cm
149.398 149.648 m 149.949 149.648 l S Q
q 1 0 0 -1 0 216 cm
149.949 149.648 m 150.5 149.648 l S Q
q 1 0 0 -1 0 216 cm
150.5 149.648 m 151.051 149.648 l S Q
q 1 0 0 -1 0 216 cm
151.051 149.648 m 151.648 149.648 l S Q
q 1 0 0 -1 0 216 cm
151.648 149.648 m 152.199 149.648 l S Q
q 1 0 0 -1 0 216 cm
152.199 149.648 m 152.75 149.648 l S Q
q 1 0 0 -1 0 216 cm
152.75 149.648 m 153.301 149.648 l S Q
q 1 0 0 -1 0 216 cm
153.301 149.648 m 153.898 149.648 l S Q
q 1 0 0 -1 0 216 cm
153.898 149.648 m 154.449 149.648 l S Q
q 1 0 0 -1 0 216 cm
154.449 149.648 m 155 149.648 l S Q
q 1 0 0 -1 0 216 cm
155 149.648 m 155.602 149.648 l S Q
q 1 0 0 -1 0 216 cm
155.602 149.648 m 156.148 149.648 l S Q
q 1 0 0 -1 0 216 cm
156.148 149.648 m 156.699 149.648 l S Q
q 1 0 0 -1 0 216 cm
156.699 149.648 m 157.25 149.648 l S Q
q 1 0 0 -1 0 216 cm
157.25 149.648 m 157.801 149.648 l S Q
q 1 0 0 -1 0 216 cm
157.801 149.648 m 158.352 149.648 l S Q
q 1 0 0 -1 0 216 cm
158.352 149.648 m 158.949 149.648 l S Q
q 1 0 0 -1 0 216 cm
158.949 149.648 m 159.5 149.648 l S Q
q 1 0 0 -1 0 216 cm
159.5 149.648 m 160.051 149.648 l S Q
q 1 0 0 -1 0 216 cm
160.051 149.648 m 160.602 149.648 l S Q
q 1 0 0 -1 0 216 cm
160.602 149.648 m 161.148 149.648 l S Q
q 1 0 0 -1 0 216 cm
161.148 149.648 m 161.75 149.648 l S Q
q 1 0 0 -1 0 216 cm
161.75 149.648 m 162.301 149.648 l S Q
q 1 0 0 -1 0 216 cm
162.301 149.648 m 162.852 149.648 l S Q
q 1 0 0 -1 0 216 cm
162.852 149.648 m 163.398 149.648 l S Q
q 1 0 0 -1 0 216 cm
163.398 149.648 m 164 149.648 l S Q
q 1 0 0 -1 0 216 cm
164 149.648 m 164.551 149.648 l S Q
q 1 0 0 -1 0 216 cm
164.551 149.648 m 165.102 149.648 l S Q
q 1 0 0 -1 0 216 cm
165.102 149.648 m 165.699 149.648 l S Q
q 1 0 0 -1 0 216 cm
165.699 149.648 m 166.25 149.648 l S Q
q 1 0 0 -1 0 216 cm
166.25 149.648 m 166.801 149.648 l S Q
q 1 0 0 -1 0 216 cm
166.801 149.648 m 167.352 149.648 l S Q
q 1 0 0 -1 0 216 cm
167.352 149.648 m 167.898 149.648 l S Q
q 1 0 0 -1 0 216 cm
167.898 149.648 m 168.5 149.648 l S Q
q 1 0 0 -1 0 216 cm
168.5 149.648 m 169.051 149.648 l S Q
q 1 0 0 -1 0 216 cm
169.051 149.648 m 169.602 149.648 l S Q
q 1 0 0 -1 0 216 cm
169.602 149.648 m 170.148 149.648 l S Q
q 1 0 0 -1 0 216 cm
170.148 149.648 m 170.75 149.648 l 170.75 150.148 l S Q
q 1 0 0 -1 0 216 cm
170.75 150.148 m 171.301 150.148 l S Q
q 1 0 0 -1 0 216 cm
171.301 150.148 m 171.852 150.148 l S Q
q 1 0 0 -1 0 216 cm
171.852 150.148 m 172.398 150.148 l S Q
q 1 0 0 -1 0 216 cm
172.398 150.148 m 173 150.148 l S Q
q 1 0 0 -1 0 216 cm
173 150.148 m 173.551 150.148 l 173.551 150.301 l S Q
q 1 0 0 -1 0 216 cm
173.551 150.301 m 174.102 150.301 l S Q
q 1 0 0 -1 0 216 cm
174.102 150.301 m 174.648 150.301 l S Q
q 1 0 0 -1 0 216 cm
174.648 150.301 m 175.199 150.301 l 175.199 150.449 l S Q
q 1 0 0 -1 0 216 cm
175.199 150.449 m 175.801 150.449 l S Q
q 1 0 0 -1 0 216 cm
175.801 150.449 m 176.352 150.449 l S Q
q 1 0 0 -1 0 216 cm
176.352 150.449 m 176.898 150.449 l S Q
q 1 0 0 -1 0 216 cm
176.898 150.449 m 177.449 150.449 l S Q
q 1 0 0 -1 0 216 cm
177.449 150.449 m 178 150.449 l 178 150.602 l S Q
q 1 0 0 -1 0 216 cm
178 150.602 m 178.551 150.602 l S Q
q 1 0 0 -1 0 216 cm
178.551 150.602 m 179.148 150.602 l 179.148 150.949 l S Q
q 1 0 0 -1 0 216 cm
179.148 150.949 m 179.699 150.949 l 179.699 153 l S Q
q 1 0 0 -1 0 216 cm
179.699 153 m 180.25 153 l 180.25 154.102 l S Q
q 1 0 0 -1 0 216 cm
180.25 154.102 m 180.801 154.102 l 180.801 159.898 l S Q
q 1 0 0 -1 0 216 cm
180.801 159.898 m 181.398 159.898 l S Q
q 1 0 0 -1 0 216 cm
181.398 159.898 m 181.949 159.898 l S Q
q 1 0 0 -1 0 216 cm
181.949 159.898 m 182.5 159.898 l S Q
q 1 0 0 -1 0 216 cm
182.5 159.898 m 183.051 159.898 l 183.051 160.051 l S Q
q 1 0 0 -1 0 216 cm
183.051 160.051 m 183.602 160.051 l S Q
q 1 0 0 -1 0 216 cm
183.602 160.051 m 184.199 160.051 l S Q
q 1 0 0 -1 0 216 cm
184.199 160.051 m 184.75 160.051 l S Q
q 1 0 0 -1 0 216 cm
184.75 160.051 m 185.301 160.051 l S Q
q 1 0 0 -1 0 216 cm
185.301 160.051 m 185.898 160.051 l S Q
q 1 0 0 -1 0 216 cm
185.898 160.051 m 186.449 160.051 l S Q
q 1 0 0 -1 0 216 cm
186.449 160.051 m 187 160.051 l 187 160.449 l S Q
q 1 0 0 -1 0 216 cm
187 160.449 m 187.551 160.449 l S Q
q 1 0 0 -1 0 216 cm
187.551 160.449 m 188.102 160.449 l S Q
q 1 0 0 -1 0 216 cm
188.102 160.449 m 188.648 160.449 l S Q
q 1 0 0 -1 0 216 cm
188.648 160.449 m 189.199 160.449 l S Q
q 1 0 0 -1 0 216 cm
189.199 160.449 m 189.75 160.449 l S Q
q 1 0 0 -1 0 216 cm
189.75 160.449 m 190.352 160.449 l S Q
q 1 0 0 -1 0 216 cm
190.352 160.449 m 190.898 160.449 l S Q
q 1 0 0 -1 0 216 cm
190.898 160.449 m 191.449 160.449 l S Q
q 1 0 0 -1 0 216 cm
191.449 160.449 m 192 160.449 l S Q
q 1 0 0 -1 0 216 cm
192 160.449 m 192.602 160.449 l S Q
q 1 0 0 -1 0 216 cm
192.602 160.449 m 193.148 160.449 l S Q
q 1 0 0 -1 0 216 cm
193.148 160.449 m 193.699 160.449 l S Q
q 1 0 0 -1 0 216 cm
193.699 160.449 m 194.25 160.449 l S Q
q 1 0 0 -1 0 216 cm
194.25 160.449 m 194.801 160.449 l S Q
q 1 0 0 -1 0 216 cm
194.801 160.449 m 195.398 160.449 l S Q
q 1 0 0 -1 0 216 cm
195.398 160.449 m 195.949 160.449 l S Q
q 1 0 0 -1 0 216 cm
195.949 160.449 m 196.5 160.449 l S Q
q 1 0 0 -1 0 216 cm
196.5 160.449 m 197.051 160.449 l S Q
q 1 0 0 -1 0 216 cm
197.051 160.449 m 197.602 160.449 l 197.602 160.648 l S Q
q 1 0 0 -1 0 216 cm
197.602 160.648 m 198.199 160.648 l S Q
q 1 0 0 -1 0 216 cm
198.199 160.648 m 198.75 160.648 l S Q
q 1 0 0 -1 0 216 cm
198.75 160.648 m 199.301 160.648 l S Q
q 1 0 0 -1 0 216 cm
199.301 160.648 m 199.852 160.648 l 199.852 160.801 l S Q
q 1 0 0 -1 0 216 cm
199.852 160.801 m 200.449 160.801 l S Q
q 1 0 0 -1 0 216 cm
200.449 160.801 m 201 160.801 l S Q
q 1 0 0 -1 0 216 cm
201 160.801 m 201.551 160.801 l S Q
q 1 0 0 -1 0 216 cm
201.551 160.801 m 202.102 160.801 l S Q
q 1 0 0 -1 0 216 cm
202.102 160.801 m 202.648 160.801 l S Q
q 1 0 0 -1 0 216 cm
202.648 160.801 m 203.25 160.801 l S Q
q 1 0 0 -1 0 216 cm
203.25 160.801 m 203.801 160.801 l S Q
q 1 0 0 -1 0 216 cm
203.801 160.801 m 204.352 160.801 l S Q
q 1 0 0 -1 0 216 cm
204.352 160.801 m 204.898 160.801 l S Q
q 1 0 0 -1 0 216 cm
204.898 160.801 m 205.449 160.801 l S Q
q 1 0 0 -1 0 216 cm
205.449 160.801 m 206.051 160.801 l S Q
q 1 0 0 -1 0 216 cm
206.051 160.801 m 206.602 160.801 l S Q
q 1 0 0 -1 0 216 cm
206.602 160.801 m 207.148 160.801 l S Q
q 1 0 0 -1 0 216 cm
207.148 160.801 m 207.699 160.801 l S Q
q 1 0 0 -1 0 216 cm
207.699 160.801 m 208.301 160.801 l S Q
q 1 0 0 -1 0 216 cm
208.301 160.801 m 208.852 160.801 l S Q
q 1 0 0 -1 0 216 cm
208.852 160.801 m 209.398 160.801 l S Q
q 1 0 0 -1 0 216 cm
209.398 160.801 m 209.949 160.801 l S Q
q 1 0 0 -1 0 216 cm
209.949 160.801 m 210.5 160.801 l S Q
q 1 0 0 -1 0 216 cm
210.5 160.801 m 211.102 160.801 l S Q
q 1 0 0 -1 0 216 cm
211.102 160.801 m 211.648 160.801 l S Q
q 1 0 0 -1 0 216 cm
211.648 160.801 m 212.199 160.801 l S Q
q 1 0 0 -1 0 216 cm
212.199 160.801 m 212.75 160.801 l S Q
q 1 0 0 -1 0 216 cm
212.75 160.801 m 213.301 160.801 l S Q
q 1 0 0 -1 0 216 cm
213.301 160.801 m 213.898 160.801 l S Q
q 1 0 0 -1 0 216 cm
213.898 160.801 m 214.449 160.801 l S Q
q 1 0 0 -1 0 216 cm
214.449 160.801 m 215 160.801 l S Q
q 1 0 0 -1 0 216 cm
215 160.801 m 215.551 160.801 l S Q
q 1 0 0 -1 0 216 cm
215.551 160.801 m 216.102 160.801 l S Q
q 1 0 0 -1 0 216 cm
216.102 160.801 m 216.699 160.801 l S Q
q 1 0 0 -1 0 216 cm
216.699 160.801 m 217.25 160.801 l S Q
q 1 0 0 -1 0 216 cm
217.25 160.801 m 217.801 160.801 l S Q
q 1 0 0 -1 0 216 cm
217.801 160.801 m 218.352 160.801 l S Q
q 1 0 0 -1 0 216 cm
218.352 160.801 m 218.898 160.801 l S Q
q 1 0 0 -1 0 216 cm
218.898 160.801 m 219.5 160.801 l S Q
q 1 0 0 -1 0 216 cm
219.5 160.801 m 220.051 160.801 l S Q
q 1 0 0 -1 0 216 cm
220.051 160.801 m 220.602 160.801 l S Q
q 1 0 0 -1 0 216 cm
220.602 160.801 m 221.148 160.801 l S Q
q 1 0 0 -1 0 216 cm
221.148 160.801 m 221.699 160.801 l S Q
q 1 0 0 -1 0 216 cm
221.699 160.801 m 222.301 160.801 l S Q
q 1 0 0 -1 0 216 cm
222.301 160.801 m 222.852 160.801 l S Q
q 1 0 0 -1 0 216 cm
222.852 160.801 m 223.398 160.801 l S Q
q 1 0 0 -1 0 216 cm
223.398 160.801 m 223.949 160.801 l S Q
q 1 0 0 -1 0 216 cm
223.949 160.801 m 224.5 160.801 l S Q
q 1 0 0 -1 0 216 cm
224.5 160.801 m 225.051 160.801 l S Q
q 1 0 0 -1 0 216 cm
225.051 160.801 m 225.648 160.801 l S Q
q 1 0 0 -1 0 216 cm
225.648 160.801 m 226.199 160.801 l S Q
q 1 0 0 -1 0 216 cm
226.199 160.801 m 226.75 160.801 l S Q
q 1 0 0 -1 0 216 cm
226.75 160.801 m 227.301 160.801 l S Q
q 1 0 0 -1 0 216 cm
227.301 160.801 m 227.852 160.801 l S Q
q 1 0 0 -1 0 216 cm
227.852 160.801 m 228.398 160.801 l S Q
q 1 0 0 -1 0 216 cm
228.398 160.801 m 229 160.801 l S Q
q 1 0 0 -1 0 216 cm
229 160.801 m 229.551 160.801 l S Q
q 1 0 0 -1 0 216 cm
229.551 160.801 m 230.102 160.801 l S Q
q 1 0 0 -1 0 216 cm
230.102 160.801 m 230.648 160.801 l S Q
q 1 0 0 -1 0 216 cm
230.648 160.801 m 231.25 160.801 l S Q
q 1 0 0 -1 0 216 cm
231.25 160.801 m 231.801 160.801 l S Q
q 1 0 0 -1 0 216 cm
231.801 160.801 m 232.352 160.801 l S Q
q 1 0 0 -1 0 216 cm
232.352 160.801 m 232.898 160.801 l S Q
q 1 0 0 -1 0 216 cm
232.898 160.801 m 233.449 160.801 l S Q
q 1 0 0 -1 0 216 cm
233.449 160.801 m 234.051 160.801 l S Q
q 1 0 0 -1 0 216 cm
234.051 160.801 m 234.602 160.801 l S Q
q 1 0 0 -1 0 216 cm
234.602 160.801 m 235.148 160.801 l S Q
q 1 0 0 -1 0 216 cm
235.148 160.801 m 235.699 160.801 l S Q
q 1 0 0 -1 0 216 cm
235.699 160.801 m 236.25 160.801 l S Q
q 1 0 0 -1 0 216 cm
236.25 160.801 m 236.801 160.801 l S Q
q 1 0 0 -1 0 216 cm
236.801 160.801 m 237.398 160.801 l S Q
q 1 0 0 -1 0 216 cm
237.398 160.801 m 237.949 160.801 l S Q
q 1 0 0 -1 0 216 cm
237.949 160.801 m 238.5 160.801 l S Q
q 1 0 0 -1 0 216 cm
238.5 160.801 m 239.051 160.801 l S Q
q 1 0 0 -1 0 216 cm
239.051 160.801 m 239.602 160.801 l S Q
q 1 0 0 -1 0 216 cm
239.602 160.801 m 240.148 160.801 l S Q
q 1 0 0 -1 0 216 cm
240.148 160.801 m 240.75 160.801 l S Q
q 1 0 0 -1 0 216 cm
240.75 160.801 m 241.301 160.801 l S Q
q 1 0 0 -1 0 216 cm
241.301 160.801 m 241.852 160.801 l S Q
q 1 0 0 -1 0 216 cm
241.852 160.801 m 242.398 160.801 l S Q
q 1 0 0 -1 0 216 cm
242.398 160.801 m 242.949 160.801 l S Q
q 1 0 0 -1 0 216 cm
242.949 160.801 m 243.551 160.801 l S Q
q 1 0 0 -1 0 216 cm
243.551 160.801 m 244.102 160.801 l S Q
q 1 0 0 -1 0 216 cm
244.102 160.801 m 244.648 160.801 l S Q
q 1 0 0 -1 0 216 cm
244.648 160.801 m 245.199 160.801 l S Q
q 1 0 0 -1 0 216 cm
245.199 160.801 m 245.75 160.801 l S Q
q 1 0 0 -1 0 216 cm
245.75 160.801 m 246.352 160.801 l S Q
q 1 0 0 -1 0 216 cm
246.352 160.801 m 246.898 160.801 l S Q
q 1 0 0 -1 0 216 cm
246.898 160.801 m 247.449 160.801 l S Q
q 1 0 0 -1 0 216 cm
247.449 160.801 m 248 160.801 l S Q
q 1 0 0 -1 0 216 cm
248 160.801 m 248.551 160.801 l S Q
q 1 0 0 -1 0 216 cm
248.551 160.801 m 249.148 160.801 l S Q
q 1 0 0 -1 0 216 cm
249.148 160.801 m 249.699 160.801 l S Q
q 1 0 0 -1 0 216 cm
249.699 160.801 m 250.25 160.801 l S Q
q 1 0 0 -1 0 216 cm
250.25 160.801 m 250.801 160.801 l S Q
q 1 0 0 -1 0 216 cm
250.801 160.801 m 251.352 160.801 l S Q
q 1 0 0 -1 0 216 cm
251.352 160.801 m 251.949 160.801 l S Q
q 1 0 0 -1 0 216 cm
251.949 160.801 m 252.5 160.801 l S Q
q 1 0 0 -1 0 216 cm
252.5 160.801 m 253.051 160.801 l S Q
q 1 0 0 -1 0 216 cm
253.051 160.801 m 253.602 160.801 l S Q
q 1 0 0 -1 0 216 cm
253.602 160.801 m 254.199 160.801 l S Q
q 1 0 0 -1 0 216 cm
254.199 160.801 m 254.75 160.801 l S Q
q 1 0 0 -1 0 216 cm
254.75 160.801 m 255.301 160.801 l S Q
q 1 0 0 -1 0 216 cm
255.301 160.801 m 255.852 160.801 l S Q
q 1 0 0 -1 0 216 cm
255.852 160.801 m 256.449 160.801 l S Q
q 1 0 0 -1 0 216 cm
256.449 160.801 m 257 160.801 l S Q
q 1 0 0 -1 0 216 cm
257 160.801 m 257.551 160.801 l S Q
q 1 0 0 -1 0 216 cm
257.551 160.801 m 258.102 160.801 l S Q
q 1 0 0 -1 0 216 cm
258.102 160.801 m 258.699 160.801 l S Q
q 1 0 0 -1 0 216 cm
258.699 160.801 m 259.25 160.801 l S Q
q 1 0 0 -1 0 216 cm
259.25 160.801 m 259.801 160.801 l S Q
q 1 0 0 -1 0 216 cm
259.801 160.801 m 260.352 160.801 l S Q
q 1 0 0 -1 0 216 cm
260.352 160.801 m 260.898 160.801 l S Q
q 1 0 0 -1 0 216 cm
260.898 160.801 m 261.449 160.801 l S Q
q 1 0 0 -1 0 216 cm
261.449 160.801 m 262.051 160.801 l S Q
q 1 0 0 -1 0 216 cm
262.051 160.801 m 262.602 160.801 l S Q
q 1 0 0 -1 0 216 cm
262.602 160.801 m 263.148 160.801 l S Q
q 1 0 0 -1 0 216 cm
263.148 160.801 m 263.699 160.801 l S Q
q 1 0 0 -1 0 216 cm
263.699 160.801 m 264.25 160.801 l S Q
q 1 0 0 -1 0 216 cm
264.25 160.801 m 264.801 160.801 l S Q
q 1 0 0 -1 0 216 cm
264.801 160.801 m 265.398 160.801 l S Q
q 1 0 0 -1 0 216 cm
265.398 160.801 m 265.949 160.801 l S Q
q 1 0 0 -1 0 216 cm
265.949 160.801 m 266.5 160.801 l S Q
q 1 0 0 -1 0 216 cm
266.5 160.801 m 267.051 160.801 l S Q
q 1 0 0 -1 0 216 cm
267.051 160.801 m 267.602 160.801 l S Q
q 1 0 0 -1 0 216 cm
267.602 160.801 m 268.199 160.801 l S Q
q 1 0 0 -1 0 216 cm
268.199 160.801 m 268.75 160.801 l S Q
q 1 0 0 -1 0 216 cm
268.75 160.801 m 269.301 160.801 l S Q
q 1 0 0 -1 0 216 cm
269.301 160.801 m 269.852 160.801 l S Q
q 1 0 0 -1 0 216 cm
269.852 160.801 m 270.449 160.801 l S Q
q 1 0 0 -1 0 216 cm
270.449 160.801 m 271 160.801 l S Q
q 1 0 0 -1 0 216 cm
271 160.801 m 271.551 160.801 l S Q
q 1 0 0 -1 0 216 cm
271.551 160.801 m 272.102 160.801 l S Q
q 1 0 0 -1 0 216 cm
272.102 160.801 m 272.648 160.801 l S Q
q 1 0 0 -1 0 216 cm
272.648 160.801 m 273.199 160.801 l S Q
q 1 0 0 -1 0 216 cm
273.199 160.801 m 273.801 160.801 l S Q
q 1 0 0 -1 0 216 cm
273.801 160.801 m 274.352 160.801 l S Q
q 1 0 0 -1 0 216 cm
274.352 160.801 m 274.898 160.801 l S Q
q 1 0 0 -1 0 216 cm
274.898 160.801 m 275.449 160.801 l S Q
q 1 0 0 -1 0 216 cm
275.449 160.801 m 276 160.801 l S Q
q 1 0 0 -1 0 216 cm
276 160.801 m 276.602 160.801 l S Q
q 1 0 0 -1 0 216 cm
276.602 160.801 m 277.148 160.801 l S Q
q 1 0 0 -1 0 216 cm
277.148 160.801 m 277.699 160.801 l S Q
q 1 0 0 -1 0 216 cm
277.699 160.801 m 278.25 160.801 l S Q
q 1 0 0 -1 0 216 cm
278.25 160.801 m 278.801 160.801 l S Q
q 1 0 0 -1 0 216 cm
278.801 160.801 m 279.352 160.801 l S Q
q 1 0 0 -1 0 216 cm
279.352 160.801 m 279.949 160.801 l S Q
q 1 0 0 -1 0 216 cm
279.949 160.801 m 280.5 160.801 l S Q
q 1 0 0 -1 0 216 cm
280.5 160.801 m 281.051 160.801 l S Q
q 1 0 0 -1 0 216 cm
281.051 160.801 m 281.602 160.801 l S Q
q 1 0 0 -1 0 216 cm
281.602 160.801 m 282.148 160.801 l S Q
q 1 0 0 -1 0 216 cm
282.148 160.801 m 282.699 160.801 l S Q
q 1 0 0 -1 0 216 cm
282.699 160.801 m 283.301 160.801 l S Q
q 1 0 0 -1 0 216 cm
283.301 160.801 m 283.852 160.801 l S Q
q 1 0 0 -1 0 216 cm
283.852 160.801 m 284.398 160.801 l S Q
q 1 0 0 -1 0 216 cm
284.398 160.801 m 284.949 160.801 l S Q
q 1 0 0 -1 0 216 cm
284.949 160.801 m 285.5 160.801 l S Q
q 1 0 0 -1 0 216 cm
285.5 160.801 m 286.051 160.801 l S Q
q 1 0 0 -1 0 216 cm
286.051 160.801 m 286.648 160.801 l S Q
q 1 0 0 -1 0 216 cm
286.648 160.801 m 287.199 160.801 l S Q
q 1 0 0 -1 0 216 cm
287.199 160.801 m 287.75 160.801 l S Q
q 1 0 0 -1 0 216 cm
287.75 160.801 m 288.301 160.801 l S Q
q 1 0 0 -1 0 216 cm
288.301 160.801 m 288.852 160.801 l S Q
q 1 0 0 -1 0 216 cm
288.852 160.801 m 289.449 160.801 l S Q
q 1 0 0 -1 0 216 cm
289.449 160.801 m 290 160.801 l S Q
q 1 0 0 -1 0 216 cm
290 160.801 m 290.551 160.801 l S Q
q 1 0 0 -1 0 216 cm
290.551 160.801 m 291.102 160.801 l S Q
q 1 0 0 -1 0 216 cm
291.102 160.801 m 291.648 160.801 l S Q
q 1 0 0 -1 0 216 cm
291.648 160.801 m 292.25 160.801 l S Q
q 1 0 0 -1 0 216 cm
292.25 160.801 m 292.801 160.801 l S Q
q 1 0 0 -1 0 216 cm
292.801 160.801 m 293.352 160.801 l S Q
q 1 0 0 -1 0 216 cm
293.352 160.801 m 293.898 160.801 l S Q
q 1 0 0 -1 0 216 cm
293.898 160.801 m 294.449 160.801 l S Q
q 1 0 0 -1 0 216 cm
294.449 160.801 m 295.051 160.801 l S Q
q 1 0 0 -1 0 216 cm
295.051 160.801 m 295.602 160.801 l S Q
q 1 0 0 -1 0 216 cm
295.602 160.801 m 296.148 160.801 l S Q
q 1 0 0 -1 0 216 cm
296.148 160.801 m 296.699 160.801 l S Q
q 1 0 0 -1 0 216 cm
296.699 160.801 m 297.25 160.801 l S Q
q 1 0 0 -1 0 216 cm
297.25 160.801 m 297.801 160.801 l S Q
q 1 0 0 -1 0 216 cm
297.801 160.801 m 298.352 160.801 l S Q
q 1 0 0 -1 0 216 cm
298.352 160.801 m 298.898 160.801 l S Q
q 1 0 0 -1 0 216 cm
298.898 160.801 m 299.5 160.801 l S Q
q 1 0 0 -1 0 216 cm
299.5 160.801 m 300.051 160.801 l S Q
q 1 0 0 -1 0 216 cm
300.051 160.801 m 300.602 160.801 l S Q
q 1 0 0 -1 0 216 cm
300.602 160.801 m 301.148 160.801 l S Q
q 1 0 0 -1 0 216 cm
301.148 160.801 m 301.75 160.801 l S Q
q 1 0 0 -1 0 216 cm
301.75 160.801 m 302.301 160.801 l S Q
q 1 0 0 -1 0 216 cm
302.301 160.801 m 302.852 160.801 l S Q
q 1 0 0 -1 0 216 cm
302.852 160.801 m 303.398 160.801 l S Q
q 1 0 0 -1 0 216 cm
303.398 160.801 m 303.949 160.801 l S Q
q 1 0 0 -1 0 216 cm
303.949 160.801 m 304.551 160.801 l S Q
q 1 0 0 -1 0 216 cm
304.551 160.801 m 305.102 160.801 l S Q
q 1 0 0 -1 0 216 cm
305.102 160.801 m 305.648 160.801 l S Q
q 1 0 0 -1 0 216 cm
305.648 160.801 m 306.199 160.801 l S Q
q 1 0 0 -1 0 216 cm
306.199 160.801 m 306.75 160.801 l S Q
q 1 0 0 -1 0 216 cm
306.75 160.801 m 307.301 160.801 l S Q
q 1 0 0 -1 0 216 cm
307.301 160.801 m 307.852 160.801 l S Q
q 1 0 0 -1 0 216 cm
307.852 160.801 m 308.449 160.801 l S Q
q 1 0 0 -1 0 216 cm
308.449 160.801 m 309 160.801 l S Q
q 1 0 0 -1 0 216 cm
309 160.801 m 309.551 160.801 l S Q
q 1 0 0 -1 0 216 cm
309.551 160.801 m 310.102 160.801 l S Q
q 1 0 0 -1 0 216 cm
310.102 160.801 m 310.648 160.801 l S Q
q 1 0 0 -1 0 216 cm
310.648 160.801 m 311.25 160.801 l S Q
q 1 0 0 -1 0 216 cm
311.25 160.801 m 311.801 160.801 l S Q
q 1 0 0 -1 0 216 cm
311.801 160.801 m 312.352 160.801 l S Q
q 1 0 0 -1 0 216 cm
312.352 160.801 m 312.898 160.801 l S Q
q 1 0 0 -1 0 216 cm
312.898 160.801 m 313.449 160.801 l S Q
q 1 0 0 -1 0 216 cm
313.449 160.801 m 314.051 160.801 l S Q
q 1 0 0 -1 0 216 cm
314.051 160.801 m 314.602 160.801 l S Q
q 1 0 0 -1 0 216 cm
314.602 160.801 m 315.148 160.801 l S Q
q 1 0 0 -1 0 216 cm
315.148 160.801 m 315.699 160.801 l S Q
q 1 0 0 -1 0 216 cm
315.699 160.801 m 316.301 160.801 l S Q
q 1 0 0 -1 0 216 cm
316.301 160.801 m 316.852 160.801 l S Q
q 1 0 0 -1 0 216 cm
316.852 160.801 m 317.398 160.801 l S Q
q 1 0 0 -1 0 216 cm
317.398 160.801 m 317.949 160.801 l S Q
q 1 0 0 -1 0 216 cm
317.949 160.801 m 318.5 160.801 l S Q
q 1 0 0 -1 0 216 cm
318.5 160.801 m 319.102 160.801 l S Q
q 1 0 0 -1 0 216 cm
319.102 160.801 m 319.648 160.801 l S Q
q 1 0 0 -1 0 216 cm
319.648 160.801 m 320.199 160.801 l S Q
q 1 0 0 -1 0 216 cm
320.199 160.801 m 320.75 160.801 l S Q
q 1 0 0 -1 0 216 cm
320.75 160.801 m 321.301 160.801 l S Q
q 1 0 0 -1 0 216 cm
321.301 160.801 m 321.852 160.801 l S Q
q 1 0 0 -1 0 216 cm
321.852 160.801 m 322.449 160.801 l S Q
q 1 0 0 -1 0 216 cm
322.449 160.801 m 323 160.801 l S Q
q 1 0 0 -1 0 216 cm
323 160.801 m 323.551 160.801 l S Q
q 1 0 0 -1 0 216 cm
323.551 160.801 m 324.102 160.801 l S Q
q 1 0 0 -1 0 216 cm
324.102 160.801 m 324.648 160.801 l S Q
q 1 0 0 -1 0 216 cm
324.648 160.801 m 325.25 160.801 l S Q
q 1 0 0 -1 0 216 cm
325.25 160.801 m 325.801 160.801 l S Q
q 1 0 0 -1 0 216 cm
325.801 160.801 m 326.352 160.801 l S Q
q 1 0 0 -1 0 216 cm
326.352 160.801 m 326.898 160.801 l S Q
q 1 0 0 -1 0 216 cm
326.898 160.801 m 327.449 160.801 l S Q
q 1 0 0 -1 0 216 cm
327.449 160.801 m 328.051 160.801 l S Q
q 1 0 0 -1 0 216 cm
328.051 160.801 m 328.602 160.801 l S Q
q 1 0 0 -1 0 216 cm
328.602 160.801 m 329.148 160.801 l S Q
q 1 0 0 -1 0 216 cm
329.148 160.801 m 329.699 160.801 l S Q
q 1 0 0 -1 0 216 cm
329.699 160.801 m 330.25 160.801 l S Q
q 1 0 0 -1 0 216 cm
330.25 160.801 m 330.852 160.801 l S Q
q 1 0 0 -1 0 216 cm
330.852 160.801 m 331.398 160.801 l S Q
q 1 0 0 -1 0 216 cm
331.398 160.801 m 331.949 160.801 l S Q
q 1 0 0 -1 0 216 cm
331.949 160.801 m 332.5 160.801 l S Q
q 1 0 0 -1 0 216 cm
332.5 160.801 m 333.051 160.801 l S Q
q 1 0 0 -1 0 216 cm
333.051 160.801 m 333.602 160.801 l S Q
q 1 0 0 -1 0 216 cm
333.602 160.801 m 334.199 160.801 l S Q
q 1 0 0 -1 0 216 cm
334.199 160.801 m 334.75 160.801 l S Q
q 1 0 0 -1 0 216 cm
334.75 160.801 m 335.301 160.801 l S Q
q 1 0 0 -1 0 216 cm
335.301 160.801 m 335.852 160.801 l S Q
q 1 0 0 -1 0 216 cm
335.852 160.801 m 336.398 160.801 l S Q
q 1 0 0 -1 0 216 cm
336.398 160.801 m 336.949 160.801 l S Q
q 1 0 0 -1 0 216 cm
336.949 160.801 m 337.551 160.801 l S Q
q 1 0 0 -1 0 216 cm
337.551 160.801 m 338.102 160.801 l S Q
q 1 0 0 -1 0 216 cm
338.102 160.801 m 338.648 160.801 l S Q
q 1 0 0 -1 0 216 cm
338.648 160.801 m 339.199 160.801 l S Q
q 1 0 0 -1 0 216 cm
339.199 160.801 m 339.75 160.801 l S Q
q 1 0 0 -1 0 216 cm
339.75 160.801 m 340.352 160.801 l S Q
q 1 0 0 -1 0 216 cm
340.352 160.801 m 340.898 160.801 l S Q
q 1 0 0 -1 0 216 cm
340.898 160.801 m 341.449 160.801 l S Q
q 1 0 0 -1 0 216 cm
341.449 160.801 m 342 160.801 l S Q
q 1 0 0 -1 0 216 cm
342 160.801 m 342.602 160.801 l S Q
q 1 0 0 -1 0 216 cm
342.602 160.801 m 343.148 160.801 l S Q
q 1 0 0 -1 0 216 cm
343.148 160.801 m 343.699 160.801 l S Q
q 1 0 0 -1 0 216 cm
343.699 160.801 m 344.25 160.801 l S Q
q 1 0 0 -1 0 216 cm
344.25 160.801 m 344.801 160.801 l S Q
0.172549 0.462745 0.733333 rg
q 1 0 0 -1 0 216 cm
310.852 19.102 m 334.949 19.102 l S Q
q 1 0 0 -1 0 216 cm
42.648 10.75 m 42.648 13.352 l S Q
q 1 0 0 -1 0 216 cm
42.648 13.352 m 43.301 13.352 l S Q
q 1 0 0 -1 0 216 cm
43.301 13.352 m 43.898 13.352 l S Q
q 1 0 0 -1 0 216 cm
43.898 13.352 m 44.551 13.352 l S Q
q 1 0 0 -1 0 216 cm
44.551 13.352 m 45.148 13.352 l S Q
q 1 0 0 -1 0 216 cm
45.148 13.352 m 45.75 13.352 l S Q
q 1 0 0 -1 0 216 cm
45.75 13.352 m 46.352 13.352 l S Q
q 1 0 0 -1 0 216 cm
46.352 13.352 m 46.949 13.352 l 46.949 18.75 l S Q
q 1 0 0 -1 0 216 cm
46.949 18.75 m 47.551 18.75 l 47.551 19.148 l S Q
q 1 0 0 -1 0 216 cm
47.551 19.148 m 48.148 19.148 l 48.148 23.699 l S Q
q 1 0 0 -1 0 216 cm
48.148 23.699 m 48.801 23.699 l S Q
q 1 0 0 -1 0 216 cm
48.801 23.699 m 49.449 23.699 l 49.449 24.75 l S Q
q 1 0 0 -1 0 216 cm
49.449 24.75 m 50.051 24.75 l 50.051 26.551 l S Q
q 1 0 0 -1 0 216 cm
50.051 26.551 m 50.648 26.551 l S Q
q 1 0 0 -1 0 216 cm
50.648 26.551 m 51.25 26.551 l S Q
q 1 0 0 -1 0 216 cm
51.25 26.551 m 51.852 26.551 l S Q
q 1 0 0 -1 0 216 cm
51.852 26.551 m 52.5 26.551 l 52.5 32.852 l S Q
q 1 0 0 -1 0 216 cm
52.5 32.852 m 53.051 32.852 l S Q
q 1 0 0 -1 0 216 cm
53.051 32.852 m 53.699 32.852 l 53.699 35.199 l S Q
q 1 0 0 -1 0 216 cm
53.699 35.199 m 54.301 35.199 l S Q
q 1 0 0 -1 0 216 cm
54.301 35.199 m 54.898 35.199 l S Q
q 1 0 0 -1 0 216 cm
54.898 35.199 m 55.449 35.199 l 55.449 36.199 l S Q
q 1 0 0 -1 0 216 cm
55.449 36.199 m 56.102 36.199 l S Q
q 1 0 0 -1 0 216 cm
56.102 36.199 m 56.699 36.199 l S Q
q 1 0 0 -1 0 216 cm
56.699 36.199 m 57.352 36.199 l S Q
q 1 0 0 -1 0 216 cm
57.352 36.199 m 57.949 36.199 l S Q
q 1 0 0 -1 0 216 cm
57.949 36.199 m 58.551 36.199 l 58.551 37.301 l S Q
q 1 0 0 -1 0 216 cm
58.551 37.301 m 59.148 37.301 l 59.148 46.398 l S Q
q 1 0 0 -1 0 216 cm
59.148 46.398 m 59.75 46.398 l S Q
q 1 0 0 -1 0 216 cm
59.75 46.398 m 60.398 46.398 l S Q
q 1 0 0 -1 0 216 cm
60.398 46.398 m 61 46.398 l S Q
q 1 0 0 -1 0 216 cm
61 46.398 m 61.602 46.398 l S Q
q 1 0 0 -1 0 216 cm
61.602 46.398 m 62.199 46.398 l S Q
q 1 0 0 -1 0 216 cm
62.199 46.398 m 62.801 46.398 l 62.801 46.648 l S Q
q 1 0 0 -1 0 216 cm
62.801 46.648 m 63.398 46.648 l S Q
q 1 0 0 -1 0 216 cm
63.398 46.648 m 64 46.648 l S Q
q 1 0 0 -1 0 216 cm
64 46.648 m 64.648 46.648 l S Q
q 1 0 0 -1 0 216 cm
64.648 46.648 m 65.25 46.648 l S Q
q 1 0 0 -1 0 216 cm
65.25 46.648 m 65.898 46.648 l S Q
q 1 0 0 -1 0 216 cm
65.898 46.648 m 66.5 46.648 l S Q
q 1 0 0 -1 0 216 cm
66.5 46.648 m 67.102 46.648 l S Q
q 1 0 0 -1 0 216 cm
67.102 46.648 m 67.699 46.648 l S Q
q 1 0 0 -1 0 216 cm
67.699 46.648 m 68.301 46.648 l S Q
q 1 0 0 -1 0 216 cm
68.301 46.648 m 68.898 46.648 l S Q
q 1 0 0 -1 0 216 cm
68.898 46.648 m 69.551 46.648 l S Q
q 1 0 0 -1 0 216 cm
69.551 46.648 m 70.148 46.648 l S Q
q 1 0 0 -1 0 216 cm
70.148 46.648 m 70.75 46.648 l S Q
q 1 0 0 -1 0 216 cm
70.75 46.648 m 71.352 46.648 l S Q
q 1 0 0 -1 0 216 cm
71.352 46.648 m 71.949 46.648 l S Q
q 1 0 0 -1 0 216 cm
71.949 46.648 m 72.551 46.648 l S Q
q 1 0 0 -1 0 216 cm
72.551 46.648 m 73.199 46.648 l S Q
q 1 0 0 -1 0 216 cm
73.199 46.648 m 73.801 46.648 l S Q
q 1 0 0 -1 0 216 cm
73.801 46.648 m 74.398 46.648 l S Q
q 1 0 0 -1 0 216 cm
74.398 46.648 m 74.949 46.648 l S Q
q 1 0 0 -1 0 216 cm
74.949 46.648 m 75.602 46.648 l S Q
q 1 0 0 -1 0 216 cm
75.602 46.648 m 76.199 46.648 l S Q
q 1 0 0 -1 0 216 cm
76.199 46.648 m 76.801 46.648 l S Q
q 1 0 0 -1 0 216 cm
76.801 46.648 m 77.398 46.648 l S Q
q 1 0 0 -1 0 216 cm
77.398 46.648 m 78 46.648 l S Q
q 1 0 0 -1 0 216 cm
78 46.648 m 78.602 46.648 l S Q
q 1 0 0 -1 0 216 cm
78.602 46.648 m 79.148 46.648 l S Q
q 1 0 0 -1 0 216 cm
79.148 46.648 m 79.801 46.648 l S Q
q 1 0 0 -1 0 216 cm
79.801 46.648 m 80.398 46.648 l 80.398 48.699 l S Q
q 1 0 0 -1 0 216 cm
80.398 48.699 m 80.949 48.699 l S Q
q 1 0 0 -1 0 216 cm
80.949 48.699 m 81.602 48.699 l S Q
q 1 0 0 -1 0 216 cm
81.602 48.699 m 82.148 48.699 l 82.148 50.25 l S Q
q 1 0 0 -1 0 216 cm
82.148 50.25 m 82.75 50.25 l S Q
q 1 0 0 -1 0 216 cm
82.75 50.25 m 83.352 50.25 l S Q
q 1 0 0 -1 0 216 cm
83.352 50.25 m 83.949 50.25 l S Q
q 1 0 0 -1 0 216 cm
83.949 50.25 m 84.551 50.25 l S Q
q 1 0 0 -1 0 216 cm
84.551 50.25 m 85.148 50.25 l 85.148 51.551 l S Q
q 1 0 0 -1 0 216 cm
85.148 51.551 m 85.75 51.551 l S Q
q 1 0 0 -1 0 216 cm
85.75 51.551 m 86.352 51.551 l S Q
q 1 0 0 -1 0 216 cm
86.352 51.551 m 86.949 51.551 l S Q
q 1 0 0 -1 0 216 cm
86.949 51.551 m 87.551 51.551 l S Q
q 1 0 0 -1 0 216 cm
87.551 51.551 m 88.148 51.551 l S Q
q 1 0 0 -1 0 216 cm
88.148 51.551 m 88.75 51.551 l S Q
q 1 0 0 -1 0 216 cm
88.75 51.551 m 89.352 51.551 l S Q
q 1 0 0 -1 0 216 cm
89.352 51.551 m 89.949 51.551 l S Q
q 1 0 0 -1 0 216 cm
89.949 51.551 m 90.602 51.551 l S Q
q 1 0 0 -1 0 216 cm
90.602 51.551 m 91.199 51.551 l 91.199 54.5 l S Q
q 1 0 0 -1 0 216 cm
91.199 54.5 m 91.801 54.5 l 91.801 56.301 l S Q
q 1 0 0 -1 0 216 cm
91.801 56.301 m 92.352 56.301 l S Q
q 1 0 0 -1 0 216 cm
92.352 56.301 m 92.949 56.301 l S Q
q 1 0 0 -1 0 216 cm
92.949 56.301 m 93.551 56.301 l S Q
q 1 0 0 -1 0 216 cm
93.551 56.301 m 94.148 56.301 l S Q
q 1 0 0 -1 0 216 cm
94.148 56.301 m 94.75 56.301 l S Q
q 1 0 0 -1 0 216 cm
94.75 56.301 m 95.352 56.301 l S Q
q 1 0 0 -1 0 216 cm
95.352 56.301 m 95.949 56.301 l 95.949 58.648 l S Q
q 1 0 0 -1 0 216 cm
95.949 58.648 m 96.5 58.648 l S Q
q 1 0 0 -1 0 216 cm
96.5 58.648 m 97.102 58.648 l 97.102 61.898 l S Q
q 1 0 0 -1 0 216 cm
97.102 61.898 m 97.699 61.898 l S Q
q 1 0 0 -1 0 216 cm
97.699 61.898 m 98.301 61.898 l 98.301 62 l S Q
q 1 0 0 -1 0 216 cm
98.301 62 m 98.898 62 l S Q
q 1 0 0 -1 0 216 cm
98.898 62 m 99.449 62 l S Q
q 1 0 0 -1 0 216 cm
99.449 62 m 100.051 62 l S Q
q 1 0 0 -1 0 216 cm
100.051 62 m 100.602 62 l S Q
q 1 0 0 -1 0 216 cm
100.602 62 m 101.199 62 l S Q
q 1 0 0 -1 0 216 cm
101.199 62 m 101.75 62 l S Q
q 1 0 0 -1 0 216 cm
101.75 62 m 102.398 62 l S Q
q 1 0 0 -1 0 216 cm
102.398 62 m 102.949 62 l S Q
q 1 0 0 -1 0 216 cm
102.949 62 m 103.551 62 l S Q
q 1 0 0 -1 0 216 cm
103.551 62 m 104.148 62 l S Q
q 1 0 0 -1 0 216 cm
104.148 62 m 104.699 62 l S Q
q 1 0 0 -1 0 216 cm
104.699 62 m 105.301 62 l S Q
q 1 0 0 -1 0 216 cm
105.301 62 m 105.898 62 l S Q
q 1 0 0 -1 0 216 cm
105.898 62 m 106.5 62 l S Q
q 1 0 0 -1 0 216 cm
106.5 62 m 107.102 62 l S Q
q 1 0 0 -1 0 216 cm
107.102 62 m 107.699 62 l S Q
q 1 0 0 -1 0 216 cm
107.699 62 m 108.301 62 l S Q
q 1 0 0 -1 0 216 cm
108.301 62 m 108.852 62 l S Q
q 1 0 0 -1 0 216 cm
108.852 62 m 109.449 62 l S Q
q 1 0 0 -1 0 216 cm
109.449 62 m 110.051 62 l S Q
q 1 0 0 -1 0 216 cm
110.051 62 m 110.602 62 l S Q
q 1 0 0 -1 0 216 cm
110.602 62 m 111.199 62 l S Q
q 1 0 0 -1 0 216 cm
111.199 62 m 111.801 62 l S Q
q 1 0 0 -1 0 216 cm
111.801 62 m 112.398 62 l S Q
q 1 0 0 -1 0 216 cm
112.398 62 m 113 62 l S Q
q 1 0 0 -1 0 216 cm
113 62 m 113.602 62 l S Q
q 1 0 0 -1 0 216 cm
113.602 62 m 114.199 62 l S Q
q 1 0 0 -1 0 216 cm
114.199 62 m 114.801 62 l S Q
q 1 0 0 -1 0 216 cm
114.801 62 m 115.398 62 l S Q
q 1 0 0 -1 0 216 cm
115.398 62 m 116 62 l S Q
q 1 0 0 -1 0 216 cm
116 62 m 116.551 62 l 116.551 62.602 l S Q
q 1 0 0 -1 0 216 cm
116.551 62.602 m 117.148 62.602 l S Q
q 1 0 0 -1 0 216 cm
117.148 62.602 m 117.699 62.602 l S Q
q 1 0 0 -1 0 216 cm
117.699 62.602 m 118.301 62.602 l S Q
q 1 0 0 -1 0 216 cm
118.301 62.602 m 118.852 62.602 l 118.852 64.852 l S Q
q 1 0 0 -1 0 216 cm
118.852 64.852 m 119.449 64.852 l S Q
q 1 0 0 -1 0 216 cm
119.449 64.852 m 120.051 64.852 l S Q
q 1 0 0 -1 0 216 cm
120.051 64.852 m 120.648 64.852 l 120.648 75.852 l S Q
q 1 0 0 -1 0 216 cm
120.648 75.852 m 121.25 75.852 l 121.25 86.898 l S Q
q 1 0 0 -1 0 216 cm
121.25 86.898 m 121.801 86.898 l 121.801 89.5 l S Q
q 1 0 0 -1 0 216 cm
121.801 89.5 m 122.398 89.5 l 122.398 91.551 l S Q
q 1 0 0 -1 0 216 cm
122.398 91.551 m 122.949 91.551 l 122.949 96.801 l S Q
q 1 0 0 -1 0 216 cm
122.949 96.801 m 123.602 96.801 l 123.602 97.301 l S Q
q 1 0 0 -1 0 216 cm
123.602 97.301 m 124.199 97.301 l 124.199 98 l S Q
q 1 0 0 -1 0 216 cm
124.199 98 m 124.75 98 l 124.75 100.199 l S Q
q 1 0 0 -1 0 216 cm
124.75 100.199 m 125.352 100.199 l S Q
q 1 0 0 -1 0 216 cm
125.352 100.199 m 125.898 100.199 l S Q
q 1 0 0 -1 0 216 cm
125.898 100.199 m 126.5 100.199 l S Q
q 1 0 0 -1 0 216 cm
126.5 100.199 m 127.051 100.199 l S Q
q 1 0 0 -1 0 216 cm
127.051 100.199 m 127.648 100.199 l 127.648 102.102 l S Q
q 1 0 0 -1 0 216 cm
127.648 102.102 m 128.199 102.102 l S Q
q 1 0 0 -1 0 216 cm
128.199 102.102 m 128.801 102.102 l S Q
q 1 0 0 -1 0 216 cm
128.801 102.102 m 129.352 102.102 l S Q
q 1 0 0 -1 0 216 cm
129.352 102.102 m 129.898 102.102 l S Q
q 1 0 0 -1 0 216 cm
129.898 102.102 m 130.5 102.102 l S Q
q 1 0 0 -1 0 216 cm
130.5 102.102 m 131.102 102.102 l 131.102 106.648 l S Q
q 1 0 0 -1 0 216 cm
131.102 106.648 m 131.699 106.648 l 131.699 110 l S Q
q 1 0 0 -1 0 216 cm
131.699 110 m 132.25 110 l S Q
q 1 0 0 -1 0 216 cm
132.25 110 m 132.852 110 l S Q
q 1 0 0 -1 0 216 cm
132.852 110 m 133.398 110 l 133.398 110.25 l S Q
q 1 0 0 -1 0 216 cm
133.398 110.25 m 134 110.25 l S Q
q 1 0 0 -1 0 216 cm
134 110.25 m 134.602 110.25 l 134.602 110.648 l S Q
q 1 0 0 -1 0 216 cm
134.602 110.648 m 135.199 110.648 l S Q
q 1 0 0 -1 0 216 cm
135.199 110.648 m 135.75 110.648 l 135.75 112.25 l S Q
q 1 0 0 -1 0 216 cm
135.75 112.25 m 136.352 112.25 l 136.352 112.602 l S Q
q 1 0 0 -1 0 216 cm
136.352 112.602 m 136.949 112.602 l S Q
q 1 0 0 -1 0 216 cm
136.949 112.602 m 137.5 112.602 l S Q
q 1 0 0 -1 0 216 cm
137.5 112.602 m 138.102 112.602 l S Q
q 1 0 0 -1 0 216 cm
138.102 112.602 m 138.648 112.602 l S Q
q 1 0 0 -1 0 216 cm
138.648 112.602 m 139.25 112.602 l S Q
q 1 0 0 -1 0 216 cm
139.25 112.602 m 139.852 112.602 l S Q
q 1 0 0 -1 0 216 cm
139.852 112.602 m 140.398 112.602 l S Q
q 1 0 0 -1 0 216 cm
140.398 112.602 m 141 112.602 l 141 113.301 l S Q
q 1 0 0 -1 0 216 cm
141 113.301 m 141.602 113.301 l S Q
q 1 0 0 -1 0 216 cm
141.602 113.301 m 142.148 113.301 l S Q
q 1 0 0 -1 0 216 cm
142.148 113.301 m 142.75 113.301 l 142.75 113.898 l S Q
q 1 0 0 -1 0 216 cm
142.75 113.898 m 143.352 113.898 l S Q
q 1 0 0 -1 0 216 cm
143.352 113.898 m 143.898 113.898 l S Q
q 1 0 0 -1 0 216 cm
143.898 113.898 m 144.5 113.898 l 144.5 114.199 l S Q
q 1 0 0 -1 0 216 cm
144.5 114.199 m 145.051 114.199 l 145.051 114.75 l S Q
q 1 0 0 -1 0 216 cm
145.051 114.75 m 145.648 114.75 l S Q
q 1 0 0 -1 0 216 cm
145.648 114.75 m 146.199 114.75 l 146.199 116.898 l S Q
q 1 0 0 -1 0 216 cm
146.199 116.898 m 146.801 116.898 l 146.801 117.75 l S Q
q 1 0 0 -1 0 216 cm
146.801 117.75 m 147.398 117.75 l S Q
q 1 0 0 -1 0 216 cm
147.398 117.75 m 148 117.75 l S Q
q 1 0 0 -1 0 216 cm
148 117.75 m 148.602 117.75 l S Q
q 1 0 0 -1 0 216 cm
148.602 117.75 m 149.199 117.75 l S Q
q 1 0 0 -1 0 216 cm
149.199 117.75 m 149.75 117.75 l S Q
q 1 0 0 -1 0 216 cm
149.75 117.75 m 150.301 117.75 l S Q
q 1 0 0 -1 0 216 cm
150.301 117.75 m 150.898 117.75 l S Q
q 1 0 0 -1 0 216 cm
150.898 117.75 m 151.449 117.75 l S Q
q 1 0 0 -1 0 216 cm
151.449 117.75 m 152.051 117.75 l S Q
q 1 0 0 -1 0 216 cm
152.051 117.75 m 152.602 117.75 l 152.602 120.699 l S Q
q 1 0 0 -1 0 216 cm
152.602 120.699 m 153.199 120.699 l S Q
q 1 0 0 -1 0 216 cm
153.199 120.699 m 153.75 120.699 l S Q
q 1 0 0 -1 0 216 cm
153.75 120.699 m 154.352 120.699 l S Q
q 1 0 0 -1 0 216 cm
154.352 120.699 m 154.898 120.699 l S Q
q 1 0 0 -1 0 216 cm
154.898 120.699 m 155.5 120.699 l S Q
q 1 0 0 -1 0 216 cm
155.5 120.699 m 156.102 120.699 l 156.102 120.949 l S Q
q 1 0 0 -1 0 216 cm
156.102 120.949 m 156.699 120.949 l S Q
q 1 0 0 -1 0 216 cm
156.699 120.949 m 157.301 120.949 l S Q
q 1 0 0 -1 0 216 cm
157.301 120.949 m 157.852 120.949 l S Q
q 1 0 0 -1 0 216 cm
157.852 120.949 m 158.449 120.949 l S Q
q 1 0 0 -1 0 216 cm
158.449 120.949 m 159.051 120.949 l S Q
q 1 0 0 -1 0 216 cm
159.051 120.949 m 159.648 120.949 l S Q
q 1 0 0 -1 0 216 cm
159.648 120.949 m 160.25 120.949 l S Q
q 1 0 0 -1 0 216 cm
160.25 120.949 m 160.852 120.949 l S Q
q 1 0 0 -1 0 216 cm
160.852 120.949 m 161.449 120.949 l S Q
q 1 0 0 -1 0 216 cm
161.449 120.949 m 162.051 120.949 l 162.051 121.199 l S Q
q 1 0 0 -1 0 216 cm
162.051 121.199 m 162.648 121.199 l S Q
q 1 0 0 -1 0 216 cm
162.648 121.199 m 163.199 121.199 l 163.199 121.449 l S Q
q 1 0 0 -1 0 216 cm
163.199 121.449 m 163.801 121.449 l S Q
q 1 0 0 -1 0 216 cm
163.801 121.449 m 164.398 121.449 l S Q
q 1 0 0 -1 0 216 cm
164.398 121.449 m 164.949 121.449 l S Q
q 1 0 0 -1 0 216 cm
164.949 121.449 m 165.551 121.449 l S Q
q 1 0 0 -1 0 216 cm
165.551 121.449 m 166.148 121.449 l S Q
q 1 0 0 -1 0 216 cm
166.148 121.449 m 166.699 121.449 l S Q
q 1 0 0 -1 0 216 cm
166.699 121.449 m 167.301 121.449 l 167.301 121.949 l S Q
q 1 0 0 -1 0 216 cm
167.301 121.949 m 167.898 121.949 l S Q
q 1 0 0 -1 0 216 cm
167.898 121.949 m 168.449 121.949 l S Q
q 1 0 0 -1 0 216 cm
168.449 121.949 m 169.102 121.949 l S Q
q 1 0 0 -1 0 216 cm
169.102 121.949 m 169.648 121.949 l S Q
q 1 0 0 -1 0 216 cm
169.648 121.949 m 170.25 121.949 l S Q
q 1 0 0 -1 0 216 cm
170.25 121.949 m 170.801 121.949 l S Q
q 1 0 0 -1 0 216 cm
170.801 121.949 m 171.398 121.949 l S Q
q 1 0 0 -1 0 216 cm
171.398 121.949 m 171.949 121.949 l S Q
q 1 0 0 -1 0 216 cm
171.949 121.949 m 172.5 121.949 l S Q
q 1 0 0 -1 0 216 cm
172.5 121.949 m 173.102 121.949 l S Q
q 1 0 0 -1 0 216 cm
173.102 121.949 m 173.648 121.949 l S Q
q 1 0 0 -1 0 216 cm
173.648 121.949 m 174.199 121.949 l S Q
q 1 0 0 -1 0 216 cm
174.199 121.949 m 174.801 121.949 l S Q
q 1 0 0 -1 0 216 cm
174.801 121.949 m 175.398 121.949 l S Q
q 1 0 0 -1 0 216 cm
175.398 121.949 m 176 121.949 l 176 122.102 l S Q
q 1 0 0 -1 0 216 cm
176 122.102 m 176.551 122.102 l S Q
q 1 0 0 -1 0 216 cm
176.551 122.102 m 177.148 122.102 l S Q
q 1 0 0 -1 0 216 cm
177.148 122.102 m 177.75 122.102 l 177.75 123.051 l S Q
q 1 0 0 -1 0 216 cm
177.75 123.051 m 178.352 123.051 l S Q
q 1 0 0 -1 0 216 cm
178.352 123.051 m 178.898 123.051 l S Q
q 1 0 0 -1 0 216 cm
178.898 123.051 m 179.5 123.051 l S Q
q 1 0 0 -1 0 216 cm
179.5 123.051 m 180.102 123.051 l S Q
q 1 0 0 -1 0 216 cm
180.102 123.051 m 180.699 123.051 l 180.699 124.551 l S Q
q 1 0 0 -1 0 216 cm
180.699 124.551 m 181.301 124.551 l S Q
q 1 0 0 -1 0 216 cm
181.301 124.551 m 181.852 124.551 l S Q
q 1 0 0 -1 0 216 cm
181.852 124.551 m 182.449 124.551 l S Q
q 1 0 0 -1 0 216 cm
182.449 124.551 m 183.051 124.551 l S Q
q 1 0 0 -1 0 216 cm
183.051 124.551 m 183.648 124.551 l S Q
q 1 0 0 -1 0 216 cm
183.648 124.551 m 184.199 124.551 l 184.199 124.699 l S Q
q 1 0 0 -1 0 216 cm
184.199 124.699 m 184.801 124.699 l S Q
q 1 0 0 -1 0 216 cm
184.801 124.699 m 185.398 124.699 l 185.398 124.949 l S Q
q 1 0 0 -1 0 216 cm
185.398 124.949 m 186 124.949 l S Q
q 1 0 0 -1 0 216 cm
186 124.949 m 186.602 124.949 l S Q
q 1 0 0 -1 0 216 cm
186.602 124.949 m 187.148 124.949 l S Q
q 1 0 0 -1 0 216 cm
187.148 124.949 m 187.75 124.949 l S Q
q 1 0 0 -1 0 216 cm
187.75 124.949 m 188.352 124.949 l S Q
q 1 0 0 -1 0 216 cm
188.352 124.949 m 188.949 124.949 l S Q
q 1 0 0 -1 0 216 cm
188.949 124.949 m 189.551 124.949 l S Q
q 1 0 0 -1 0 216 cm
189.551 124.949 m 190.102 124.949 l S Q
q 1 0 0 -1 0 216 cm
190.102 124.949 m 190.699 124.949 l S Q
q 1 0 0 -1 0 216 cm
190.699 124.949 m 191.301 124.949 l S Q
q 1 0 0 -1 0 216 cm
191.301 124.949 m 191.852 124.949 l S Q
q 1 0 0 -1 0 216 cm
191.852 124.949 m 192.398 124.949 l S Q
q 1 0 0 -1 0 216 cm
192.398 124.949 m 193 124.949 l S Q
q 1 0 0 -1 0 216 cm
193 124.949 m 193.602 124.949 l S Q
q 1 0 0 -1 0 216 cm
193.602 124.949 m 194.199 124.949 l S Q
q 1 0 0 -1 0 216 cm
194.199 124.949 m 194.801 124.949 l S Q
q 1 0 0 -1 0 216 cm
194.801 124.949 m 195.398 124.949 l S Q
q 1 0 0 -1 0 216 cm
195.398 124.949 m 195.949 124.949 l S Q
q 1 0 0 -1 0 216 cm
195.949 124.949 m 196.551 124.949 l S Q
q 1 0 0 -1 0 216 cm
196.551 124.949 m 197.199 124.949 l S Q
q 1 0 0 -1 0 216 cm
197.199 124.949 m 197.75 124.949 l S Q
q 1 0 0 -1 0 216 cm
197.75 124.949 m 198.352 124.949 l S Q
q 1 0 0 -1 0 216 cm
198.352 124.949 m 198.949 124.949 l S Q
q 1 0 0 -1 0 216 cm
198.949 124.949 m 199.5 124.949 l S Q
q 1 0 0 -1 0 216 cm
199.5 124.949 m 200.102 124.949 l S Q
q 1 0 0 -1 0 216 cm
200.102 124.949 m 200.699 124.949 l S Q
q 1 0 0 -1 0 216 cm
200.699 124.949 m 201.301 124.949 l S Q
q 1 0 0 -1 0 216 cm
201.301 124.949 m 201.898 124.949 l S Q
q 1 0 0 -1 0 216 cm
201.898 124.949 m 202.5 124.949 l S Q
q 1 0 0 -1 0 216 cm
202.5 124.949 m 203.051 124.949 l S Q
q 1 0 0 -1 0 216 cm
203.051 124.949 m 203.648 124.949 l S Q
q 1 0 0 -1 0 216 cm
203.648 124.949 m 204.25 124.949 l S Q
q 1 0 0 -1 0 216 cm
204.25 124.949 m 204.852 124.949 l S Q
q 1 0 0 -1 0 216 cm
204.852 124.949 m 205.449 124.949 l 205.449 125.102 l S Q
q 1 0 0 -1 0 216 cm
205.449 125.102 m 206.051 125.102 l 206.051 125.852 l S Q
q 1 0 0 -1 0 216 cm
206.051 125.852 m 206.648 125.852 l 206.648 128.5 l S Q
q 1 0 0 -1 0 216 cm
206.648 128.5 m 207.199 128.5 l S Q
q 1 0 0 -1 0 216 cm
207.199 128.5 m 207.801 128.5 l S Q
q 1 0 0 -1 0 216 cm
207.801 128.5 m 208.398 128.5 l 208.398 128.898 l S Q
q 1 0 0 -1 0 216 cm
208.398 128.898 m 209 128.898 l 209 129.551 l S Q
q 1 0 0 -1 0 216 cm
209 129.551 m 209.551 129.551 l 209.551 133.75 l S Q
q 1 0 0 -1 0 216 cm
209.551 133.75 m 210.148 133.75 l S Q
q 1 0 0 -1 0 216 cm
210.148 133.75 m 210.75 133.75 l S Q
q 1 0 0 -1 0 216 cm
210.75 133.75 m 211.352 133.75 l 211.352 134.699 l S Q
q 1 0 0 -1 0 216 cm
211.352 134.699 m 211.949 134.699 l S Q
q 1 0 0 -1 0 216 cm
211.949 134.699 m 212.5 134.699 l 212.5 134.898 l S Q
q 1 0 0 -1 0 216 cm
212.5 134.898 m 213.102 134.898 l S Q
q 1 0 0 -1 0 216 cm
213.102 134.898 m 213.648 134.898 l S Q
q 1 0 0 -1 0 216 cm
213.648 134.898 m 214.25 134.898 l 214.25 136.5 l S Q
q 1 0 0 -1 0 216 cm
214.25 136.5 m 214.801 136.5 l S Q
q 1 0 0 -1 0 216 cm
214.801 136.5 m 215.398 136.5 l S Q
q 1 0 0 -1 0 216 cm
215.398 136.5 m 215.949 136.5 l S Q
q 1 0 0 -1 0 216 cm
215.949 136.5 m 216.5 136.5 l 216.5 136.75 l S Q
q 1 0 0 -1 0 216 cm
216.5 136.75 m 217.102 136.75 l 217.102 137.551 l S Q
q 1 0 0 -1 0 216 cm
217.102 137.551 m 217.699 137.551 l 217.699 138.352 l S Q
q 1 0 0 -1 0 216 cm
217.699 138.352 m 218.25 138.352 l S Q
q 1 0 0 -1 0 216 cm
218.25 138.352 m 218.801 138.352 l S Q
q 1 0 0 -1 0 216 cm
218.801 138.352 m 219.398 138.352 l 219.398 138.75 l S Q
q 1 0 0 -1 0 216 cm
219.398 138.75 m 219.949 138.75 l 219.949 139.25 l S Q
q 1 0 0 -1 0 216 cm
219.949 139.25 m 220.551 139.25 l 220.551 142.852 l S Q
q 1 0 0 -1 0 216 cm
220.551 142.852 m 221.148 142.852 l S Q
q 1 0 0 -1 0 216 cm
221.148 142.852 m 221.699 142.852 l S Q
q 1 0 0 -1 0 216 cm
221.699 142.852 m 222.25 142.852 l S Q
q 1 0 0 -1 0 216 cm
222.25 142.852 m 222.852 142.852 l S Q
q 1 0 0 -1 0 216 cm
222.852 142.852 m 223.398 142.852 l S Q
q 1 0 0 -1 0 216 cm
223.398 142.852 m 224 142.852 l 224 143.102 l S Q
q 1 0 0 -1 0 216 cm
224 143.102 m 224.551 143.102 l S Q
q 1 0 0 -1 0 216 cm
224.551 143.102 m 225.148 143.102 l S Q
q 1 0 0 -1 0 216 cm
225.148 143.102 m 225.75 143.102 l S Q
q 1 0 0 -1 0 216 cm
225.75 143.102 m 226.352 143.102 l S Q
q 1 0 0 -1 0 216 cm
226.352 143.102 m 226.898 143.102 l S Q
q 1 0 0 -1 0 216 cm
226.898 143.102 m 227.5 143.102 l S Q
q 1 0 0 -1 0 216 cm
227.5 143.102 m 228.051 143.102 l S Q
q 1 0 0 -1 0 216 cm
228.051 143.102 m 228.648 143.102 l S Q
q 1 0 0 -1 0 216 cm
228.648 143.102 m 229.199 143.102 l S Q
q 1 0 0 -1 0 216 cm
229.199 143.102 m 229.801 143.102 l S Q
q 1 0 0 -1 0 216 cm
229.801 143.102 m 230.352 143.102 l S Q
q 1 0 0 -1 0 216 cm
230.352 143.102 m 230.949 143.102 l S Q
q 1 0 0 -1 0 216 cm
230.949 143.102 m 231.5 143.102 l S Q
q 1 0 0 -1 0 216 cm
231.5 143.102 m 232.102 143.102 l S Q
q 1 0 0 -1 0 216 cm
232.102 143.102 m 232.699 143.102 l S Q
q 1 0 0 -1 0 216 cm
232.699 143.102 m 233.25 143.102 l S Q
q 1 0 0 -1 0 216 cm
233.25 143.102 m 233.852 143.102 l S Q
q 1 0 0 -1 0 216 cm
233.852 143.102 m 234.398 143.102 l 234.398 143.199 l S Q
q 1 0 0 -1 0 216 cm
234.398 143.199 m 235 143.199 l S Q
q 1 0 0 -1 0 216 cm
235 143.199 m 235.551 143.199 l S Q
q 1 0 0 -1 0 216 cm
235.551 143.199 m 236.102 143.199 l S Q
q 1 0 0 -1 0 216 cm
236.102 143.199 m 236.699 143.199 l S Q
q 1 0 0 -1 0 216 cm
236.699 143.199 m 237.25 143.199 l S Q
q 1 0 0 -1 0 216 cm
237.25 143.199 m 237.801 143.199 l S Q
q 1 0 0 -1 0 216 cm
237.801 143.199 m 238.398 143.199 l S Q
q 1 0 0 -1 0 216 cm
238.398 143.199 m 239 143.199 l S Q
q 1 0 0 -1 0 216 cm
239 143.199 m 239.551 143.199 l S Q
q 1 0 0 -1 0 216 cm
239.551 143.199 m 240.148 143.199 l S Q
q 1 0 0 -1 0 216 cm
240.148 143.199 m 240.699 143.199 l S Q
q 1 0 0 -1 0 216 cm
240.699 143.199 m 241.25 143.199 l S Q
q 1 0 0 -1 0 216 cm
241.25 143.199 m 241.801 143.199 l S Q
q 1 0 0 -1 0 216 cm
241.801 143.199 m 242.398 143.199 l S Q
q 1 0 0 -1 0 216 cm
242.398 143.199 m 243 143.199 l S Q
q 1 0 0 -1 0 216 cm
243 143.199 m 243.551 143.199 l S Q
q 1 0 0 -1 0 216 cm
243.551 143.199 m 244.148 143.199 l S Q
q 1 0 0 -1 0 216 cm
244.148 143.199 m 244.699 143.199 l S Q
q 1 0 0 -1 0 216 cm
244.699 143.199 m 245.301 143.199 l S Q
q 1 0 0 -1 0 216 cm
245.301 143.199 m 245.852 143.199 l S Q
q 1 0 0 -1 0 216 cm
245.852 143.199 m 246.449 143.199 l S Q
q 1 0 0 -1 0 216 cm
246.449 143.199 m 247.051 143.199 l S Q
q 1 0 0 -1 0 216 cm
247.051 143.199 m 247.602 143.199 l S Q
q 1 0 0 -1 0 216 cm
247.602 143.199 m 248.148 143.199 l S Q
q 1 0 0 -1 0 216 cm
248.148 143.199 m 248.75 143.199 l S Q
q 1 0 0 -1 0 216 cm
248.75 143.199 m 249.301 143.199 l S Q
q 1 0 0 -1 0 216 cm
249.301 143.199 m 249.898 143.199 l S Q
q 1 0 0 -1 0 216 cm
249.898 143.199 m 250.449 143.199 l S Q
q 1 0 0 -1 0 216 cm
250.449 143.199 m 251.051 143.199 l S Q
q 1 0 0 -1 0 216 cm
251.051 143.199 m 251.602 143.199 l S Q
q 1 0 0 -1 0 216 cm
251.602 143.199 m 252.199 143.199 l S Q
q 1 0 0 -1 0 216 cm
252.199 143.199 m 252.75 143.199 l S Q
q 1 0 0 -1 0 216 cm
252.75 143.199 m 253.352 143.199 l S Q
q 1 0 0 -1 0 216 cm
253.352 143.199 m 253.898 143.199 l S Q
q 1 0 0 -1 0 216 cm
253.898 143.199 m 254.449 143.199 l S Q
q 1 0 0 -1 0 216 cm
254.449 143.199 m 255.051 143.199 l S Q
q 1 0 0 -1 0 216 cm
255.051 143.199 m 255.648 143.199 l S Q
q 1 0 0 -1 0 216 cm
255.648 143.199 m 256.199 143.199 l S Q
q 1 0 0 -1 0 216 cm
256.199 143.199 m 256.801 143.199 l S Q
q 1 0 0 -1 0 216 cm
256.801 143.199 m 257.398 143.199 l S Q
q 1 0 0 -1 0 216 cm
257.398 143.199 m 258 143.199 l S Q
q 1 0 0 -1 0 216 cm
258 143.199 m 258.602 143.199 l S Q
q 1 0 0 -1 0 216 cm
258.602 143.199 m 259.148 143.199 l S Q
q 1 0 0 -1 0 216 cm
259.148 143.199 m 259.75 143.199 l S Q
q 1 0 0 -1 0 216 cm
259.75 143.199 m 260.301 143.199 l S Q
q 1 0 0 -1 0 216 cm
260.301 143.199 m 260.898 143.199 l S Q
q 1 0 0 -1 0 216 cm
260.898 143.199 m 261.449 143.199 l S Q
q 1 0 0 -1 0 216 cm
261.449 143.199 m 262.051 143.199 l S Q
q 1 0 0 -1 0 216 cm
262.051 143.199 m 262.602 143.199 l S Q
q 1 0 0 -1 0 216 cm
262.602 143.199 m 263.199 143.199 l S Q
q 1 0 0 -1 0 216 cm
263.199 143.199 m 263.801 143.199 l S Q
q 1 0 0 -1 0 216 cm
263.801 143.199 m 264.398 143.199 l S Q
q 1 0 0 -1 0 216 cm
264.398 143.199 m 265 143.199 l S Q
q 1 0 0 -1 0 216 cm
265 143.199 m 265.602 143.199 l S Q
q 1 0 0 -1 0 216 cm
265.602 143.199 m 266.148 143.199 l S Q
q 1 0 0 -1 0 216 cm
266.148 143.199 m 266.75 143.199 l S Q
q 1 0 0 -1 0 216 cm
266.75 143.199 m 267.301 143.199 l S Q
q 1 0 0 -1 0 216 cm
267.301 143.199 m 267.898 143.199 l S Q
q 1 0 0 -1 0 216 cm
267.898 143.199 m 268.449 143.199 l 268.449 143.352 l S Q
q 1 0 0 -1 0 216 cm
268.449 143.352 m 269 143.352 l 269 144.148 l S Q
q 1 0 0 -1 0 216 cm
269 144.148 m 269.551 144.148 l S Q
q 1 0 0 -1 0 216 cm
269.551 144.148 m 270.148 144.148 l S Q
q 1 0 0 -1 0 216 cm
270.148 144.148 m 270.699 144.148 l 270.699 144.551 l S Q
q 1 0 0 -1 0 216 cm
270.699 144.551 m 271.301 144.551 l S Q
q 1 0 0 -1 0 216 cm
271.301 144.551 m 271.852 144.551 l S Q
q 1 0 0 -1 0 216 cm
271.852 144.551 m 272.449 144.551 l S Q
q 1 0 0 -1 0 216 cm
272.449 144.551 m 273 144.551 l S Q
q 1 0 0 -1 0 216 cm
273 144.551 m 273.551 144.551 l S Q
q 1 0 0 -1 0 216 cm
273.551 144.551 m 274.148 144.551 l S Q
q 1 0 0 -1 0 216 cm
274.148 144.551 m 274.699 144.551 l S Q
q 1 0 0 -1 0 216 cm
274.699 144.551 m 275.301 144.551 l S Q
q 1 0 0 -1 0 216 cm
275.301 144.551 m 275.898 144.551 l S Q
q 1 0 0 -1 0 216 cm
275.898 144.551 m 276.5 144.551 l S Q
q 1 0 0 -1 0 216 cm
276.5 144.551 m 277.102 144.551 l S Q
q 1 0 0 -1 0 216 cm
277.102 144.551 m 277.699 144.551 l S Q
q 1 0 0 -1 0 216 cm
277.699 144.551 m 278.25 144.551 l S Q
q 1 0 0 -1 0 216 cm
278.25 144.551 m 278.852 144.551 l S Q
q 1 0 0 -1 0 216 cm
278.852 144.551 m 279.398 144.551 l S Q
q 1 0 0 -1 0 216 cm
279.398 144.551 m 280 144.551 l S Q
q 1 0 0 -1 0 216 cm
280 144.551 m 280.551 144.551 l S Q
q 1 0 0 -1 0 216 cm
280.551 144.551 m 281.148 144.551 l S Q
q 1 0 0 -1 0 216 cm
281.148 144.551 m 281.699 144.551 l S Q
q 1 0 0 -1 0 216 cm
281.699 144.551 m 282.25 144.551 l S Q
q 1 0 0 -1 0 216 cm
282.25 144.551 m 282.852 144.551 l S Q
q 1 0 0 -1 0 216 cm
282.852 144.551 m 283.398 144.551 l S Q
q 1 0 0 -1 0 216 cm
283.398 144.551 m 283.949 144.551 l S Q
q 1 0 0 -1 0 216 cm
283.949 144.551 m 284.551 144.551 l S Q
q 1 0 0 -1 0 216 cm
284.551 144.551 m 285.148 144.551 l S Q
q 1 0 0 -1 0 216 cm
285.148 144.551 m 285.75 144.551 l S Q
q 1 0 0 -1 0 216 cm
285.75 144.551 m 286.301 144.551 l S Q
q 1 0 0 -1 0 216 cm
286.301 144.551 m 286.898 144.551 l S Q
q 1 0 0 -1 0 216 cm
286.898 144.551 m 287.5 144.551 l S Q
q 1 0 0 -1 0 216 cm
287.5 144.551 m 288.102 144.551 l S Q
q 1 0 0 -1 0 216 cm
288.102 144.551 m 288.648 144.551 l S Q
q 1 0 0 -1 0 216 cm
288.648 144.551 m 289.25 144.551 l S Q
q 1 0 0 -1 0 216 cm
289.25 144.551 m 289.852 144.551 l S Q
q 1 0 0 -1 0 216 cm
289.852 144.551 m 290.398 144.551 l S Q
q 1 0 0 -1 0 216 cm
290.398 144.551 m 291 144.551 l S Q
q 1 0 0 -1 0 216 cm
291 144.551 m 291.551 144.551 l S Q
q 1 0 0 -1 0 216 cm
291.551 144.551 m 292.148 144.551 l S Q
q 1 0 0 -1 0 216 cm
292.148 144.551 m 292.699 144.551 l S Q
q 1 0 0 -1 0 216 cm
292.699 144.551 m 293.301 144.551 l S Q
q 1 0 0 -1 0 216 cm
293.301 144.551 m 293.898 144.551 l S Q
q 1 0 0 -1 0 216 cm
293.898 144.551 m 294.449 144.551 l S Q
q 1 0 0 -1 0 216 cm
294.449 144.551 m 295.051 144.551 l S Q
q 1 0 0 -1 0 216 cm
295.051 144.551 m 295.602 144.551 l S Q
q 1 0 0 -1 0 216 cm
295.602 144.551 m 296.199 144.551 l S Q
q 1 0 0 -1 0 216 cm
296.199 144.551 m 296.801 144.551 l S Q
q 1 0 0 -1 0 216 cm
296.801 144.551 m 297.352 144.551 l S Q
q 1 0 0 -1 0 216 cm
297.352 144.551 m 297.949 144.551 l S Q
q 1 0 0 -1 0 216 cm
297.949 144.551 m 298.5 144.551 l S Q
q 1 0 0 -1 0 216 cm
298.5 144.551 m 299.102 144.551 l S Q
q 1 0 0 -1 0 216 cm
299.102 144.551 m 299.648 144.551 l S Q
q 1 0 0 -1 0 216 cm
299.648 144.551 m 300.25 144.551 l S Q
q 1 0 0 -1 0 216 cm
300.25 144.551 m 300.801 144.551 l S Q
q 1 0 0 -1 0 216 cm
300.801 144.551 m 301.352 144.551 l S Q
q 1 0 0 -1 0 216 cm
301.352 144.551 m 301.949 144.551 l S Q
q 1 0 0 -1 0 216 cm
301.949 144.551 m 302.5 144.551 l S Q
q 1 0 0 -1 0 216 cm
302.5 144.551 m 303.102 144.551 l S Q
q 1 0 0 -1 0 216 cm
303.102 144.551 m 303.648 144.551 l S Q
q 1 0 0 -1 0 216 cm
303.648 144.551 m 304.25 144.551 l 304.25 144.801 l S Q
q 1 0 0 -1 0 216 cm
304.25 144.801 m 304.852 144.801 l S Q
q 1 0 0 -1 0 216 cm
304.852 144.801 m 305.398 144.801 l S Q
q 1 0 0 -1 0 216 cm
305.398 144.801 m 306 144.801 l S Q
q 1 0 0 -1 0 216 cm
306 144.801 m 306.602 144.801 l S Q
q 1 0 0 -1 0 216 cm
306.602 144.801 m 307.148 144.801 l S Q
q 1 0 0 -1 0 216 cm
307.148 144.801 m 307.75 144.801 l S Q
q 1 0 0 -1 0 216 cm
307.75 144.801 m 308.301 144.801 l S Q
q 1 0 0 -1 0 216 cm
308.301 144.801 m 308.852 144.801 l 308.852 144.949 l S Q
q 1 0 0 -1 0 216 cm
308.852 144.949 m 309.449 144.949 l S Q
q 1 0 0 -1 0 216 cm
309.449 144.949 m 310 144.949 l S Q
q 1 0 0 -1 0 216 cm
310 144.949 m 310.551 144.949 l S Q
q 1 0 0 -1 0 216 cm
310.551 144.949 m 311.102 144.949 l S Q
q 1 0 0 -1 0 216 cm
311.102 144.949 m 311.699 144.949 l S Q
q 1 0 0 -1 0 216 cm
311.699 144.949 m 312.25 144.949 l S Q
q 1 0 0 -1 0 216 cm
312.25 144.949 m 312.852 144.949 l S Q
q 1 0 0 -1 0 216 cm
312.852 144.949 m 313.398 144.949 l S Q
q 1 0 0 -1 0 216 cm
313.398 144.949 m 313.949 144.949 l S Q
q 1 0 0 -1 0 216 cm
313.949 144.949 m 314.551 144.949 l S Q
q 1 0 0 -1 0 216 cm
314.551 144.949 m 315.148 144.949 l S Q
q 1 0 0 -1 0 216 cm
315.148 144.949 m 315.699 144.949 l S Q
q 1 0 0 -1 0 216 cm
315.699 144.949 m 316.301 144.949 l S Q
q 1 0 0 -1 0 216 cm
316.301 144.949 m 316.852 144.949 l S Q
q 1 0 0 -1 0 216 cm
316.852 144.949 m 317.449 144.949 l S Q
q 1 0 0 -1 0 216 cm
317.449 144.949 m 318.051 144.949 l S Q
q 1 0 0 -1 0 216 cm
318.051 144.949 m 318.648 144.949 l S Q
q 1 0 0 -1 0 216 cm
318.648 144.949 m 319.199 144.949 l S Q
q 1 0 0 -1 0 216 cm
319.199 144.949 m 319.801 144.949 l S Q
q 1 0 0 -1 0 216 cm
319.801 144.949 m 320.352 144.949 l S Q
q 1 0 0 -1 0 216 cm
320.352 144.949 m 320.949 144.949 l S Q
q 1 0 0 -1 0 216 cm
320.949 144.949 m 321.551 144.949 l S Q
q 1 0 0 -1 0 216 cm
321.551 144.949 m 322.102 144.949 l S Q
q 1 0 0 -1 0 216 cm
322.102 144.949 m 322.699 144.949 l S Q
q 1 0 0 -1 0 216 cm
322.699 144.949 m 323.301 144.949 l S Q
q 1 0 0 -1 0 216 cm
323.301 144.949 m 323.852 144.949 l S Q
q 1 0 0 -1 0 216 cm
323.852 144.949 m 324.449 144.949 l S Q
q 1 0 0 -1 0 216 cm
324.449 144.949 m 325 144.949 l S Q
q 1 0 0 -1 0 216 cm
325 144.949 m 325.602 144.949 l S Q
q 1 0 0 -1 0 216 cm
325.602 144.949 m 326.148 144.949 l S Q
q 1 0 0 -1 0 216 cm
326.148 144.949 m 326.75 144.949 l S Q
q 1 0 0 -1 0 216 cm
326.75 144.949 m 327.301 144.949 l S Q
q 1 0 0 -1 0 216 cm
327.301 144.949 m 327.898 144.949 l S Q
q 1 0 0 -1 0 216 cm
327.898 144.949 m 328.449 144.949 l S Q
q 1 0 0 -1 0 216 cm
328.449 144.949 m 329.051 144.949 l S Q
q 1 0 0 -1 0 216 cm
329.051 144.949 m 329.648 144.949 l S Q
q 1 0 0 -1 0 216 cm
329.648 144.949 m 330.25 144.949 l S Q
q 1 0 0 -1 0 216 cm
330.25 144.949 m 330.801 144.949 l S Q
q 1 0 0 -1 0 216 cm
330.801 144.949 m 331.398 144.949 l S Q
q 1 0 0 -1 0 216 cm
331.398 144.949 m 331.949 144.949 l S Q
q 1 0 0 -1 0 216 cm
331.949 144.949 m 332.551 144.949 l S Q
q 1 0 0 -1 0 216 cm
332.551 144.949 m 333.102 144.949 l S Q
q 1 0 0 -1 0 216 cm
333.102 144.949 m 333.699 144.949 l S Q
q 1 0 0 -1 0 216 cm
333.699 144.949 m 334.25 144.949 l S Q
q 1 0 0 -1 0 216 cm
334.25 144.949 m 334.852 144.949 l S Q
q 1 0 0 -1 0 216 cm
334.852 144.949 m 335.449 144.949 l S Q
q 1 0 0 -1 0 216 cm
335.449 144.949 m 336.051 144.949 l S Q
q 1 0 0 -1 0 216 cm
336.051 144.949 m 336.602 144.949 l S Q
q 1 0 0 -1 0 216 cm
336.602 144.949 m 337.199 144.949 l S Q
q 1 0 0 -1 0 216 cm
337.199 144.949 m 337.801 144.949 l S Q
q 1 0 0 -1 0 216 cm
337.801 144.949 m 338.352 144.949 l S Q
q 1 0 0 -1 0 216 cm
338.352 144.949 m 338.949 144.949 l S Q
q 1 0 0 -1 0 216 cm
338.949 144.949 m 339.551 144.949 l S Q
q 1 0 0 -1 0 216 cm
339.551 144.949 m 340.148 144.949 l S Q
q 1 0 0 -1 0 216 cm
340.148 144.949 m 340.699 144.949 l S Q
q 1 0 0 -1 0 216 cm
340.699 144.949 m 341.301 144.949 l S Q
q 1 0 0 -1 0 216 cm
341.301 144.949 m 341.898 144.949 l S Q
q 1 0 0 -1 0 216 cm
341.898 144.949 m 342.449 144.949 l S Q
q 1 0 0 -1 0 216 cm
342.449 144.949 m 343 144.949 l S Q
q 1 0 0 -1 0 216 cm
343 144.949 m 343.551 144.949 l S Q
q 1 0 0 -1 0 216 cm
343.551 144.949 m 344.148 144.949 l S Q
q 1 0 0 -1 0 216 cm
344.148 144.949 m 344.75 144.949 l S Q
0 g
q 1 0 0 -1 0 216 cm
32.75 10.75 312.398 176 re S Q
Q Q
showpage
%%Trailer
end restore
%%EOF
