%!PS-Adobe-3.0 EPSF-3.0
%%Creator: cairo 1.13.1 (http://cairographics.org)
%%CreationDate: Fri May 20 09:15:48 2016
%%Pages: 1
%%DocumentData: Clean7Bit
%%LanguageLevel: 2
%%BoundingBox: 0 0 426 216
%%EndComments
%%BeginProlog
save
50 dict begin
/q { gsave } bind def
/Q { grestore } bind def
/cm { 6 array astore concat } bind def
/w { setlinewidth } bind def
/J { setlinecap } bind def
/j { setlinejoin } bind def
/M { setmiterlimit } bind def
/d { setdash } bind def
/m { moveto } bind def
/l { lineto } bind def
/c { curveto } bind def
/h { closepath } bind def
/re { exch dup neg 3 1 roll 5 3 roll moveto 0 rlineto
      0 exch rlineto 0 rlineto closepath } bind def
/S { stroke } bind def
/f { fill } bind def
/f* { eofill } bind def
/n { newpath } bind def
/W { clip } bind def
/W* { eoclip } bind def
/BT { } bind def
/ET { } bind def
/pdfmark where { pop globaldict /?pdfmark /exec load put }
    { globaldict begin /?pdfmark /pop load def /pdfmark
    /cleartomark load def end } ifelse
/BDC { mark 3 1 roll /BDC pdfmark } bind def
/EMC { mark /EMC pdfmark } bind def
/cairo_store_point { /cairo_point_y exch def /cairo_point_x exch def } def
/Tj { show currentpoint cairo_store_point } bind def
/TJ {
  {
    dup
    type /stringtype eq
    { show } { -0.001 mul 0 cairo_font_matrix dtransform rmoveto } ifelse
  } forall
  currentpoint cairo_store_point
} bind def
/cairo_selectfont { cairo_font_matrix aload pop pop pop 0 0 6 array astore
    cairo_font exch selectfont cairo_point_x cairo_point_y moveto } bind def
/Tf { pop /cairo_font exch def /cairo_font_matrix where
      { pop cairo_selectfont } if } bind def
/Td { matrix translate cairo_font_matrix matrix concatmatrix dup
      /cairo_font_matrix exch def dup 4 get exch 5 get cairo_store_point
      /cairo_font where { pop cairo_selectfont } if } bind def
/Tm { 2 copy 8 2 roll 6 array astore /cairo_font_matrix exch def
      cairo_store_point /cairo_font where { pop cairo_selectfont } if } bind def
/g { setgray } bind def
/rg { setrgbcolor } bind def
/d1 { setcachedevice } bind def
%%EndProlog
%%BeginSetup
%%EndSetup
%%Page: 1 1
%%BeginPageSetup
%%PageBoundingBox: 0 0 426 216
%%EndPageSetup
q 52 29 315 177 rectclip q
0 g
0.15 w
2 J
0 j
[ 0.2 2] 0 d
3.8 M q 1 0 0 -1 0 216 cm
53.148 186.75 m 366.148 186.75 l S Q
0.25 w
[] 0.0 d
q 1 0 0 -1 0 216 cm
53.148 186.75 m 56.852 186.75 l S Q
q 1 0 0 -1 0 216 cm
366.148 186.75 m 362.449 186.75 l S Q
0.15 w
[ 0.2 2] 0 d
q 1 0 0 -1 0 216 cm
53.148 151.551 m 366.148 151.551 l S Q
0.25 w
[] 0.0 d
q 1 0 0 -1 0 216 cm
53.148 151.551 m 56.852 151.551 l S Q
q 1 0 0 -1 0 216 cm
366.148 151.551 m 362.449 151.551 l S Q
0.15 w
[ 0.2 2] 0 d
q 1 0 0 -1 0 216 cm
53.148 116.352 m 366.148 116.352 l S Q
0.25 w
[] 0.0 d
q 1 0 0 -1 0 216 cm
53.148 116.352 m 56.852 116.352 l S Q
q 1 0 0 -1 0 216 cm
366.148 116.352 m 362.449 116.352 l S Q
0.15 w
[ 0.2 2] 0 d
q 1 0 0 -1 0 216 cm
53.148 81.148 m 366.148 81.148 l S Q
0.25 w
[] 0.0 d
q 1 0 0 -1 0 216 cm
53.148 81.148 m 56.852 81.148 l S Q
q 1 0 0 -1 0 216 cm
366.148 81.148 m 362.449 81.148 l S Q
0.15 w
[ 0.2 2] 0 d
q 1 0 0 -1 0 216 cm
53.148 45.949 m 366.148 45.949 l S Q
0.25 w
[] 0.0 d
q 1 0 0 -1 0 216 cm
53.148 45.949 m 56.852 45.949 l S Q
q 1 0 0 -1 0 216 cm
366.148 45.949 m 362.449 45.949 l S Q
0.15 w
[ 0.2 2] 0 d
q 1 0 0 -1 0 216 cm
53.148 10.75 m 366.148 10.75 l S Q
0.25 w
[] 0.0 d
q 1 0 0 -1 0 216 cm
53.148 10.75 m 56.852 10.75 l S Q
q 1 0 0 -1 0 216 cm
366.148 10.75 m 362.449 10.75 l S Q
0.15 w
[ 0.2 2] 0 d
q 1 0 0 -1 0 216 cm
53.148 186.75 m 53.148 10.75 l S Q
0.25 w
[] 0.0 d
q 1 0 0 -1 0 216 cm
53.148 186.75 m 53.148 183.051 l S Q
q 1 0 0 -1 0 216 cm
53.148 10.75 m 53.148 14.449 l S Q
q 1 0 0 -1 0 216 cm
63.602 186.75 m 63.602 184.898 l S Q
q 1 0 0 -1 0 216 cm
63.602 10.75 m 63.602 12.602 l S Q
q 1 0 0 -1 0 216 cm
74 186.75 m 74 184.898 l S Q
q 1 0 0 -1 0 216 cm
74 10.75 m 74 12.602 l S Q
q 1 0 0 -1 0 216 cm
84.449 186.75 m 84.449 184.898 l S Q
q 1 0 0 -1 0 216 cm
84.449 10.75 m 84.449 12.602 l S Q
q 1 0 0 -1 0 216 cm
94.898 186.75 m 94.898 184.898 l S Q
q 1 0 0 -1 0 216 cm
94.898 10.75 m 94.898 12.602 l S Q
0.15 w
[ 0.2 2] 0 d
q 1 0 0 -1 0 216 cm
105.301 186.75 m 105.301 42.352 l S Q
[ 0.2 2] 0 d
q 1 0 0 -1 0 216 cm
105.301 14.449 m 105.301 10.75 l S Q
0.25 w
[] 0.0 d
q 1 0 0 -1 0 216 cm
105.301 186.75 m 105.301 183.051 l S Q
q 1 0 0 -1 0 216 cm
105.301 10.75 m 105.301 14.449 l S Q
q 1 0 0 -1 0 216 cm
115.75 186.75 m 115.75 184.898 l S Q
q 1 0 0 -1 0 216 cm
115.75 10.75 m 115.75 12.602 l S Q
q 1 0 0 -1 0 216 cm
126.199 186.75 m 126.199 184.898 l S Q
q 1 0 0 -1 0 216 cm
126.199 10.75 m 126.199 12.602 l S Q
q 1 0 0 -1 0 216 cm
136.602 186.75 m 136.602 184.898 l S Q
q 1 0 0 -1 0 216 cm
136.602 10.75 m 136.602 12.602 l S Q
q 1 0 0 -1 0 216 cm
147.051 186.75 m 147.051 184.898 l S Q
q 1 0 0 -1 0 216 cm
147.051 10.75 m 147.051 12.602 l S Q
0.15 w
[ 0.2 2] 0 d
q 1 0 0 -1 0 216 cm
157.5 186.75 m 157.5 42.352 l S Q
[ 0.2 2] 0 d
q 1 0 0 -1 0 216 cm
157.5 14.449 m 157.5 10.75 l S Q
0.25 w
[] 0.0 d
q 1 0 0 -1 0 216 cm
157.5 186.75 m 157.5 183.051 l S Q
q 1 0 0 -1 0 216 cm
157.5 10.75 m 157.5 14.449 l S Q
q 1 0 0 -1 0 216 cm
167.898 186.75 m 167.898 184.898 l S Q
q 1 0 0 -1 0 216 cm
167.898 10.75 m 167.898 12.602 l S Q
q 1 0 0 -1 0 216 cm
178.352 186.75 m 178.352 184.898 l S Q
q 1 0 0 -1 0 216 cm
178.352 10.75 m 178.352 12.602 l S Q
q 1 0 0 -1 0 216 cm
188.801 186.75 m 188.801 184.898 l S Q
q 1 0 0 -1 0 216 cm
188.801 10.75 m 188.801 12.602 l S Q
q 1 0 0 -1 0 216 cm
199.199 186.75 m 199.199 184.898 l S Q
q 1 0 0 -1 0 216 cm
199.199 10.75 m 199.199 12.602 l S Q
0.15 w
[ 0.2 2] 0 d
q 1 0 0 -1 0 216 cm
209.648 186.75 m 209.648 42.352 l S Q
[ 0.2 2] 0 d
q 1 0 0 -1 0 216 cm
209.648 14.449 m 209.648 10.75 l S Q
0.25 w
[] 0.0 d
q 1 0 0 -1 0 216 cm
209.648 186.75 m 209.648 183.051 l S Q
q 1 0 0 -1 0 216 cm
209.648 10.75 m 209.648 14.449 l S Q
q 1 0 0 -1 0 216 cm
220.102 186.75 m 220.102 184.898 l S Q
q 1 0 0 -1 0 216 cm
220.102 10.75 m 220.102 12.602 l S Q
q 1 0 0 -1 0 216 cm
230.5 186.75 m 230.5 184.898 l S Q
q 1 0 0 -1 0 216 cm
230.5 10.75 m 230.5 12.602 l S Q
q 1 0 0 -1 0 216 cm
240.949 186.75 m 240.949 184.898 l S Q
q 1 0 0 -1 0 216 cm
240.949 10.75 m 240.949 12.602 l S Q
q 1 0 0 -1 0 216 cm
251.398 186.75 m 251.398 184.898 l S Q
q 1 0 0 -1 0 216 cm
251.398 10.75 m 251.398 12.602 l S Q
0.15 w
[ 0.2 2] 0 d
q 1 0 0 -1 0 216 cm
261.801 186.75 m 261.801 42.352 l S Q
[ 0.2 2] 0 d
q 1 0 0 -1 0 216 cm
261.801 14.449 m 261.801 10.75 l S Q
0.25 w
[] 0.0 d
q 1 0 0 -1 0 216 cm
261.801 186.75 m 261.801 183.051 l S Q
q 1 0 0 -1 0 216 cm
261.801 10.75 m 261.801 14.449 l S Q
q 1 0 0 -1 0 216 cm
272.25 186.75 m 272.25 184.898 l S Q
q 1 0 0 -1 0 216 cm
272.25 10.75 m 272.25 12.602 l S Q
q 1 0 0 -1 0 216 cm
282.699 186.75 m 282.699 184.898 l S Q
q 1 0 0 -1 0 216 cm
282.699 10.75 m 282.699 12.602 l S Q
q 1 0 0 -1 0 216 cm
293.102 186.75 m 293.102 184.898 l S Q
q 1 0 0 -1 0 216 cm
293.102 10.75 m 293.102 12.602 l S Q
q 1 0 0 -1 0 216 cm
303.551 186.75 m 303.551 184.898 l S Q
q 1 0 0 -1 0 216 cm
303.551 10.75 m 303.551 12.602 l S Q
0.15 w
[ 0.2 2] 0 d
q 1 0 0 -1 0 216 cm
314 186.75 m 314 42.352 l S Q
[ 0.2 2] 0 d
q 1 0 0 -1 0 216 cm
314 14.449 m 314 10.75 l S Q
0.25 w
[] 0.0 d
q 1 0 0 -1 0 216 cm
314 186.75 m 314 183.051 l S Q
q 1 0 0 -1 0 216 cm
314 10.75 m 314 14.449 l S Q
q 1 0 0 -1 0 216 cm
324.398 186.75 m 324.398 184.898 l S Q
q 1 0 0 -1 0 216 cm
324.398 10.75 m 324.398 12.602 l S Q
q 1 0 0 -1 0 216 cm
334.852 186.75 m 334.852 184.898 l S Q
q 1 0 0 -1 0 216 cm
334.852 10.75 m 334.852 12.602 l S Q
q 1 0 0 -1 0 216 cm
345.301 186.75 m 345.301 184.898 l S Q
q 1 0 0 -1 0 216 cm
345.301 10.75 m 345.301 12.602 l S Q
q 1 0 0 -1 0 216 cm
355.699 186.75 m 355.699 184.898 l S Q
q 1 0 0 -1 0 216 cm
355.699 10.75 m 355.699 12.602 l S Q
0.15 w
[ 0.2 2] 0 d
q 1 0 0 -1 0 216 cm
366.148 186.75 m 366.148 10.75 l S Q
0.25 w
[] 0.0 d
q 1 0 0 -1 0 216 cm
366.148 186.75 m 366.148 183.051 l S Q
q 1 0 0 -1 0 216 cm
366.148 10.75 m 366.148 14.449 l S Q
q 1 0 0 -1 0 216 cm
366.148 186.75 m 362.449 186.75 l S Q
q 1 0 0 -1 0 216 cm
366.148 151.551 m 362.449 151.551 l S Q
q 1 0 0 -1 0 216 cm
366.148 116.352 m 362.449 116.352 l S Q
q 1 0 0 -1 0 216 cm
366.148 81.148 m 362.449 81.148 l S Q
q 1 0 0 -1 0 216 cm
366.148 45.949 m 362.449 45.949 l S Q
q 1 0 0 -1 0 216 cm
366.148 10.75 m 362.449 10.75 l S Q
q 1 0 0 -1 0 216 cm
53.148 10.75 313 176 re S Q
0.172549 0.462745 0.733333 rg
q 1 0 0 -1 0 216 cm
331.852 19.102 m 355.949 19.102 l S Q
q 1 0 0 -1 0 216 cm
53.148 10.75 m 53.75 12.148 l 54.398 13.551 l 55 14.898 l 55.648 16.301
 l 56.25 17.648 l 56.852 19 l 57.449 20.352 l 58.051 21.648 l 58.648 23 
l 59.301 24.301 l 59.898 25.602 l 60.551 26.852 l 61.148 28.148 l 61.801
 29.398 l 62.449 30.648 l 63.051 31.898 l 63.699 33.148 l 64.352 34.352 
l 64.949 35.551 l 65.602 36.75 l 66.199 37.949 l 66.801 39.148 l 67.398 
40.352 l 68.602 42.648 l 69.25 43.801 l 69.898 44.949 l 70.5 46.051 l 71.102
 47.199 l 71.699 48.301 l 72.301 49.398 l 72.949 50.5 l 73.5 51.602 l 74.148
 52.648 l 74.75 53.75 l 75.352 54.801 l 75.898 55.852 l 76.551 56.898 l 
77.148 57.898 l 77.801 58.949 l 78.398 59.949 l 79 61 l 79.602 62 l 80.199
 62.949 l 80.852 63.949 l 81.449 64.949 l 82.051 65.898 l 82.648 66.852 
l 83.25 67.852 l 83.852 68.75 l 84.5 69.699 l 85.102 70.648 l 85.699 71.551
 l 86.352 72.5 l 86.949 73.398 l 87.551 74.301 l 88.199 75.199 l 88.801 
76.102 l 89.398 76.949 l 90 77.852 l 90.648 78.699 l 91.25 79.551 l 91.852
 80.449 l 92.398 81.25 l 93.051 82.102 l 93.648 82.949 l 94.301 83.801 l
 94.852 84.602 l 95.449 85.398 l 96.051 86.199 l 96.648 87 l 97.301 87.801
 l 97.898 88.602 l 98.5 89.398 l 99.102 90.148 l 99.648 90.949 l 100.301
 91.699 l 100.898 92.449 l 101.449 93.199 l 102.051 93.949 l 102.648 94.699
 l 103.25 95.398 l 103.852 96.148 l 104.449 96.852 l 105.051 97.602 l 105.648
 98.301 l 106.852 99.699 l 107.449 100.398 l 108.051 101.102 l 108.648 101.75
 l 109.25 102.449 l 109.852 103.102 l 110.449 103.801 l 111.102 104.449 
l 111.699 105.102 l 112.301 105.75 l 112.898 106.398 l 113.5 107.051 l 114.102
 107.648 l 114.699 108.301 l 115.301 108.898 l 115.852 109.551 l 117.051
 110.75 l 117.602 111.352 l 118.25 111.949 l 118.801 112.551 l 120 113.75
 l 120.551 114.352 l 121.148 114.898 l 121.699 115.5 l 122.301 116.051 l
 122.898 116.602 l 123.5 117.148 l 124.102 117.699 l 124.648 118.25 l 125.852
 119.352 l 126.449 119.898 l 127.051 120.449 l 127.648 120.949 l 128.25 
121.5 l 128.852 122 l 129.398 122.5 l 130 123.051 l 130.602 123.551 l 131.148
 124.051 l 132.352 125.051 l 132.949 125.551 l 133.551 126 l 134.148 126.5
 l 134.75 127 l 135.352 127.449 l 135.949 127.949 l 136.551 128.398 l 137.102
 128.852 l 137.699 129.301 l 138.25 129.801 l 138.852 130.25 l 139.398 130.699
 l 140 131.148 l 140.602 131.602 l 141.199 132 l 141.801 132.449 l 142.398
 132.898 l 142.949 133.301 l 143.551 133.75 l 144.148 134.148 l 144.75 134.602
 l 145.352 135 l 145.949 135.398 l 146.5 135.801 l 147.051 136.199 l 147.648
 136.648 l 148.199 137.051 l 148.801 137.398 l 149.352 137.801 l 149.949
 138.199 l 150.5 138.602 l 151.102 139 l 151.699 139.352 l 152.301 139.75
 l 152.852 140.102 l 153.398 140.5 l 154 140.852 l 154.602 141.199 l 155.199
 141.602 l 155.801 141.949 l 156.352 142.301 l 156.949 142.648 l 157.551
 143 l 158.102 143.352 l 158.699 143.699 l 159.25 144.051 l 159.852 144.398
 l 160.449 144.699 l 161.051 145.051 l 161.602 145.398 l 162.199 145.699
 l 162.801 146.051 l 163.352 146.352 l 163.949 146.699 l 164.5 147 l 165.102
 147.301 l 165.699 147.648 l 166.25 147.949 l 166.852 148.25 l 167.449 148.551
 l 168.051 148.852 l 168.648 149.148 l 169.25 149.449 l 169.801 149.75 l
 170.398 150.051 l 170.949 150.352 l 171.5 150.648 l 172.102 150.949 l 172.648
 151.199 l 173.25 151.5 l 173.801 151.801 l 174.398 152.051 l 174.949 152.352
 l 175.551 152.602 l 176.102 152.898 l 176.699 153.148 l 177.301 153.398
 l 177.898 153.699 l 179.102 154.199 l 179.699 154.449 l 180.301 154.75 
l 180.898 155 l 182.102 155.5 l 182.699 155.75 l 183.301 156 l 183.852 156.25
 l 184.449 156.449 l 185.051 156.699 l 185.602 156.949 l 186.199 157.199
 l 186.801 157.398 l 187.352 157.648 l 187.949 157.898 l 188.551 158.102
 l 189.148 158.352 l 189.75 158.551 l 190.352 158.801 l 190.898 159 l 191.5
 159.25 l 192.051 159.449 l 192.602 159.699 l 193.199 159.898 l 193.75 160.102
 l 194.301 160.301 l 194.898 160.551 l 195.5 160.75 l 196.051 160.949 l 
196.648 161.148 l 197.25 161.352 l 197.852 161.551 l 198.449 161.75 l 199
 161.949 l 199.602 162.148 l 200.199 162.352 l 200.801 162.551 l 201.398
 162.75 l 201.949 162.949 l 202.551 163.102 l 203.148 163.301 l 203.699 
163.5 l 204.301 163.699 l 204.898 163.852 l 206.102 164.25 l 206.699 164.398
 l 207.301 164.602 l 207.852 164.75 l 208.449 164.949 l 209.051 165.102 
l 209.648 165.301 l 210.25 165.449 l 210.801 165.602 l 211.398 165.801 l
 212 165.949 l 212.551 166.148 l 213.102 166.301 l 213.699 166.449 l 214.301
 166.602 l 214.898 166.75 l 215.5 166.949 l 216.102 167.102 l 216.699 167.25
 l 217.301 167.398 l 217.898 167.551 l 218.5 167.699 l 219.051 167.852 l
 219.648 168 l 220.25 168.148 l 220.801 168.301 l 221.449 168.449 l 222 
168.602 l 222.602 168.75 l 223.199 168.898 l 223.801 169.051 l 224.352 169.148
 l 224.949 169.301 l 225.551 169.449 l 226.199 169.602 l 226.801 169.75 
l 227.352 169.852 l 227.949 170 l 228.551 170.148 l 229.102 170.25 l 229.699
 170.398 l 230.301 170.551 l 230.898 170.648 l 231.5 170.801 l 232.102 170.898
 l 232.699 171.051 l 233.25 171.148 l 233.852 171.301 l 234.398 171.398 
l 235 171.551 l 235.551 171.648 l 236.148 171.75 l 236.699 171.898 l 237.25
 172 l 237.852 172.148 l 238.449 172.25 l 239 172.352 l 239.551 172.5 l 
240.148 172.602 l 240.75 172.699 l 241.301 172.801 l 241.898 172.898 l 242.449
 173.051 l 243.051 173.148 l 243.602 173.25 l 244.199 173.352 l 244.801 
173.449 l 245.352 173.551 l 245.949 173.699 l 246.5 173.801 l 247.102 173.898
 l 247.699 174 l 248.301 174.102 l 248.852 174.199 l 249.398 174.301 l 250
 174.398 l 250.602 174.5 l 251.148 174.602 l 251.699 174.699 l 252.301 174.801
 l 252.898 174.852 l 253.5 174.949 l 254.051 175.051 l 254.648 175.148 l
 255.75 175.352 l 256.352 175.449 l 256.898 175.5 l 257.5 175.602 l 258.051
 175.699 l 258.602 175.801 l 259.199 175.852 l 259.801 175.949 l 260.352
 176.051 l 260.949 176.148 l 261.5 176.199 l 262.051 176.301 l 262.602 176.398
 l 263.199 176.449 l 263.801 176.551 l 264.352 176.648 l 264.949 176.699
 l 265.551 176.801 l 266.102 176.852 l 266.699 176.949 l 267.25 177.051 
l 267.852 177.102 l 268.398 177.199 l 269 177.25 l 269.551 177.352 l 270.102
 177.398 l 270.699 177.5 l 271.25 177.551 l 271.852 177.648 l 272.449 177.699
 l 273 177.75 l 273.602 177.852 l 274.148 177.898 l 274.75 178 l 275.301
 178.051 l 275.898 178.148 l 276.449 178.199 l 277.051 178.25 l 277.648 
178.352 l 278.25 178.398 l 278.852 178.449 l 279.398 178.551 l 280 178.602
 l 280.551 178.648 l 281.148 178.75 l 281.699 178.801 l 282.301 178.852 
l 282.852 178.898 l 283.449 179 l 284.051 179.051 l 284.648 179.102 l 285.25
 179.148 l 285.852 179.199 l 286.449 179.301 l 287 179.352 l 287.602 179.398
 l 288.148 179.449 l 288.75 179.5 l 289.301 179.602 l 289.852 179.648 l 
290.398 179.699 l 291.602 179.801 l 292.148 179.852 l 292.699 179.898 l 
293.301 179.949 l 293.852 180 l 294.398 180.051 l 295 180.148 l 295.602 
180.199 l 296.148 180.25 l 297.352 180.352 l 297.949 180.398 l 298.551 180.449
 l 299.148 180.5 l 299.75 180.551 l 300.301 180.602 l 300.852 180.648 l 
301.449 180.699 l 302.551 180.801 l 303.148 180.852 l 303.699 180.898 l 
304.301 180.898 l 304.852 180.949 l 305.449 181 l 306.051 181.051 l 306.602
 181.102 l 307.199 181.148 l 307.801 181.199 l 308.398 181.25 l 308.949 
181.301 l 309.551 181.352 l 310.148 181.352 l 310.699 181.398 l 311.301 
181.449 l 311.898 181.5 l 312.449 181.551 l 313.051 181.602 l 313.602 181.602
 l 314.199 181.648 l 314.801 181.699 l 315.352 181.75 l 315.949 181.801 
l 316.551 181.801 l 317.102 181.852 l 317.699 181.898 l 318.25 181.949 l
 318.852 182 l 319.449 182 l 320 182.051 l 320.602 182.102 l 321.148 182.148
 l 321.699 182.148 l 322.301 182.199 l 322.852 182.25 l 323.449 182.301 
l 324 182.301 l 324.602 182.352 l 325.199 182.398 l 325.75 182.398 l 326.352
 182.449 l 326.898 182.5 l 327.5 182.5 l 328.102 182.551 l 328.648 182.602
 l 329.25 182.602 l 329.801 182.648 l 330.352 182.699 l 330.949 182.699 
l 332.051 182.801 l 332.602 182.801 l 333.199 182.852 l 333.75 182.898 l
 334.352 182.898 l 334.898 182.949 l 335.5 182.949 l 336.102 183 l 336.648
 183.051 l 337.25 183.051 l 337.801 183.102 l 338.398 183.102 l 339 183.148
 l 339.602 183.148 l 340.148 183.199 l 340.75 183.25 l 341.301 183.25 l 
341.898 183.301 l 342.5 183.301 l 343.051 183.352 l 343.648 183.352 l 344.25
 183.398 l 344.852 183.398 l 345.398 183.449 l 346 183.449 l 346.551 183.5
 l 347.148 183.551 l 347.699 183.551 l 348.301 183.602 l 348.852 183.602
 l 349.449 183.648 l 350.051 183.648 l 350.602 183.699 l 351.199 183.699
 l 351.801 183.75 l 352.949 183.75 l 353.551 183.801 l 354.102 183.801 l
 354.699 183.852 l 355.25 183.852 l 355.852 183.898 l 356.449 183.898 l 
357 183.949 l 357.602 183.949 l 358.148 184 l 359.352 184 l 359.949 184.051
 l 360.551 184.051 l 361.148 184.102 l 361.699 184.102 l 362.301 184.148
 l 363.449 184.148 l 364 184.199 l 364.551 184.199 l 365.148 184.25 l 365.75
 184.25 l S Q
0 0.65098 0.552941 rg
q 1 0 0 -1 0 216 cm
331.852 28.398 m 355.949 28.398 l S Q
q 1 0 0 -1 0 216 cm
53.148 10.75 m 53.75 41.852 l 54.352 52.648 l 54.898 64.102 l 55.5 71.75
 l 56.102 79.699 l 56.699 86.801 l 57.25 93.25 l 57.852 98.852 l 58.449 
103.852 l 59 108.352 l 59.602 112.551 l 60.199 116.398 l 60.75 119.801 l
 61.352 123.199 l 61.949 126.199 l 62.5 128.898 l 63.102 131.301 l 63.648
 133.852 l 64.25 136.148 l 64.801 138 l 65.398 140.148 l 66 142 l 66.551
 143.699 l 67.148 145.199 l 67.699 146.602 l 68.301 147.898 l 68.852 149.25
 l 69.449 150.699 l 70.051 151.898 l 70.602 152.949 l 71.199 153.949 l 71.75
 154.949 l 72.352 155.949 l 72.898 156.801 l 73.5 157.602 l 74.051 158.449
 l 74.648 159.199 l 75.199 159.898 l 75.801 160.551 l 76.352 161.148 l 76.949
 161.75 l 77.5 162.352 l 78.102 162.898 l 78.648 163.398 l 79.25 163.949
 l 79.801 164.449 l 80.398 164.898 l 80.949 165.352 l 81.551 165.801 l 82.102
 166.199 l 82.699 166.648 l 83.25 167.051 l 83.852 167.398 l 84.398 167.801
 l 85 168.148 l 85.551 168.449 l 86.148 168.801 l 86.699 169.148 l 87.301
 169.5 l 87.852 169.852 l 88.449 170.199 l 89.551 170.699 l 90.148 170.949
 l 90.699 171.25 l 91.301 171.5 l 91.852 171.75 l 92.449 172 l 93 172.25
 l 93.602 172.5 l 94.148 172.648 l 94.75 172.852 l 95.352 173 l 95.949 173.148
 l 96.5 173.301 l 97.102 173.449 l 97.699 173.602 l 98.25 173.75 l 98.852
 173.852 l 99.449 174 l 100 174.102 l 100.602 174.25 l 101.199 174.352 l
 101.75 174.449 l 102.352 174.551 l 102.898 174.699 l 103.5 174.801 l 104.102
 174.898 l 104.648 175 l 105.25 175.102 l 105.852 175.199 l 106.398 175.301
 l 107 175.398 l 107.551 175.551 l 108.148 175.602 l 108.699 175.699 l 109.301
 175.801 l 109.852 175.898 l 110.449 176 l 111 176.102 l 111.602 176.199
 l 112.148 176.25 l 112.75 176.352 l 113.301 176.398 l 113.898 176.5 l 114.5
 176.602 l 115.051 176.648 l 115.648 176.75 l 116.25 176.801 l 116.801 176.898
 l 117.398 176.949 l 117.949 177 l 118.551 177.102 l 119.102 177.148 l 119.699
 177.25 l 120.25 177.301 l 120.852 177.352 l 121.449 177.449 l 122 177.5
 l 122.602 177.551 l 123.148 177.648 l 124.352 177.75 l 124.898 177.801 
l 125.5 177.852 l 126.102 177.898 l 126.648 177.949 l 127.25 178 l 127.801
 178.051 l 128.398 178.148 l 128.949 178.199 l 129.551 178.25 l 130.102 
178.25 l 130.699 178.301 l 131.301 178.352 l 131.852 178.398 l 132.449 178.449
 l 133.051 178.5 l 133.602 178.551 l 134.199 178.602 l 134.75 178.648 l 
135.352 178.699 l 135.898 178.801 l 136.5 178.852 l 137.102 178.852 l 137.648
 178.898 l 138.25 178.949 l 139.352 179.051 l 139.949 179.102 l 140.5 179.148
 l 141.102 179.148 l 141.648 179.199 l 142.25 179.25 l 142.801 179.301 l
 143.398 179.352 l 143.949 179.352 l 144.551 179.398 l 145.102 179.449 l
 145.699 179.5 l 146.25 179.551 l 146.852 179.551 l 147.398 179.602 l 147.949
 179.648 l 148.551 179.699 l 149.102 179.699 l 149.699 179.75 l 150.25 179.801
 l 150.852 179.852 l 151.398 179.852 l 152 179.898 l 152.551 179.949 l 153.148
 179.949 l 154.25 180.051 l 154.852 180.051 l 155.398 180.102 l 155.949 
180.148 l 156.5 180.148 l 157.102 180.199 l 157.648 180.25 l 158.199 180.25
 l 158.801 180.301 l 159.352 180.352 l 159.898 180.352 l 160.449 180.398
 l 161 180.398 l 161.602 180.449 l 162.148 180.449 l 162.699 180.5 l 163.301
 180.5 l 163.852 180.551 l 164.398 180.551 l 164.949 180.602 l 165.551 180.648
 l 166.102 180.648 l 166.648 180.699 l 167.801 180.699 l 168.352 180.75 
l 168.898 180.801 l 169.449 180.801 l 170 180.852 l 171.148 180.852 l 171.699
 180.898 l 172.25 180.898 l 172.852 180.949 l 173.398 180.949 l 173.949 
181 l 174.5 181 l 175.102 181.051 l 175.648 181.051 l 176.199 181.102 l 
177.352 181.102 l 177.898 181.148 l 178.449 181.148 l 179 181.199 l 180.148
 181.199 l 180.699 181.25 l 181.25 181.25 l 181.801 181.301 l 182.949 181.301
 l 183.5 181.352 l 184.051 181.352 l 184.648 181.398 l 185.75 181.398 l 
186.352 181.449 l 187.449 181.449 l 188 181.5 l 188.602 181.5 l 189.148 
181.551 l 190.25 181.551 l 190.852 181.602 l 191.949 181.602 l 192.5 181.648
 l 193.648 181.648 l 194.199 181.699 l 195.352 181.699 l 195.898 181.75 
l 196.449 181.75 l 197 181.801 l 198.102 181.801 l 198.699 181.852 l 199.801
 181.852 l 200.352 181.898 l 202.051 181.898 l 202.648 181.949 l 204.301
 181.949 l 204.898 182 l 207.148 182 l 207.699 182.051 l 209.352 182.051
 l 209.898 182.102 l 212.148 182.102 l 212.75 182.148 l 214.398 182.148 
l 214.949 182.199 l 217.199 182.199 l 217.801 182.25 l 219.449 182.25 l 
220.051 182.301 l 222.25 182.301 l 222.852 182.352 l 224.551 182.352 l 225.102
 182.398 l 227.352 182.398 l 227.898 182.449 l 230.148 182.449 l 230.699
 182.5 l 232.949 182.5 l 233.5 182.551 l 235.75 182.551 l 236.301 182.602
 l 239.102 182.602 l 239.699 182.648 l 241.898 182.648 l 242.449 182.699
 l 245.301 182.699 l 245.852 182.75 l 248.648 182.75 l 249.199 182.801 l
 252 182.801 l 252.551 182.852 l 255.352 182.852 l 255.949 182.898 l 258.148
 182.898 l 258.75 182.949 l 261.551 182.949 l 262.102 183 l 265.449 183 
l 266 183.051 l 268.801 183.051 l 269.398 183.102 l 273.301 183.102 l 273.898
 183.148 l 276.699 183.148 l 277.25 183.199 l 281.199 183.199 l 281.75 183.25
 l 285.648 183.25 l 286.199 183.301 l 290.148 183.301 l 290.699 183.352 
l 295.199 183.352 l 295.75 183.398 l 299.699 183.398 l 300.25 183.449 l 
304.699 183.449 l 305.301 183.5 l 309.75 183.5 l 310.301 183.551 l 314.801
 183.551 l 315.352 183.602 l 319.852 183.602 l 320.398 183.648 l 325.449
 183.648 l 326 183.699 l 331.602 183.699 l 332.148 183.75 l 337.801 183.75
 l 338.352 183.801 l 344.5 183.801 l 345.051 183.852 l 350.699 183.852 l
 351.25 183.898 l 356.852 183.898 l 357.398 183.949 l 363 183.949 l 363.551
 184 l 365.801 184 l S Q
0.729412 0.0980392 0.545098 rg
q 1 0 0 -1 0 216 cm
331.852 37.699 m 355.949 37.699 l S Q
q 1 0 0 -1 0 216 cm
56.102 10.75 m 56.102 10.898 l 56.699 15.852 l 57.25 31.301 l 57.852 38.5
 l 58.449 47.051 l 59 44.801 l 59.602 56.5 l 60.199 60.648 l 60.75 67.148
 l 61.352 68.449 l 61.949 79.102 l 62.5 90.551 l 63.102 86.5 l 63.648 87.949
 l 64.25 92.25 l 64.801 89.199 l 65.398 95.051 l 66 94.602 l 66.551 103.949
 l 67.148 106.898 l 67.699 106.051 l 68.301 108.148 l 68.852 98.949 l 69.449
 94.75 l 70.051 104.648 l 70.602 112.801 l 71.199 114.199 l 71.75 112.449
 l 72.352 113.801 l 72.898 119.148 l 73.5 120.949 l 74.051 120.449 l 74.648
 125.648 l 75.199 131.051 l 75.801 128.648 l 76.352 130.051 l 76.949 133.398
 l 77.5 133.199 l 78.102 138.5 l 78.648 137.398 l 79.25 141.051 l 79.801
 137.699 l 80.398 135.949 l 80.949 137.398 l 81.551 138.602 l 82.102 136.898
 l 82.699 137.25 l 83.25 139.801 l 83.852 138.398 l 84.398 141.852 l 85 
145.602 l 85.551 147.301 l 86.148 145.449 l 86.699 144.949 l 87.301 142.449
 l 87.852 144.5 l 88.449 148.051 l 89 148.602 l 89.551 148.699 l 90.148 
147.051 l 90.699 146.301 l 91.301 148.801 l 91.852 149.648 l 92.449 150.352
 l 93 149.801 l 93.602 150.949 l 94.148 153.25 l 94.75 153.898 l 95.352 
155.699 l 95.949 154.199 l 96.5 156.148 l 97.102 155.199 l 97.699 155.75
 l 98.25 156.898 l 98.852 154.102 l 99.449 155.699 l 100 159.25 l 100.602
 163.5 l 101.199 164.199 l 101.75 165.25 l 102.352 161.648 l 102.898 161.551
 l 103.5 164.551 l 104.102 164.801 l 104.648 164.25 l 105.25 164.449 l 105.852
 166.301 l 106.398 166.051 l 107 166.301 l 107.551 167.699 l 108.148 167.602
 l 108.699 168.898 l 109.301 167.199 l 109.852 165.148 l 110.449 164.301
 l 111 164.199 l 111.602 162.949 l 112.148 164.949 l 112.75 167.898 l 113.301
 167.25 l 113.898 165.852 l 114.5 169.148 l 115.051 167.699 l 115.648 169.051
 l 116.25 169.551 l 116.801 172.148 l 117.398 171.898 l 117.949 172.5 l 
118.551 172.551 l 119.102 172 l 119.699 169.5 l 120.25 169.648 l 120.852
 171 l 121.449 169.949 l 122 172.449 l 122.602 173.449 l 123.148 172.801
 l 123.75 171.949 l 124.352 172.949 l 124.898 171.102 l 125.5 172.102 l 
126.102 172.449 l 126.648 173.801 l 127.25 173.852 l 127.801 174.301 l 128.398
 173.75 l 128.949 172.602 l 129.551 173.699 l 130.102 173.898 l 130.699 
174.352 l 131.301 175.699 l 131.852 175.898 l 132.449 174.051 l 133.051 
173.949 l 133.602 172.801 l 134.199 173.102 l 134.75 173.551 l 135.352 172.949
 l 135.898 172.148 l 136.5 172.25 l 137.102 172.102 l 137.648 171.699 l 
138.25 171.352 l 138.801 174.051 l 139.352 175.199 l 139.949 174.051 l 140.5
 175.398 l 141.102 175.5 l 141.648 175.25 l 142.25 176.051 l 142.801 175.801
 l 143.398 176.398 l 143.949 175.398 l 144.551 175.699 l 145.102 175.051
 l 145.699 176 l 146.25 175.949 l 146.852 175.852 l 147.398 176.398 l 147.949
 175.199 l 148.551 176.398 l 149.102 176.051 l 149.699 175.148 l 150.25 
172.949 l 150.852 174.5 l 151.398 175 l 152 175.75 l 152.551 176.398 l 153.148
 177.5 l 153.699 176.75 l 154.25 176.199 l 154.852 175.852 l 155.398 175.699
 l 155.949 173.801 l 156.5 174.898 l 157.102 174.051 l 157.648 173.949 l
 158.199 175.551 l 158.801 176.699 l 159.352 176.801 l 159.898 177.25 l 
160.449 177.898 l 161 176.398 l 161.602 176.949 l 162.148 176.898 l 162.699
 177.602 l 163.301 177.898 l 163.852 178.352 l 164.398 178.75 l 164.949 
178.352 l 165.551 178.199 l 166.102 177.352 l 166.648 178.148 l 167.25 177.449
 l 167.801 177.398 l 168.352 177.449 l 168.898 177.199 l 169.449 177.301
 l 170 177.699 l 170.602 177.801 l 171.148 178.051 l 171.699 178.148 l 172.25
 178.352 l 172.852 178.352 l 173.398 176.75 l 173.949 177.699 l 174.5 178.148
 l 175.102 178.352 l 175.648 179.051 l 176.199 179.148 l 176.75 179.102 
l 177.352 179.199 l 177.898 179.5 l 178.449 179.398 l 179 179 l 179.602 
179.551 l 180.148 178 l 180.699 178.398 l 181.25 177.199 l 181.801 177.949
 l 182.398 178.551 l 182.949 179.148 l 183.5 178.75 l 184.051 178.551 l 
184.648 179.199 l 185.199 176.199 l 185.75 176 l 186.352 177.5 l 186.898
 177.551 l 187.449 178.648 l 188 179.449 l 188.602 179.25 l 189.148 179.648
 l 189.699 179.801 l 190.25 178.352 l 190.852 178.75 l 191.398 179.051 l
 191.949 179.398 l 192.5 179.898 l 193.102 180.102 l 193.648 180.199 l 194.199
 180.699 l 194.75 178.551 l 195.352 178.102 l 195.898 178.5 l 196.449 178.699
 l 197 177.102 l 197.551 178.551 l 198.102 179.199 l 198.699 179.5 l 199.25
 179.25 l 199.801 180.25 l 200.352 179.25 l 200.949 180.648 l 201.5 181.449
 l 202.051 180.602 l 202.648 181.449 l 203.199 180.949 l 203.75 180.75 l
 204.301 181.398 l 204.898 181.352 l 205.449 181.5 l 206 181.449 l 206.602
 180.602 l 207.148 180.551 l 207.699 181 l 208.25 181.301 l 208.801 181.352
 l 209.352 181.75 l 209.898 182.75 l 210.449 183.148 l 211.051 181.301 l
 211.602 180.5 l 212.148 181.301 l 212.75 181.602 l 213.301 181.75 l 213.852
 181.5 l 214.398 181.602 l 214.949 181.102 l 215.551 181.449 l 216.102 179.301
 l 216.648 179.852 l 217.199 180.648 l 217.801 181 l 218.352 181.898 l 218.898
 182.5 l 219.449 182.398 l 220.051 182.301 l 220.602 181.25 l 221.148 180.699
 l 221.699 179.449 l 222.25 180.5 l 222.852 181.602 l 223.398 182 l 223.949
 180.75 l 224.551 181.852 l 225.102 181.301 l 225.648 181.352 l 226.199 
180.852 l 226.75 181.148 l 227.352 181.148 l 227.898 181.102 l 228.449 180.949
 l 229 181.5 l 229.602 181.5 l 230.148 182.352 l 230.699 182.25 l 231.25
 182.852 l 231.852 182.648 l 232.398 183.199 l 232.949 182.051 l 233.5 182.051
 l 234.051 182.852 l 234.648 182.551 l 235.199 181.648 l 235.75 182.148 
l 236.301 182.852 l 236.852 182.398 l 237.449 181.648 l 238 182.25 l 238.551
 180.801 l 239.102 181.102 l 239.699 180.852 l 240.25 181.801 l 240.801 
182.25 l 241.352 182.949 l 241.898 182.699 l 242.449 182.551 l 243.051 182.75
 l 243.602 182.602 l 244.148 183.148 l 244.699 182.852 l 245.301 182.352
 l 245.852 183.25 l 246.398 182.602 l 246.949 182.051 l 247.5 182.898 l 
248.102 182.148 l 248.648 181.551 l 249.199 181.551 l 249.75 182.449 l 250.352
 182.352 l 250.898 182.551 l 251.449 182.449 l 252.551 182.051 l 253.148
 180.449 l 253.699 180.898 l 254.25 182.398 l 254.801 182.602 l 255.352 
182.301 l 255.949 182.5 l 256.5 182.602 l 257.051 182.648 l 257.602 182.949
 l 258.148 182.648 l 258.75 183 l 259.301 182.102 l 259.852 181.852 l 260.398
 182.398 l 260.949 182.199 l 261.551 182.648 l 262.102 182.898 l 262.648
 182.102 l 263.199 182.199 l 263.75 182.75 l 264.352 182.852 l 264.898 183.199
 l 265.449 182.949 l 266 182.5 l 266.602 182.699 l 267.148 181.5 l 267.699
 181.551 l 268.25 182.25 l 268.801 182.352 l 269.398 182.898 l 269.949 183
 l 270.5 182.75 l 271.051 182.25 l 271.602 181.898 l 272.199 181.699 l 272.75
 182.25 l 273.301 181.5 l 273.898 182.551 l 274.449 182.898 l 275 183 l 
275.551 183.25 l 276.102 182.352 l 276.699 181.398 l 277.25 182.102 l 277.852
 182.801 l 278.398 183.648 l 278.949 183.75 l 279.5 183.898 l 280.102 183.699
 l 280.648 183.699 l 281.199 183.352 l 281.75 183.602 l 282.301 183.102 
l 282.852 183.051 l 283.449 182.301 l 284 181.449 l 284.551 182.648 l 285.102
 183.5 l 285.648 183.648 l 286.199 183.5 l 286.801 182.801 l 287.352 183.602
 l 287.898 183.949 l 288.449 184.148 l 289.051 184.25 l 289.602 184 l 290.148
 184 l 290.699 182.75 l 291.301 182.699 l 291.852 182.25 l 292.398 182.648
 l 292.949 182.551 l 293.5 182.949 l 294.102 183.301 l 294.648 183.102 l
 295.199 183.398 l 295.75 182.898 l 296.352 182.852 l 296.898 182.199 l 
297.449 182.949 l 298 183.102 l 298.551 182.949 l 299.102 183.449 l 299.699
 183.102 l 300.25 182.352 l 300.801 182.102 l 301.352 183.051 l 301.898 
183.352 l 302.5 184 l 303.051 183.852 l 303.602 183.801 l 304.148 183.898
 l 304.699 184 l 305.301 184.352 l 305.852 183.551 l 306.398 183.898 l 306.949
 183.148 l 307.5 183.051 l 308.102 183.352 l 308.648 183.949 l 309.199 184.5
 l 309.75 184 l 310.301 183.949 l 310.898 183.148 l 311.449 183.352 l 312
 183 l 312.551 183.25 l 313.148 183.898 l 313.699 184.102 l 314.25 184.148
 l 314.801 181.852 l 315.352 182.949 l 315.949 183.449 l 316.5 183.898 l
 317.051 183.699 l 317.602 183.398 l 318.148 183.75 l 318.699 184.25 l 319.301
 184.25 l 319.852 183.898 l 320.398 182.801 l 320.949 183.602 l 321.5 183.301
 l 322.102 183.648 l 322.648 183.949 l 323.199 183.852 l 323.75 184.398 
l 324.352 184.25 l 324.898 184.148 l 325.449 184.398 l 326 183.648 l 326.551
 183.898 l 327.102 183.699 l 327.699 183.551 l 328.25 183.801 l 328.801 
183.898 l 329.352 184.449 l 329.898 183.449 l 330.5 183.898 l 331.051 183.949
 l 331.602 182.75 l 332.148 183.25 l 332.699 183.301 l 333.301 184 l 333.852
 183.449 l 334.398 183 l 334.949 183.199 l 335.551 183.199 l 336.102 183.051
 l 336.648 183.648 l 337.199 183.051 l 337.801 183.5 l 338.352 183.898 l
 338.898 184.449 l 339.449 184.301 l 340.051 184.602 l 340.602 184.25 l 
341.148 184.102 l 341.699 183.699 l 342.25 184.352 l 342.852 184.25 l 343.398
 183.602 l 343.949 183.25 l 344.5 183.398 l 345.051 183.102 l 345.602 183.102
 l 346.199 183.602 l 346.75 183.551 l 347.301 183.148 l 347.852 183.801 
l 348.449 183.852 l 349 183.102 l 349.551 182.398 l 350.102 182.801 l 350.699
 182.949 l 351.25 182.852 l 351.801 182.699 l 352.352 182.699 l 352.898 
182.949 l 353.5 183 l 354.051 183.25 l 354.602 183.898 l 355.148 183.898
 l 355.699 184.301 l 356.25 184.5 l 356.852 183.949 l 357.398 184.25 l 357.949
 184.102 l 358.5 184.398 l 359.102 184.398 l 359.648 183.699 l 360.199 183.949
 l 360.75 183.551 l 361.301 183.551 l 361.898 183.699 l 362.449 184.25 l
 363 184.148 l 363.551 183.699 l 364.148 184.148 l 364.699 183 l 365.25 
183.449 l 365.801 184.051 l S Q
0 g
q 1 0 0 -1 0 216 cm
53.148 10.75 313 176 re S Q
Q Q
showpage
%%Trailer
end restore
%%EOF
