200,0.0050163509,0.0056971183,0.0013300129,0.0045582052,1.84253757937697E-005,0.0039978258,-0.0005023575,0.0036087906,-0.000760554,0.0029654031,9.350877193
250,0.0103596837,0.012013847,0.004051272,0.0079107294,0.0005763877,0.0070621333,0.0043813576,0.0288114766,-0.0011845953,0.0052360938,9.6153846154
300,0.0160837862,0.0118842414,0.0034672337,0.0041226455,0.0007780271,0.0063171792,-0.000249951,0.0055934051,-0.0019688313,0.0043813403,9.8181818182
350,0.0277211682,0.0210667321,0.0134101257,0.0143774647,0.0067479143,0.0100973156,0.007403148,0.0305023419,0.001720884,0.0069366704,10.9230769231
400,0.026543985,0.0180848398,0.0125094864,0.0117955502,0.005579355,0.0106870622,-2.59364059782863E-005,0.0077219114,-0.001840978,0.0053244531,13.28
450,0.0491028046,0.0229981944,0.0338150647,0.0401243233,0.018899162,0.0336753748,0.0118069458,0.0267184305,0.0357718275,0.1343665149,12.8484848485
