%!PS-Adobe-3.0 EPSF-3.0
%%Creator: cairo 1.13.1 (http://cairographics.org)
%%CreationDate: Fri May 20 09:11:32 2016
%%Pages: 1
%%DocumentData: Clean7Bit
%%LanguageLevel: 2
%%BoundingBox: 0 0 360 216
%%EndComments
%%BeginProlog
save
50 dict begin
/q { gsave } bind def
/Q { grestore } bind def
/cm { 6 array astore concat } bind def
/w { setlinewidth } bind def
/J { setlinecap } bind def
/j { setlinejoin } bind def
/M { setmiterlimit } bind def
/d { setdash } bind def
/m { moveto } bind def
/l { lineto } bind def
/c { curveto } bind def
/h { closepath } bind def
/re { exch dup neg 3 1 roll 5 3 roll moveto 0 rlineto
      0 exch rlineto 0 rlineto closepath } bind def
/S { stroke } bind def
/f { fill } bind def
/f* { eofill } bind def
/n { newpath } bind def
/W { clip } bind def
/W* { eoclip } bind def
/BT { } bind def
/ET { } bind def
/pdfmark where { pop globaldict /?pdfmark /exec load put }
    { globaldict begin /?pdfmark /pop load def /pdfmark
    /cleartomark load def end } ifelse
/BDC { mark 3 1 roll /BDC pdfmark } bind def
/EMC { mark /EMC pdfmark } bind def
/cairo_store_point { /cairo_point_y exch def /cairo_point_x exch def } def
/Tj { show currentpoint cairo_store_point } bind def
/TJ {
  {
    dup
    type /stringtype eq
    { show } { -0.001 mul 0 cairo_font_matrix dtransform rmoveto } ifelse
  } forall
  currentpoint cairo_store_point
} bind def
/cairo_selectfont { cairo_font_matrix aload pop pop pop 0 0 6 array astore
    cairo_font exch selectfont cairo_point_x cairo_point_y moveto } bind def
/Tf { pop /cairo_font exch def /cairo_font_matrix where
      { pop cairo_selectfont } if } bind def
/Td { matrix translate cairo_font_matrix matrix concatmatrix dup
      /cairo_font_matrix exch def dup 4 get exch 5 get cairo_store_point
      /cairo_font where { pop cairo_selectfont } if } bind def
/Tm { 2 copy 8 2 roll 6 array astore /cairo_font_matrix exch def
      cairo_store_point /cairo_font where { pop cairo_selectfont } if } bind def
/g { setgray } bind def
/rg { setrgbcolor } bind def
/d1 { setcachedevice } bind def
%%EndProlog
%%BeginSetup
%%EndSetup
%%Page: 1 1
%%BeginPageSetup
%%PageBoundingBox: 0 0 360 216
%%EndPageSetup
q 32 29 314 177 rectclip q
0 g
0.15 w
2 J
0 j
[ 0.2 2] 0 d
3.8 M q 1 0 0 -1 0 216 cm
32.75 175.75 m 345.148 175.75 l S Q
0.25 w
[] 0.0 d
q 1 0 0 -1 0 216 cm
32.75 175.75 m 36.449 175.75 l S Q
q 1 0 0 -1 0 216 cm
345.148 175.75 m 341.449 175.75 l S Q
0.15 w
[ 0.2 2] 0 d
q 1 0 0 -1 0 216 cm
32.75 153.75 m 345.148 153.75 l S Q
0.25 w
[] 0.0 d
q 1 0 0 -1 0 216 cm
32.75 153.75 m 36.449 153.75 l S Q
q 1 0 0 -1 0 216 cm
345.148 153.75 m 341.449 153.75 l S Q
0.15 w
[ 0.2 2] 0 d
q 1 0 0 -1 0 216 cm
32.75 131.75 m 345.148 131.75 l S Q
0.25 w
[] 0.0 d
q 1 0 0 -1 0 216 cm
32.75 131.75 m 36.449 131.75 l S Q
q 1 0 0 -1 0 216 cm
345.148 131.75 m 341.449 131.75 l S Q
0.15 w
[ 0.2 2] 0 d
q 1 0 0 -1 0 216 cm
32.75 109.75 m 345.148 109.75 l S Q
0.25 w
[] 0.0 d
q 1 0 0 -1 0 216 cm
32.75 109.75 m 36.449 109.75 l S Q
q 1 0 0 -1 0 216 cm
345.148 109.75 m 341.449 109.75 l S Q
0.15 w
[ 0.2 2] 0 d
q 1 0 0 -1 0 216 cm
32.75 87.75 m 345.148 87.75 l S Q
0.25 w
[] 0.0 d
q 1 0 0 -1 0 216 cm
32.75 87.75 m 36.449 87.75 l S Q
q 1 0 0 -1 0 216 cm
345.148 87.75 m 341.449 87.75 l S Q
0.15 w
[ 0.2 2] 0 d
q 1 0 0 -1 0 216 cm
32.75 65.75 m 345.148 65.75 l S Q
0.25 w
[] 0.0 d
q 1 0 0 -1 0 216 cm
32.75 65.75 m 36.449 65.75 l S Q
q 1 0 0 -1 0 216 cm
345.148 65.75 m 341.449 65.75 l S Q
0.15 w
[ 0.2 2] 0 d
q 1 0 0 -1 0 216 cm
32.75 43.75 m 37.852 43.75 l S Q
[ 0.2 2] 0 d
q 1 0 0 -1 0 216 cm
118.051 43.75 m 345.148 43.75 l S Q
0.25 w
[] 0.0 d
q 1 0 0 -1 0 216 cm
32.75 43.75 m 36.449 43.75 l S Q
q 1 0 0 -1 0 216 cm
345.148 43.75 m 341.449 43.75 l S Q
0.15 w
[ 0.2 2] 0 d
q 1 0 0 -1 0 216 cm
32.75 21.75 m 37.852 21.75 l S Q
[ 0.2 2] 0 d
q 1 0 0 -1 0 216 cm
118.051 21.75 m 345.148 21.75 l S Q
0.25 w
[] 0.0 d
q 1 0 0 -1 0 216 cm
32.75 21.75 m 36.449 21.75 l S Q
q 1 0 0 -1 0 216 cm
345.148 21.75 m 341.449 21.75 l S Q
0.15 w
[ 0.2 2] 0 d
q 1 0 0 -1 0 216 cm
32.75 186.75 m 32.75 10.75 l S Q
0.25 w
[] 0.0 d
q 1 0 0 -1 0 216 cm
32.75 186.75 m 32.75 183.051 l S Q
q 1 0 0 -1 0 216 cm
32.75 10.75 m 32.75 14.449 l S Q
0.15 w
[ 0.2 2] 0 d
q 1 0 0 -1 0 216 cm
84.801 186.75 m 84.801 60.949 l S Q
[ 0.2 2] 0 d
q 1 0 0 -1 0 216 cm
84.801 14.449 m 84.801 10.75 l S Q
0.25 w
[] 0.0 d
q 1 0 0 -1 0 216 cm
84.801 186.75 m 84.801 183.051 l S Q
q 1 0 0 -1 0 216 cm
84.801 10.75 m 84.801 14.449 l S Q
0.15 w
[ 0.2 2] 0 d
q 1 0 0 -1 0 216 cm
136.898 186.75 m 136.898 10.75 l S Q
0.25 w
[] 0.0 d
q 1 0 0 -1 0 216 cm
136.898 186.75 m 136.898 183.051 l S Q
q 1 0 0 -1 0 216 cm
136.898 10.75 m 136.898 14.449 l S Q
0.15 w
[ 0.2 2] 0 d
q 1 0 0 -1 0 216 cm
188.949 186.75 m 188.949 10.75 l S Q
0.25 w
[] 0.0 d
q 1 0 0 -1 0 216 cm
188.949 186.75 m 188.949 183.051 l S Q
q 1 0 0 -1 0 216 cm
188.949 10.75 m 188.949 14.449 l S Q
0.15 w
[ 0.2 2] 0 d
q 1 0 0 -1 0 216 cm
241 186.75 m 241 10.75 l S Q
0.25 w
[] 0.0 d
q 1 0 0 -1 0 216 cm
241 186.75 m 241 183.051 l S Q
q 1 0 0 -1 0 216 cm
241 10.75 m 241 14.449 l S Q
0.15 w
[ 0.2 2] 0 d
q 1 0 0 -1 0 216 cm
293.102 186.75 m 293.102 10.75 l S Q
0.25 w
[] 0.0 d
q 1 0 0 -1 0 216 cm
293.102 186.75 m 293.102 183.051 l S Q
q 1 0 0 -1 0 216 cm
293.102 10.75 m 293.102 14.449 l S Q
0.15 w
[ 0.2 2] 0 d
q 1 0 0 -1 0 216 cm
345.148 186.75 m 345.148 10.75 l S Q
0.25 w
[] 0.0 d
q 1 0 0 -1 0 216 cm
345.148 186.75 m 345.148 183.051 l S Q
q 1 0 0 -1 0 216 cm
345.148 10.75 m 345.148 14.449 l S Q
q 1 0 0 -1 0 216 cm
32.75 10.75 312.398 176 re S Q
q 1 0 0 -1 0 216 cm
32.75 153.75 m 345.148 153.75 l S Q
0.172549 0.462745 0.733333 rg
q 1 0 0 -1 0 216 cm
42.949 19.102 m 67.051 19.102 l S Q
q 1 0 0 -1 0 216 cm
42.949 17.25 m 42.949 20.949 l S Q
q 1 0 0 -1 0 216 cm
67.051 17.25 m 67.051 20.949 l S Q
q 1 0 0 -1 0 216 cm
48.352 142.699 m 100.449 130.949 l 152.5 118.352 l 204.551 92.75 l 256.648
 95.352 l 308.699 45.699 l S Q
q 1 0 0 -1 0 216 cm
48.352 149 m 48.352 136.449 l S Q
q 1 0 0 -1 0 216 cm
46.5 149 m 50.199 149 l S Q
q 1 0 0 -1 0 216 cm
46.5 136.449 m 50.199 136.449 l S Q
q 1 0 0 -1 0 216 cm
100.449 144.148 m 100.449 117.75 l S Q
q 1 0 0 -1 0 216 cm
98.602 144.148 m 102.301 144.148 l S Q
q 1 0 0 -1 0 216 cm
98.602 117.75 m 102.301 117.75 l S Q
q 1 0 0 -1 0 216 cm
152.5 131.449 m 152.5 105.301 l S Q
q 1 0 0 -1 0 216 cm
150.648 131.449 m 154.352 131.449 l S Q
q 1 0 0 -1 0 216 cm
150.648 105.301 m 154.352 105.301 l S Q
q 1 0 0 -1 0 216 cm
204.551 115.949 m 204.551 69.602 l S Q
q 1 0 0 -1 0 216 cm
202.699 115.949 m 206.398 115.949 l S Q
q 1 0 0 -1 0 216 cm
202.699 69.602 m 206.398 69.602 l S Q
q 1 0 0 -1 0 216 cm
256.648 115.25 m 256.648 75.449 l S Q
q 1 0 0 -1 0 216 cm
254.801 115.25 m 258.5 115.25 l S Q
q 1 0 0 -1 0 216 cm
254.801 75.449 m 258.5 75.449 l S Q
q 1 0 0 -1 0 216 cm
308.699 71 m 308.699 20.449 l S Q
q 1 0 0 -1 0 216 cm
306.852 71 m 310.551 71 l S Q
q 1 0 0 -1 0 216 cm
306.852 20.449 m 310.551 20.449 l S Q
q 1 0 0 -1 0 216 cm
45.352 142.699 m 51.352 142.699 l S Q
q 1 0 0 -1 0 216 cm
48.352 139.699 m 48.352 145.699 l S Q
q 1 0 0 -1 0 216 cm
97.449 130.949 m 103.449 130.949 l S Q
q 1 0 0 -1 0 216 cm
100.449 127.949 m 100.449 133.949 l S Q
q 1 0 0 -1 0 216 cm
149.5 118.352 m 155.5 118.352 l S Q
q 1 0 0 -1 0 216 cm
152.5 115.352 m 152.5 121.352 l S Q
q 1 0 0 -1 0 216 cm
201.551 92.75 m 207.551 92.75 l S Q
q 1 0 0 -1 0 216 cm
204.551 89.75 m 204.551 95.75 l S Q
q 1 0 0 -1 0 216 cm
253.648 95.352 m 259.648 95.352 l S Q
q 1 0 0 -1 0 216 cm
256.648 92.352 m 256.648 98.352 l S Q
q 1 0 0 -1 0 216 cm
305.699 45.699 m 311.699 45.699 l S Q
q 1 0 0 -1 0 216 cm
308.699 42.699 m 308.699 48.699 l S Q
q 1 0 0 -1 0 216 cm
52 19.102 m 58 19.102 l S Q
q 1 0 0 -1 0 216 cm
55 16.102 m 55 22.102 l S Q
0.74902 0.145098 0.172549 rg
q 1 0 0 -1 0 216 cm
42.949 28.398 m 67.051 28.398 l S Q
q 1 0 0 -1 0 216 cm
42.949 26.551 m 42.949 30.25 l S Q
q 1 0 0 -1 0 216 cm
67.051 26.551 m 67.051 30.25 l S Q
q 1 0 0 -1 0 216 cm
53.602 150.801 m 105.648 144.852 l 157.699 146.102 l 209.801 124.25 l 261.852
 126.25 l 313.898 79.352 l S Q
q 1 0 0 -1 0 216 cm
53.602 155.852 m 53.602 145.801 l S Q
q 1 0 0 -1 0 216 cm
51.75 155.852 m 55.449 155.852 l S Q
q 1 0 0 -1 0 216 cm
51.75 145.801 m 55.449 145.801 l S Q
q 1 0 0 -1 0 216 cm
105.648 153.551 m 105.648 136.148 l S Q
q 1 0 0 -1 0 216 cm
103.801 153.551 m 107.5 153.551 l S Q
q 1 0 0 -1 0 216 cm
103.801 136.148 m 107.5 136.148 l S Q
q 1 0 0 -1 0 216 cm
157.699 150.648 m 157.699 141.602 l S Q
q 1 0 0 -1 0 216 cm
155.852 150.648 m 159.551 150.648 l S Q
q 1 0 0 -1 0 216 cm
155.852 141.602 m 159.551 141.602 l S Q
q 1 0 0 -1 0 216 cm
209.801 140.051 m 209.801 108.449 l S Q
q 1 0 0 -1 0 216 cm
207.949 140.051 m 211.648 140.051 l S Q
q 1 0 0 -1 0 216 cm
207.949 108.449 m 211.648 108.449 l S Q
q 1 0 0 -1 0 216 cm
261.852 139.199 m 261.852 113.25 l S Q
q 1 0 0 -1 0 216 cm
260 139.199 m 263.699 139.199 l S Q
q 1 0 0 -1 0 216 cm
260 113.25 m 263.699 113.25 l S Q
q 1 0 0 -1 0 216 cm
313.898 123.5 m 313.898 35.199 l S Q
q 1 0 0 -1 0 216 cm
312.051 123.5 m 315.75 123.5 l S Q
q 1 0 0 -1 0 216 cm
312.051 35.199 m 315.75 35.199 l S Q
q 1 0 0 -1 0 216 cm
50.602 147.801 m 56.602 153.801 l S Q
q 1 0 0 -1 0 216 cm
50.602 153.801 m 56.602 147.801 l S Q
q 1 0 0 -1 0 216 cm
102.648 141.852 m 108.648 147.852 l S Q
q 1 0 0 -1 0 216 cm
102.648 147.852 m 108.648 141.852 l S Q
q 1 0 0 -1 0 216 cm
154.699 143.102 m 160.699 149.102 l S Q
q 1 0 0 -1 0 216 cm
154.699 149.102 m 160.699 143.102 l S Q
q 1 0 0 -1 0 216 cm
206.801 121.25 m 212.801 127.25 l S Q
q 1 0 0 -1 0 216 cm
206.801 127.25 m 212.801 121.25 l S Q
q 1 0 0 -1 0 216 cm
258.852 123.25 m 264.852 129.25 l S Q
q 1 0 0 -1 0 216 cm
258.852 129.25 m 264.852 123.25 l S Q
q 1 0 0 -1 0 216 cm
310.898 76.352 m 316.898 82.352 l S Q
q 1 0 0 -1 0 216 cm
310.898 82.352 m 316.898 76.352 l S Q
q 1 0 0 -1 0 216 cm
52 25.398 m 58 31.398 l S Q
q 1 0 0 -1 0 216 cm
52 31.398 m 58 25.398 l S Q
0 0.65098 0.552941 rg
q 1 0 0 -1 0 216 cm
42.949 37.699 m 67.051 37.699 l S Q
q 1 0 0 -1 0 216 cm
42.949 35.852 m 42.949 39.551 l S Q
q 1 0 0 -1 0 216 cm
67.051 35.852 m 67.051 39.551 l S Q
q 1 0 0 -1 0 216 cm
58.801 153.699 m 110.852 152.5 l 162.898 152.051 l 215 138.898 l 267.051
 141.5 l 319.102 112.148 l S Q
q 1 0 0 -1 0 216 cm
58.801 158.102 m 58.801 149.301 l S Q
q 1 0 0 -1 0 216 cm
56.949 158.102 m 60.648 158.102 l S Q
q 1 0 0 -1 0 216 cm
56.949 149.301 m 60.648 149.301 l S Q
q 1 0 0 -1 0 216 cm
110.852 160.25 m 110.852 144.699 l S Q
q 1 0 0 -1 0 216 cm
109 160.25 m 112.699 160.25 l S Q
q 1 0 0 -1 0 216 cm
109 144.699 m 112.699 144.699 l S Q
q 1 0 0 -1 0 216 cm
162.898 159 m 162.898 145.102 l S Q
q 1 0 0 -1 0 216 cm
161.051 159 m 164.75 159 l S Q
q 1 0 0 -1 0 216 cm
161.051 145.102 m 164.75 145.102 l S Q
q 1 0 0 -1 0 216 cm
215 150 m 215 127.801 l S Q
q 1 0 0 -1 0 216 cm
213.148 150 m 216.852 150 l S Q
q 1 0 0 -1 0 216 cm
213.148 127.801 m 216.852 127.801 l S Q
q 1 0 0 -1 0 216 cm
267.051 153.25 m 267.051 129.699 l S Q
q 1 0 0 -1 0 216 cm
265.199 153.25 m 268.898 153.25 l S Q
q 1 0 0 -1 0 216 cm
265.199 129.699 m 268.898 129.699 l S Q
q 1 0 0 -1 0 216 cm
319.102 149.199 m 319.102 75.148 l S Q
q 1 0 0 -1 0 216 cm
317.25 149.199 m 320.949 149.199 l S Q
q 1 0 0 -1 0 216 cm
317.25 75.148 m 320.949 75.148 l S Q
q 1 0 0 -1 0 216 cm
55.801 153.699 m 61.801 153.699 l S Q
q 1 0 0 -1 0 216 cm
58.801 150.699 m 58.801 156.699 l S Q
q 1 0 0 -1 0 216 cm
55.801 150.699 m 61.801 156.699 l S Q
q 1 0 0 -1 0 216 cm
55.801 156.699 m 61.801 150.699 l S Q
q 1 0 0 -1 0 216 cm
107.852 152.5 m 113.852 152.5 l S Q
q 1 0 0 -1 0 216 cm
110.852 149.5 m 110.852 155.5 l S Q
q 1 0 0 -1 0 216 cm
107.852 149.5 m 113.852 155.5 l S Q
q 1 0 0 -1 0 216 cm
107.852 155.5 m 113.852 149.5 l S Q
q 1 0 0 -1 0 216 cm
159.898 152.051 m 165.898 152.051 l S Q
q 1 0 0 -1 0 216 cm
162.898 149.051 m 162.898 155.051 l S Q
q 1 0 0 -1 0 216 cm
159.898 149.051 m 165.898 155.051 l S Q
q 1 0 0 -1 0 216 cm
159.898 155.051 m 165.898 149.051 l S Q
q 1 0 0 -1 0 216 cm
212 138.898 m 218 138.898 l S Q
q 1 0 0 -1 0 216 cm
215 135.898 m 215 141.898 l S Q
q 1 0 0 -1 0 216 cm
212 135.898 m 218 141.898 l S Q
q 1 0 0 -1 0 216 cm
212 141.898 m 218 135.898 l S Q
q 1 0 0 -1 0 216 cm
264.051 141.5 m 270.051 141.5 l S Q
q 1 0 0 -1 0 216 cm
267.051 138.5 m 267.051 144.5 l S Q
q 1 0 0 -1 0 216 cm
264.051 138.5 m 270.051 144.5 l S Q
q 1 0 0 -1 0 216 cm
264.051 144.5 m 270.051 138.5 l S Q
q 1 0 0 -1 0 216 cm
316.102 112.148 m 322.102 112.148 l S Q
q 1 0 0 -1 0 216 cm
319.102 109.148 m 319.102 115.148 l S Q
q 1 0 0 -1 0 216 cm
316.102 109.148 m 322.102 115.148 l S Q
q 1 0 0 -1 0 216 cm
316.102 115.148 m 322.102 109.148 l S Q
q 1 0 0 -1 0 216 cm
52 37.699 m 58 37.699 l S Q
q 1 0 0 -1 0 216 cm
55 34.699 m 55 40.699 l S Q
q 1 0 0 -1 0 216 cm
52 34.699 m 58 40.699 l S Q
q 1 0 0 -1 0 216 cm
52 40.699 m 58 34.699 l S Q
0.729412 0.0980392 0.545098 rg
q 1 0 0 -1 0 216 cm
42.949 47 m 67.051 47 l S Q
q 1 0 0 -1 0 216 cm
42.949 45.148 m 42.949 48.852 l S Q
q 1 0 0 -1 0 216 cm
67.051 45.148 m 67.051 48.852 l S Q
q 1 0 0 -1 0 216 cm
64 154.852 m 116.051 144.102 l 168.102 154.301 l 220.199 137.449 l 272.25
 153.801 l 324.301 127.75 l S Q
q 1 0 0 -1 0 216 cm
64 158.801 m 64 150.898 l S Q
q 1 0 0 -1 0 216 cm
62.148 158.801 m 65.852 158.801 l S Q
q 1 0 0 -1 0 216 cm
62.148 150.898 m 65.852 150.898 l S Q
q 1 0 0 -1 0 216 cm
116.051 175.801 m 116.051 112.398 l S Q
q 1 0 0 -1 0 216 cm
114.199 175.801 m 117.898 175.801 l S Q
q 1 0 0 -1 0 216 cm
114.199 112.398 m 117.898 112.398 l S Q
q 1 0 0 -1 0 216 cm
168.102 160.449 m 168.102 148.148 l S Q
q 1 0 0 -1 0 216 cm
166.25 160.449 m 169.949 160.449 l S Q
q 1 0 0 -1 0 216 cm
166.25 148.148 m 169.949 148.148 l S Q
q 1 0 0 -1 0 216 cm
220.199 171 m 220.199 103.898 l S Q
q 1 0 0 -1 0 216 cm
218.352 171 m 222.051 171 l S Q
q 1 0 0 -1 0 216 cm
218.352 103.898 m 222.051 103.898 l S Q
q 1 0 0 -1 0 216 cm
272.25 162.301 m 272.25 145.301 l S Q
q 1 0 0 -1 0 216 cm
270.398 162.301 m 274.102 162.301 l S Q
q 1 0 0 -1 0 216 cm
270.398 145.301 m 274.102 145.301 l S Q
q 1 0 0 -1 0 216 cm
324.301 157.148 m 324.301 98.398 l S Q
q 1 0 0 -1 0 216 cm
322.449 157.148 m 326.148 157.148 l S Q
q 1 0 0 -1 0 216 cm
322.449 98.398 m 326.148 98.398 l S Q
q 1 0 0 -1 0 216 cm
61 151.852 6 6 re S Q
q 1 0 0 -1 0 216 cm
113.051 141.102 6 6 re S Q
q 1 0 0 -1 0 216 cm
165.102 151.301 6 6 re S Q
q 1 0 0 -1 0 216 cm
217.199 134.449 6 6 re S Q
q 1 0 0 -1 0 216 cm
269.25 150.801 6 6 re S Q
q 1 0 0 -1 0 216 cm
321.301 124.75 6 6 re S Q
q 1 0 0 -1 0 216 cm
52 44 6 6 re S Q
0.690196 0.517647 0.2 rg
q 1 0 0 -1 0 216 cm
42.949 56.301 m 67.051 56.301 l S Q
q 1 0 0 -1 0 216 cm
42.949 54.449 m 42.949 58.148 l S Q
q 1 0 0 -1 0 216 cm
67.051 54.449 m 67.051 58.148 l S Q
q 1 0 0 -1 0 216 cm
69.199 155.398 m 121.25 156.352 l 173.352 158.102 l 225.398 149.949 l 277.449
 157.801 l 329.551 75.051 l S Q
q 1 0 0 -1 0 216 cm
69.199 158.699 m 69.199 152.148 l S Q
q 1 0 0 -1 0 216 cm
67.352 158.699 m 71.051 158.699 l S Q
q 1 0 0 -1 0 216 cm
67.352 152.148 m 71.051 152.148 l S Q
q 1 0 0 -1 0 216 cm
121.25 162.102 m 121.25 150.602 l S Q
q 1 0 0 -1 0 216 cm
119.398 162.102 m 123.102 162.102 l S Q
q 1 0 0 -1 0 216 cm
119.398 150.602 m 123.102 150.602 l S Q
q 1 0 0 -1 0 216 cm
173.352 162.898 m 173.352 153.25 l S Q
q 1 0 0 -1 0 216 cm
171.5 162.898 m 175.199 162.898 l S Q
q 1 0 0 -1 0 216 cm
171.5 153.25 m 175.199 153.25 l S Q
q 1 0 0 -1 0 216 cm
225.398 157.602 m 225.398 142.352 l S Q
q 1 0 0 -1 0 216 cm
223.551 157.602 m 227.25 157.602 l S Q
q 1 0 0 -1 0 216 cm
223.551 142.352 m 227.25 142.352 l S Q
q 1 0 0 -1 0 216 cm
277.449 163.648 m 277.449 151.949 l S Q
q 1 0 0 -1 0 216 cm
275.602 163.648 m 279.301 163.648 l S Q
q 1 0 0 -1 0 216 cm
275.602 151.949 m 279.301 151.949 l S Q
q 1 0 0 -1 0 216 cm
329.551 186.75 m 329.551 10.75 l S Q
66.199 63.602 6 -6 re f
q 1 0 0 -1 0 216 cm
66.199 152.398 6 6 re S Q
118.25 62.648 6 -6 re f
q 1 0 0 -1 0 216 cm
118.25 153.352 6 6 re S Q
170.352 60.898 6 -6 re f
q 1 0 0 -1 0 216 cm
170.352 155.102 6 6 re S Q
222.398 69.051 6 -6 re f
q 1 0 0 -1 0 216 cm
222.398 146.949 6 6 re S Q
274.449 61.199 6 -6 re f
q 1 0 0 -1 0 216 cm
274.449 154.801 6 6 re S Q
326.551 143.949 6 -6 re f
q 1 0 0 -1 0 216 cm
326.551 72.051 6 6 re S Q
52 162.699 6 -6 re f
q 1 0 0 -1 0 216 cm
52 53.301 6 6 re S Q
0 g
q 1 0 0 -1 0 216 cm
32.75 10.75 312.398 176 re S Q
Q Q
showpage
%%Trailer
end restore
%%EOF
