%!PS-Adobe-3.0 EPSF-3.0
%%Creator: cairo 1.13.1 (http://cairographics.org)
%%CreationDate: Fri May 20 09:13:05 2016
%%Pages: 1
%%DocumentData: Clean7Bit
%%LanguageLevel: 2
%%BoundingBox: 0 0 360 216
%%EndComments
%%BeginProlog
save
50 dict begin
/q { gsave } bind def
/Q { grestore } bind def
/cm { 6 array astore concat } bind def
/w { setlinewidth } bind def
/J { setlinecap } bind def
/j { setlinejoin } bind def
/M { setmiterlimit } bind def
/d { setdash } bind def
/m { moveto } bind def
/l { lineto } bind def
/c { curveto } bind def
/h { closepath } bind def
/re { exch dup neg 3 1 roll 5 3 roll moveto 0 rlineto
      0 exch rlineto 0 rlineto closepath } bind def
/S { stroke } bind def
/f { fill } bind def
/f* { eofill } bind def
/n { newpath } bind def
/W { clip } bind def
/W* { eoclip } bind def
/BT { } bind def
/ET { } bind def
/pdfmark where { pop globaldict /?pdfmark /exec load put }
    { globaldict begin /?pdfmark /pop load def /pdfmark
    /cleartomark load def end } ifelse
/BDC { mark 3 1 roll /BDC pdfmark } bind def
/EMC { mark /EMC pdfmark } bind def
/cairo_store_point { /cairo_point_y exch def /cairo_point_x exch def } def
/Tj { show currentpoint cairo_store_point } bind def
/TJ {
  {
    dup
    type /stringtype eq
    { show } { -0.001 mul 0 cairo_font_matrix dtransform rmoveto } ifelse
  } forall
  currentpoint cairo_store_point
} bind def
/cairo_selectfont { cairo_font_matrix aload pop pop pop 0 0 6 array astore
    cairo_font exch selectfont cairo_point_x cairo_point_y moveto } bind def
/Tf { pop /cairo_font exch def /cairo_font_matrix where
      { pop cairo_selectfont } if } bind def
/Td { matrix translate cairo_font_matrix matrix concatmatrix dup
      /cairo_font_matrix exch def dup 4 get exch 5 get cairo_store_point
      /cairo_font where { pop cairo_selectfont } if } bind def
/Tm { 2 copy 8 2 roll 6 array astore /cairo_font_matrix exch def
      cairo_store_point /cairo_font where { pop cairo_selectfont } if } bind def
/g { setgray } bind def
/rg { setrgbcolor } bind def
/d1 { setcachedevice } bind def
%%EndProlog
%%BeginSetup
%%EndSetup
%%Page: 1 1
%%BeginPageSetup
%%PageBoundingBox: 0 0 360 216
%%EndPageSetup
q 41 29 306 177 rectclip q
0 g
0.15 w
2 J
0 j
[ 0.2 2] 0 d
3.8 M q 1 0 0 -1 0 216 cm
42.949 186.75 m 345.148 186.75 l S Q
0.25 w
[] 0.0 d
q 1 0 0 -1 0 216 cm
42.949 186.75 m 46.648 186.75 l S Q
q 1 0 0 -1 0 216 cm
345.148 186.75 m 341.449 186.75 l S Q
0.15 w
[ 0.2 2] 0 d
q 1 0 0 -1 0 216 cm
42.949 161.602 m 345.148 161.602 l S Q
0.25 w
[] 0.0 d
q 1 0 0 -1 0 216 cm
42.949 161.602 m 46.648 161.602 l S Q
q 1 0 0 -1 0 216 cm
345.148 161.602 m 341.449 161.602 l S Q
0.15 w
[ 0.2 2] 0 d
q 1 0 0 -1 0 216 cm
42.949 136.449 m 345.148 136.449 l S Q
0.25 w
[] 0.0 d
q 1 0 0 -1 0 216 cm
42.949 136.449 m 46.648 136.449 l S Q
q 1 0 0 -1 0 216 cm
345.148 136.449 m 341.449 136.449 l S Q
0.15 w
[ 0.2 2] 0 d
q 1 0 0 -1 0 216 cm
42.949 111.301 m 345.148 111.301 l S Q
0.25 w
[] 0.0 d
q 1 0 0 -1 0 216 cm
42.949 111.301 m 46.648 111.301 l S Q
q 1 0 0 -1 0 216 cm
345.148 111.301 m 341.449 111.301 l S Q
0.15 w
[ 0.2 2] 0 d
q 1 0 0 -1 0 216 cm
42.949 86.199 m 345.148 86.199 l S Q
0.25 w
[] 0.0 d
q 1 0 0 -1 0 216 cm
42.949 86.199 m 46.648 86.199 l S Q
q 1 0 0 -1 0 216 cm
345.148 86.199 m 341.449 86.199 l S Q
0.15 w
[ 0.2 2] 0 d
q 1 0 0 -1 0 216 cm
42.949 61.051 m 345.148 61.051 l S Q
0.25 w
[] 0.0 d
q 1 0 0 -1 0 216 cm
42.949 61.051 m 46.648 61.051 l S Q
q 1 0 0 -1 0 216 cm
345.148 61.051 m 341.449 61.051 l S Q
0.15 w
[ 0.2 2] 0 d
q 1 0 0 -1 0 216 cm
42.949 35.898 m 345.148 35.898 l S Q
0.25 w
[] 0.0 d
q 1 0 0 -1 0 216 cm
42.949 35.898 m 46.648 35.898 l S Q
q 1 0 0 -1 0 216 cm
345.148 35.898 m 341.449 35.898 l S Q
0.15 w
[ 0.2 2] 0 d
q 1 0 0 -1 0 216 cm
42.949 10.75 m 345.148 10.75 l S Q
0.25 w
[] 0.0 d
q 1 0 0 -1 0 216 cm
42.949 10.75 m 46.648 10.75 l S Q
q 1 0 0 -1 0 216 cm
345.148 10.75 m 341.449 10.75 l S Q
q 1 0 0 -1 0 216 cm
42.949 186.75 m 42.949 184.898 l S Q
q 1 0 0 -1 0 216 cm
42.949 10.75 m 42.949 12.602 l S Q
q 1 0 0 -1 0 216 cm
60.75 186.75 m 60.75 184.898 l S Q
q 1 0 0 -1 0 216 cm
60.75 10.75 m 60.75 12.602 l S Q
0.15 w
[ 0.2 2] 0 d
q 1 0 0 -1 0 216 cm
78.5 186.75 m 78.5 10.75 l S Q
0.25 w
[] 0.0 d
q 1 0 0 -1 0 216 cm
78.5 186.75 m 78.5 183.051 l S Q
q 1 0 0 -1 0 216 cm
78.5 10.75 m 78.5 14.449 l S Q
q 1 0 0 -1 0 216 cm
96.301 186.75 m 96.301 184.898 l S Q
q 1 0 0 -1 0 216 cm
96.301 10.75 m 96.301 12.602 l S Q
q 1 0 0 -1 0 216 cm
114.051 186.75 m 114.051 184.898 l S Q
q 1 0 0 -1 0 216 cm
114.051 10.75 m 114.051 12.602 l S Q
q 1 0 0 -1 0 216 cm
131.852 186.75 m 131.852 184.898 l S Q
q 1 0 0 -1 0 216 cm
131.852 10.75 m 131.852 12.602 l S Q
q 1 0 0 -1 0 216 cm
149.602 186.75 m 149.602 184.898 l S Q
q 1 0 0 -1 0 216 cm
149.602 10.75 m 149.602 12.602 l S Q
0.15 w
[ 0.2 2] 0 d
q 1 0 0 -1 0 216 cm
167.398 186.75 m 167.398 10.75 l S Q
0.25 w
[] 0.0 d
q 1 0 0 -1 0 216 cm
167.398 186.75 m 167.398 183.051 l S Q
q 1 0 0 -1 0 216 cm
167.398 10.75 m 167.398 14.449 l S Q
q 1 0 0 -1 0 216 cm
185.148 186.75 m 185.148 184.898 l S Q
q 1 0 0 -1 0 216 cm
185.148 10.75 m 185.148 12.602 l S Q
q 1 0 0 -1 0 216 cm
202.949 186.75 m 202.949 184.898 l S Q
q 1 0 0 -1 0 216 cm
202.949 10.75 m 202.949 12.602 l S Q
q 1 0 0 -1 0 216 cm
220.699 186.75 m 220.699 184.898 l S Q
q 1 0 0 -1 0 216 cm
220.699 10.75 m 220.699 12.602 l S Q
q 1 0 0 -1 0 216 cm
238.5 186.75 m 238.5 184.898 l S Q
q 1 0 0 -1 0 216 cm
238.5 10.75 m 238.5 12.602 l S Q
0.15 w
[ 0.2 2] 0 d
q 1 0 0 -1 0 216 cm
256.25 186.75 m 256.25 10.75 l S Q
0.25 w
[] 0.0 d
q 1 0 0 -1 0 216 cm
256.25 186.75 m 256.25 183.051 l S Q
q 1 0 0 -1 0 216 cm
256.25 10.75 m 256.25 14.449 l S Q
q 1 0 0 -1 0 216 cm
274.051 186.75 m 274.051 184.898 l S Q
q 1 0 0 -1 0 216 cm
274.051 10.75 m 274.051 12.602 l S Q
q 1 0 0 -1 0 216 cm
291.801 186.75 m 291.801 184.898 l S Q
q 1 0 0 -1 0 216 cm
291.801 10.75 m 291.801 12.602 l S Q
q 1 0 0 -1 0 216 cm
309.602 186.75 m 309.602 184.898 l S Q
q 1 0 0 -1 0 216 cm
309.602 10.75 m 309.602 12.602 l S Q
q 1 0 0 -1 0 216 cm
327.352 186.75 m 327.352 184.898 l S Q
q 1 0 0 -1 0 216 cm
327.352 10.75 m 327.352 12.602 l S Q
0.15 w
[ 0.2 2] 0 d
q 1 0 0 -1 0 216 cm
345.148 186.75 m 345.148 10.75 l S Q
0.25 w
[] 0.0 d
q 1 0 0 -1 0 216 cm
345.148 186.75 m 345.148 183.051 l S Q
q 1 0 0 -1 0 216 cm
345.148 10.75 m 345.148 14.449 l S Q
q 1 0 0 -1 0 216 cm
42.949 10.75 302.199 176 re S Q
q 1 0 0 -1 0 216 cm
42.949 111.301 m 345.148 111.301 l S Q
0.533333 g
2.5 w
q 1 0 0 -1 0 216 cm
42.949 125.801 m 46 125.602 l 49.051 125.398 l 52.102 125.148 l 55.148 
124.949 l 64.301 124.352 l 67.352 124.102 l 70.398 123.898 l 73.5 123.699
 l 76.551 123.5 l 79.602 123.25 l 82.648 123.051 l 85.699 122.852 l 88.75
 122.648 l 91.801 122.449 l 94.852 122.199 l 97.898 122 l 104 121.602 l 
107.051 121.398 l 110.102 121.148 l 113.148 120.949 l 119.25 120.551 l 122.301
 120.301 l 125.352 120.102 l 128.398 119.898 l 131.449 119.699 l 134.551
 119.5 l 137.602 119.25 l 140.648 119.051 l 143.699 118.852 l 146.75 118.648
 l 149.801 118.398 l 152.852 118.199 l 155.898 118 l 162 117.602 l 165.051
 117.352 l 168.102 117.148 l 171.148 116.949 l 174.199 116.75 l 177.25 116.5
 l 183.352 116.102 l 186.398 115.898 l 189.449 115.699 l 192.5 115.449 l
 195.602 115.25 l 198.648 115.051 l 201.699 114.852 l 204.75 114.648 l 207.801
 114.398 l 210.852 114.199 l 213.898 114 l 216.949 113.801 l 220 113.551
 l 223.051 113.352 l 226.102 113.148 l 229.148 112.949 l 232.199 112.75 
l 235.25 112.5 l 241.352 112.102 l 244.398 111.898 l 247.449 111.648 l 253.551
 111.25 l 256.648 111.051 l 259.699 110.852 l 262.75 110.602 l 265.801 110.398
 l 268.852 110.199 l 271.898 110 l 274.949 109.801 l 278 109.551 l 281.051
 109.352 l 284.102 109.148 l 287.148 108.949 l 290.199 108.699 l 299.352
 108.102 l 302.398 107.898 l 305.449 107.648 l 314.602 107.051 l 317.699
 106.801 l 320.75 106.602 l 323.801 106.398 l 326.852 106.199 l 329.898 
106 l 332.949 105.75 l 339.051 105.352 l 342.102 105.148 l 345.148 104.898
 l S Q
0.172549 0.462745 0.733333 rg
0.25 w
q 1 0 0 -1 0 216 cm
226.449 143.75 m 232.449 143.75 l S Q
q 1 0 0 -1 0 216 cm
229.449 140.75 m 229.449 146.75 l S Q
q 1 0 0 -1 0 216 cm
327.5 48.801 m 333.5 48.801 l S Q
q 1 0 0 -1 0 216 cm
330.5 45.801 m 330.5 51.801 l S Q
q 1 0 0 -1 0 216 cm
61.648 124.449 m 67.648 124.449 l S Q
q 1 0 0 -1 0 216 cm
64.648 121.449 m 64.648 127.449 l S Q
q 1 0 0 -1 0 216 cm
307.898 110.199 m 313.898 110.199 l S Q
q 1 0 0 -1 0 216 cm
310.898 107.199 m 310.898 113.199 l S Q
q 1 0 0 -1 0 216 cm
216.352 136.301 m 222.352 136.301 l S Q
q 1 0 0 -1 0 216 cm
219.352 133.301 m 219.352 139.301 l S Q
q 1 0 0 -1 0 216 cm
179.852 98.148 m 185.852 98.148 l S Q
q 1 0 0 -1 0 216 cm
182.852 95.148 m 182.852 101.148 l S Q
q 1 0 0 -1 0 216 cm
186 118.199 m 192 118.199 l S Q
q 1 0 0 -1 0 216 cm
189 115.199 m 189 121.199 l S Q
q 1 0 0 -1 0 216 cm
331.801 101.602 m 337.801 101.602 l S Q
q 1 0 0 -1 0 216 cm
334.801 98.602 m 334.801 104.602 l S Q
q 1 0 0 -1 0 216 cm
54.199 107.5 m 60.199 107.5 l S Q
q 1 0 0 -1 0 216 cm
57.199 104.5 m 57.199 110.5 l S Q
q 1 0 0 -1 0 216 cm
321.648 111.801 m 327.648 111.801 l S Q
q 1 0 0 -1 0 216 cm
324.648 108.801 m 324.648 114.801 l S Q
q 1 0 0 -1 0 216 cm
174.449 128.949 m 180.449 128.949 l S Q
q 1 0 0 -1 0 216 cm
177.449 125.949 m 177.449 131.949 l S Q
q 1 0 0 -1 0 216 cm
325.699 97.398 m 331.699 97.398 l S Q
q 1 0 0 -1 0 216 cm
328.699 94.398 m 328.699 100.398 l S Q
q 1 0 0 -1 0 216 cm
137.551 118.449 m 143.551 118.449 l S Q
q 1 0 0 -1 0 216 cm
140.551 115.449 m 140.551 121.449 l S Q
q 1 0 0 -1 0 216 cm
60.102 120.449 m 66.102 120.449 l S Q
q 1 0 0 -1 0 216 cm
63.102 117.449 m 63.102 123.449 l S Q
q 1 0 0 -1 0 216 cm
234.148 117.699 m 240.148 117.699 l S Q
q 1 0 0 -1 0 216 cm
237.148 114.699 m 237.148 120.699 l S Q
q 1 0 0 -1 0 216 cm
191.648 104.75 m 197.648 104.75 l S Q
q 1 0 0 -1 0 216 cm
194.648 101.75 m 194.648 107.75 l S Q
q 1 0 0 -1 0 216 cm
48.102 128.852 m 54.102 128.852 l S Q
q 1 0 0 -1 0 216 cm
51.102 125.852 m 51.102 131.852 l S Q
q 1 0 0 -1 0 216 cm
218.602 92.898 m 224.602 92.898 l S Q
q 1 0 0 -1 0 216 cm
221.602 89.898 m 221.602 95.898 l S Q
q 1 0 0 -1 0 216 cm
134.25 117.5 m 140.25 117.5 l S Q
q 1 0 0 -1 0 216 cm
137.25 114.5 m 137.25 120.5 l S Q
q 1 0 0 -1 0 216 cm
197.699 131.648 m 203.699 131.648 l S Q
q 1 0 0 -1 0 216 cm
200.699 128.648 m 200.699 134.648 l S Q
q 1 0 0 -1 0 216 cm
127 97.801 m 133 97.801 l S Q
q 1 0 0 -1 0 216 cm
130 94.801 m 130 100.801 l S Q
q 1 0 0 -1 0 216 cm
248.148 114.699 m 254.148 114.699 l S Q
q 1 0 0 -1 0 216 cm
251.148 111.699 m 251.148 117.699 l S Q
q 1 0 0 -1 0 216 cm
257.602 129.25 m 263.602 129.25 l S Q
q 1 0 0 -1 0 216 cm
260.602 126.25 m 260.602 132.25 l S Q
q 1 0 0 -1 0 216 cm
65.5 119.25 m 71.5 119.25 l S Q
q 1 0 0 -1 0 216 cm
68.5 116.25 m 68.5 122.25 l S Q
q 1 0 0 -1 0 216 cm
151.898 109.148 m 157.898 109.148 l S Q
q 1 0 0 -1 0 216 cm
154.898 106.148 m 154.898 112.148 l S Q
q 1 0 0 -1 0 216 cm
314.102 122.199 m 320.102 122.199 l S Q
q 1 0 0 -1 0 216 cm
317.102 119.199 m 317.102 125.199 l S Q
q 1 0 0 -1 0 216 cm
320.449 122.648 m 326.449 122.648 l S Q
q 1 0 0 -1 0 216 cm
323.449 119.648 m 323.449 125.648 l S Q
q 1 0 0 -1 0 216 cm
108.102 135.102 m 114.102 135.102 l S Q
q 1 0 0 -1 0 216 cm
111.102 132.102 m 111.102 138.102 l S Q
q 1 0 0 -1 0 216 cm
162.5 147 m 168.5 147 l S Q
q 1 0 0 -1 0 216 cm
165.5 144 m 165.5 150 l S Q
q 1 0 0 -1 0 216 cm
102.551 102.301 m 108.551 102.301 l S Q
q 1 0 0 -1 0 216 cm
105.551 99.301 m 105.551 105.301 l S Q
q 1 0 0 -1 0 216 cm
192.551 126.699 m 198.551 126.699 l S Q
q 1 0 0 -1 0 216 cm
195.551 123.699 m 195.551 129.699 l S Q
q 1 0 0 -1 0 216 cm
259.648 94.801 m 265.648 94.801 l S Q
q 1 0 0 -1 0 216 cm
262.648 91.801 m 262.648 97.801 l S Q
q 1 0 0 -1 0 216 cm
55.199 110.949 m 61.199 110.949 l S Q
q 1 0 0 -1 0 216 cm
58.199 107.949 m 58.199 113.949 l S Q
q 1 0 0 -1 0 216 cm
150.25 104.898 m 156.25 104.898 l S Q
q 1 0 0 -1 0 216 cm
153.25 101.898 m 153.25 107.898 l S Q
q 1 0 0 -1 0 216 cm
118.602 111.699 m 124.602 111.699 l S Q
q 1 0 0 -1 0 216 cm
121.602 108.699 m 121.602 114.699 l S Q
q 1 0 0 -1 0 216 cm
122.852 112.852 m 128.852 112.852 l S Q
q 1 0 0 -1 0 216 cm
125.852 109.852 m 125.852 115.852 l S Q
q 1 0 0 -1 0 216 cm
58.352 134.949 m 64.352 134.949 l S Q
q 1 0 0 -1 0 216 cm
61.352 131.949 m 61.352 137.949 l S Q
q 1 0 0 -1 0 216 cm
255.648 128.602 m 261.648 128.602 l S Q
q 1 0 0 -1 0 216 cm
258.648 125.602 m 258.648 131.602 l S Q
q 1 0 0 -1 0 216 cm
215.602 113.449 m 221.602 113.449 l S Q
q 1 0 0 -1 0 216 cm
218.602 110.449 m 218.602 116.449 l S Q
q 1 0 0 -1 0 216 cm
195.852 114.449 m 201.852 114.449 l S Q
q 1 0 0 -1 0 216 cm
198.852 111.449 m 198.852 117.449 l S Q
q 1 0 0 -1 0 216 cm
72.75 111.199 m 78.75 111.199 l S Q
q 1 0 0 -1 0 216 cm
75.75 108.199 m 75.75 114.199 l S Q
q 1 0 0 -1 0 216 cm
131.352 97.102 m 137.352 97.102 l S Q
q 1 0 0 -1 0 216 cm
134.352 94.102 m 134.352 100.102 l S Q
q 1 0 0 -1 0 216 cm
145.801 119.301 m 151.801 119.301 l S Q
q 1 0 0 -1 0 216 cm
148.801 116.301 m 148.801 122.301 l S Q
q 1 0 0 -1 0 216 cm
218.75 117.25 m 224.75 117.25 l S Q
q 1 0 0 -1 0 216 cm
221.75 114.25 m 221.75 120.25 l S Q
q 1 0 0 -1 0 216 cm
283.648 123.148 m 289.648 123.148 l S Q
q 1 0 0 -1 0 216 cm
286.648 120.148 m 286.648 126.148 l S Q
q 1 0 0 -1 0 216 cm
234.648 126.352 m 240.648 126.352 l S Q
q 1 0 0 -1 0 216 cm
237.648 123.352 m 237.648 129.352 l S Q
q 1 0 0 -1 0 216 cm
101.301 114.5 m 107.301 114.5 l S Q
q 1 0 0 -1 0 216 cm
104.301 111.5 m 104.301 117.5 l S Q
q 1 0 0 -1 0 216 cm
85.551 100.898 m 91.551 100.898 l S Q
q 1 0 0 -1 0 216 cm
88.551 97.898 m 88.551 103.898 l S Q
q 1 0 0 -1 0 216 cm
73.551 135 m 79.551 135 l S Q
q 1 0 0 -1 0 216 cm
76.551 132 m 76.551 138 l S Q
q 1 0 0 -1 0 216 cm
291.199 108.75 m 297.199 108.75 l S Q
q 1 0 0 -1 0 216 cm
294.199 105.75 m 294.199 111.75 l S Q
q 1 0 0 -1 0 216 cm
188.199 114.352 m 194.199 114.352 l S Q
q 1 0 0 -1 0 216 cm
191.199 111.352 m 191.199 117.352 l S Q
q 1 0 0 -1 0 216 cm
257.051 108.051 m 263.051 108.051 l S Q
q 1 0 0 -1 0 216 cm
260.051 105.051 m 260.051 111.051 l S Q
q 1 0 0 -1 0 216 cm
261.898 110.852 m 267.898 110.852 l S Q
q 1 0 0 -1 0 216 cm
264.898 107.852 m 264.898 113.852 l S Q
q 1 0 0 -1 0 216 cm
182.25 130.102 m 188.25 130.102 l S Q
q 1 0 0 -1 0 216 cm
185.25 127.102 m 185.25 133.102 l S Q
q 1 0 0 -1 0 216 cm
300.398 48 m 306.398 48 l S Q
q 1 0 0 -1 0 216 cm
303.398 45 m 303.398 51 l S Q
q 1 0 0 -1 0 216 cm
136.449 130.949 m 142.449 130.949 l S Q
q 1 0 0 -1 0 216 cm
139.449 127.949 m 139.449 133.949 l S Q
q 1 0 0 -1 0 216 cm
197.449 98.75 m 203.449 98.75 l S Q
q 1 0 0 -1 0 216 cm
200.449 95.75 m 200.449 101.75 l S Q
q 1 0 0 -1 0 216 cm
220.852 122.898 m 226.852 122.898 l S Q
q 1 0 0 -1 0 216 cm
223.852 119.898 m 223.852 125.898 l S Q
q 1 0 0 -1 0 216 cm
74.051 122.898 m 80.051 122.898 l S Q
q 1 0 0 -1 0 216 cm
77.051 119.898 m 77.051 125.898 l S Q
q 1 0 0 -1 0 216 cm
62.102 117.148 m 68.102 117.148 l S Q
q 1 0 0 -1 0 216 cm
65.102 114.148 m 65.102 120.148 l S Q
q 1 0 0 -1 0 216 cm
92.398 113.75 m 98.398 113.75 l S Q
q 1 0 0 -1 0 216 cm
95.398 110.75 m 95.398 116.75 l S Q
q 1 0 0 -1 0 216 cm
292.75 151.602 m 298.75 151.602 l S Q
q 1 0 0 -1 0 216 cm
295.75 148.602 m 295.75 154.602 l S Q
q 1 0 0 -1 0 216 cm
260.5 90.5 m 266.5 90.5 l S Q
q 1 0 0 -1 0 216 cm
263.5 87.5 m 263.5 93.5 l S Q
q 1 0 0 -1 0 216 cm
328.551 118.051 m 334.551 118.051 l S Q
q 1 0 0 -1 0 216 cm
331.551 115.051 m 331.551 121.051 l S Q
q 1 0 0 -1 0 216 cm
336.199 98.051 m 342.199 98.051 l S Q
q 1 0 0 -1 0 216 cm
339.199 95.051 m 339.199 101.051 l S Q
q 1 0 0 -1 0 216 cm
284.648 138.551 m 290.648 138.551 l S Q
q 1 0 0 -1 0 216 cm
287.648 135.551 m 287.648 141.551 l S Q
q 1 0 0 -1 0 216 cm
267.25 113.801 m 273.25 113.801 l S Q
q 1 0 0 -1 0 216 cm
270.25 110.801 m 270.25 116.801 l S Q
q 1 0 0 -1 0 216 cm
145.199 102.051 m 151.199 102.051 l S Q
q 1 0 0 -1 0 216 cm
148.199 99.051 m 148.199 105.051 l S Q
q 1 0 0 -1 0 216 cm
208.898 104.051 m 214.898 104.051 l S Q
q 1 0 0 -1 0 216 cm
211.898 101.051 m 211.898 107.051 l S Q
q 1 0 0 -1 0 216 cm
268.648 115.352 m 274.648 115.352 l S Q
q 1 0 0 -1 0 216 cm
271.648 112.352 m 271.648 118.352 l S Q
q 1 0 0 -1 0 216 cm
296.25 118.852 m 302.25 118.852 l S Q
q 1 0 0 -1 0 216 cm
299.25 115.852 m 299.25 121.852 l S Q
q 1 0 0 -1 0 216 cm
205.25 99.898 m 211.25 99.898 l S Q
q 1 0 0 -1 0 216 cm
208.25 96.898 m 208.25 102.898 l S Q
q 1 0 0 -1 0 216 cm
192.75 128.301 m 198.75 128.301 l S Q
q 1 0 0 -1 0 216 cm
195.75 125.301 m 195.75 131.301 l S Q
q 1 0 0 -1 0 216 cm
293.5 89 m 299.5 89 l S Q
q 1 0 0 -1 0 216 cm
296.5 86 m 296.5 92 l S Q
q 1 0 0 -1 0 216 cm
337.699 148.801 m 343.699 148.801 l S Q
q 1 0 0 -1 0 216 cm
340.699 145.801 m 340.699 151.801 l S Q
q 1 0 0 -1 0 216 cm
127.551 116.648 m 133.551 116.648 l S Q
q 1 0 0 -1 0 216 cm
130.551 113.648 m 130.551 119.648 l S Q
q 1 0 0 -1 0 216 cm
258.398 111.75 m 264.398 111.75 l S Q
q 1 0 0 -1 0 216 cm
261.398 108.75 m 261.398 114.75 l S Q
q 1 0 0 -1 0 216 cm
128.148 103.602 m 134.148 103.602 l S Q
q 1 0 0 -1 0 216 cm
131.148 100.602 m 131.148 106.602 l S Q
q 1 0 0 -1 0 216 cm
112.051 106.449 m 118.051 106.449 l S Q
q 1 0 0 -1 0 216 cm
115.051 103.449 m 115.051 109.449 l S Q
q 1 0 0 -1 0 216 cm
116.551 129.852 m 122.551 129.852 l S Q
q 1 0 0 -1 0 216 cm
119.551 126.852 m 119.551 132.852 l S Q
q 1 0 0 -1 0 216 cm
215.398 97.898 m 221.398 97.898 l S Q
q 1 0 0 -1 0 216 cm
218.398 94.898 m 218.398 100.898 l S Q
q 1 0 0 -1 0 216 cm
120.898 166 m 126.898 166 l S Q
q 1 0 0 -1 0 216 cm
123.898 163 m 123.898 169 l S Q
q 1 0 0 -1 0 216 cm
87.051 111 m 93.051 111 l S Q
q 1 0 0 -1 0 216 cm
90.051 108 m 90.051 114 l S Q
q 1 0 0 -1 0 216 cm
51.25 129.551 m 57.25 129.551 l S Q
q 1 0 0 -1 0 216 cm
54.25 126.551 m 54.25 132.551 l S Q
q 1 0 0 -1 0 216 cm
214.602 141.148 m 220.602 141.148 l S Q
q 1 0 0 -1 0 216 cm
217.602 138.148 m 217.602 144.148 l S Q
q 1 0 0 -1 0 216 cm
72.5 115 m 78.5 115 l S Q
q 1 0 0 -1 0 216 cm
75.5 112 m 75.5 118 l S Q
q 1 0 0 -1 0 216 cm
210.301 117.102 m 216.301 117.102 l S Q
q 1 0 0 -1 0 216 cm
213.301 114.102 m 213.301 120.102 l S Q
q 1 0 0 -1 0 216 cm
101.102 147.301 m 107.102 147.301 l S Q
q 1 0 0 -1 0 216 cm
104.102 144.301 m 104.102 150.301 l S Q
q 1 0 0 -1 0 216 cm
328.199 114.051 m 334.199 114.051 l S Q
q 1 0 0 -1 0 216 cm
331.199 111.051 m 331.199 117.051 l S Q
q 1 0 0 -1 0 216 cm
80.352 121.602 m 86.352 121.602 l S Q
q 1 0 0 -1 0 216 cm
83.352 118.602 m 83.352 124.602 l S Q
q 1 0 0 -1 0 216 cm
149.949 121 m 155.949 121 l S Q
q 1 0 0 -1 0 216 cm
152.949 118 m 152.949 124 l S Q
q 1 0 0 -1 0 216 cm
316.648 136.852 m 322.648 136.852 l S Q
q 1 0 0 -1 0 216 cm
319.648 133.852 m 319.648 139.852 l S Q
q 1 0 0 -1 0 216 cm
272 119.648 m 278 119.648 l S Q
q 1 0 0 -1 0 216 cm
275 116.648 m 275 122.648 l S Q
q 1 0 0 -1 0 216 cm
292.301 93.102 m 298.301 93.102 l S Q
q 1 0 0 -1 0 216 cm
295.301 90.102 m 295.301 96.102 l S Q
q 1 0 0 -1 0 216 cm
233.949 128.602 m 239.949 128.602 l S Q
q 1 0 0 -1 0 216 cm
236.949 125.602 m 236.949 131.602 l S Q
q 1 0 0 -1 0 216 cm
321.352 105.648 m 327.352 105.648 l S Q
q 1 0 0 -1 0 216 cm
324.352 102.648 m 324.352 108.648 l S Q
q 1 0 0 -1 0 216 cm
109.25 117.051 m 115.25 117.051 l S Q
q 1 0 0 -1 0 216 cm
112.25 114.051 m 112.25 120.051 l S Q
q 1 0 0 -1 0 216 cm
142.699 129.949 m 148.699 129.949 l S Q
q 1 0 0 -1 0 216 cm
145.699 126.949 m 145.699 132.949 l S Q
q 1 0 0 -1 0 216 cm
208.602 110.148 m 214.602 110.148 l S Q
q 1 0 0 -1 0 216 cm
211.602 107.148 m 211.602 113.148 l S Q
q 1 0 0 -1 0 216 cm
149.699 111.352 m 155.699 111.352 l S Q
q 1 0 0 -1 0 216 cm
152.699 108.352 m 152.699 114.352 l S Q
q 1 0 0 -1 0 216 cm
191.801 113.75 m 197.801 113.75 l S Q
q 1 0 0 -1 0 216 cm
194.801 110.75 m 194.801 116.75 l S Q
q 1 0 0 -1 0 216 cm
260.699 119.699 m 266.699 119.699 l S Q
q 1 0 0 -1 0 216 cm
263.699 116.699 m 263.699 122.699 l S Q
q 1 0 0 -1 0 216 cm
295.949 97.602 m 301.949 97.602 l S Q
q 1 0 0 -1 0 216 cm
298.949 94.602 m 298.949 100.602 l S Q
q 1 0 0 -1 0 216 cm
203.699 117.5 m 209.699 117.5 l S Q
q 1 0 0 -1 0 216 cm
206.699 114.5 m 206.699 120.5 l S Q
q 1 0 0 -1 0 216 cm
84.801 117.852 m 90.801 117.852 l S Q
q 1 0 0 -1 0 216 cm
87.801 114.852 m 87.801 120.852 l S Q
q 1 0 0 -1 0 216 cm
197.602 108.199 m 203.602 108.199 l S Q
q 1 0 0 -1 0 216 cm
200.602 105.199 m 200.602 111.199 l S Q
q 1 0 0 -1 0 216 cm
276.25 115.648 m 282.25 115.648 l S Q
q 1 0 0 -1 0 216 cm
279.25 112.648 m 279.25 118.648 l S Q
q 1 0 0 -1 0 216 cm
180.898 109.602 m 186.898 109.602 l S Q
q 1 0 0 -1 0 216 cm
183.898 106.602 m 183.898 112.602 l S Q
q 1 0 0 -1 0 216 cm
103.301 165.352 m 109.301 165.352 l S Q
q 1 0 0 -1 0 216 cm
106.301 162.352 m 106.301 168.352 l S Q
q 1 0 0 -1 0 216 cm
300.602 93.699 m 306.602 93.699 l S Q
q 1 0 0 -1 0 216 cm
303.602 90.699 m 303.602 96.699 l S Q
q 1 0 0 -1 0 216 cm
298.699 92 m 304.699 92 l S Q
q 1 0 0 -1 0 216 cm
301.699 89 m 301.699 95 l S Q
q 1 0 0 -1 0 216 cm
213.852 100.148 m 219.852 100.148 l S Q
q 1 0 0 -1 0 216 cm
216.852 97.148 m 216.852 103.148 l S Q
q 1 0 0 -1 0 216 cm
290.398 123.102 m 296.398 123.102 l S Q
q 1 0 0 -1 0 216 cm
293.398 120.102 m 293.398 126.102 l S Q
q 1 0 0 -1 0 216 cm
48.102 117.602 m 54.102 117.602 l S Q
q 1 0 0 -1 0 216 cm
51.102 114.602 m 51.102 120.602 l S Q
q 1 0 0 -1 0 216 cm
60.801 132.102 m 66.801 132.102 l S Q
q 1 0 0 -1 0 216 cm
63.801 129.102 m 63.801 135.102 l S Q
q 1 0 0 -1 0 216 cm
223.75 93.102 m 229.75 93.102 l S Q
q 1 0 0 -1 0 216 cm
226.75 90.102 m 226.75 96.102 l S Q
q 1 0 0 -1 0 216 cm
164.449 129.301 m 170.449 129.301 l S Q
q 1 0 0 -1 0 216 cm
167.449 126.301 m 167.449 132.301 l S Q
q 1 0 0 -1 0 216 cm
244.398 118.199 m 250.398 118.199 l S Q
q 1 0 0 -1 0 216 cm
247.398 115.199 m 247.398 121.199 l S Q
q 1 0 0 -1 0 216 cm
256 92.199 m 262 92.199 l S Q
q 1 0 0 -1 0 216 cm
259 89.199 m 259 95.199 l S Q
q 1 0 0 -1 0 216 cm
276.199 129.648 m 282.199 129.648 l S Q
q 1 0 0 -1 0 216 cm
279.199 126.648 m 279.199 132.648 l S Q
q 1 0 0 -1 0 216 cm
109.449 96.449 m 115.449 96.449 l S Q
q 1 0 0 -1 0 216 cm
112.449 93.449 m 112.449 99.449 l S Q
q 1 0 0 -1 0 216 cm
166.102 111.352 m 172.102 111.352 l S Q
q 1 0 0 -1 0 216 cm
169.102 108.352 m 169.102 114.352 l S Q
q 1 0 0 -1 0 216 cm
224.898 118.25 m 230.898 118.25 l S Q
q 1 0 0 -1 0 216 cm
227.898 115.25 m 227.898 121.25 l S Q
q 1 0 0 -1 0 216 cm
219.102 101.551 m 225.102 101.551 l S Q
q 1 0 0 -1 0 216 cm
222.102 98.551 m 222.102 104.551 l S Q
q 1 0 0 -1 0 216 cm
155.5 119.25 m 161.5 119.25 l S Q
q 1 0 0 -1 0 216 cm
158.5 116.25 m 158.5 122.25 l S Q
q 1 0 0 -1 0 216 cm
337.551 141 m 343.551 141 l S Q
q 1 0 0 -1 0 216 cm
340.551 138 m 340.551 144 l S Q
q 1 0 0 -1 0 216 cm
187.75 109.602 m 193.75 109.602 l S Q
q 1 0 0 -1 0 216 cm
190.75 106.602 m 190.75 112.602 l S Q
q 1 0 0 -1 0 216 cm
65.148 116.852 m 71.148 116.852 l S Q
q 1 0 0 -1 0 216 cm
68.148 113.852 m 68.148 119.852 l S Q
q 1 0 0 -1 0 216 cm
324.852 87.301 m 330.852 87.301 l S Q
q 1 0 0 -1 0 216 cm
327.852 84.301 m 327.852 90.301 l S Q
q 1 0 0 -1 0 216 cm
185.648 81.75 m 191.648 81.75 l S Q
q 1 0 0 -1 0 216 cm
188.648 78.75 m 188.648 84.75 l S Q
q 1 0 0 -1 0 216 cm
233.199 111.301 m 239.199 111.301 l S Q
q 1 0 0 -1 0 216 cm
236.199 108.301 m 236.199 114.301 l S Q
q 1 0 0 -1 0 216 cm
178.051 123.5 m 184.051 123.5 l S Q
q 1 0 0 -1 0 216 cm
181.051 120.5 m 181.051 126.5 l S Q
q 1 0 0 -1 0 216 cm
135.301 112 m 141.301 112 l S Q
q 1 0 0 -1 0 216 cm
138.301 109 m 138.301 115 l S Q
q 1 0 0 -1 0 216 cm
83.648 104.25 m 89.648 104.25 l S Q
q 1 0 0 -1 0 216 cm
86.648 101.25 m 86.648 107.25 l S Q
q 1 0 0 -1 0 216 cm
60.852 103.801 m 66.852 103.801 l S Q
q 1 0 0 -1 0 216 cm
63.852 100.801 m 63.852 106.801 l S Q
q 1 0 0 -1 0 216 cm
231.102 125.148 m 237.102 125.148 l S Q
q 1 0 0 -1 0 216 cm
234.102 122.148 m 234.102 128.148 l S Q
q 1 0 0 -1 0 216 cm
291.602 101.551 m 297.602 101.551 l S Q
q 1 0 0 -1 0 216 cm
294.602 98.551 m 294.602 104.551 l S Q
q 1 0 0 -1 0 216 cm
230.398 98.75 m 236.398 98.75 l S Q
q 1 0 0 -1 0 216 cm
233.398 95.75 m 233.398 101.75 l S Q
q 1 0 0 -1 0 216 cm
269.398 89.449 m 275.398 89.449 l S Q
q 1 0 0 -1 0 216 cm
272.398 86.449 m 272.398 92.449 l S Q
q 1 0 0 -1 0 216 cm
278.898 117.5 m 284.898 117.5 l S Q
q 1 0 0 -1 0 216 cm
281.898 114.5 m 281.898 120.5 l S Q
q 1 0 0 -1 0 216 cm
61.852 141.801 m 67.852 141.801 l S Q
q 1 0 0 -1 0 216 cm
64.852 138.801 m 64.852 144.801 l S Q
q 1 0 0 -1 0 216 cm
64.25 111.102 m 70.25 111.102 l S Q
q 1 0 0 -1 0 216 cm
67.25 108.102 m 67.25 114.102 l S Q
q 1 0 0 -1 0 216 cm
75.5 134.148 m 81.5 134.148 l S Q
q 1 0 0 -1 0 216 cm
78.5 131.148 m 78.5 137.148 l S Q
q 1 0 0 -1 0 216 cm
146.398 103.25 m 152.398 103.25 l S Q
q 1 0 0 -1 0 216 cm
149.398 100.25 m 149.398 106.25 l S Q
q 1 0 0 -1 0 216 cm
277.051 154.648 m 283.051 154.648 l S Q
q 1 0 0 -1 0 216 cm
280.051 151.648 m 280.051 157.648 l S Q
q 1 0 0 -1 0 216 cm
162.25 115.051 m 168.25 115.051 l S Q
q 1 0 0 -1 0 216 cm
165.25 112.051 m 165.25 118.051 l S Q
q 1 0 0 -1 0 216 cm
299.449 96.398 m 305.449 96.398 l S Q
q 1 0 0 -1 0 216 cm
302.449 93.398 m 302.449 99.398 l S Q
q 1 0 0 -1 0 216 cm
218.449 110.301 m 224.449 110.301 l S Q
q 1 0 0 -1 0 216 cm
221.449 107.301 m 221.449 113.301 l S Q
q 1 0 0 -1 0 216 cm
62.398 122.852 m 68.398 122.852 l S Q
q 1 0 0 -1 0 216 cm
65.398 119.852 m 65.398 125.852 l S Q
q 1 0 0 -1 0 216 cm
91.648 105.352 m 97.648 105.352 l S Q
q 1 0 0 -1 0 216 cm
94.648 102.352 m 94.648 108.352 l S Q
q 1 0 0 -1 0 216 cm
325.25 155.148 m 331.25 155.148 l S Q
q 1 0 0 -1 0 216 cm
328.25 152.148 m 328.25 158.148 l S Q
q 1 0 0 -1 0 216 cm
214.75 119.949 m 220.75 119.949 l S Q
q 1 0 0 -1 0 216 cm
217.75 116.949 m 217.75 122.949 l S Q
q 1 0 0 -1 0 216 cm
236.898 114.551 m 242.898 114.551 l S Q
q 1 0 0 -1 0 216 cm
239.898 111.551 m 239.898 117.551 l S Q
q 1 0 0 -1 0 216 cm
70.301 104.25 m 76.301 104.25 l S Q
q 1 0 0 -1 0 216 cm
73.301 101.25 m 73.301 107.25 l S Q
q 1 0 0 -1 0 216 cm
289.898 116.051 m 295.898 116.051 l S Q
q 1 0 0 -1 0 216 cm
292.898 113.051 m 292.898 119.051 l S Q
q 1 0 0 -1 0 216 cm
307.148 120.352 m 313.148 120.352 l S Q
q 1 0 0 -1 0 216 cm
310.148 117.352 m 310.148 123.352 l S Q
q 1 0 0 -1 0 216 cm
202.648 104.602 m 208.648 104.602 l S Q
q 1 0 0 -1 0 216 cm
205.648 101.602 m 205.648 107.602 l S Q
q 1 0 0 -1 0 216 cm
259.699 135.852 m 265.699 135.852 l S Q
q 1 0 0 -1 0 216 cm
262.699 132.852 m 262.699 138.852 l S Q
q 1 0 0 -1 0 216 cm
174.352 134.301 m 180.352 134.301 l S Q
q 1 0 0 -1 0 216 cm
177.352 131.301 m 177.352 137.301 l S Q
q 1 0 0 -1 0 216 cm
157.551 106.898 m 163.551 106.898 l S Q
q 1 0 0 -1 0 216 cm
160.551 103.898 m 160.551 109.898 l S Q
q 1 0 0 -1 0 216 cm
298.102 104.398 m 304.102 104.398 l S Q
q 1 0 0 -1 0 216 cm
301.102 101.398 m 301.102 107.398 l S Q
q 1 0 0 -1 0 216 cm
274.051 109.949 m 280.051 109.949 l S Q
q 1 0 0 -1 0 216 cm
277.051 106.949 m 277.051 112.949 l S Q
q 1 0 0 -1 0 216 cm
280.301 133.602 m 286.301 133.602 l S Q
q 1 0 0 -1 0 216 cm
283.301 130.602 m 283.301 136.602 l S Q
q 1 0 0 -1 0 216 cm
263.898 76.898 m 269.898 76.898 l S Q
q 1 0 0 -1 0 216 cm
266.898 73.898 m 266.898 79.898 l S Q
q 1 0 0 -1 0 216 cm
198.75 112.301 m 204.75 112.301 l S Q
q 1 0 0 -1 0 216 cm
201.75 109.301 m 201.75 115.301 l S Q
q 1 0 0 -1 0 216 cm
259.102 103.25 m 265.102 103.25 l S Q
q 1 0 0 -1 0 216 cm
262.102 100.25 m 262.102 106.25 l S Q
q 1 0 0 -1 0 216 cm
47.102 114.602 m 53.102 114.602 l S Q
q 1 0 0 -1 0 216 cm
50.102 111.602 m 50.102 117.602 l S Q
q 1 0 0 -1 0 216 cm
285.551 119.148 m 291.551 119.148 l S Q
q 1 0 0 -1 0 216 cm
288.551 116.148 m 288.551 122.148 l S Q
q 1 0 0 -1 0 216 cm
217.051 94.25 m 223.051 94.25 l S Q
q 1 0 0 -1 0 216 cm
220.051 91.25 m 220.051 97.25 l S Q
q 1 0 0 -1 0 216 cm
263.051 86.352 m 269.051 86.352 l S Q
q 1 0 0 -1 0 216 cm
266.051 83.352 m 266.051 89.352 l S Q
q 1 0 0 -1 0 216 cm
162.301 124.898 m 168.301 124.898 l S Q
q 1 0 0 -1 0 216 cm
165.301 121.898 m 165.301 127.898 l S Q
q 1 0 0 -1 0 216 cm
234.949 117.801 m 240.949 117.801 l S Q
q 1 0 0 -1 0 216 cm
237.949 114.801 m 237.949 120.801 l S Q
q 1 0 0 -1 0 216 cm
274.398 151.898 m 280.398 151.898 l S Q
q 1 0 0 -1 0 216 cm
277.398 148.898 m 277.398 154.898 l S Q
q 1 0 0 -1 0 216 cm
152.301 133.199 m 158.301 133.199 l S Q
q 1 0 0 -1 0 216 cm
155.301 130.199 m 155.301 136.199 l S Q
q 1 0 0 -1 0 216 cm
104 118.25 m 110 118.25 l S Q
q 1 0 0 -1 0 216 cm
107 115.25 m 107 121.25 l S Q
q 1 0 0 -1 0 216 cm
176.398 114.449 m 182.398 114.449 l S Q
q 1 0 0 -1 0 216 cm
179.398 111.449 m 179.398 117.449 l S Q
q 1 0 0 -1 0 216 cm
195.852 127.801 m 201.852 127.801 l S Q
q 1 0 0 -1 0 216 cm
198.852 124.801 m 198.852 130.801 l S Q
q 1 0 0 -1 0 216 cm
292.449 122.398 m 298.449 122.398 l S Q
q 1 0 0 -1 0 216 cm
295.449 119.398 m 295.449 125.398 l S Q
q 1 0 0 -1 0 216 cm
310.5 120.852 m 316.5 120.852 l S Q
q 1 0 0 -1 0 216 cm
313.5 117.852 m 313.5 123.852 l S Q
q 1 0 0 -1 0 216 cm
147.949 146.801 m 153.949 146.801 l S Q
q 1 0 0 -1 0 216 cm
150.949 143.801 m 150.949 149.801 l S Q
q 1 0 0 -1 0 216 cm
160.398 117.148 m 166.398 117.148 l S Q
q 1 0 0 -1 0 216 cm
163.398 114.148 m 163.398 120.148 l S Q
q 1 0 0 -1 0 216 cm
118.898 105.551 m 124.898 105.551 l S Q
q 1 0 0 -1 0 216 cm
121.898 102.551 m 121.898 108.551 l S Q
q 1 0 0 -1 0 216 cm
72 99.199 m 78 99.199 l S Q
q 1 0 0 -1 0 216 cm
75 96.199 m 75 102.199 l S Q
q 1 0 0 -1 0 216 cm
179.898 123.648 m 185.898 123.648 l S Q
q 1 0 0 -1 0 216 cm
182.898 120.648 m 182.898 126.648 l S Q
q 1 0 0 -1 0 216 cm
249.352 116.852 m 255.352 116.852 l S Q
q 1 0 0 -1 0 216 cm
252.352 113.852 m 252.352 119.852 l S Q
q 1 0 0 -1 0 216 cm
305.148 119.449 m 311.148 119.449 l S Q
q 1 0 0 -1 0 216 cm
308.148 116.449 m 308.148 122.449 l S Q
q 1 0 0 -1 0 216 cm
119.699 174.801 m 125.699 174.801 l S Q
q 1 0 0 -1 0 216 cm
122.699 171.801 m 122.699 177.801 l S Q
q 1 0 0 -1 0 216 cm
292.102 113.5 m 298.102 113.5 l S Q
q 1 0 0 -1 0 216 cm
295.102 110.5 m 295.102 116.5 l S Q
q 1 0 0 -1 0 216 cm
128.148 102.199 m 134.148 102.199 l S Q
q 1 0 0 -1 0 216 cm
131.148 99.199 m 131.148 105.199 l S Q
q 1 0 0 -1 0 216 cm
84.551 126.051 m 90.551 126.051 l S Q
q 1 0 0 -1 0 216 cm
87.551 123.051 m 87.551 129.051 l S Q
q 1 0 0 -1 0 216 cm
296.551 116.75 m 302.551 116.75 l S Q
q 1 0 0 -1 0 216 cm
299.551 113.75 m 299.551 119.75 l S Q
q 1 0 0 -1 0 216 cm
323.648 101.148 m 329.648 101.148 l S Q
q 1 0 0 -1 0 216 cm
326.648 98.148 m 326.648 104.148 l S Q
q 1 0 0 -1 0 216 cm
241.949 102.398 m 247.949 102.398 l S Q
q 1 0 0 -1 0 216 cm
244.949 99.398 m 244.949 105.398 l S Q
q 1 0 0 -1 0 216 cm
189.5 146.102 m 195.5 146.102 l S Q
q 1 0 0 -1 0 216 cm
192.5 143.102 m 192.5 149.102 l S Q
q 1 0 0 -1 0 216 cm
219.699 126.199 m 225.699 126.199 l S Q
q 1 0 0 -1 0 216 cm
222.699 123.199 m 222.699 129.199 l S Q
q 1 0 0 -1 0 216 cm
305.852 143.949 m 311.852 143.949 l S Q
q 1 0 0 -1 0 216 cm
308.852 140.949 m 308.852 146.949 l S Q
q 1 0 0 -1 0 216 cm
242.199 168.102 m 248.199 168.102 l S Q
q 1 0 0 -1 0 216 cm
245.199 165.102 m 245.199 171.102 l S Q
q 1 0 0 -1 0 216 cm
260.352 127.102 m 266.352 127.102 l S Q
q 1 0 0 -1 0 216 cm
263.352 124.102 m 263.352 130.102 l S Q
q 1 0 0 -1 0 216 cm
101.398 121.852 m 107.398 121.852 l S Q
q 1 0 0 -1 0 216 cm
104.398 118.852 m 104.398 124.852 l S Q
q 1 0 0 -1 0 216 cm
54.898 106.949 m 60.898 106.949 l S Q
q 1 0 0 -1 0 216 cm
57.898 103.949 m 57.898 109.949 l S Q
q 1 0 0 -1 0 216 cm
202.148 126.648 m 208.148 126.648 l S Q
q 1 0 0 -1 0 216 cm
205.148 123.648 m 205.148 129.648 l S Q
q 1 0 0 -1 0 216 cm
198.699 113.5 m 204.699 113.5 l S Q
q 1 0 0 -1 0 216 cm
201.699 110.5 m 201.699 116.5 l S Q
q 1 0 0 -1 0 216 cm
258.801 131.199 m 264.801 131.199 l S Q
q 1 0 0 -1 0 216 cm
261.801 128.199 m 261.801 134.199 l S Q
q 1 0 0 -1 0 216 cm
100.898 114.449 m 106.898 114.449 l S Q
q 1 0 0 -1 0 216 cm
103.898 111.449 m 103.898 117.449 l S Q
q 1 0 0 -1 0 216 cm
182.949 128.102 m 188.949 128.102 l S Q
q 1 0 0 -1 0 216 cm
185.949 125.102 m 185.949 131.102 l S Q
q 1 0 0 -1 0 216 cm
47.449 113.801 m 53.449 113.801 l S Q
q 1 0 0 -1 0 216 cm
50.449 110.801 m 50.449 116.801 l S Q
q 1 0 0 -1 0 216 cm
163.25 118.051 m 169.25 118.051 l S Q
q 1 0 0 -1 0 216 cm
166.25 115.051 m 166.25 121.051 l S Q
q 1 0 0 -1 0 216 cm
163.051 147.852 m 169.051 147.852 l S Q
q 1 0 0 -1 0 216 cm
166.051 144.852 m 166.051 150.852 l S Q
q 1 0 0 -1 0 216 cm
253.051 121.949 m 259.051 121.949 l S Q
q 1 0 0 -1 0 216 cm
256.051 118.949 m 256.051 124.949 l S Q
q 1 0 0 -1 0 216 cm
97.449 114.602 m 103.449 114.602 l S Q
q 1 0 0 -1 0 216 cm
100.449 111.602 m 100.449 117.602 l S Q
q 1 0 0 -1 0 216 cm
129.852 116 m 135.852 116 l S Q
q 1 0 0 -1 0 216 cm
132.852 113 m 132.852 119 l S Q
q 1 0 0 -1 0 216 cm
141.602 107.102 m 147.602 107.102 l S Q
q 1 0 0 -1 0 216 cm
144.602 104.102 m 144.602 110.102 l S Q
q 1 0 0 -1 0 216 cm
186.852 103.699 m 192.852 103.699 l S Q
q 1 0 0 -1 0 216 cm
189.852 100.699 m 189.852 106.699 l S Q
q 1 0 0 -1 0 216 cm
336.301 94.898 m 342.301 94.898 l S Q
q 1 0 0 -1 0 216 cm
339.301 91.898 m 339.301 97.898 l S Q
q 1 0 0 -1 0 216 cm
182.75 126.699 m 188.75 126.699 l S Q
q 1 0 0 -1 0 216 cm
185.75 123.699 m 185.75 129.699 l S Q
q 1 0 0 -1 0 216 cm
275.602 128.352 m 281.602 128.352 l S Q
q 1 0 0 -1 0 216 cm
278.602 125.352 m 278.602 131.352 l S Q
q 1 0 0 -1 0 216 cm
65 123.602 m 71 123.602 l S Q
q 1 0 0 -1 0 216 cm
68 120.602 m 68 126.602 l S Q
q 1 0 0 -1 0 216 cm
131.75 114.852 m 137.75 114.852 l S Q
q 1 0 0 -1 0 216 cm
134.75 111.852 m 134.75 117.852 l S Q
q 1 0 0 -1 0 216 cm
240.449 129.148 m 246.449 129.148 l S Q
q 1 0 0 -1 0 216 cm
243.449 126.148 m 243.449 132.148 l S Q
q 1 0 0 -1 0 216 cm
238.051 119.398 m 244.051 119.398 l S Q
q 1 0 0 -1 0 216 cm
241.051 116.398 m 241.051 122.398 l S Q
q 1 0 0 -1 0 216 cm
178.398 120.949 m 184.398 120.949 l S Q
q 1 0 0 -1 0 216 cm
181.398 117.949 m 181.398 123.949 l S Q
q 1 0 0 -1 0 216 cm
106.551 132.199 m 112.551 132.199 l S Q
q 1 0 0 -1 0 216 cm
109.551 129.199 m 109.551 135.199 l S Q
q 1 0 0 -1 0 216 cm
256.75 111.75 m 262.75 111.75 l S Q
q 1 0 0 -1 0 216 cm
259.75 108.75 m 259.75 114.75 l S Q
q 1 0 0 -1 0 216 cm
143.602 113.051 m 149.602 113.051 l S Q
q 1 0 0 -1 0 216 cm
146.602 110.051 m 146.602 116.051 l S Q
q 1 0 0 -1 0 216 cm
303.102 115.898 m 309.102 115.898 l S Q
q 1 0 0 -1 0 216 cm
306.102 112.898 m 306.102 118.898 l S Q
q 1 0 0 -1 0 216 cm
144.5 110.301 m 150.5 110.301 l S Q
q 1 0 0 -1 0 216 cm
147.5 107.301 m 147.5 113.301 l S Q
q 1 0 0 -1 0 216 cm
103.699 114.352 m 109.699 114.352 l S Q
q 1 0 0 -1 0 216 cm
106.699 111.352 m 106.699 117.352 l S Q
q 1 0 0 -1 0 216 cm
88.398 114.852 m 94.398 114.852 l S Q
q 1 0 0 -1 0 216 cm
91.398 111.852 m 91.398 117.852 l S Q
q 1 0 0 -1 0 216 cm
239.102 134.051 m 245.102 134.051 l S Q
q 1 0 0 -1 0 216 cm
242.102 131.051 m 242.102 137.051 l S Q
q 1 0 0 -1 0 216 cm
252 127.852 m 258 127.852 l S Q
q 1 0 0 -1 0 216 cm
255 124.852 m 255 130.852 l S Q
q 1 0 0 -1 0 216 cm
139.5 94.301 m 145.5 94.301 l S Q
q 1 0 0 -1 0 216 cm
142.5 91.301 m 142.5 97.301 l S Q
q 1 0 0 -1 0 216 cm
72.148 114.449 m 78.148 114.449 l S Q
q 1 0 0 -1 0 216 cm
75.148 111.449 m 75.148 117.449 l S Q
q 1 0 0 -1 0 216 cm
257.051 111.102 m 263.051 111.102 l S Q
q 1 0 0 -1 0 216 cm
260.051 108.102 m 260.051 114.102 l S Q
q 1 0 0 -1 0 216 cm
83.102 119.449 m 89.102 119.449 l S Q
q 1 0 0 -1 0 216 cm
86.102 116.449 m 86.102 122.449 l S Q
q 1 0 0 -1 0 216 cm
93 116.801 m 99 116.801 l S Q
q 1 0 0 -1 0 216 cm
96 113.801 m 96 119.801 l S Q
q 1 0 0 -1 0 216 cm
296.102 110.852 m 302.102 110.852 l S Q
q 1 0 0 -1 0 216 cm
299.102 107.852 m 299.102 113.852 l S Q
q 1 0 0 -1 0 216 cm
144.852 107.398 m 150.852 107.398 l S Q
q 1 0 0 -1 0 216 cm
147.852 104.398 m 147.852 110.398 l S Q
q 1 0 0 -1 0 216 cm
184.602 121.352 m 190.602 121.352 l S Q
q 1 0 0 -1 0 216 cm
187.602 118.352 m 187.602 124.352 l S Q
q 1 0 0 -1 0 216 cm
115.5 95.199 m 121.5 95.199 l S Q
q 1 0 0 -1 0 216 cm
118.5 92.199 m 118.5 98.199 l S Q
q 1 0 0 -1 0 216 cm
299.898 113.449 m 305.898 113.449 l S Q
q 1 0 0 -1 0 216 cm
302.898 110.449 m 302.898 116.449 l S Q
q 1 0 0 -1 0 216 cm
79 126.449 m 85 126.449 l S Q
q 1 0 0 -1 0 216 cm
82 123.449 m 82 129.449 l S Q
q 1 0 0 -1 0 216 cm
208.398 126.699 m 214.398 126.699 l S Q
q 1 0 0 -1 0 216 cm
211.398 123.699 m 211.398 129.699 l S Q
q 1 0 0 -1 0 216 cm
117.25 135.352 m 123.25 135.352 l S Q
q 1 0 0 -1 0 216 cm
120.25 132.352 m 120.25 138.352 l S Q
q 1 0 0 -1 0 216 cm
183.551 156.75 m 189.551 156.75 l S Q
q 1 0 0 -1 0 216 cm
186.551 153.75 m 186.551 159.75 l S Q
q 1 0 0 -1 0 216 cm
109.398 123.852 m 115.398 123.852 l S Q
q 1 0 0 -1 0 216 cm
112.398 120.852 m 112.398 126.852 l S Q
q 1 0 0 -1 0 216 cm
54.699 118.699 m 60.699 118.699 l S Q
q 1 0 0 -1 0 216 cm
57.699 115.699 m 57.699 121.699 l S Q
q 1 0 0 -1 0 216 cm
136.051 111.398 m 142.051 111.398 l S Q
q 1 0 0 -1 0 216 cm
139.051 108.398 m 139.051 114.398 l S Q
q 1 0 0 -1 0 216 cm
297.102 105.102 m 303.102 105.102 l S Q
q 1 0 0 -1 0 216 cm
300.102 102.102 m 300.102 108.102 l S Q
q 1 0 0 -1 0 216 cm
121.898 112.75 m 127.898 112.75 l S Q
q 1 0 0 -1 0 216 cm
124.898 109.75 m 124.898 115.75 l S Q
q 1 0 0 -1 0 216 cm
268.801 131.148 m 274.801 131.148 l S Q
q 1 0 0 -1 0 216 cm
271.801 128.148 m 271.801 134.148 l S Q
q 1 0 0 -1 0 216 cm
81.5 139.352 m 87.5 139.352 l S Q
q 1 0 0 -1 0 216 cm
84.5 136.352 m 84.5 142.352 l S Q
q 1 0 0 -1 0 216 cm
99.25 135.75 m 105.25 135.75 l S Q
q 1 0 0 -1 0 216 cm
102.25 132.75 m 102.25 138.75 l S Q
q 1 0 0 -1 0 216 cm
88.449 116.398 m 94.449 116.398 l S Q
q 1 0 0 -1 0 216 cm
91.449 113.398 m 91.449 119.398 l S Q
q 1 0 0 -1 0 216 cm
127.648 112.699 m 133.648 112.699 l S Q
q 1 0 0 -1 0 216 cm
130.648 109.699 m 130.648 115.699 l S Q
q 1 0 0 -1 0 216 cm
138.852 113.352 m 144.852 113.352 l S Q
q 1 0 0 -1 0 216 cm
141.852 110.352 m 141.852 116.352 l S Q
q 1 0 0 -1 0 216 cm
161.148 124.898 m 167.148 124.898 l S Q
q 1 0 0 -1 0 216 cm
164.148 121.898 m 164.148 127.898 l S Q
q 1 0 0 -1 0 216 cm
169.25 113.5 m 175.25 113.5 l S Q
q 1 0 0 -1 0 216 cm
172.25 110.5 m 172.25 116.5 l S Q
q 1 0 0 -1 0 216 cm
56.852 110.602 m 62.852 110.602 l S Q
q 1 0 0 -1 0 216 cm
59.852 107.602 m 59.852 113.602 l S Q
q 1 0 0 -1 0 216 cm
164.301 160.5 m 170.301 160.5 l S Q
q 1 0 0 -1 0 216 cm
167.301 157.5 m 167.301 163.5 l S Q
q 1 0 0 -1 0 216 cm
301.949 73.602 m 307.949 73.602 l S Q
q 1 0 0 -1 0 216 cm
304.949 70.602 m 304.949 76.602 l S Q
q 1 0 0 -1 0 216 cm
99.199 107.949 m 105.199 107.949 l S Q
q 1 0 0 -1 0 216 cm
102.199 104.949 m 102.199 110.949 l S Q
q 1 0 0 -1 0 216 cm
222.852 125.051 m 228.852 125.051 l S Q
q 1 0 0 -1 0 216 cm
225.852 122.051 m 225.852 128.051 l S Q
q 1 0 0 -1 0 216 cm
283.199 116 m 289.199 116 l S Q
q 1 0 0 -1 0 216 cm
286.199 113 m 286.199 119 l S Q
q 1 0 0 -1 0 216 cm
286.801 123.352 m 292.801 123.352 l S Q
q 1 0 0 -1 0 216 cm
289.801 120.352 m 289.801 126.352 l S Q
q 1 0 0 -1 0 216 cm
69.102 126.449 m 75.102 126.449 l S Q
q 1 0 0 -1 0 216 cm
72.102 123.449 m 72.102 129.449 l S Q
q 1 0 0 -1 0 216 cm
274.852 88.5 m 280.852 88.5 l S Q
q 1 0 0 -1 0 216 cm
277.852 85.5 m 277.852 91.5 l S Q
q 1 0 0 -1 0 216 cm
55.852 146.602 m 61.852 146.602 l S Q
q 1 0 0 -1 0 216 cm
58.852 143.602 m 58.852 149.602 l S Q
q 1 0 0 -1 0 216 cm
95.5 112 m 101.5 112 l S Q
q 1 0 0 -1 0 216 cm
98.5 109 m 98.5 115 l S Q
q 1 0 0 -1 0 216 cm
288.102 88.75 m 294.102 88.75 l S Q
q 1 0 0 -1 0 216 cm
291.102 85.75 m 291.102 91.75 l S Q
q 1 0 0 -1 0 216 cm
289.051 107.301 m 295.051 107.301 l S Q
q 1 0 0 -1 0 216 cm
292.051 104.301 m 292.051 110.301 l S Q
q 1 0 0 -1 0 216 cm
103.352 122.148 m 109.352 122.148 l S Q
q 1 0 0 -1 0 216 cm
106.352 119.148 m 106.352 125.148 l S Q
q 1 0 0 -1 0 216 cm
293.949 120 m 299.949 120 l S Q
q 1 0 0 -1 0 216 cm
296.949 117 m 296.949 123 l S Q
q 1 0 0 -1 0 216 cm
336.898 77.801 m 342.898 77.801 l S Q
q 1 0 0 -1 0 216 cm
339.898 74.801 m 339.898 80.801 l S Q
q 1 0 0 -1 0 216 cm
197.551 126 m 203.551 126 l S Q
q 1 0 0 -1 0 216 cm
200.551 123 m 200.551 129 l S Q
q 1 0 0 -1 0 216 cm
142.949 100.801 m 148.949 100.801 l S Q
q 1 0 0 -1 0 216 cm
145.949 97.801 m 145.949 103.801 l S Q
q 1 0 0 -1 0 216 cm
126 107.5 m 132 107.5 l S Q
q 1 0 0 -1 0 216 cm
129 104.5 m 129 110.5 l S Q
q 1 0 0 -1 0 216 cm
124.75 110.551 m 130.75 110.551 l S Q
q 1 0 0 -1 0 216 cm
127.75 107.551 m 127.75 113.551 l S Q
q 1 0 0 -1 0 216 cm
334.398 121.25 m 340.398 121.25 l S Q
q 1 0 0 -1 0 216 cm
337.398 118.25 m 337.398 124.25 l S Q
q 1 0 0 -1 0 216 cm
310.102 104.449 m 316.102 104.449 l S Q
q 1 0 0 -1 0 216 cm
313.102 101.449 m 313.102 107.449 l S Q
q 1 0 0 -1 0 216 cm
277.398 98.602 m 283.398 98.602 l S Q
q 1 0 0 -1 0 216 cm
280.398 95.602 m 280.398 101.602 l S Q
q 1 0 0 -1 0 216 cm
215.25 136.051 m 221.25 136.051 l S Q
q 1 0 0 -1 0 216 cm
218.25 133.051 m 218.25 139.051 l S Q
q 1 0 0 -1 0 216 cm
220.551 81.199 m 226.551 81.199 l S Q
q 1 0 0 -1 0 216 cm
223.551 78.199 m 223.551 84.199 l S Q
q 1 0 0 -1 0 216 cm
273.102 69 m 279.102 69 l S Q
q 1 0 0 -1 0 216 cm
276.102 66 m 276.102 72 l S Q
q 1 0 0 -1 0 216 cm
85.449 128.602 m 91.449 128.602 l S Q
q 1 0 0 -1 0 216 cm
88.449 125.602 m 88.449 131.602 l S Q
q 1 0 0 -1 0 216 cm
59.5 138.199 m 65.5 138.199 l S Q
q 1 0 0 -1 0 216 cm
62.5 135.199 m 62.5 141.199 l S Q
q 1 0 0 -1 0 216 cm
90.949 106.398 m 96.949 106.398 l S Q
q 1 0 0 -1 0 216 cm
93.949 103.398 m 93.949 109.398 l S Q
q 1 0 0 -1 0 216 cm
210.051 129.5 m 216.051 129.5 l S Q
q 1 0 0 -1 0 216 cm
213.051 126.5 m 213.051 132.5 l S Q
q 1 0 0 -1 0 216 cm
80.551 124.75 m 86.551 124.75 l S Q
q 1 0 0 -1 0 216 cm
83.551 121.75 m 83.551 127.75 l S Q
q 1 0 0 -1 0 216 cm
232.102 121.551 m 238.102 121.551 l S Q
q 1 0 0 -1 0 216 cm
235.102 118.551 m 235.102 124.551 l S Q
q 1 0 0 -1 0 216 cm
134.898 121.801 m 140.898 121.801 l S Q
q 1 0 0 -1 0 216 cm
137.898 118.801 m 137.898 124.801 l S Q
q 1 0 0 -1 0 216 cm
295.898 106.551 m 301.898 106.551 l S Q
q 1 0 0 -1 0 216 cm
298.898 103.551 m 298.898 109.551 l S Q
0 g
q 1 0 0 -1 0 216 cm
42.949 10.75 302.199 176 re S Q
Q Q
showpage
%%Trailer
end restore
%%EOF
