%!PS-Adobe-3.0 EPSF-3.0
%%Creator: cairo 1.13.1 (http://cairographics.org)
%%CreationDate: Fri May 20 09:13:12 2016
%%Pages: 1
%%DocumentData: Clean7Bit
%%LanguageLevel: 2
%%BoundingBox: 0 0 360 216
%%EndComments
%%BeginProlog
save
50 dict begin
/q { gsave } bind def
/Q { grestore } bind def
/cm { 6 array astore concat } bind def
/w { setlinewidth } bind def
/J { setlinecap } bind def
/j { setlinejoin } bind def
/M { setmiterlimit } bind def
/d { setdash } bind def
/m { moveto } bind def
/l { lineto } bind def
/c { curveto } bind def
/h { closepath } bind def
/re { exch dup neg 3 1 roll 5 3 roll moveto 0 rlineto
      0 exch rlineto 0 rlineto closepath } bind def
/S { stroke } bind def
/f { fill } bind def
/f* { eofill } bind def
/n { newpath } bind def
/W { clip } bind def
/W* { eoclip } bind def
/BT { } bind def
/ET { } bind def
/pdfmark where { pop globaldict /?pdfmark /exec load put }
    { globaldict begin /?pdfmark /pop load def /pdfmark
    /cleartomark load def end } ifelse
/BDC { mark 3 1 roll /BDC pdfmark } bind def
/EMC { mark /EMC pdfmark } bind def
/cairo_store_point { /cairo_point_y exch def /cairo_point_x exch def } def
/Tj { show currentpoint cairo_store_point } bind def
/TJ {
  {
    dup
    type /stringtype eq
    { show } { -0.001 mul 0 cairo_font_matrix dtransform rmoveto } ifelse
  } forall
  currentpoint cairo_store_point
} bind def
/cairo_selectfont { cairo_font_matrix aload pop pop pop 0 0 6 array astore
    cairo_font exch selectfont cairo_point_x cairo_point_y moveto } bind def
/Tf { pop /cairo_font exch def /cairo_font_matrix where
      { pop cairo_selectfont } if } bind def
/Td { matrix translate cairo_font_matrix matrix concatmatrix dup
      /cairo_font_matrix exch def dup 4 get exch 5 get cairo_store_point
      /cairo_font where { pop cairo_selectfont } if } bind def
/Tm { 2 copy 8 2 roll 6 array astore /cairo_font_matrix exch def
      cairo_store_point /cairo_font where { pop cairo_selectfont } if } bind def
/g { setgray } bind def
/rg { setrgbcolor } bind def
/d1 { setcachedevice } bind def
%%EndProlog
%%BeginSetup
%%EndSetup
%%Page: 1 1
%%BeginPageSetup
%%PageBoundingBox: 0 0 360 216
%%EndPageSetup
q 46 29 301 177 rectclip q
0 g
0.15 w
2 J
0 j
[ 0.2 2] 0 d
3.8 M q 1 0 0 -1 0 216 cm
48.051 186.75 m 345.148 186.75 l S Q
0.25 w
[] 0.0 d
q 1 0 0 -1 0 216 cm
48.051 186.75 m 51.75 186.75 l S Q
q 1 0 0 -1 0 216 cm
345.148 186.75 m 341.449 186.75 l S Q
0.15 w
[ 0.2 2] 0 d
q 1 0 0 -1 0 216 cm
48.051 164.75 m 345.148 164.75 l S Q
0.25 w
[] 0.0 d
q 1 0 0 -1 0 216 cm
48.051 164.75 m 51.75 164.75 l S Q
q 1 0 0 -1 0 216 cm
345.148 164.75 m 341.449 164.75 l S Q
0.15 w
[ 0.2 2] 0 d
q 1 0 0 -1 0 216 cm
48.051 142.75 m 345.148 142.75 l S Q
0.25 w
[] 0.0 d
q 1 0 0 -1 0 216 cm
48.051 142.75 m 51.75 142.75 l S Q
q 1 0 0 -1 0 216 cm
345.148 142.75 m 341.449 142.75 l S Q
0.15 w
[ 0.2 2] 0 d
q 1 0 0 -1 0 216 cm
48.051 120.75 m 345.148 120.75 l S Q
0.25 w
[] 0.0 d
q 1 0 0 -1 0 216 cm
48.051 120.75 m 51.75 120.75 l S Q
q 1 0 0 -1 0 216 cm
345.148 120.75 m 341.449 120.75 l S Q
0.15 w
[ 0.2 2] 0 d
q 1 0 0 -1 0 216 cm
48.051 98.75 m 345.148 98.75 l S Q
0.25 w
[] 0.0 d
q 1 0 0 -1 0 216 cm
48.051 98.75 m 51.75 98.75 l S Q
q 1 0 0 -1 0 216 cm
345.148 98.75 m 341.449 98.75 l S Q
0.15 w
[ 0.2 2] 0 d
q 1 0 0 -1 0 216 cm
48.051 76.75 m 345.148 76.75 l S Q
0.25 w
[] 0.0 d
q 1 0 0 -1 0 216 cm
48.051 76.75 m 51.75 76.75 l S Q
q 1 0 0 -1 0 216 cm
345.148 76.75 m 341.449 76.75 l S Q
0.15 w
[ 0.2 2] 0 d
q 1 0 0 -1 0 216 cm
48.051 54.75 m 345.148 54.75 l S Q
0.25 w
[] 0.0 d
q 1 0 0 -1 0 216 cm
48.051 54.75 m 51.75 54.75 l S Q
q 1 0 0 -1 0 216 cm
345.148 54.75 m 341.449 54.75 l S Q
0.15 w
[ 0.2 2] 0 d
q 1 0 0 -1 0 216 cm
48.051 32.75 m 345.148 32.75 l S Q
0.25 w
[] 0.0 d
q 1 0 0 -1 0 216 cm
48.051 32.75 m 51.75 32.75 l S Q
q 1 0 0 -1 0 216 cm
345.148 32.75 m 341.449 32.75 l S Q
0.15 w
[ 0.2 2] 0 d
q 1 0 0 -1 0 216 cm
48.051 10.75 m 345.148 10.75 l S Q
0.25 w
[] 0.0 d
q 1 0 0 -1 0 216 cm
48.051 10.75 m 51.75 10.75 l S Q
q 1 0 0 -1 0 216 cm
345.148 10.75 m 341.449 10.75 l S Q
q 1 0 0 -1 0 216 cm
48.051 186.75 m 48.051 184.898 l S Q
q 1 0 0 -1 0 216 cm
48.051 10.75 m 48.051 12.602 l S Q
q 1 0 0 -1 0 216 cm
65.551 186.75 m 65.551 184.898 l S Q
q 1 0 0 -1 0 216 cm
65.551 10.75 m 65.551 12.602 l S Q
0.15 w
[ 0.2 2] 0 d
q 1 0 0 -1 0 216 cm
83 186.75 m 83 10.75 l S Q
0.25 w
[] 0.0 d
q 1 0 0 -1 0 216 cm
83 186.75 m 83 183.051 l S Q
q 1 0 0 -1 0 216 cm
83 10.75 m 83 14.449 l S Q
q 1 0 0 -1 0 216 cm
100.5 186.75 m 100.5 184.898 l S Q
q 1 0 0 -1 0 216 cm
100.5 10.75 m 100.5 12.602 l S Q
q 1 0 0 -1 0 216 cm
117.949 186.75 m 117.949 184.898 l S Q
q 1 0 0 -1 0 216 cm
117.949 10.75 m 117.949 12.602 l S Q
q 1 0 0 -1 0 216 cm
135.449 186.75 m 135.449 184.898 l S Q
q 1 0 0 -1 0 216 cm
135.449 10.75 m 135.449 12.602 l S Q
q 1 0 0 -1 0 216 cm
152.898 186.75 m 152.898 184.898 l S Q
q 1 0 0 -1 0 216 cm
152.898 10.75 m 152.898 12.602 l S Q
0.15 w
[ 0.2 2] 0 d
q 1 0 0 -1 0 216 cm
170.398 186.75 m 170.398 10.75 l S Q
0.25 w
[] 0.0 d
q 1 0 0 -1 0 216 cm
170.398 186.75 m 170.398 183.051 l S Q
q 1 0 0 -1 0 216 cm
170.398 10.75 m 170.398 14.449 l S Q
q 1 0 0 -1 0 216 cm
187.852 186.75 m 187.852 184.898 l S Q
q 1 0 0 -1 0 216 cm
187.852 10.75 m 187.852 12.602 l S Q
q 1 0 0 -1 0 216 cm
205.352 186.75 m 205.352 184.898 l S Q
q 1 0 0 -1 0 216 cm
205.352 10.75 m 205.352 12.602 l S Q
q 1 0 0 -1 0 216 cm
222.801 186.75 m 222.801 184.898 l S Q
q 1 0 0 -1 0 216 cm
222.801 10.75 m 222.801 12.602 l S Q
q 1 0 0 -1 0 216 cm
240.301 186.75 m 240.301 184.898 l S Q
q 1 0 0 -1 0 216 cm
240.301 10.75 m 240.301 12.602 l S Q
0.15 w
[ 0.2 2] 0 d
q 1 0 0 -1 0 216 cm
257.75 186.75 m 257.75 10.75 l S Q
0.25 w
[] 0.0 d
q 1 0 0 -1 0 216 cm
257.75 186.75 m 257.75 183.051 l S Q
q 1 0 0 -1 0 216 cm
257.75 10.75 m 257.75 14.449 l S Q
q 1 0 0 -1 0 216 cm
275.25 186.75 m 275.25 184.898 l S Q
q 1 0 0 -1 0 216 cm
275.25 10.75 m 275.25 12.602 l S Q
q 1 0 0 -1 0 216 cm
292.699 186.75 m 292.699 184.898 l S Q
q 1 0 0 -1 0 216 cm
292.699 10.75 m 292.699 12.602 l S Q
q 1 0 0 -1 0 216 cm
310.199 186.75 m 310.199 184.898 l S Q
q 1 0 0 -1 0 216 cm
310.199 10.75 m 310.199 12.602 l S Q
q 1 0 0 -1 0 216 cm
327.648 186.75 m 327.648 184.898 l S Q
q 1 0 0 -1 0 216 cm
327.648 10.75 m 327.648 12.602 l S Q
0.15 w
[ 0.2 2] 0 d
q 1 0 0 -1 0 216 cm
345.148 186.75 m 345.148 10.75 l S Q
0.25 w
[] 0.0 d
q 1 0 0 -1 0 216 cm
345.148 186.75 m 345.148 183.051 l S Q
q 1 0 0 -1 0 216 cm
345.148 10.75 m 345.148 14.449 l S Q
q 1 0 0 -1 0 216 cm
48.051 10.75 297.098 176 re S Q
0.533333 g
2.5 w
q 1 0 0 -1 0 216 cm
48.051 81.801 m 51.051 81.852 l 54.051 81.898 l 66.051 82.102 l 69.051 
82.148 l 81.051 82.352 l 84.051 82.398 l 93.051 82.551 l 96.051 82.551 l
 99.051 82.602 l 102.051 82.648 l 114.051 82.852 l 117.051 82.898 l 120.051
 82.949 l 123.102 83 l 129.102 83.102 l 132.102 83.148 l 144.102 83.352 
l 147.102 83.398 l 159.102 83.602 l 162.102 83.648 l 174.102 83.852 l 177.102
 83.898 l 189.102 84.102 l 192.102 84.148 l 204.102 84.352 l 207.102 84.398
 l 219.102 84.602 l 222.102 84.648 l 234.102 84.852 l 237.102 84.898 l 249.102
 85.102 l 252.102 85.148 l 264.102 85.352 l 267.102 85.398 l 270.102 85.449
 l 273.148 85.5 l 279.148 85.602 l 282.148 85.648 l 294.148 85.852 l 297.148
 85.898 l 309.148 86.102 l 312.148 86.148 l 315.148 86.199 l 318.148 86.199
 l 327.148 86.352 l 330.148 86.398 l 342.148 86.602 l 345.148 86.648 l S Q
0.172549 0.462745 0.733333 rg
0.25 w
q 1 0 0 -1 0 216 cm
228.398 92.852 m 234.398 92.852 l S Q
q 1 0 0 -1 0 216 cm
231.398 89.852 m 231.398 95.852 l S Q
q 1 0 0 -1 0 216 cm
327.75 84.648 m 333.75 84.648 l S Q
q 1 0 0 -1 0 216 cm
330.75 81.648 m 330.75 87.648 l S Q
q 1 0 0 -1 0 216 cm
66.398 81.75 m 72.398 81.75 l S Q
q 1 0 0 -1 0 216 cm
69.398 78.75 m 69.398 84.75 l S Q
q 1 0 0 -1 0 216 cm
308.449 64.25 m 314.449 64.25 l S Q
q 1 0 0 -1 0 216 cm
311.449 61.25 m 311.449 67.25 l S Q
q 1 0 0 -1 0 216 cm
218.5 68 m 224.5 68 l S Q
q 1 0 0 -1 0 216 cm
221.5 65 m 221.5 71 l S Q
q 1 0 0 -1 0 216 cm
182.602 47.551 m 188.602 47.551 l S Q
q 1 0 0 -1 0 216 cm
185.602 44.551 m 185.602 50.551 l S Q
q 1 0 0 -1 0 216 cm
188.602 116.25 m 194.602 116.25 l S Q
q 1 0 0 -1 0 216 cm
191.602 113.25 m 191.602 119.25 l S Q
q 1 0 0 -1 0 216 cm
332 96.102 m 338 96.102 l S Q
q 1 0 0 -1 0 216 cm
335 93.102 m 335 99.102 l S Q
q 1 0 0 -1 0 216 cm
59.102 59.102 m 65.102 59.102 l S Q
q 1 0 0 -1 0 216 cm
62.102 56.102 m 62.102 62.102 l S Q
q 1 0 0 -1 0 216 cm
322 87.75 m 328 87.75 l S Q
q 1 0 0 -1 0 216 cm
325 84.75 m 325 90.75 l S Q
q 1 0 0 -1 0 216 cm
177.301 76.949 m 183.301 76.949 l S Q
q 1 0 0 -1 0 216 cm
180.301 73.949 m 180.301 79.949 l S Q
q 1 0 0 -1 0 216 cm
326 57.25 m 332 57.25 l S Q
q 1 0 0 -1 0 216 cm
329 54.25 m 329 60.25 l S Q
q 1 0 0 -1 0 216 cm
141 102.352 m 147 102.352 l S Q
q 1 0 0 -1 0 216 cm
144 99.352 m 144 105.352 l S Q
q 1 0 0 -1 0 216 cm
64.852 144.148 m 70.852 144.148 l S Q
q 1 0 0 -1 0 216 cm
67.852 141.148 m 67.852 147.148 l S Q
q 1 0 0 -1 0 216 cm
235.949 71.699 m 241.949 71.699 l S Q
q 1 0 0 -1 0 216 cm
238.949 68.699 m 238.949 74.699 l S Q
q 1 0 0 -1 0 216 cm
194.199 77.75 m 200.199 77.75 l S Q
q 1 0 0 -1 0 216 cm
197.199 74.75 m 197.199 80.75 l S Q
q 1 0 0 -1 0 216 cm
53.051 36.898 m 59.051 36.898 l S Q
q 1 0 0 -1 0 216 cm
56.051 33.898 m 56.051 39.898 l S Q
q 1 0 0 -1 0 216 cm
220.699 112.449 m 226.699 112.449 l S Q
q 1 0 0 -1 0 216 cm
223.699 109.449 m 223.699 115.449 l S Q
q 1 0 0 -1 0 216 cm
137.75 67.5 m 143.75 67.5 l S Q
q 1 0 0 -1 0 216 cm
140.75 64.5 m 140.75 70.5 l S Q
q 1 0 0 -1 0 216 cm
200.148 70.301 m 206.148 70.301 l S Q
q 1 0 0 -1 0 216 cm
203.148 67.301 m 203.148 73.301 l S Q
q 1 0 0 -1 0 216 cm
130.602 59.398 m 136.602 59.398 l S Q
q 1 0 0 -1 0 216 cm
133.602 56.398 m 133.602 62.398 l S Q
q 1 0 0 -1 0 216 cm
249.699 68.25 m 255.699 68.25 l S Q
q 1 0 0 -1 0 216 cm
252.699 65.25 m 252.699 71.25 l S Q
q 1 0 0 -1 0 216 cm
259 103.801 m 265 103.801 l S Q
q 1 0 0 -1 0 216 cm
262 100.801 m 262 106.801 l S Q
q 1 0 0 -1 0 216 cm
70.148 100.449 m 76.148 100.449 l S Q
q 1 0 0 -1 0 216 cm
73.148 97.449 m 73.148 103.449 l S Q
q 1 0 0 -1 0 216 cm
155.102 121 m 161.102 121 l S Q
q 1 0 0 -1 0 216 cm
158.102 118 m 158.102 124 l S Q
q 1 0 0 -1 0 216 cm
314.602 75.148 m 320.602 75.148 l S Q
q 1 0 0 -1 0 216 cm
317.602 72.148 m 317.602 78.148 l S Q
q 1 0 0 -1 0 216 cm
320.801 98.102 m 326.801 98.102 l S Q
q 1 0 0 -1 0 216 cm
323.801 95.102 m 323.801 101.102 l S Q
q 1 0 0 -1 0 216 cm
112.051 86.602 m 118.051 86.602 l S Q
q 1 0 0 -1 0 216 cm
115.051 83.602 m 115.051 89.602 l S Q
q 1 0 0 -1 0 216 cm
165.551 42.75 m 171.551 42.75 l S Q
q 1 0 0 -1 0 216 cm
168.551 39.75 m 168.551 45.75 l S Q
q 1 0 0 -1 0 216 cm
106.602 92.449 m 112.602 92.449 l S Q
q 1 0 0 -1 0 216 cm
109.602 89.449 m 109.602 95.449 l S Q
q 1 0 0 -1 0 216 cm
195.051 118.25 m 201.051 118.25 l S Q
q 1 0 0 -1 0 216 cm
198.051 115.25 m 198.051 121.25 l S Q
q 1 0 0 -1 0 216 cm
261.051 34.852 m 267.051 34.852 l S Q
q 1 0 0 -1 0 216 cm
264.051 31.852 m 264.051 37.852 l S Q
q 1 0 0 -1 0 216 cm
60 83.398 m 66 83.398 l S Q
q 1 0 0 -1 0 216 cm
63 80.398 m 63 86.398 l S Q
q 1 0 0 -1 0 216 cm
153.5 92.25 m 159.5 92.25 l S Q
q 1 0 0 -1 0 216 cm
156.5 89.25 m 156.5 95.25 l S Q
q 1 0 0 -1 0 216 cm
122.352 46.75 m 128.352 46.75 l S Q
q 1 0 0 -1 0 216 cm
125.352 43.75 m 125.352 49.75 l S Q
q 1 0 0 -1 0 216 cm
126.551 53.148 m 132.551 53.148 l S Q
q 1 0 0 -1 0 216 cm
129.551 50.148 m 129.551 56.148 l S Q
q 1 0 0 -1 0 216 cm
63.148 51.051 m 69.148 51.051 l S Q
q 1 0 0 -1 0 216 cm
66.148 48.051 m 66.148 54.051 l S Q
q 1 0 0 -1 0 216 cm
257.102 73.102 m 263.102 73.102 l S Q
q 1 0 0 -1 0 216 cm
260.102 70.102 m 260.102 76.102 l S Q
q 1 0 0 -1 0 216 cm
217.75 147.801 m 223.75 147.801 l S Q
q 1 0 0 -1 0 216 cm
220.75 144.801 m 220.75 150.801 l S Q
q 1 0 0 -1 0 216 cm
198.301 80.699 m 204.301 80.699 l S Q
q 1 0 0 -1 0 216 cm
201.301 77.699 m 201.301 83.699 l S Q
q 1 0 0 -1 0 216 cm
77.301 51.648 m 83.301 51.648 l S Q
q 1 0 0 -1 0 216 cm
80.301 48.648 m 80.301 54.648 l S Q
q 1 0 0 -1 0 216 cm
134.898 65.5 m 140.898 65.5 l S Q
q 1 0 0 -1 0 216 cm
137.898 62.5 m 137.898 68.5 l S Q
q 1 0 0 -1 0 216 cm
149.102 45.75 m 155.102 45.75 l S Q
q 1 0 0 -1 0 216 cm
152.102 42.75 m 152.102 48.75 l S Q
q 1 0 0 -1 0 216 cm
220.852 128.699 m 226.852 128.699 l S Q
q 1 0 0 -1 0 216 cm
223.852 125.699 m 223.852 131.699 l S Q
q 1 0 0 -1 0 216 cm
284.648 115.25 m 290.648 115.25 l S Q
q 1 0 0 -1 0 216 cm
287.648 112.25 m 287.648 118.25 l S Q
q 1 0 0 -1 0 216 cm
236.5 70.801 m 242.5 70.801 l S Q
q 1 0 0 -1 0 216 cm
239.5 67.801 m 239.5 73.801 l S Q
q 1 0 0 -1 0 216 cm
105.352 132.75 m 111.352 132.75 l S Q
q 1 0 0 -1 0 216 cm
108.352 129.75 m 108.352 135.75 l S Q
q 1 0 0 -1 0 216 cm
89.898 62.25 m 95.898 62.25 l S Q
q 1 0 0 -1 0 216 cm
92.898 59.25 m 92.898 65.25 l S Q
q 1 0 0 -1 0 216 cm
78.051 77.699 m 84.051 77.699 l S Q
q 1 0 0 -1 0 216 cm
81.051 74.699 m 81.051 80.699 l S Q
q 1 0 0 -1 0 216 cm
292.051 54.648 m 298.051 54.648 l S Q
q 1 0 0 -1 0 216 cm
295.051 51.648 m 295.051 57.648 l S Q
q 1 0 0 -1 0 216 cm
190.801 83.199 m 196.801 83.199 l S Q
q 1 0 0 -1 0 216 cm
193.801 80.199 m 193.801 86.199 l S Q
q 1 0 0 -1 0 216 cm
258.449 139.051 m 264.449 139.051 l S Q
q 1 0 0 -1 0 216 cm
261.449 136.051 m 261.449 142.051 l S Q
q 1 0 0 -1 0 216 cm
263.25 101.5 m 269.25 101.5 l S Q
q 1 0 0 -1 0 216 cm
266.25 98.5 m 266.25 104.5 l S Q
q 1 0 0 -1 0 216 cm
184.949 86.25 m 190.949 86.25 l S Q
q 1 0 0 -1 0 216 cm
187.949 83.25 m 187.949 89.25 l S Q
q 1 0 0 -1 0 216 cm
301.102 72.301 m 307.102 72.301 l S Q
q 1 0 0 -1 0 216 cm
304.102 69.301 m 304.102 75.301 l S Q
q 1 0 0 -1 0 216 cm
139.949 80.352 m 145.949 80.352 l S Q
q 1 0 0 -1 0 216 cm
142.949 77.352 m 142.949 83.352 l S Q
q 1 0 0 -1 0 216 cm
199.898 114.5 m 205.898 114.5 l S Q
q 1 0 0 -1 0 216 cm
202.898 111.5 m 202.898 117.5 l S Q
q 1 0 0 -1 0 216 cm
222.898 95.148 m 228.898 95.148 l S Q
q 1 0 0 -1 0 216 cm
225.898 92.148 m 225.898 98.148 l S Q
q 1 0 0 -1 0 216 cm
78.551 59.398 m 84.551 59.398 l S Q
q 1 0 0 -1 0 216 cm
81.551 56.398 m 81.551 62.398 l S Q
q 1 0 0 -1 0 216 cm
66.852 101.352 m 72.852 101.352 l S Q
q 1 0 0 -1 0 216 cm
69.852 98.352 m 69.852 104.352 l S Q
q 1 0 0 -1 0 216 cm
96.648 143.051 m 102.648 143.051 l S Q
q 1 0 0 -1 0 216 cm
99.648 140.051 m 99.648 146.051 l S Q
q 1 0 0 -1 0 216 cm
293.551 27.551 m 299.551 27.551 l S Q
q 1 0 0 -1 0 216 cm
296.551 24.551 m 296.551 30.551 l S Q
q 1 0 0 -1 0 216 cm
261.852 123.352 m 267.852 123.352 l S Q
q 1 0 0 -1 0 216 cm
264.852 120.352 m 264.852 126.352 l S Q
q 1 0 0 -1 0 216 cm
328.75 25.199 m 334.75 25.199 l S Q
q 1 0 0 -1 0 216 cm
331.75 22.199 m 331.75 28.199 l S Q
q 1 0 0 -1 0 216 cm
336.301 117.898 m 342.301 117.898 l S Q
q 1 0 0 -1 0 216 cm
339.301 114.898 m 339.301 120.898 l S Q
q 1 0 0 -1 0 216 cm
285.602 37.148 m 291.602 37.148 l S Q
q 1 0 0 -1 0 216 cm
288.602 34.148 m 288.602 40.148 l S Q
q 1 0 0 -1 0 216 cm
268.5 115.602 m 274.5 115.602 l S Q
q 1 0 0 -1 0 216 cm
271.5 112.602 m 271.5 118.602 l S Q
q 1 0 0 -1 0 216 cm
148.551 82.699 m 154.551 82.699 l S Q
q 1 0 0 -1 0 216 cm
151.551 79.699 m 151.551 85.699 l S Q
q 1 0 0 -1 0 216 cm
211.148 75.102 m 217.148 75.102 l S Q
q 1 0 0 -1 0 216 cm
214.148 72.102 m 214.148 78.102 l S Q
q 1 0 0 -1 0 216 cm
269.852 79.75 m 275.852 79.75 l S Q
q 1 0 0 -1 0 216 cm
272.852 76.75 m 272.852 82.75 l S Q
q 1 0 0 -1 0 216 cm
297.051 99.551 m 303.051 99.551 l S Q
q 1 0 0 -1 0 216 cm
300.051 96.551 m 300.051 102.551 l S Q
q 1 0 0 -1 0 216 cm
207.551 49.148 m 213.551 49.148 l S Q
q 1 0 0 -1 0 216 cm
210.551 46.148 m 210.551 52.148 l S Q
q 1 0 0 -1 0 216 cm
195.301 38.352 m 201.301 38.352 l S Q
q 1 0 0 -1 0 216 cm
198.301 35.352 m 198.301 41.352 l S Q
q 1 0 0 -1 0 216 cm
294.301 46.75 m 300.301 46.75 l S Q
q 1 0 0 -1 0 216 cm
297.301 43.75 m 297.301 49.75 l S Q
q 1 0 0 -1 0 216 cm
337.75 46.449 m 343.75 46.449 l S Q
q 1 0 0 -1 0 216 cm
340.75 43.449 m 340.75 49.449 l S Q
q 1 0 0 -1 0 216 cm
131.199 56.148 m 137.199 56.148 l S Q
q 1 0 0 -1 0 216 cm
134.199 53.148 m 134.199 59.148 l S Q
q 1 0 0 -1 0 216 cm
259.852 89.898 m 265.852 89.898 l S Q
q 1 0 0 -1 0 216 cm
262.852 86.898 m 262.852 92.898 l S Q
q 1 0 0 -1 0 216 cm
131.75 55.449 m 137.75 55.449 l S Q
q 1 0 0 -1 0 216 cm
134.75 52.449 m 134.75 58.449 l S Q
q 1 0 0 -1 0 216 cm
115.898 71.398 m 121.898 71.398 l S Q
q 1 0 0 -1 0 216 cm
118.898 68.398 m 118.898 74.398 l S Q
q 1 0 0 -1 0 216 cm
120.398 52.648 m 126.398 52.648 l S Q
q 1 0 0 -1 0 216 cm
123.398 49.648 m 123.398 55.648 l S Q
q 1 0 0 -1 0 216 cm
217.5 135.801 m 223.5 135.801 l S Q
q 1 0 0 -1 0 216 cm
220.5 132.801 m 220.5 138.801 l S Q
q 1 0 0 -1 0 216 cm
124.602 107.602 m 130.602 107.602 l S Q
q 1 0 0 -1 0 216 cm
127.602 104.602 m 127.602 110.602 l S Q
q 1 0 0 -1 0 216 cm
91.352 81.102 m 97.352 81.102 l S Q
q 1 0 0 -1 0 216 cm
94.352 78.102 m 94.352 84.102 l S Q
q 1 0 0 -1 0 216 cm
56.148 124.75 m 62.148 124.75 l S Q
q 1 0 0 -1 0 216 cm
59.148 121.75 m 59.148 127.75 l S Q
q 1 0 0 -1 0 216 cm
216.75 81.648 m 222.75 81.648 l S Q
q 1 0 0 -1 0 216 cm
219.75 78.648 m 219.75 84.648 l S Q
q 1 0 0 -1 0 216 cm
77.051 127.648 m 83.051 127.648 l S Q
q 1 0 0 -1 0 216 cm
80.051 124.648 m 80.051 130.648 l S Q
q 1 0 0 -1 0 216 cm
212.551 66.801 m 218.551 66.801 l S Q
q 1 0 0 -1 0 216 cm
215.551 63.801 m 215.551 69.801 l S Q
q 1 0 0 -1 0 216 cm
105.148 30.898 m 111.148 30.898 l S Q
q 1 0 0 -1 0 216 cm
108.148 27.898 m 108.148 33.898 l S Q
q 1 0 0 -1 0 216 cm
328.398 139.801 m 334.398 139.801 l S Q
q 1 0 0 -1 0 216 cm
331.398 136.801 m 331.398 142.801 l S Q
q 1 0 0 -1 0 216 cm
84.801 113.102 m 90.801 113.102 l S Q
q 1 0 0 -1 0 216 cm
87.801 110.102 m 87.801 116.102 l S Q
q 1 0 0 -1 0 216 cm
153.199 76.551 m 159.199 76.551 l S Q
q 1 0 0 -1 0 216 cm
156.199 73.551 m 156.199 79.551 l S Q
q 1 0 0 -1 0 216 cm
317.051 45.551 m 323.051 45.551 l S Q
q 1 0 0 -1 0 216 cm
320.051 42.551 m 320.051 48.551 l S Q
q 1 0 0 -1 0 216 cm
273.199 115.148 m 279.199 115.148 l S Q
q 1 0 0 -1 0 216 cm
276.199 112.148 m 276.199 118.148 l S Q
q 1 0 0 -1 0 216 cm
293.148 122 m 299.148 122 l S Q
q 1 0 0 -1 0 216 cm
296.148 119 m 296.148 125 l S Q
q 1 0 0 -1 0 216 cm
235.801 94.398 m 241.801 94.398 l S Q
q 1 0 0 -1 0 216 cm
238.801 91.398 m 238.801 97.398 l S Q
q 1 0 0 -1 0 216 cm
321.699 71.75 m 327.699 71.75 l S Q
q 1 0 0 -1 0 216 cm
324.699 68.75 m 324.699 74.75 l S Q
q 1 0 0 -1 0 216 cm
113.199 77.852 m 119.199 77.852 l S Q
q 1 0 0 -1 0 216 cm
116.199 74.852 m 116.199 80.852 l S Q
q 1 0 0 -1 0 216 cm
146.051 61.898 m 152.051 61.898 l S Q
q 1 0 0 -1 0 216 cm
149.051 58.898 m 149.051 64.898 l S Q
q 1 0 0 -1 0 216 cm
210.852 101.301 m 216.852 101.301 l S Q
q 1 0 0 -1 0 216 cm
213.852 98.301 m 213.852 104.301 l S Q
q 1 0 0 -1 0 216 cm
152.949 117.398 m 158.949 117.398 l S Q
q 1 0 0 -1 0 216 cm
155.949 114.398 m 155.949 120.398 l S Q
q 1 0 0 -1 0 216 cm
194.352 95.051 m 200.352 95.051 l S Q
q 1 0 0 -1 0 216 cm
197.352 92.051 m 197.352 98.051 l S Q
q 1 0 0 -1 0 216 cm
262.051 79.949 m 268.051 79.949 l S Q
q 1 0 0 -1 0 216 cm
265.051 76.949 m 265.051 82.949 l S Q
q 1 0 0 -1 0 216 cm
296.699 75.051 m 302.699 75.051 l S Q
q 1 0 0 -1 0 216 cm
299.699 72.051 m 299.699 78.051 l S Q
q 1 0 0 -1 0 216 cm
206.051 44.148 m 212.051 44.148 l S Q
q 1 0 0 -1 0 216 cm
209.051 41.148 m 209.051 47.148 l S Q
q 1 0 0 -1 0 216 cm
89.148 92.5 m 95.148 92.5 l S Q
q 1 0 0 -1 0 216 cm
92.148 89.5 m 92.148 95.5 l S Q
q 1 0 0 -1 0 216 cm
200.051 63.801 m 206.051 63.801 l S Q
q 1 0 0 -1 0 216 cm
203.051 60.801 m 203.051 66.801 l S Q
q 1 0 0 -1 0 216 cm
277.398 87.852 m 283.398 87.852 l S Q
q 1 0 0 -1 0 216 cm
280.398 84.852 m 280.398 90.852 l S Q
q 1 0 0 -1 0 216 cm
183.602 52.398 m 189.602 52.398 l S Q
q 1 0 0 -1 0 216 cm
186.602 49.398 m 186.602 55.398 l S Q
q 1 0 0 -1 0 216 cm
107.352 84.5 m 113.352 84.5 l S Q
q 1 0 0 -1 0 216 cm
110.352 81.5 m 110.352 87.5 l S Q
q 1 0 0 -1 0 216 cm
301.301 40.898 m 307.301 40.898 l S Q
q 1 0 0 -1 0 216 cm
304.301 37.898 m 304.301 43.898 l S Q
q 1 0 0 -1 0 216 cm
299.449 101.199 m 305.449 101.199 l S Q
q 1 0 0 -1 0 216 cm
302.449 98.199 m 302.449 104.199 l S Q
q 1 0 0 -1 0 216 cm
216 102.75 m 222 102.75 l S Q
q 1 0 0 -1 0 216 cm
219 99.75 m 219 105.75 l S Q
q 1 0 0 -1 0 216 cm
291.25 92.801 m 297.25 92.801 l S Q
q 1 0 0 -1 0 216 cm
294.25 89.801 m 294.25 95.801 l S Q
q 1 0 0 -1 0 216 cm
53.102 149.199 m 59.102 149.199 l S Q
q 1 0 0 -1 0 216 cm
56.102 146.199 m 56.102 152.199 l S Q
q 1 0 0 -1 0 216 cm
65.551 73.301 m 71.551 73.301 l S Q
q 1 0 0 -1 0 216 cm
68.551 70.301 m 68.551 76.301 l S Q
q 1 0 0 -1 0 216 cm
225.75 116.449 m 231.75 116.449 l S Q
q 1 0 0 -1 0 216 cm
228.75 113.449 m 228.75 119.449 l S Q
q 1 0 0 -1 0 216 cm
167.449 74.602 m 173.449 74.602 l S Q
q 1 0 0 -1 0 216 cm
170.449 71.602 m 170.449 77.602 l S Q
q 1 0 0 -1 0 216 cm
246.051 58.801 m 252.051 58.801 l S Q
q 1 0 0 -1 0 216 cm
249.051 55.801 m 249.051 61.801 l S Q
q 1 0 0 -1 0 216 cm
257.449 68.25 m 263.449 68.25 l S Q
q 1 0 0 -1 0 216 cm
260.449 65.25 m 260.449 71.25 l S Q
q 1 0 0 -1 0 216 cm
277.301 93.301 m 283.301 93.301 l S Q
q 1 0 0 -1 0 216 cm
280.301 90.301 m 280.301 96.301 l S Q
q 1 0 0 -1 0 216 cm
113.398 95.551 m 119.398 95.551 l S Q
q 1 0 0 -1 0 216 cm
116.398 92.551 m 116.398 98.551 l S Q
q 1 0 0 -1 0 216 cm
169.051 43.398 m 175.051 43.398 l S Q
q 1 0 0 -1 0 216 cm
172.051 40.398 m 172.051 46.398 l S Q
q 1 0 0 -1 0 216 cm
226.898 98.551 m 232.898 98.551 l S Q
q 1 0 0 -1 0 216 cm
229.898 95.551 m 229.898 101.551 l S Q
q 1 0 0 -1 0 216 cm
221.148 72.852 m 227.148 72.852 l S Q
q 1 0 0 -1 0 216 cm
224.148 69.852 m 224.148 75.852 l S Q
q 1 0 0 -1 0 216 cm
158.648 23.898 m 164.648 23.898 l S Q
q 1 0 0 -1 0 216 cm
161.648 20.898 m 161.648 26.898 l S Q
q 1 0 0 -1 0 216 cm
337.648 94 m 343.648 94 l S Q
q 1 0 0 -1 0 216 cm
340.648 91 m 340.648 97 l S Q
q 1 0 0 -1 0 216 cm
190.352 64.898 m 196.352 64.898 l S Q
q 1 0 0 -1 0 216 cm
193.352 61.898 m 193.352 67.898 l S Q
q 1 0 0 -1 0 216 cm
69.801 29.602 m 75.801 29.602 l S Q
q 1 0 0 -1 0 216 cm
72.801 26.602 m 72.801 32.602 l S Q
q 1 0 0 -1 0 216 cm
325.148 114.801 m 331.148 114.801 l S Q
q 1 0 0 -1 0 216 cm
328.148 111.801 m 328.148 117.801 l S Q
q 1 0 0 -1 0 216 cm
188.301 100.5 m 194.301 100.5 l S Q
q 1 0 0 -1 0 216 cm
191.301 97.5 m 191.301 103.5 l S Q
q 1 0 0 -1 0 216 cm
235.051 124.699 m 241.051 124.699 l S Q
q 1 0 0 -1 0 216 cm
238.051 121.699 m 238.051 127.699 l S Q
q 1 0 0 -1 0 216 cm
180.852 67.148 m 186.852 67.148 l S Q
q 1 0 0 -1 0 216 cm
183.852 64.148 m 183.852 70.148 l S Q
q 1 0 0 -1 0 216 cm
138.801 57.148 m 144.801 57.148 l S Q
q 1 0 0 -1 0 216 cm
141.801 54.148 m 141.801 60.148 l S Q
q 1 0 0 -1 0 216 cm
88 64.449 m 94 64.449 l S Q
q 1 0 0 -1 0 216 cm
91 61.449 m 91 67.449 l S Q
q 1 0 0 -1 0 216 cm
65.602 97.602 m 71.602 97.602 l S Q
q 1 0 0 -1 0 216 cm
68.602 94.602 m 68.602 100.602 l S Q
q 1 0 0 -1 0 216 cm
232.949 60.051 m 238.949 60.051 l S Q
q 1 0 0 -1 0 216 cm
235.949 57.051 m 235.949 63.051 l S Q
q 1 0 0 -1 0 216 cm
292.449 100.5 m 298.449 100.5 l S Q
q 1 0 0 -1 0 216 cm
295.449 97.5 m 295.449 103.5 l S Q
q 1 0 0 -1 0 216 cm
232.301 118.051 m 238.301 118.051 l S Q
q 1 0 0 -1 0 216 cm
235.301 115.051 m 235.301 121.051 l S Q
q 1 0 0 -1 0 216 cm
270.648 59.199 m 276.648 59.199 l S Q
q 1 0 0 -1 0 216 cm
273.648 56.199 m 273.648 62.199 l S Q
q 1 0 0 -1 0 216 cm
280 129.648 m 286 129.648 l S Q
q 1 0 0 -1 0 216 cm
283 126.648 m 283 132.648 l S Q
q 1 0 0 -1 0 216 cm
66.602 41.5 m 72.602 41.5 l S Q
q 1 0 0 -1 0 216 cm
69.602 38.5 m 69.602 44.5 l S Q
q 1 0 0 -1 0 216 cm
68.949 72.051 m 74.949 72.051 l S Q
q 1 0 0 -1 0 216 cm
71.949 69.051 m 71.949 75.051 l S Q
q 1 0 0 -1 0 216 cm
80 85.398 m 86 85.398 l S Q
q 1 0 0 -1 0 216 cm
83 82.398 m 83 88.398 l S Q
q 1 0 0 -1 0 216 cm
149.699 89.352 m 155.699 89.352 l S Q
q 1 0 0 -1 0 216 cm
152.699 86.352 m 152.699 92.352 l S Q
q 1 0 0 -1 0 216 cm
278.148 57.75 m 284.148 57.75 l S Q
q 1 0 0 -1 0 216 cm
281.148 54.75 m 281.148 60.75 l S Q
q 1 0 0 -1 0 216 cm
165.301 80.352 m 171.301 80.352 l S Q
q 1 0 0 -1 0 216 cm
168.301 77.352 m 168.301 83.352 l S Q
q 1 0 0 -1 0 216 cm
300.148 129.75 m 306.148 129.75 l S Q
q 1 0 0 -1 0 216 cm
303.148 126.75 m 303.148 132.75 l S Q
q 1 0 0 -1 0 216 cm
220.551 87.801 m 226.551 87.801 l S Q
q 1 0 0 -1 0 216 cm
223.551 84.801 m 223.551 90.801 l S Q
q 1 0 0 -1 0 216 cm
67.102 74.051 m 73.102 74.051 l S Q
q 1 0 0 -1 0 216 cm
70.102 71.051 m 70.102 77.051 l S Q
q 1 0 0 -1 0 216 cm
95.898 70.648 m 101.898 70.648 l S Q
q 1 0 0 -1 0 216 cm
98.898 67.648 m 98.898 73.648 l S Q
q 1 0 0 -1 0 216 cm
325.5 134.648 m 331.5 134.648 l S Q
q 1 0 0 -1 0 216 cm
328.5 131.648 m 328.5 137.648 l S Q
q 1 0 0 -1 0 216 cm
216.898 85.75 m 222.898 85.75 l S Q
q 1 0 0 -1 0 216 cm
219.898 82.75 m 219.898 88.75 l S Q
q 1 0 0 -1 0 216 cm
238.648 36.102 m 244.648 36.102 l S Q
q 1 0 0 -1 0 216 cm
241.648 33.102 m 241.648 39.102 l S Q
q 1 0 0 -1 0 216 cm
74.898 77.199 m 80.898 77.199 l S Q
q 1 0 0 -1 0 216 cm
77.898 74.199 m 77.898 80.199 l S Q
q 1 0 0 -1 0 216 cm
290.75 38.602 m 296.75 38.602 l S Q
q 1 0 0 -1 0 216 cm
293.75 35.602 m 293.75 41.602 l S Q
q 1 0 0 -1 0 216 cm
307.75 60.852 m 313.75 60.852 l S Q
q 1 0 0 -1 0 216 cm
310.75 57.852 m 310.75 63.852 l S Q
q 1 0 0 -1 0 216 cm
205 62.148 m 211 62.148 l S Q
q 1 0 0 -1 0 216 cm
208 59.148 m 208 65.148 l S Q
q 1 0 0 -1 0 216 cm
261.102 81.852 m 267.102 81.852 l S Q
q 1 0 0 -1 0 216 cm
264.102 78.852 m 264.102 84.852 l S Q
q 1 0 0 -1 0 216 cm
177.148 142.648 m 183.148 142.648 l S Q
q 1 0 0 -1 0 216 cm
180.148 139.648 m 180.148 145.648 l S Q
q 1 0 0 -1 0 216 cm
160.648 87.699 m 166.648 87.699 l S Q
q 1 0 0 -1 0 216 cm
163.648 84.699 m 163.648 90.699 l S Q
q 1 0 0 -1 0 216 cm
298.852 139.5 m 304.852 139.5 l S Q
q 1 0 0 -1 0 216 cm
301.852 136.5 m 301.852 142.5 l S Q
q 1 0 0 -1 0 216 cm
275.199 69.148 m 281.199 69.148 l S Q
q 1 0 0 -1 0 216 cm
278.199 66.148 m 278.199 72.148 l S Q
q 1 0 0 -1 0 216 cm
281.352 71.551 m 287.352 71.551 l S Q
q 1 0 0 -1 0 216 cm
284.352 68.551 m 284.352 74.551 l S Q
q 1 0 0 -1 0 216 cm
265.199 111.051 m 271.199 111.051 l S Q
q 1 0 0 -1 0 216 cm
268.199 108.051 m 268.199 114.051 l S Q
q 1 0 0 -1 0 216 cm
201.148 67.602 m 207.148 67.602 l S Q
q 1 0 0 -1 0 216 cm
204.148 64.602 m 204.148 70.602 l S Q
q 1 0 0 -1 0 216 cm
260.5 109.398 m 266.5 109.398 l S Q
q 1 0 0 -1 0 216 cm
263.5 106.398 m 263.5 112.398 l S Q
q 1 0 0 -1 0 216 cm
52.102 40 m 58.102 40 l S Q
q 1 0 0 -1 0 216 cm
55.102 37 m 55.102 43 l S Q
q 1 0 0 -1 0 216 cm
286.5 42.699 m 292.5 42.699 l S Q
q 1 0 0 -1 0 216 cm
289.5 39.699 m 289.5 45.699 l S Q
q 1 0 0 -1 0 216 cm
219.148 43.051 m 225.148 43.051 l S Q
q 1 0 0 -1 0 216 cm
222.148 40.051 m 222.148 46.051 l S Q
q 1 0 0 -1 0 216 cm
264.398 88.5 m 270.398 88.5 l S Q
q 1 0 0 -1 0 216 cm
267.398 85.5 m 267.398 91.5 l S Q
q 1 0 0 -1 0 216 cm
165.352 57.102 m 171.352 57.102 l S Q
q 1 0 0 -1 0 216 cm
168.352 54.102 m 168.352 60.102 l S Q
q 1 0 0 -1 0 216 cm
236.75 129.199 m 242.75 129.199 l S Q
q 1 0 0 -1 0 216 cm
239.75 126.199 m 239.75 132.199 l S Q
q 1 0 0 -1 0 216 cm
275.551 109.648 m 281.551 109.648 l S Q
q 1 0 0 -1 0 216 cm
278.551 106.648 m 278.551 112.648 l S Q
q 1 0 0 -1 0 216 cm
155.5 102.301 m 161.5 102.301 l S Q
q 1 0 0 -1 0 216 cm
158.5 99.301 m 158.5 105.301 l S Q
q 1 0 0 -1 0 216 cm
108 69 m 114 69 l S Q
q 1 0 0 -1 0 216 cm
111 66 m 111 72 l S Q
q 1 0 0 -1 0 216 cm
179.199 73.148 m 185.199 73.148 l S Q
q 1 0 0 -1 0 216 cm
182.199 70.148 m 182.199 76.148 l S Q
q 1 0 0 -1 0 216 cm
198.352 70.051 m 204.352 70.051 l S Q
q 1 0 0 -1 0 216 cm
201.352 67.051 m 201.352 73.051 l S Q
q 1 0 0 -1 0 216 cm
293.301 86.199 m 299.301 86.199 l S Q
q 1 0 0 -1 0 216 cm
296.301 83.199 m 296.301 89.199 l S Q
q 1 0 0 -1 0 216 cm
311.051 161 m 317.051 161 l S Q
q 1 0 0 -1 0 216 cm
314.051 158 m 314.051 164 l S Q
q 1 0 0 -1 0 216 cm
151.25 61.25 m 157.25 61.25 l S Q
q 1 0 0 -1 0 216 cm
154.25 58.25 m 154.25 64.25 l S Q
q 1 0 0 -1 0 216 cm
163.5 64.551 m 169.5 64.551 l S Q
q 1 0 0 -1 0 216 cm
166.5 61.551 m 166.5 67.551 l S Q
q 1 0 0 -1 0 216 cm
122.648 94.898 m 128.648 94.898 l S Q
q 1 0 0 -1 0 216 cm
125.648 91.898 m 125.648 97.898 l S Q
q 1 0 0 -1 0 216 cm
76.551 78.25 m 82.551 78.25 l S Q
q 1 0 0 -1 0 216 cm
79.551 75.25 m 79.551 81.25 l S Q
q 1 0 0 -1 0 216 cm
182.648 89.352 m 188.648 89.352 l S Q
q 1 0 0 -1 0 216 cm
185.648 86.352 m 185.648 92.352 l S Q
q 1 0 0 -1 0 216 cm
250.898 47.398 m 256.898 47.398 l S Q
q 1 0 0 -1 0 216 cm
253.898 44.398 m 253.898 50.398 l S Q
q 1 0 0 -1 0 216 cm
305.75 96.301 m 311.75 96.301 l S Q
q 1 0 0 -1 0 216 cm
308.75 93.301 m 308.75 99.301 l S Q
q 1 0 0 -1 0 216 cm
123.449 114.852 m 129.449 114.852 l S Q
q 1 0 0 -1 0 216 cm
126.449 111.852 m 126.449 117.852 l S Q
q 1 0 0 -1 0 216 cm
292.949 132.699 m 298.949 132.699 l S Q
q 1 0 0 -1 0 216 cm
295.949 129.699 m 295.949 135.699 l S Q
q 1 0 0 -1 0 216 cm
131.75 102.75 m 137.75 102.75 l S Q
q 1 0 0 -1 0 216 cm
134.75 99.75 m 134.75 105.75 l S Q
q 1 0 0 -1 0 216 cm
88.898 58.602 m 94.898 58.602 l S Q
q 1 0 0 -1 0 216 cm
91.898 55.602 m 91.898 61.602 l S Q
q 1 0 0 -1 0 216 cm
297.301 116.301 m 303.301 116.301 l S Q
q 1 0 0 -1 0 216 cm
300.301 113.301 m 300.301 119.301 l S Q
q 1 0 0 -1 0 216 cm
323.949 68.398 m 329.949 68.398 l S Q
q 1 0 0 -1 0 216 cm
326.949 65.398 m 326.949 71.398 l S Q
q 1 0 0 -1 0 216 cm
243.648 106.25 m 249.648 106.25 l S Q
q 1 0 0 -1 0 216 cm
246.648 103.25 m 246.648 109.25 l S Q
q 1 0 0 -1 0 216 cm
192.102 66.602 m 198.102 66.602 l S Q
q 1 0 0 -1 0 216 cm
195.102 63.602 m 195.102 69.602 l S Q
q 1 0 0 -1 0 216 cm
221.75 93.398 m 227.75 93.398 l S Q
q 1 0 0 -1 0 216 cm
224.75 90.398 m 224.75 96.398 l S Q
q 1 0 0 -1 0 216 cm
306.449 62.602 m 312.449 62.602 l S Q
q 1 0 0 -1 0 216 cm
309.449 59.602 m 309.449 65.602 l S Q
q 1 0 0 -1 0 216 cm
243.898 47 m 249.898 47 l S Q
q 1 0 0 -1 0 216 cm
246.898 44 m 246.898 50 l S Q
q 1 0 0 -1 0 216 cm
261.75 50.102 m 267.75 50.102 l S Q
q 1 0 0 -1 0 216 cm
264.75 47.102 m 264.75 53.102 l S Q
q 1 0 0 -1 0 216 cm
105.449 98.551 m 111.449 98.551 l S Q
q 1 0 0 -1 0 216 cm
108.449 95.551 m 108.449 101.551 l S Q
q 1 0 0 -1 0 216 cm
59.75 129.949 m 65.75 129.949 l S Q
q 1 0 0 -1 0 216 cm
62.75 126.949 m 62.75 132.949 l S Q
q 1 0 0 -1 0 216 cm
204.551 74.051 m 210.551 74.051 l S Q
q 1 0 0 -1 0 216 cm
207.551 71.051 m 207.551 77.051 l S Q
q 1 0 0 -1 0 216 cm
201.148 44.551 m 207.148 44.551 l S Q
q 1 0 0 -1 0 216 cm
204.148 41.551 m 204.148 47.551 l S Q
q 1 0 0 -1 0 216 cm
260.199 66 m 266.199 66 l S Q
q 1 0 0 -1 0 216 cm
263.199 63 m 263.199 69 l S Q
q 1 0 0 -1 0 216 cm
105 109.301 m 111 109.301 l S Q
q 1 0 0 -1 0 216 cm
108 106.301 m 108 112.301 l S Q
q 1 0 0 -1 0 216 cm
185.648 106.449 m 191.648 106.449 l S Q
q 1 0 0 -1 0 216 cm
188.648 103.449 m 188.648 109.449 l S Q
q 1 0 0 -1 0 216 cm
52.449 118.801 m 58.449 118.801 l S Q
q 1 0 0 -1 0 216 cm
55.449 115.801 m 55.449 121.801 l S Q
q 1 0 0 -1 0 216 cm
166.25 104.949 m 172.25 104.949 l S Q
q 1 0 0 -1 0 216 cm
169.25 101.949 m 169.25 107.949 l S Q
q 1 0 0 -1 0 216 cm
166.102 49.648 m 172.102 49.648 l S Q
q 1 0 0 -1 0 216 cm
169.102 46.648 m 169.102 52.648 l S Q
q 1 0 0 -1 0 216 cm
254.551 147.699 m 260.551 147.699 l S Q
q 1 0 0 -1 0 216 cm
257.551 144.699 m 257.551 150.699 l S Q
q 1 0 0 -1 0 216 cm
101.602 60.852 m 107.602 60.852 l S Q
q 1 0 0 -1 0 216 cm
104.602 57.852 m 104.602 63.852 l S Q
q 1 0 0 -1 0 216 cm
133.449 90.949 m 139.449 90.949 l S Q
q 1 0 0 -1 0 216 cm
136.449 87.949 m 136.449 93.949 l S Q
q 1 0 0 -1 0 216 cm
145 108.898 m 151 108.898 l S Q
q 1 0 0 -1 0 216 cm
148 105.898 m 148 111.898 l S Q
q 1 0 0 -1 0 216 cm
189.449 74.648 m 195.449 74.648 l S Q
q 1 0 0 -1 0 216 cm
192.449 71.648 m 192.449 77.648 l S Q
q 1 0 0 -1 0 216 cm
336.398 105.699 m 342.398 105.699 l S Q
q 1 0 0 -1 0 216 cm
339.398 102.699 m 339.398 108.699 l S Q
q 1 0 0 -1 0 216 cm
185.449 43.301 m 191.449 43.301 l S Q
q 1 0 0 -1 0 216 cm
188.449 40.301 m 188.449 46.301 l S Q
q 1 0 0 -1 0 216 cm
276.75 89.199 m 282.75 89.199 l S Q
q 1 0 0 -1 0 216 cm
279.75 86.199 m 279.75 92.199 l S Q
q 1 0 0 -1 0 216 cm
69.699 78.602 m 75.699 78.602 l S Q
q 1 0 0 -1 0 216 cm
72.699 75.602 m 72.699 81.602 l S Q
q 1 0 0 -1 0 216 cm
135.301 32.449 m 141.301 32.449 l S Q
q 1 0 0 -1 0 216 cm
138.301 29.449 m 138.301 35.449 l S Q
q 1 0 0 -1 0 216 cm
242.148 60 m 248.148 60 l S Q
q 1 0 0 -1 0 216 cm
245.148 57 m 245.148 63 l S Q
q 1 0 0 -1 0 216 cm
239.801 85.551 m 245.801 85.551 l S Q
q 1 0 0 -1 0 216 cm
242.801 82.551 m 242.801 88.551 l S Q
q 1 0 0 -1 0 216 cm
181.148 88.051 m 187.148 88.051 l S Q
q 1 0 0 -1 0 216 cm
184.148 85.051 m 184.148 91.051 l S Q
q 1 0 0 -1 0 216 cm
110.551 124.699 m 116.551 124.699 l S Q
q 1 0 0 -1 0 216 cm
113.551 121.699 m 113.551 127.699 l S Q
q 1 0 0 -1 0 216 cm
258.199 60.5 m 264.199 60.5 l S Q
q 1 0 0 -1 0 216 cm
261.199 57.5 m 261.199 63.5 l S Q
q 1 0 0 -1 0 216 cm
146.949 95.551 m 152.949 95.551 l S Q
q 1 0 0 -1 0 216 cm
149.949 92.551 m 149.949 98.551 l S Q
q 1 0 0 -1 0 216 cm
303.75 51.449 m 309.75 51.449 l S Q
q 1 0 0 -1 0 216 cm
306.75 48.449 m 306.75 54.449 l S Q
q 1 0 0 -1 0 216 cm
147.852 71.352 m 153.852 71.352 l S Q
q 1 0 0 -1 0 216 cm
150.852 68.352 m 150.852 74.352 l S Q
q 1 0 0 -1 0 216 cm
107.699 46.949 m 113.699 46.949 l S Q
q 1 0 0 -1 0 216 cm
110.699 43.949 m 110.699 49.949 l S Q
q 1 0 0 -1 0 216 cm
92.648 46.949 m 98.648 46.949 l S Q
q 1 0 0 -1 0 216 cm
95.648 43.949 m 95.648 49.949 l S Q
q 1 0 0 -1 0 216 cm
240.852 84.199 m 246.852 84.199 l S Q
q 1 0 0 -1 0 216 cm
243.852 81.199 m 243.852 87.199 l S Q
q 1 0 0 -1 0 216 cm
253.551 66.852 m 259.551 66.852 l S Q
q 1 0 0 -1 0 216 cm
256.551 63.852 m 256.551 69.852 l S Q
q 1 0 0 -1 0 216 cm
142.898 102.75 m 148.898 102.75 l S Q
q 1 0 0 -1 0 216 cm
145.898 99.75 m 145.898 105.75 l S Q
q 1 0 0 -1 0 216 cm
76.699 94.25 m 82.699 94.25 l S Q
q 1 0 0 -1 0 216 cm
79.699 91.25 m 79.699 97.25 l S Q
q 1 0 0 -1 0 216 cm
258.5 65 m 264.5 65 l S Q
q 1 0 0 -1 0 216 cm
261.5 62 m 261.5 68 l S Q
q 1 0 0 -1 0 216 cm
87.5 101.898 m 93.5 101.898 l S Q
q 1 0 0 -1 0 216 cm
90.5 98.898 m 90.5 104.898 l S Q
q 1 0 0 -1 0 216 cm
97.199 69.301 m 103.199 69.301 l S Q
q 1 0 0 -1 0 216 cm
100.199 66.301 m 100.199 72.301 l S Q
q 1 0 0 -1 0 216 cm
296.898 77.051 m 302.898 77.051 l S Q
q 1 0 0 -1 0 216 cm
299.898 74.051 m 299.898 80.051 l S Q
q 1 0 0 -1 0 216 cm
148.148 126.051 m 154.148 126.051 l S Q
q 1 0 0 -1 0 216 cm
151.148 123.051 m 151.148 129.051 l S Q
q 1 0 0 -1 0 216 cm
187.25 61.602 m 193.25 61.602 l S Q
q 1 0 0 -1 0 216 cm
190.25 58.602 m 190.25 64.602 l S Q
q 1 0 0 -1 0 216 cm
119.301 155.699 m 125.301 155.699 l S Q
q 1 0 0 -1 0 216 cm
122.301 152.699 m 122.301 158.699 l S Q
q 1 0 0 -1 0 216 cm
300.602 107.801 m 306.602 107.801 l S Q
q 1 0 0 -1 0 216 cm
303.602 104.801 m 303.602 110.801 l S Q
q 1 0 0 -1 0 216 cm
83.449 118.648 m 89.449 118.648 l S Q
q 1 0 0 -1 0 216 cm
86.449 115.648 m 86.449 121.648 l S Q
q 1 0 0 -1 0 216 cm
210.648 62.602 m 216.648 62.602 l S Q
q 1 0 0 -1 0 216 cm
213.648 59.602 m 213.648 65.602 l S Q
q 1 0 0 -1 0 216 cm
121.051 113.898 m 127.051 113.898 l S Q
q 1 0 0 -1 0 216 cm
124.051 110.898 m 124.051 116.898 l S Q
q 1 0 0 -1 0 216 cm
186.199 87.148 m 192.199 87.148 l S Q
q 1 0 0 -1 0 216 cm
189.199 84.148 m 189.199 90.148 l S Q
q 1 0 0 -1 0 216 cm
113.352 51.602 m 119.352 51.602 l S Q
q 1 0 0 -1 0 216 cm
116.352 48.602 m 116.352 54.602 l S Q
q 1 0 0 -1 0 216 cm
59.551 130.75 m 65.551 130.75 l S Q
q 1 0 0 -1 0 216 cm
62.551 127.75 m 62.551 133.75 l S Q
q 1 0 0 -1 0 216 cm
139.551 98.352 m 145.551 98.352 l S Q
q 1 0 0 -1 0 216 cm
142.551 95.352 m 142.551 101.352 l S Q
q 1 0 0 -1 0 216 cm
297.852 51.148 m 303.852 51.148 l S Q
q 1 0 0 -1 0 216 cm
300.852 48.148 m 300.852 54.148 l S Q
q 1 0 0 -1 0 216 cm
125.602 92.051 m 131.602 92.051 l S Q
q 1 0 0 -1 0 216 cm
128.602 89.051 m 128.602 95.051 l S Q
q 1 0 0 -1 0 216 cm
270.051 47.398 m 276.051 47.398 l S Q
q 1 0 0 -1 0 216 cm
273.051 44.398 m 273.051 50.398 l S Q
q 1 0 0 -1 0 216 cm
85.898 57.949 m 91.898 57.949 l S Q
q 1 0 0 -1 0 216 cm
88.898 54.949 m 88.898 60.949 l S Q
q 1 0 0 -1 0 216 cm
103.352 69.449 m 109.352 69.449 l S Q
q 1 0 0 -1 0 216 cm
106.352 66.449 m 106.352 72.449 l S Q
q 1 0 0 -1 0 216 cm
92.75 130.148 m 98.75 130.148 l S Q
q 1 0 0 -1 0 216 cm
95.75 127.148 m 95.75 133.148 l S Q
q 1 0 0 -1 0 216 cm
131.25 138.352 m 137.25 138.352 l S Q
q 1 0 0 -1 0 216 cm
134.25 135.352 m 134.25 141.352 l S Q
q 1 0 0 -1 0 216 cm
142.25 115.801 m 148.25 115.801 l S Q
q 1 0 0 -1 0 216 cm
145.25 112.801 m 145.25 118.801 l S Q
q 1 0 0 -1 0 216 cm
164.199 19.25 m 170.199 19.25 l S Q
q 1 0 0 -1 0 216 cm
167.199 16.25 m 167.199 22.25 l S Q
q 1 0 0 -1 0 216 cm
172.199 138.352 m 178.199 138.352 l S Q
q 1 0 0 -1 0 216 cm
175.199 135.352 m 175.199 141.352 l S Q
q 1 0 0 -1 0 216 cm
61.648 100.449 m 67.648 100.449 l S Q
q 1 0 0 -1 0 216 cm
64.648 97.449 m 64.648 103.449 l S Q
q 1 0 0 -1 0 216 cm
167.301 66.699 m 173.301 66.699 l S Q
q 1 0 0 -1 0 216 cm
170.301 63.699 m 170.301 69.699 l S Q
q 1 0 0 -1 0 216 cm
302.602 75.898 m 308.602 75.898 l S Q
q 1 0 0 -1 0 216 cm
305.602 72.898 m 305.602 78.898 l S Q
q 1 0 0 -1 0 216 cm
103.301 93.898 m 109.301 93.898 l S Q
q 1 0 0 -1 0 216 cm
106.301 90.898 m 106.301 96.898 l S Q
q 1 0 0 -1 0 216 cm
224.852 85 m 230.852 85 l S Q
q 1 0 0 -1 0 216 cm
227.852 82 m 227.852 88 l S Q
q 1 0 0 -1 0 216 cm
284.199 159.148 m 290.199 159.148 l S Q
q 1 0 0 -1 0 216 cm
287.199 156.148 m 287.199 162.148 l S Q
q 1 0 0 -1 0 216 cm
287.699 119.852 m 293.699 119.852 l S Q
q 1 0 0 -1 0 216 cm
290.699 116.852 m 290.699 122.852 l S Q
q 1 0 0 -1 0 216 cm
73.699 87.602 m 79.699 87.602 l S Q
q 1 0 0 -1 0 216 cm
76.699 84.602 m 76.699 90.602 l S Q
q 1 0 0 -1 0 216 cm
276 106.352 m 282 106.352 l S Q
q 1 0 0 -1 0 216 cm
279 103.352 m 279 109.352 l S Q
q 1 0 0 -1 0 216 cm
60.648 147.75 m 66.648 147.75 l S Q
q 1 0 0 -1 0 216 cm
63.648 144.75 m 63.648 150.75 l S Q
q 1 0 0 -1 0 216 cm
99.699 49.449 m 105.699 49.449 l S Q
q 1 0 0 -1 0 216 cm
102.699 46.449 m 102.699 52.449 l S Q
q 1 0 0 -1 0 216 cm
289 73 m 295 73 l S Q
q 1 0 0 -1 0 216 cm
292 70 m 292 76 l S Q
q 1 0 0 -1 0 216 cm
289.949 87.102 m 295.949 87.102 l S Q
q 1 0 0 -1 0 216 cm
292.949 84.102 m 292.949 90.102 l S Q
q 1 0 0 -1 0 216 cm
107.398 87.648 m 113.398 87.648 l S Q
q 1 0 0 -1 0 216 cm
110.398 84.648 m 110.398 90.648 l S Q
q 1 0 0 -1 0 216 cm
294.75 80.102 m 300.75 80.102 l S Q
q 1 0 0 -1 0 216 cm
297.75 77.102 m 297.75 83.102 l S Q
q 1 0 0 -1 0 216 cm
336.949 133.648 m 342.949 133.648 l S Q
q 1 0 0 -1 0 216 cm
339.949 130.648 m 339.949 136.648 l S Q
q 1 0 0 -1 0 216 cm
199.949 92 m 205.949 92 l S Q
q 1 0 0 -1 0 216 cm
202.949 89 m 202.949 95 l S Q
q 1 0 0 -1 0 216 cm
146.301 53.648 m 152.301 53.648 l S Q
q 1 0 0 -1 0 216 cm
149.301 50.648 m 149.301 56.648 l S Q
q 1 0 0 -1 0 216 cm
129.648 32.398 m 135.648 32.398 l S Q
q 1 0 0 -1 0 216 cm
132.648 29.398 m 132.648 35.398 l S Q
q 1 0 0 -1 0 216 cm
128.449 92.602 m 134.449 92.602 l S Q
q 1 0 0 -1 0 216 cm
131.449 89.602 m 131.449 95.602 l S Q
q 1 0 0 -1 0 216 cm
334.5 112.352 m 340.5 112.352 l S Q
q 1 0 0 -1 0 216 cm
337.5 109.352 m 337.5 115.352 l S Q
q 1 0 0 -1 0 216 cm
310.602 50.449 m 316.602 50.449 l S Q
q 1 0 0 -1 0 216 cm
313.602 47.449 m 313.602 53.449 l S Q
q 1 0 0 -1 0 216 cm
278.5 84.352 m 284.5 84.352 l S Q
q 1 0 0 -1 0 216 cm
281.5 81.352 m 281.5 87.352 l S Q
q 1 0 0 -1 0 216 cm
217.352 70.352 m 223.352 70.352 l S Q
q 1 0 0 -1 0 216 cm
220.352 67.352 m 220.352 73.352 l S Q
q 1 0 0 -1 0 216 cm
222.602 88.352 m 228.602 88.352 l S Q
q 1 0 0 -1 0 216 cm
225.602 85.352 m 225.602 91.352 l S Q
q 1 0 0 -1 0 216 cm
274.25 111.648 m 280.25 111.648 l S Q
q 1 0 0 -1 0 216 cm
277.25 108.648 m 277.25 114.648 l S Q
q 1 0 0 -1 0 216 cm
89.801 46.5 m 95.801 46.5 l S Q
q 1 0 0 -1 0 216 cm
92.801 43.5 m 92.801 49.5 l S Q
q 1 0 0 -1 0 216 cm
64.25 57.852 m 70.25 57.852 l S Q
q 1 0 0 -1 0 216 cm
67.25 54.852 m 67.25 60.852 l S Q
q 1 0 0 -1 0 216 cm
95.199 67.051 m 101.199 67.051 l S Q
q 1 0 0 -1 0 216 cm
98.199 64.051 m 98.199 70.051 l S Q
q 1 0 0 -1 0 216 cm
212.301 61.699 m 218.301 61.699 l S Q
q 1 0 0 -1 0 216 cm
215.301 58.699 m 215.301 64.699 l S Q
q 1 0 0 -1 0 216 cm
84.949 98.301 m 90.949 98.301 l S Q
q 1 0 0 -1 0 216 cm
87.949 95.301 m 87.949 101.301 l S Q
q 1 0 0 -1 0 216 cm
233.949 84.5 m 239.949 84.5 l S Q
q 1 0 0 -1 0 216 cm
236.949 81.5 m 236.949 87.5 l S Q
q 1 0 0 -1 0 216 cm
138.398 122.699 m 144.398 122.699 l S Q
q 1 0 0 -1 0 216 cm
141.398 119.699 m 141.398 125.699 l S Q
q 1 0 0 -1 0 216 cm
296.648 168.051 m 302.648 168.051 l S Q
q 1 0 0 -1 0 216 cm
299.648 165.051 m 299.648 171.051 l S Q
0 g
q 1 0 0 -1 0 216 cm
48.051 10.75 297.098 176 re S Q
Q Q
showpage
%%Trailer
end restore
%%EOF
