id,run_id,instance_num,time,lower,upper,gap
1,3,130,0.184485,65341.7,762033.0,0.914253
2,3,130,23.8139,150461.0,252555.0,0.404246
3,3,130,37.0862,161855.0,252478.0,0.358935
4,3,130,49.9914,163057.0,252465.0,0.35414
5,3,130,86.7958,164278.0,251944.0,0.347956
6,3,130,99.7756,166015.0,251944.0,0.341064
7,3,130,141.886,166958.0,251497.0,0.336141
8,3,130,183.025,167503.0,249753.0,0.329324
9,3,130,284.792,167851.0,248828.0,0.325435
10,3,130,645.802,169683.0,246767.0,0.312373
11,3,130,666.415,170268.0,246767.0,0.310003
12,3,130,1226.1,170913.0,245960.0,0.30512
13,3,130,1899.98,171420.0,245582.0,0.301984
14,3,130,2845.01,171585.0,245582.0,0.301314
15,3,130,0.184485,65341.7,762033.0,0.914253
16,3,130,0.507648,65341.7,334253.0,0.804514
17,3,130,0.903586,65341.7,291770.0,0.77605
18,3,130,1.14312,144059.0,291770.0,0.506258
19,3,130,1.4619,149557.0,291770.0,0.487413
20,3,130,1.64613,150245.0,291770.0,0.485057
21,3,130,2.08486,150258.0,291770.0,0.48501
22,3,130,2.22208,150350.0,291770.0,0.484697
23,3,130,3.26916,150461.0,264375.0,0.430881
24,3,130,4.94685,150461.0,259176.0,0.419464
25,3,130,6.14888,150461.0,257647.0,0.416019
26,3,130,7.29324,150461.0,257162.0,0.414917
27,3,130,8.34801,150461.0,256648.0,0.413746
28,3,130,9.48043,150461.0,256644.0,0.413736
29,3,130,12.6801,150461.0,255274.0,0.41059
30,3,130,13.6605,150461.0,255039.0,0.410048
31,3,130,15.2273,150461.0,254574.0,0.408969
32,3,130,15.6811,150461.0,254130.0,0.407936
33,3,130,16.2342,150461.0,254061.0,0.407776
34,3,130,18.882,150461.0,253671.0,0.406866
35,3,130,23.8139,150461.0,252555.0,0.404246
36,3,130,24.2722,150497.0,252555.0,0.404102
37,3,130,26.2355,154269.0,252555.0,0.389167
38,3,130,26.3534,154645.0,252555.0,0.387681
39,3,130,27.3428,157000.0,252555.0,0.378355
40,3,130,27.5169,157429.0,252555.0,0.376657
41,3,130,28.6073,158369.0,252555.0,0.372932
42,3,130,28.7613,158588.0,252555.0,0.372068
43,3,130,29.8437,159409.0,252555.0,0.368815
44,3,130,30.5767,159409.0,252478.0,0.368621
45,3,130,31.6321,160085.0,252478.0,0.365943
46,3,130,31.776,160177.0,252478.0,0.365579
47,3,130,32.7072,160419.0,252478.0,0.364621
48,3,130,32.8264,160569.0,252478.0,0.364027
49,3,130,33.8118,161003.0,252478.0,0.36231
50,3,130,33.9119,161066.0,252478.0,0.36206
51,3,130,34.8603,161286.0,252478.0,0.361189
52,3,130,34.985,161382.0,252478.0,0.360808
53,3,130,35.942,161627.0,252478.0,0.359835
54,3,130,36.1225,161754.0,252478.0,0.359333
55,3,130,37.0862,161855.0,252478.0,0.358935
56,3,130,37.2062,161944.0,252478.0,0.358582
57,3,130,38.1704,162105.0,252478.0,0.357943
58,3,130,38.2934,162170.0,252478.0,0.357686
59,3,130,39.2882,162214.0,252478.0,0.357513
60,3,130,40.3742,162318.0,252478.0,0.357099
61,3,130,41.2591,162481.0,252478.0,0.356453
62,3,130,42.1819,162481.0,252465.0,0.356421
63,3,130,42.8278,162529.0,252465.0,0.356233
64,3,130,43.5374,162551.0,252465.0,0.356146
65,3,130,44.2116,162582.0,252465.0,0.356023
66,3,130,44.9249,162714.0,252465.0,0.355499
67,3,130,45.5936,162741.0,252465.0,0.355394
68,3,130,46.2573,162754.0,252465.0,0.355343
69,3,130,46.9467,162767.0,252465.0,0.355289
70,3,130,47.653,162811.0,252465.0,0.355115
71,3,130,47.7544,162825.0,252465.0,0.355059
72,3,130,48.3954,162929.0,252465.0,0.354648
73,3,130,49.1429,162986.0,252465.0,0.354421
74,3,130,49.8821,163038.0,252465.0,0.354215
75,3,130,49.9914,163057.0,252465.0,0.35414
76,3,130,50.6017,163104.0,252465.0,0.353955
77,3,130,50.7107,163119.0,252465.0,0.353894
78,3,130,51.3763,163164.0,252465.0,0.353717
79,3,130,52.0561,163227.0,252465.0,0.353467
80,3,130,52.7513,163234.0,252465.0,0.353441
81,3,130,53.4615,163253.0,252465.0,0.353365
82,3,130,53.6692,163253.0,252449.0,0.353322
83,3,130,54.3587,163278.0,252449.0,0.353224
84,3,130,54.4666,163283.0,252449.0,0.353202
85,3,130,55.1027,163287.0,252449.0,0.353186
86,3,130,55.3296,163287.0,252407.0,0.35308
87,3,130,55.9885,163296.0,252407.0,0.353046
88,3,130,56.6614,163297.0,252407.0,0.353043
89,3,130,56.8532,163297.0,252407.0,0.353042
90,3,130,57.4515,163297.0,252407.0,0.35304
91,3,130,58.9163,163297.0,251944.0,0.35185
92,3,130,80.9076,163347.0,251944.0,0.351651
93,3,130,85.4762,163821.0,251944.0,0.349772
94,3,130,85.6384,163937.0,251944.0,0.349309
95,3,130,86.7958,164278.0,251944.0,0.347956
96,3,130,86.9273,164330.0,251944.0,0.347752
97,3,130,88.0721,164581.0,251944.0,0.346754
98,3,130,88.1882,164621.0,251944.0,0.346595
99,3,130,89.3162,164810.0,251944.0,0.345846
100,3,130,89.4609,164869.0,251944.0,0.345611
101,3,130,90.5309,165117.0,251944.0,0.344627
102,3,130,90.6539,165170.0,251944.0,0.344418
103,3,130,91.7155,165359.0,251944.0,0.343667
104,3,130,91.8451,165436.0,251944.0,0.34336
105,3,130,92.9901,165569.0,251944.0,0.342834
106,3,130,93.13,165595.0,251944.0,0.342729
107,3,130,94.1957,165784.0,251944.0,0.341982
108,3,130,94.3304,165814.0,251944.0,0.341862
109,3,130,95.3709,165874.0,251944.0,0.341622
110,3,130,95.5055,165912.0,251944.0,0.341471
111,3,130,96.5524,165957.0,251944.0,0.341293
112,3,130,96.6665,165970.0,251944.0,0.341241
113,3,130,97.7687,165998.0,251944.0,0.341132
114,3,130,98.9329,166008.0,251944.0,0.341091
115,3,130,99.7756,166015.0,251944.0,0.341064
116,3,130,100.399,166020.0,251944.0,0.341042
117,3,130,101.076,166068.0,251944.0,0.340852
118,3,130,102.084,166068.0,251497.0,0.33968
119,3,130,102.747,166079.0,251497.0,0.339638
120,3,130,103.408,166086.0,251497.0,0.339609
121,3,130,104.095,166090.0,251497.0,0.339595
122,3,130,104.755,166092.0,251497.0,0.339586
123,3,130,105.438,166123.0,251497.0,0.339462
124,3,130,106.141,166138.0,251497.0,0.339404
125,3,130,106.821,166143.0,251497.0,0.339381
126,3,130,131.476,166170.0,251497.0,0.339275
127,3,130,136.054,166231.0,251497.0,0.339034
128,3,130,137.158,166409.0,251497.0,0.338325
129,3,130,137.309,166492.0,251497.0,0.337993
130,3,130,138.362,166567.0,251497.0,0.337697
131,3,130,138.467,166588.0,251497.0,0.337614
132,3,130,139.515,166681.0,251497.0,0.337244
133,3,130,140.604,166788.0,251497.0,0.336818
134,3,130,141.773,166942.0,251497.0,0.336206
135,3,130,141.886,166958.0,251497.0,0.336141
136,3,130,142.9,167010.0,251497.0,0.335934
137,3,130,144.1,167040.0,251497.0,0.335816
138,3,130,145.321,167105.0,251497.0,0.335556
139,3,130,145.428,167113.0,251497.0,0.335527
140,3,130,146.456,167130.0,251497.0,0.335457
141,3,130,147.695,167237.0,251497.0,0.335032
142,3,130,148.502,167237.0,250531.0,0.33247
143,3,130,149.714,167342.0,250531.0,0.33205
144,3,130,150.648,167349.0,250531.0,0.332022
145,3,130,151.356,167356.0,250531.0,0.331997
146,3,130,152.057,167360.0,250531.0,0.331979
147,3,130,162.981,167360.0,250347.0,0.331487
148,3,130,172.921,167360.0,249753.0,0.329896
149,3,130,179.771,167361.0,249753.0,0.329893
150,3,130,180.282,167434.0,249753.0,0.329599
151,3,130,180.909,167478.0,249753.0,0.329425
152,3,130,181.719,167481.0,249753.0,0.329411
153,3,130,182.435,167482.0,249753.0,0.329408
154,3,130,182.595,167492.0,249753.0,0.329367
155,3,130,183.025,167503.0,249753.0,0.329324
156,3,130,183.545,167547.0,249753.0,0.329148
157,3,130,184.04,167548.0,249753.0,0.329144
158,3,130,184.172,167573.0,249753.0,0.329044
159,3,130,184.664,167576.0,249753.0,0.329033
160,3,130,184.872,167576.0,249753.0,0.32903
161,3,130,184.999,167579.0,249753.0,0.32902
162,3,130,185.462,167650.0,249753.0,0.328736
163,3,130,185.885,167652.0,249753.0,0.328727
164,3,130,186.398,167675.0,249753.0,0.328636
165,3,130,186.847,167686.0,249753.0,0.328592
166,3,130,187.058,167686.0,249108.0,0.326855
167,3,130,187.443,167688.0,249108.0,0.326845
168,3,130,187.818,167699.0,249108.0,0.326803
169,3,130,188.067,167705.0,249108.0,0.326779
170,3,130,188.366,167773.0,249108.0,0.326507
171,3,130,188.687,167775.0,249108.0,0.326499
172,3,130,188.812,167778.0,249108.0,0.326484
173,3,130,188.982,167851.0,249108.0,0.326192
174,3,130,233.121,167851.0,249068.0,0.326085
175,3,130,284.792,167851.0,248828.0,0.325435
176,3,130,355.021,167853.0,248828.0,0.325426
177,3,130,399.692,167853.0,248545.0,0.324658
178,3,130,416.613,167853.0,248306.0,0.324008
179,3,130,422.008,167853.0,247996.0,0.323162
180,3,130,482.623,167853.0,247864.0,0.322803
181,3,130,491.277,167880.0,247864.0,0.322694
182,3,130,502.04,167880.0,247542.0,0.321811
183,3,130,551.966,167880.0,246767.0,0.319681
184,3,130,634.275,168373.0,246767.0,0.317682
185,3,130,635.112,168708.0,246767.0,0.316327
186,3,130,637.011,169194.0,246767.0,0.314357
187,3,130,637.261,169310.0,246767.0,0.313888
188,3,130,639.114,169409.0,246767.0,0.313486
189,3,130,639.271,169435.0,246767.0,0.313382
190,3,130,641.153,169567.0,246767.0,0.312846
191,3,130,641.297,169589.0,246767.0,0.312758
192,3,130,643.147,169624.0,246767.0,0.312613
193,3,130,643.897,169653.0,246767.0,0.312497
194,3,130,645.698,169676.0,246767.0,0.312403
195,3,130,645.802,169683.0,246767.0,0.312373
196,3,130,647.601,169694.0,246767.0,0.312332
197,3,130,649.46,169696.0,246767.0,0.312324
198,3,130,651.28,169703.0,246767.0,0.312295
199,3,130,652.994,169712.0,246767.0,0.312257
200,3,130,653.465,169716.0,246767.0,0.31224
201,3,130,655.226,169754.0,246767.0,0.312086
202,3,130,655.332,169765.0,246767.0,0.312041
203,3,130,657.111,169847.0,246767.0,0.311712
204,3,130,657.239,169899.0,246767.0,0.311498
205,3,130,658.742,169911.0,246767.0,0.311449
206,3,130,658.956,169913.0,246767.0,0.311442
207,3,130,660.208,170075.0,246767.0,0.310785
208,3,130,660.461,170116.0,246767.0,0.310622
209,3,130,661.709,170141.0,246767.0,0.31052
210,3,130,661.893,170171.0,246767.0,0.310397
211,3,130,663.109,170209.0,246767.0,0.310242
212,3,130,663.377,170215.0,246767.0,0.310219
213,3,130,664.669,170255.0,246767.0,0.310056
214,3,130,665.193,170258.0,246767.0,0.310043
215,3,130,666.415,170268.0,246767.0,0.310003
216,3,130,667.805,170287.0,246767.0,0.309927
217,3,130,669.193,170309.0,246767.0,0.309837
218,3,130,669.565,170316.0,246767.0,0.309812
219,3,130,670.809,170317.0,246767.0,0.309805
220,3,130,727.558,170320.0,246767.0,0.309795
221,3,130,748.051,170455.0,246767.0,0.309246
222,3,130,768.031,170480.0,246767.0,0.309147
223,3,130,768.183,170508.0,246767.0,0.309032
224,3,130,880.307,170508.0,246391.0,0.307979
225,3,130,1045.54,170579.0,246391.0,0.307689
226,3,130,1045.93,170726.0,246391.0,0.307094
227,3,130,1046.28,170752.0,246391.0,0.306987
228,3,130,1047.47,170781.0,246391.0,0.306871
229,3,130,1047.74,170784.0,246391.0,0.306861
230,3,130,1088.29,170828.0,246361.0,0.306593
231,3,130,1104.15,170828.0,246355.0,0.306575
232,3,130,1106.26,170828.0,246121.0,0.305916
233,3,130,1119.54,170828.0,246065.0,0.30576
234,3,130,1167.74,170828.0,245960.0,0.305464
235,3,130,1226.1,170913.0,245960.0,0.30512
236,3,130,1226.27,171041.0,245960.0,0.304598
237,3,130,1226.45,171049.0,245960.0,0.304567
238,3,130,1377.13,171204.0,245960.0,0.303936
239,3,130,1419.38,171229.0,245960.0,0.303834
240,3,130,1441.67,171229.0,245772.0,0.3033
241,3,130,1472.45,171235.0,245772.0,0.303278
242,3,130,1523.42,171276.0,245772.0,0.303109
243,3,130,1544.46,171276.0,245582.0,0.302569
244,3,130,1549.3,171305.0,245582.0,0.30245
245,3,130,1590.11,171310.0,245582.0,0.302433
246,3,130,1594.88,171313.0,245582.0,0.30242
247,3,130,1617.89,171334.0,245582.0,0.302332
248,3,130,1670.61,171364.0,245582.0,0.30221
249,3,130,1710.11,171370.0,245582.0,0.302189
250,3,130,1728.12,171381.0,245582.0,0.302142
251,3,130,1752.08,171395.0,245582.0,0.302085
252,3,130,1779.26,171412.0,245582.0,0.302015
253,3,130,1818.39,171413.0,245582.0,0.30201
254,3,130,1852.54,171415.0,245582.0,0.302005
255,3,130,1899.98,171420.0,245582.0,0.301984
256,3,130,2080.59,171433.0,245582.0,0.301932
257,3,130,2109.62,171441.0,245582.0,0.301897
258,3,130,2140.31,171458.0,245582.0,0.301828
259,3,130,2197.63,171479.0,245582.0,0.301745
260,3,130,2228.28,171484.0,245582.0,0.301722
261,3,130,2261.1,171494.0,245582.0,0.301684
262,3,130,2300.95,171508.0,245582.0,0.301625
263,3,130,2324.49,171512.0,245582.0,0.301609
264,3,130,2349.74,171517.0,245582.0,0.301589
265,3,130,2379.21,171518.0,245582.0,0.301585
266,3,130,2409.54,171519.0,245582.0,0.301582
267,3,130,2463.95,171533.0,245582.0,0.301522
268,3,130,2489.65,171536.0,245582.0,0.301511
269,3,130,2512.49,171539.0,245582.0,0.301501
270,3,130,2572.99,171553.0,245582.0,0.301441
271,3,130,2598.83,171554.0,245582.0,0.301437
272,3,130,2625.7,171569.0,245582.0,0.301377
273,3,130,2656.74,171573.0,245582.0,0.30136
274,3,130,2695.26,171584.0,245582.0,0.301314
275,3,130,2845.01,171585.0,245582.0,0.301314
276,3,130,2868.46,171591.0,245582.0,0.301288
277,3,130,2900.36,171599.0,245582.0,0.301255
278,3,130,2943.25,171599.0,245582.0,0.301255
279,3,130,2967.63,171601.0,245582.0,0.301248
280,3,130,2997.96,171604.0,245582.0,0.301236
281,3,130,3060.22,171604.0,245582.0,0.301236
282,3,130,3086.49,171606.0,245582.0,0.301226
283,3,130,3119.5,171609.0,245582.0,0.301213
284,3,130,3158.37,171609.0,245582.0,0.301213
285,3,130,3191.78,171609.0,245582.0,0.301213
286,3,130,3220.69,171614.0,245582.0,0.301195
287,3,130,3253.41,171625.0,245582.0,0.30115
288,3,130,3293.81,171627.0,245582.0,0.30114
289,3,130,3312.69,171628.0,245582.0,0.301138
290,3,130,3340.0,171635.0,245582.0,0.301109
291,3,130,3371.79,171635.0,245582.0,0.301108
292,3,130,3430.55,171636.0,245582.0,0.301104
293,3,130,3455.91,171640.0,245582.0,0.301087
294,3,130,3623.09,171642.0,245582.0,0.301081
295,3,193,0.100215,41495.4,266297.0,0.844176
296,3,193,0.337645,41495.4,215242.0,0.807215
297,3,193,0.548811,41495.4,190978.0,0.782722
298,3,193,0.655576,95868.5,190978.0,0.498012
299,3,193,0.810545,101159.0,190978.0,0.47031
300,3,193,0.916669,101528.0,190978.0,0.46838
301,3,193,1.074,101546.0,190978.0,0.468285
302,3,193,1.22236,101547.0,190978.0,0.468279
303,3,193,2.02767,101654.0,177731.0,0.428047
304,3,193,2.55537,101654.0,173311.0,0.41346
305,3,193,3.15291,101654.0,171005.0,0.405552
306,3,193,3.97651,101654.0,170473.0,0.403694
307,3,193,4.88366,101654.0,169834.0,0.401452
308,3,193,5.58938,101654.0,169766.0,0.401214
309,3,193,5.98552,101654.0,168516.0,0.39677
310,3,193,6.73005,101654.0,168146.0,0.395443
311,3,193,8.84749,101654.0,167023.0,0.391379
312,3,193,10.058,101654.0,166523.0,0.38955
313,3,193,11.5307,101654.0,166521.0,0.389544
314,3,193,11.738,101749.0,166521.0,0.388975
315,3,193,12.6576,103679.0,166521.0,0.377383
316,3,193,13.0815,103679.0,166234.0,0.376309
317,3,193,13.5687,105311.0,166234.0,0.36649
318,3,193,14.08,106253.0,166234.0,0.360822
319,3,193,14.6034,106726.0,166234.0,0.357977
320,3,193,15.0891,107500.0,166234.0,0.353321
321,3,193,15.6423,108564.0,166234.0,0.346923
322,3,193,16.2134,109372.0,166234.0,0.342061
323,3,193,16.7178,109553.0,166234.0,0.340975
324,3,193,17.2649,109731.0,166234.0,0.339903
325,3,193,17.8047,109908.0,166234.0,0.338835
326,3,193,18.3741,110090.0,166234.0,0.337745
327,3,193,18.9511,110326.0,166234.0,0.336321
328,3,193,19.2948,110360.0,166234.0,0.336116
329,3,193,19.8064,110465.0,166234.0,0.33549
330,3,193,20.3262,110556.0,166234.0,0.334942
331,3,193,20.7757,110663.0,166234.0,0.334297
332,3,193,21.1925,110684.0,166234.0,0.334167
333,3,193,21.5723,110710.0,166234.0,0.334014
334,3,193,21.9762,110725.0,166234.0,0.33392
335,3,193,22.4064,110746.0,166234.0,0.333797
336,3,193,22.7331,110755.0,166234.0,0.33374
337,3,193,23.1236,110777.0,166234.0,0.333611
338,3,193,23.5576,110805.0,166234.0,0.333441
339,3,193,23.9727,110812.0,166234.0,0.3334
340,3,193,24.3826,110816.0,166234.0,0.333377
341,3,193,24.7986,110818.0,166234.0,0.333363
342,3,193,25.2112,110820.0,166234.0,0.333353
343,3,193,33.3355,110870.0,166234.0,0.333051
344,3,193,34.5649,110931.0,166234.0,0.332686
345,3,193,35.0808,111355.0,166234.0,0.330132
346,3,193,35.7156,111684.0,166234.0,0.328154
347,3,193,36.4212,111747.0,166234.0,0.327773
348,3,193,36.875,111766.0,166234.0,0.327661
349,3,193,37.4303,111812.0,166234.0,0.327381
350,3,193,37.9623,111904.0,166234.0,0.326832
351,3,193,38.5693,111987.0,166234.0,0.326328
352,3,193,39.1134,112031.0,166234.0,0.326068
353,3,193,39.6327,112059.0,166234.0,0.325895
354,3,193,40.1711,112089.0,166234.0,0.325718
355,3,193,40.7192,112183.0,166234.0,0.325152
356,3,193,41.2928,112211.0,166234.0,0.324981
357,3,193,41.8384,112225.0,166234.0,0.324902
358,3,193,42.3102,112228.0,166234.0,0.324878
359,3,193,42.7074,112245.0,166234.0,0.324778
360,3,193,43.0906,112288.0,166234.0,0.324517
361,3,193,43.4643,112298.0,166234.0,0.324461
362,3,193,43.8323,112300.0,166234.0,0.324446
363,3,193,44.2267,112304.0,166234.0,0.324426
364,3,193,44.6238,112305.0,166234.0,0.324419
365,3,193,55.2832,112345.0,166234.0,0.32418
366,3,193,57.0725,112437.0,166234.0,0.323625
367,3,193,57.6189,112540.0,166234.0,0.323002
368,3,193,57.8295,112551.0,166234.0,0.322938
369,3,193,58.3194,112573.0,166234.0,0.322806
370,3,193,58.8491,112609.0,166234.0,0.32259
371,3,193,59.4176,112651.0,166234.0,0.322334
372,3,193,59.9555,112660.0,166234.0,0.322281
373,3,193,60.6235,112660.0,165697.0,0.320082
374,3,193,61.1482,112684.0,165697.0,0.319939
375,3,193,61.7117,112696.0,165697.0,0.319866
376,3,193,62.2889,112707.0,165697.0,0.319802
377,3,193,62.8627,112732.0,165697.0,0.319647
378,3,193,63.4374,112741.0,165697.0,0.319597
379,3,193,64.0135,112745.0,165697.0,0.319573
380,3,193,64.4852,112745.0,165697.0,0.31957
381,3,193,73.4849,112745.0,164967.0,0.316559
382,3,193,76.1804,112747.0,164967.0,0.316548
383,3,193,76.4375,112836.0,164967.0,0.316006
384,3,193,76.9201,112845.0,164967.0,0.315953
385,3,193,77.1997,112890.0,164967.0,0.315677
386,3,193,77.4583,112927.0,164967.0,0.315456
387,3,193,77.5956,112930.0,164967.0,0.31544
388,3,193,86.5168,112933.0,164591.0,0.313857
389,3,193,98.1031,112933.0,164420.0,0.313142
390,3,193,115.349,112933.0,164418.0,0.313134
391,3,193,148.733,112933.0,164418.0,0.313133
392,3,193,150.486,112933.0,164405.0,0.313079
393,3,193,195.217,113164.0,164405.0,0.311677
394,3,193,244.857,113166.0,164405.0,0.311661
395,3,193,265.329,113247.0,164405.0,0.311169
396,3,193,289.718,113406.0,164405.0,0.310205
397,3,193,290.642,113798.0,164405.0,0.307817
398,3,193,291.587,113960.0,164405.0,0.306831
399,3,193,292.276,114011.0,164405.0,0.306521
400,3,193,293.071,114074.0,164405.0,0.306143
401,3,193,293.987,114129.0,164405.0,0.305805
402,3,193,294.876,114189.0,164405.0,0.305442
403,3,193,295.747,114204.0,164405.0,0.305349
404,3,193,296.623,114210.0,164405.0,0.305312
405,3,193,297.489,114225.0,164405.0,0.305225
406,3,193,298.357,114237.0,164405.0,0.305149
407,3,193,299.221,114240.0,164405.0,0.305133
408,3,193,300.089,114240.0,164405.0,0.305128
409,3,193,322.302,114241.0,164405.0,0.305125
410,3,193,328.585,114377.0,164405.0,0.304298
411,3,193,335.37,114393.0,164405.0,0.304201
412,3,193,341.267,114448.0,164405.0,0.303867
413,3,193,342.221,114454.0,164405.0,0.303831
414,3,193,342.729,114483.0,164405.0,0.303651
415,3,193,343.172,114509.0,164405.0,0.303493
416,3,193,343.555,114546.0,164405.0,0.303268
417,3,193,344.056,114563.0,164405.0,0.303168
418,3,193,344.18,114570.0,164405.0,0.303125
419,3,193,344.485,114575.0,164405.0,0.303092
420,3,193,344.643,114583.0,164405.0,0.303043
421,3,193,345.0,114611.0,164405.0,0.302876
422,3,193,345.461,114632.0,164405.0,0.302746
423,3,193,345.935,114714.0,164405.0,0.30225
424,3,193,429.58,114721.0,164405.0,0.302204
425,3,193,429.736,114724.0,164405.0,0.302185
426,3,193,488.587,114876.0,164405.0,0.301264
427,3,193,532.426,114908.0,164405.0,0.301066
428,3,193,548.787,114979.0,164405.0,0.300635
429,3,193,563.226,115036.0,164405.0,0.300288
430,3,193,581.479,115041.0,164405.0,0.300257
431,3,193,590.638,115060.0,164405.0,0.300141
432,3,193,601.762,115078.0,164405.0,0.300035
433,3,193,603.925,115112.0,164405.0,0.299826
434,3,193,615.45,115116.0,164405.0,0.2998
435,3,193,639.83,115117.0,164405.0,0.299797
436,3,193,646.691,115133.0,164405.0,0.299701
437,3,193,652.917,115136.0,164405.0,0.299682
438,3,193,660.16,115156.0,164405.0,0.29956
439,3,193,670.438,115170.0,164405.0,0.299472
440,3,193,680.279,115174.0,164405.0,0.299452
441,3,193,694.408,115176.0,164405.0,0.299439
442,3,193,704.634,115182.0,164405.0,0.299402
443,3,193,759.146,115187.0,164405.0,0.299368
444,3,193,771.06,115198.0,164405.0,0.299302
445,3,193,782.318,115203.0,164405.0,0.299272
446,3,193,798.353,115203.0,164405.0,0.299271
447,3,193,808.617,115210.0,164405.0,0.299229
448,3,193,820.681,115220.0,164405.0,0.299167
449,3,193,831.919,115226.0,164405.0,0.299134
450,3,193,838.346,115238.0,164405.0,0.299062
451,3,193,855.968,115242.0,164405.0,0.299038
452,3,193,863.74,115246.0,164405.0,0.29901
453,3,193,874.379,115247.0,164405.0,0.299006
454,3,193,883.933,115247.0,164405.0,0.299004
455,3,193,893.495,115266.0,164405.0,0.298889
456,3,193,912.738,115274.0,164405.0,0.298842
457,3,193,927.623,115290.0,164405.0,0.298745
458,3,193,941.287,115294.0,164405.0,0.298723
459,3,193,952.613,115297.0,164405.0,0.298703
460,3,193,967.966,115305.0,164405.0,0.298656
461,3,193,983.705,115308.0,164405.0,0.298634
462,3,193,1044.59,115313.0,164405.0,0.298607
463,3,193,1050.81,115313.0,164405.0,0.298606
464,3,193,1063.96,115315.0,164405.0,0.298592
465,3,193,1079.07,115320.0,164405.0,0.298563
466,3,193,1090.28,115323.0,164405.0,0.298545
467,3,193,1100.41,115333.0,164405.0,0.29848
468,3,193,1122.6,115334.0,164405.0,0.298477
469,3,193,1136.18,115340.0,164405.0,0.298439
470,3,193,1150.07,115348.0,164405.0,0.298393
471,3,193,1167.24,115349.0,164405.0,0.298387
472,3,193,1179.27,115351.0,164405.0,0.298373
473,3,193,1189.11,115352.0,164405.0,0.298367
474,3,193,1203.64,115355.0,164405.0,0.298346
475,3,193,1217.94,115360.0,164405.0,0.298319
476,3,193,1224.62,115362.0,164405.0,0.298308
477,3,193,1241.64,115362.0,164405.0,0.298304
478,3,193,1253.37,115362.0,164405.0,0.298304
479,3,193,1271.9,115367.0,164405.0,0.298277
480,3,193,1282.0,115378.0,164405.0,0.298206
481,3,193,1333.25,115382.0,164405.0,0.298183
482,3,193,1344.13,115388.0,164405.0,0.298147
483,3,193,1357.17,115388.0,164405.0,0.298145
484,3,193,1372.86,115389.0,164405.0,0.298141
485,3,193,1386.22,115393.0,164405.0,0.298117
486,3,193,1399.06,115393.0,164405.0,0.298116
487,3,193,1413.26,115401.0,164405.0,0.298068
488,3,193,1425.76,115404.0,164405.0,0.298052
489,3,193,1432.47,115409.0,164405.0,0.298023
490,3,193,1454.68,115409.0,164405.0,0.298019
491,3,193,1467.14,115410.0,164405.0,0.298013
492,3,193,1482.25,115422.0,164405.0,0.297942
493,3,193,1505.81,115424.0,164405.0,0.297931
494,3,193,1515.06,115427.0,164405.0,0.297913
495,3,193,1526.6,115427.0,164405.0,0.297911
496,3,193,1537.31,115429.0,164405.0,0.297901
497,3,193,1548.65,115431.0,164405.0,0.297884
498,3,193,1563.52,115433.0,164405.0,0.297874
499,3,193,1575.03,115439.0,164405.0,0.297837
500,3,193,1631.53,115450.0,164405.0,0.297773
501,3,193,1653.89,115450.0,164405.0,0.297772
502,3,193,1658.41,115450.0,164327.0,0.297439
503,3,193,1662.78,115451.0,164327.0,0.29743
504,3,193,1685.89,115452.0,164327.0,0.297423
505,3,193,1697.6,115459.0,164327.0,0.297381
506,3,193,1707.86,115460.0,164327.0,0.297377
507,3,193,1722.75,115461.0,164327.0,0.297373
508,3,193,1738.73,115463.0,164327.0,0.297357
509,3,193,1750.84,115467.0,164327.0,0.297336
510,3,193,1773.27,115468.0,164327.0,0.29733
511,3,193,1787.86,115469.0,164327.0,0.29732
512,3,193,1801.11,115471.0,164327.0,0.297307
513,3,193,1821.7,115475.0,164327.0,0.297285
514,3,193,1837.35,115475.0,164327.0,0.297284
515,3,193,1858.94,115477.0,164327.0,0.297273
516,3,193,1868.65,115479.0,164327.0,0.297263
517,3,193,1882.04,115482.0,164327.0,0.297244
518,3,193,1892.56,115483.0,164327.0,0.297237
519,3,193,1904.91,115486.0,164327.0,0.297219
520,3,193,1971.16,115488.0,164327.0,0.297205
521,3,193,1982.86,115492.0,164327.0,0.297182
522,3,193,1999.63,115493.0,164327.0,0.297178
523,3,193,2012.0,115493.0,164327.0,0.297173
524,3,193,2038.65,115495.0,164327.0,0.297161
525,3,193,2060.54,115498.0,164327.0,0.297146
526,3,193,2073.55,115499.0,164327.0,0.297138
527,3,193,2085.66,115501.0,164327.0,0.297127
528,3,193,2100.33,115501.0,164327.0,0.297125
529,3,193,2107.66,115504.0,164327.0,0.297112
530,3,193,2120.4,115504.0,164327.0,0.297111
531,3,193,2139.71,115504.0,164327.0,0.297111
532,3,193,2152.06,115505.0,164327.0,0.297101
533,3,193,2164.74,115510.0,164327.0,0.297072
534,3,193,2177.15,115511.0,164327.0,0.297064
535,3,193,2200.03,115513.0,164327.0,0.297054
536,3,193,2213.77,115514.0,164327.0,0.297047
537,3,193,2230.31,115515.0,164327.0,0.297041
538,3,193,2243.49,115516.0,164327.0,0.297033
539,3,193,2308.91,115517.0,164327.0,0.297029
540,3,193,2323.44,115519.0,164327.0,0.297019
541,3,193,2344.37,115521.0,164327.0,0.297006
542,3,193,2350.24,115523.0,164327.0,0.29699
543,3,193,2361.53,115524.0,164327.0,0.296985
544,3,193,2372.13,115525.0,164327.0,0.296979
545,3,193,2385.32,115526.0,164327.0,0.296976
546,3,193,2407.56,115526.0,164327.0,0.296975
547,3,193,2422.89,115527.0,164327.0,0.29697
548,3,193,2444.46,115528.0,164327.0,0.296961
549,3,193,2456.22,115529.0,164327.0,0.296956
550,3,193,2470.0,115529.0,164327.0,0.296954
551,3,193,2480.74,115534.0,164327.0,0.296925
552,3,193,2492.86,115535.0,164327.0,0.296921
553,3,193,2506.0,115535.0,164327.0,0.296921
554,3,193,2525.35,115537.0,164327.0,0.296906
555,3,193,2531.35,115538.0,164327.0,0.2969
556,3,193,2544.05,115539.0,164327.0,0.296893
557,3,193,2562.35,115540.0,164327.0,0.29689
558,3,193,2573.32,115540.0,164327.0,0.296887
559,3,193,2588.35,115541.0,164327.0,0.296881
560,3,193,2602.32,115543.0,164327.0,0.296872
561,3,193,2622.35,115544.0,164327.0,0.296864
562,3,193,2633.45,115544.0,164327.0,0.296864
563,3,193,2635.21,115550.0,164327.0,0.296829
564,3,193,2646.53,115551.0,164327.0,0.29682
565,3,193,2657.74,115552.0,164327.0,0.296815
566,3,193,2671.46,115554.0,164327.0,0.296807
567,3,193,2685.46,115554.0,164327.0,0.296805
568,3,193,2714.01,115556.0,164327.0,0.296792
569,3,193,2725.95,115557.0,164327.0,0.296786
570,3,193,2737.65,115557.0,164327.0,0.296785
571,3,193,2750.15,115559.0,164327.0,0.296771
572,3,193,2762.0,115560.0,164327.0,0.296769
573,3,193,2779.78,115560.0,164327.0,0.296767
574,3,193,2792.47,115561.0,164327.0,0.296759
575,3,193,2805.06,115563.0,164327.0,0.296749
576,3,193,2817.06,115565.0,164327.0,0.296736
577,3,193,2890.03,115572.0,164327.0,0.296695
578,3,193,2907.88,115572.0,164327.0,0.296693
579,3,193,2927.07,115573.0,164327.0,0.296686
580,3,193,2939.03,115575.0,164327.0,0.296674
581,3,193,2951.01,115578.0,164327.0,0.296661
582,3,193,2965.29,115578.0,164327.0,0.296659
583,3,193,2980.59,115578.0,164327.0,0.296658
584,3,193,2995.16,115578.0,164327.0,0.296658
585,3,193,3018.13,115578.0,164327.0,0.296658
586,3,193,3028.36,115578.0,164327.0,0.296658
587,3,193,3041.32,115582.0,164327.0,0.296636
588,3,193,3053.49,115583.0,164327.0,0.296626
589,3,193,3065.59,115586.0,164327.0,0.296608
590,3,193,3088.85,115589.0,164327.0,0.29659
591,3,193,3100.94,115594.0,164327.0,0.296563
592,3,193,3114.6,115595.0,164327.0,0.296557
593,3,193,3124.63,115596.0,164327.0,0.296546
594,3,193,3133.2,115598.0,164327.0,0.296538
595,3,193,3147.34,115599.0,164327.0,0.296528
596,3,193,3236.48,115599.0,164327.0,0.296528
597,3,193,3259.53,115600.0,164327.0,0.296523
598,3,193,3284.99,115606.0,164327.0,0.29649
599,3,193,3298.87,115606.0,164327.0,0.296487
600,3,193,3312.73,115607.0,164327.0,0.296484
601,3,193,3335.12,115608.0,164327.0,0.296473
602,3,193,3347.54,115611.0,164327.0,0.296458
603,3,193,3361.67,115614.0,164327.0,0.296441
604,3,193,3377.54,115615.0,164327.0,0.296431
605,3,193,3392.67,115617.0,164327.0,0.296421
606,3,193,3395.1,115618.0,164327.0,0.296418
607,3,193,3407.97,115620.0,164327.0,0.296404
608,3,193,3429.01,115622.0,164327.0,0.296392
609,3,193,3440.14,115622.0,164327.0,0.296388
610,3,193,3450.88,115623.0,164327.0,0.296386
611,3,193,3461.95,115624.0,164327.0,0.296377
612,3,193,3485.17,115625.0,164327.0,0.296372
613,3,193,3499.45,115627.0,164327.0,0.296363
614,3,193,3516.52,115628.0,164327.0,0.296356
615,3,193,3570.88,115629.0,164327.0,0.296351
616,3,193,3586.75,115629.0,164327.0,0.296346
617,3,193,3601.55,115630.0,164327.0,0.296341
618,3,130,0.184485,65341.7,762033.0,0.914253
619,3,130,0.507648,65341.7,334253.0,0.804514
620,3,130,0.903586,65341.7,291770.0,0.77605
621,3,130,1.14312,144059.0,291770.0,0.506258
622,3,130,1.4619,149557.0,291770.0,0.487413
623,3,130,1.64613,150245.0,291770.0,0.485057
624,3,130,2.08486,150258.0,291770.0,0.48501
625,3,130,2.22208,150350.0,291770.0,0.484697
626,3,130,3.26916,150461.0,264375.0,0.430881
627,3,130,4.94685,150461.0,259176.0,0.419464
628,3,130,6.14888,150461.0,257647.0,0.416019
629,3,130,7.29324,150461.0,257162.0,0.414917
630,3,130,8.34801,150461.0,256648.0,0.413746
631,3,130,9.48043,150461.0,256644.0,0.413736
632,3,130,12.6801,150461.0,255274.0,0.41059
633,3,130,13.6605,150461.0,255039.0,0.410048
634,3,130,15.2273,150461.0,254574.0,0.408969
635,3,130,15.6811,150461.0,254130.0,0.407936
636,3,130,16.2342,150461.0,254061.0,0.407776
637,3,130,18.882,150461.0,253671.0,0.406866
638,3,130,23.8139,150461.0,252555.0,0.404246
639,3,130,24.2722,150497.0,252555.0,0.404102
640,3,130,26.2355,154269.0,252555.0,0.389167
641,3,130,26.3534,154645.0,252555.0,0.387681
642,3,130,27.3428,157000.0,252555.0,0.378355
643,3,130,27.5169,157429.0,252555.0,0.376657
644,3,130,28.6073,158369.0,252555.0,0.372932
645,3,130,28.7613,158588.0,252555.0,0.372068
646,3,130,29.8437,159409.0,252555.0,0.368815
647,3,130,30.5767,159409.0,252478.0,0.368621
648,3,130,31.6321,160085.0,252478.0,0.365943
649,3,130,31.776,160177.0,252478.0,0.365579
650,3,130,32.7072,160419.0,252478.0,0.364621
651,3,130,32.8264,160569.0,252478.0,0.364027
652,3,130,33.8118,161003.0,252478.0,0.36231
653,3,130,33.9119,161066.0,252478.0,0.36206
654,3,130,34.8603,161286.0,252478.0,0.361189
655,3,130,34.985,161382.0,252478.0,0.360808
656,3,130,35.942,161627.0,252478.0,0.359835
657,3,130,36.1225,161754.0,252478.0,0.359333
658,3,130,37.0862,161855.0,252478.0,0.358935
659,3,130,37.2062,161944.0,252478.0,0.358582
660,3,130,38.1704,162105.0,252478.0,0.357943
661,3,130,38.2934,162170.0,252478.0,0.357686
662,3,130,39.2882,162214.0,252478.0,0.357513
663,3,130,40.3742,162318.0,252478.0,0.357099
664,3,130,41.2591,162481.0,252478.0,0.356453
665,3,130,42.1819,162481.0,252465.0,0.356421
666,3,130,42.8278,162529.0,252465.0,0.356233
667,3,130,43.5374,162551.0,252465.0,0.356146
668,3,130,44.2116,162582.0,252465.0,0.356023
669,3,130,44.9249,162714.0,252465.0,0.355499
670,3,130,45.5936,162741.0,252465.0,0.355394
671,3,130,46.2573,162754.0,252465.0,0.355343
672,3,130,46.9467,162767.0,252465.0,0.355289
673,3,130,47.653,162811.0,252465.0,0.355115
674,3,130,47.7544,162825.0,252465.0,0.355059
675,3,130,48.3954,162929.0,252465.0,0.354648
676,3,130,49.1429,162986.0,252465.0,0.354421
677,3,130,49.8821,163038.0,252465.0,0.354215
678,3,130,49.9914,163057.0,252465.0,0.35414
679,3,130,50.6017,163104.0,252465.0,0.353955
680,3,130,50.7107,163119.0,252465.0,0.353894
681,3,130,51.3763,163164.0,252465.0,0.353717
682,3,130,52.0561,163227.0,252465.0,0.353467
683,3,130,52.7513,163234.0,252465.0,0.353441
684,3,130,53.4615,163253.0,252465.0,0.353365
685,3,130,53.6692,163253.0,252449.0,0.353322
686,3,130,54.3587,163278.0,252449.0,0.353224
687,3,130,54.4666,163283.0,252449.0,0.353202
688,3,130,55.1027,163287.0,252449.0,0.353186
689,3,130,55.3296,163287.0,252407.0,0.35308
690,3,130,55.9885,163296.0,252407.0,0.353046
691,3,130,56.6614,163297.0,252407.0,0.353043
692,3,130,56.8532,163297.0,252407.0,0.353042
693,3,130,57.4515,163297.0,252407.0,0.35304
694,3,130,58.9163,163297.0,251944.0,0.35185
695,3,130,80.9076,163347.0,251944.0,0.351651
696,3,130,85.4762,163821.0,251944.0,0.349772
697,3,130,85.6384,163937.0,251944.0,0.349309
698,3,130,86.7958,164278.0,251944.0,0.347956
699,3,130,86.9273,164330.0,251944.0,0.347752
700,3,130,88.0721,164581.0,251944.0,0.346754
701,3,130,88.1882,164621.0,251944.0,0.346595
702,3,130,89.3162,164810.0,251944.0,0.345846
703,3,130,89.4609,164869.0,251944.0,0.345611
704,3,130,90.5309,165117.0,251944.0,0.344627
705,3,130,90.6539,165170.0,251944.0,0.344418
706,3,130,91.7155,165359.0,251944.0,0.343667
707,3,130,91.8451,165436.0,251944.0,0.34336
708,3,130,92.9901,165569.0,251944.0,0.342834
709,3,130,93.13,165595.0,251944.0,0.342729
710,3,130,94.1957,165784.0,251944.0,0.341982
711,3,130,94.3304,165814.0,251944.0,0.341862
712,3,130,95.3709,165874.0,251944.0,0.341622
713,3,130,95.5055,165912.0,251944.0,0.341471
714,3,130,96.5524,165957.0,251944.0,0.341293
715,3,130,96.6665,165970.0,251944.0,0.341241
716,3,130,97.7687,165998.0,251944.0,0.341132
717,3,130,98.9329,166008.0,251944.0,0.341091
718,3,130,99.7756,166015.0,251944.0,0.341064
719,3,130,100.399,166020.0,251944.0,0.341042
720,3,130,101.076,166068.0,251944.0,0.340852
721,3,130,102.084,166068.0,251497.0,0.33968
722,3,130,102.747,166079.0,251497.0,0.339638
723,3,130,103.408,166086.0,251497.0,0.339609
724,3,130,104.095,166090.0,251497.0,0.339595
725,3,130,104.755,166092.0,251497.0,0.339586
726,3,130,105.438,166123.0,251497.0,0.339462
727,3,130,106.141,166138.0,251497.0,0.339404
728,3,130,106.821,166143.0,251497.0,0.339381
729,3,130,131.476,166170.0,251497.0,0.339275
730,3,130,136.054,166231.0,251497.0,0.339034
731,3,130,137.158,166409.0,251497.0,0.338325
732,3,130,137.309,166492.0,251497.0,0.337993
733,3,130,138.362,166567.0,251497.0,0.337697
734,3,130,138.467,166588.0,251497.0,0.337614
735,3,130,139.515,166681.0,251497.0,0.337244
736,3,130,140.604,166788.0,251497.0,0.336818
737,3,130,141.773,166942.0,251497.0,0.336206
738,3,130,141.886,166958.0,251497.0,0.336141
739,3,130,142.9,167010.0,251497.0,0.335934
740,3,130,144.1,167040.0,251497.0,0.335816
741,3,130,145.321,167105.0,251497.0,0.335556
742,3,130,145.428,167113.0,251497.0,0.335527
743,3,130,146.456,167130.0,251497.0,0.335457
744,3,130,147.695,167237.0,251497.0,0.335032
745,3,130,148.502,167237.0,250531.0,0.33247
746,3,130,149.714,167342.0,250531.0,0.33205
747,3,130,150.648,167349.0,250531.0,0.332022
748,3,130,151.356,167356.0,250531.0,0.331997
749,3,130,152.057,167360.0,250531.0,0.331979
750,3,130,162.981,167360.0,250347.0,0.331487
751,3,130,172.921,167360.0,249753.0,0.329896
752,3,130,179.771,167361.0,249753.0,0.329893
753,3,130,180.282,167434.0,249753.0,0.329599
754,3,130,180.909,167478.0,249753.0,0.329425
755,3,130,181.719,167481.0,249753.0,0.329411
756,3,130,182.435,167482.0,249753.0,0.329408
757,3,130,182.595,167492.0,249753.0,0.329367
758,3,130,183.025,167503.0,249753.0,0.329324
759,3,130,183.545,167547.0,249753.0,0.329148
760,3,130,184.04,167548.0,249753.0,0.329144
761,3,130,184.172,167573.0,249753.0,0.329044
762,3,130,184.664,167576.0,249753.0,0.329033
763,3,130,184.872,167576.0,249753.0,0.32903
764,3,130,184.999,167579.0,249753.0,0.32902
765,3,130,185.462,167650.0,249753.0,0.328736
766,3,130,185.885,167652.0,249753.0,0.328727
767,3,130,186.398,167675.0,249753.0,0.328636
768,3,130,186.847,167686.0,249753.0,0.328592
769,3,130,187.058,167686.0,249108.0,0.326855
770,3,130,187.443,167688.0,249108.0,0.326845
771,3,130,187.818,167699.0,249108.0,0.326803
772,3,130,188.067,167705.0,249108.0,0.326779
773,3,130,188.366,167773.0,249108.0,0.326507
774,3,130,188.687,167775.0,249108.0,0.326499
775,3,130,188.812,167778.0,249108.0,0.326484
776,3,130,188.982,167851.0,249108.0,0.326192
777,3,130,233.121,167851.0,249068.0,0.326085
778,3,130,284.792,167851.0,248828.0,0.325435
779,3,130,355.021,167853.0,248828.0,0.325426
780,3,130,399.692,167853.0,248545.0,0.324658
781,3,130,416.613,167853.0,248306.0,0.324008
782,3,130,422.008,167853.0,247996.0,0.323162
783,3,130,482.623,167853.0,247864.0,0.322803
784,3,130,491.277,167880.0,247864.0,0.322694
785,3,130,502.04,167880.0,247542.0,0.321811
786,3,130,551.966,167880.0,246767.0,0.319681
787,3,130,634.275,168373.0,246767.0,0.317682
788,3,130,635.112,168708.0,246767.0,0.316327
789,3,130,637.011,169194.0,246767.0,0.314357
790,3,130,637.261,169310.0,246767.0,0.313888
791,3,130,639.114,169409.0,246767.0,0.313486
792,3,130,639.271,169435.0,246767.0,0.313382
793,3,130,641.153,169567.0,246767.0,0.312846
794,3,130,641.297,169589.0,246767.0,0.312758
795,3,130,643.147,169624.0,246767.0,0.312613
796,3,130,643.897,169653.0,246767.0,0.312497
797,3,130,645.698,169676.0,246767.0,0.312403
798,3,130,645.802,169683.0,246767.0,0.312373
799,3,130,647.601,169694.0,246767.0,0.312332
800,3,130,649.46,169696.0,246767.0,0.312324
801,3,130,651.28,169703.0,246767.0,0.312295
802,3,130,652.994,169712.0,246767.0,0.312257
803,3,130,653.465,169716.0,246767.0,0.31224
804,3,130,655.226,169754.0,246767.0,0.312086
805,3,130,655.332,169765.0,246767.0,0.312041
806,3,130,657.111,169847.0,246767.0,0.311712
807,3,130,657.239,169899.0,246767.0,0.311498
808,3,130,658.742,169911.0,246767.0,0.311449
809,3,130,658.956,169913.0,246767.0,0.311442
810,3,130,660.208,170075.0,246767.0,0.310785
811,3,130,660.461,170116.0,246767.0,0.310622
812,3,130,661.709,170141.0,246767.0,0.31052
813,3,130,661.893,170171.0,246767.0,0.310397
814,3,130,663.109,170209.0,246767.0,0.310242
815,3,130,663.377,170215.0,246767.0,0.310219
816,3,130,664.669,170255.0,246767.0,0.310056
817,3,130,665.193,170258.0,246767.0,0.310043
818,3,130,666.415,170268.0,246767.0,0.310003
819,3,130,667.805,170287.0,246767.0,0.309927
820,3,130,669.193,170309.0,246767.0,0.309837
821,3,130,669.565,170316.0,246767.0,0.309812
822,3,130,670.809,170317.0,246767.0,0.309805
823,3,130,727.558,170320.0,246767.0,0.309795
824,3,130,748.051,170455.0,246767.0,0.309246
825,3,130,768.031,170480.0,246767.0,0.309147
826,3,130,768.183,170508.0,246767.0,0.309032
827,3,130,880.307,170508.0,246391.0,0.307979
828,3,130,1045.54,170579.0,246391.0,0.307689
829,3,130,1045.93,170726.0,246391.0,0.307094
830,3,130,1046.28,170752.0,246391.0,0.306987
831,3,130,1047.47,170781.0,246391.0,0.306871
832,3,130,1047.74,170784.0,246391.0,0.306861
833,3,130,1088.29,170828.0,246361.0,0.306593
834,3,130,1104.15,170828.0,246355.0,0.306575
835,3,130,1106.26,170828.0,246121.0,0.305916
836,3,130,1119.54,170828.0,246065.0,0.30576
837,3,130,1167.74,170828.0,245960.0,0.305464
838,3,130,1226.1,170913.0,245960.0,0.30512
839,3,130,1226.27,171041.0,245960.0,0.304598
840,3,130,1226.45,171049.0,245960.0,0.304567
841,3,130,1377.13,171204.0,245960.0,0.303936
842,3,130,1419.38,171229.0,245960.0,0.303834
843,3,130,1441.67,171229.0,245772.0,0.3033
844,3,130,1472.45,171235.0,245772.0,0.303278
845,3,130,1523.42,171276.0,245772.0,0.303109
846,3,130,1544.46,171276.0,245582.0,0.302569
847,3,130,1549.3,171305.0,245582.0,0.30245
848,3,130,1590.11,171310.0,245582.0,0.302433
849,3,130,1594.88,171313.0,245582.0,0.30242
850,3,130,1617.89,171334.0,245582.0,0.302332
851,3,130,1670.61,171364.0,245582.0,0.30221
852,3,130,1710.11,171370.0,245582.0,0.302189
853,3,130,1728.12,171381.0,245582.0,0.302142
854,3,130,1752.08,171395.0,245582.0,0.302085
855,3,130,1779.26,171412.0,245582.0,0.302015
856,3,130,1818.39,171413.0,245582.0,0.30201
857,3,130,1852.54,171415.0,245582.0,0.302005
858,3,130,1899.98,171420.0,245582.0,0.301984
859,3,130,2080.59,171433.0,245582.0,0.301932
860,3,130,2109.62,171441.0,245582.0,0.301897
861,3,130,2140.31,171458.0,245582.0,0.301828
862,3,130,2197.63,171479.0,245582.0,0.301745
863,3,130,2228.28,171484.0,245582.0,0.301722
864,3,130,2261.1,171494.0,245582.0,0.301684
865,3,130,2300.95,171508.0,245582.0,0.301625
866,3,130,2324.49,171512.0,245582.0,0.301609
867,3,130,2349.74,171517.0,245582.0,0.301589
868,3,130,2379.21,171518.0,245582.0,0.301585
869,3,130,2409.54,171519.0,245582.0,0.301582
870,3,130,2463.95,171533.0,245582.0,0.301522
871,3,130,2489.65,171536.0,245582.0,0.301511
872,3,130,2512.49,171539.0,245582.0,0.301501
873,3,130,2572.99,171553.0,245582.0,0.301441
874,3,130,2598.83,171554.0,245582.0,0.301437
875,3,130,2625.7,171569.0,245582.0,0.301377
876,3,130,2656.74,171573.0,245582.0,0.30136
877,3,130,2695.26,171584.0,245582.0,0.301314
878,3,130,2845.01,171585.0,245582.0,0.301314
879,3,130,2868.46,171591.0,245582.0,0.301288
880,3,130,2900.36,171599.0,245582.0,0.301255
881,3,130,2943.25,171599.0,245582.0,0.301255
882,3,130,2967.63,171601.0,245582.0,0.301248
883,3,130,2997.96,171604.0,245582.0,0.301236
884,3,130,3060.22,171604.0,245582.0,0.301236
885,3,130,3086.49,171606.0,245582.0,0.301226
886,3,130,3119.5,171609.0,245582.0,0.301213
887,3,130,3158.37,171609.0,245582.0,0.301213
888,3,130,3191.78,171609.0,245582.0,0.301213
889,3,130,3220.69,171614.0,245582.0,0.301195
890,3,130,3253.41,171625.0,245582.0,0.30115
891,3,130,3293.81,171627.0,245582.0,0.30114
892,3,130,3312.69,171628.0,245582.0,0.301138
893,3,130,3340.0,171635.0,245582.0,0.301109
894,3,130,3371.79,171635.0,245582.0,0.301108
895,3,130,3430.55,171636.0,245582.0,0.301104
896,3,130,3455.91,171640.0,245582.0,0.301087
897,3,130,3623.09,171642.0,245582.0,0.301081
898,3,131,0.106006,33043.3,380855.0,0.913239
899,3,131,0.303848,91699.0,271346.0,0.662059
900,3,131,0.829722,91699.0,175773.0,0.478311
901,3,131,0.989483,94847.1,175773.0,0.460401
902,3,131,1.09569,95050.7,175773.0,0.459243
903,3,131,1.6633,95062.1,175773.0,0.459178
904,3,131,2.77603,95181.5,164824.0,0.422525
905,3,131,5.81688,95181.5,161619.0,0.411077
906,3,131,8.87212,95181.5,161280.0,0.409836
907,3,131,9.55032,95181.5,160742.0,0.407862
908,3,131,9.77968,95456.1,160742.0,0.406153
909,3,131,10.9227,96707.3,160742.0,0.398369
910,3,131,11.4886,98447.2,160742.0,0.387545
911,3,131,12.0193,99423.5,160742.0,0.381471
912,3,131,12.5216,100007.0,160742.0,0.377842
913,3,131,13.0362,100304.0,160742.0,0.375993
914,3,131,13.4943,100304.0,160667.0,0.375701
915,3,131,13.9739,100602.0,160667.0,0.373845
916,3,131,14.5591,101127.0,160667.0,0.370579
917,3,131,15.1117,101439.0,160667.0,0.368637
918,3,131,15.6771,101636.0,160667.0,0.367413
919,3,131,16.2315,101744.0,160667.0,0.366741
920,3,131,16.8282,101810.0,160667.0,0.36633
921,3,131,17.4015,101871.0,160667.0,0.36595
922,3,131,17.9495,101948.0,160667.0,0.365471
923,3,131,18.4563,102000.0,160667.0,0.365146
924,3,131,18.8424,102022.0,160667.0,0.365012
925,3,131,19.1873,102058.0,160667.0,0.364786
926,3,131,19.8848,102059.0,160667.0,0.364782
927,3,131,20.1878,102081.0,160667.0,0.364639
928,3,131,20.529,102101.0,160667.0,0.364517
929,3,131,20.9277,102182.0,160667.0,0.364013
930,3,131,21.304,102192.0,160667.0,0.363953
931,3,131,21.6829,102397.0,160667.0,0.362677
932,3,131,22.0539,102420.0,160667.0,0.362529
933,3,131,22.468,102465.0,160667.0,0.362249
934,3,131,22.8982,102531.0,160667.0,0.361843
935,3,131,23.3248,102562.0,160667.0,0.361647
936,3,131,23.7806,102599.0,160667.0,0.36142
937,3,131,24.1936,102600.0,160667.0,0.36141
938,3,131,24.5987,102601.0,160667.0,0.361408
939,3,131,25.3482,102601.0,160155.0,0.359366
940,3,131,31.8207,102601.0,159465.0,0.356596
941,3,131,32.1971,102634.0,159465.0,0.356386
942,3,131,33.5668,102842.0,159465.0,0.355084
943,3,131,34.0424,103172.0,159465.0,0.353014
944,3,131,34.6229,103346.0,159465.0,0.351922
945,3,131,35.1378,103423.0,159465.0,0.35144
946,3,131,35.7426,103423.0,159238.0,0.350515
947,3,131,36.2802,103510.0,159238.0,0.349967
948,3,131,36.8836,103603.0,159238.0,0.349387
949,3,131,37.443,103640.0,159238.0,0.349149
950,3,131,37.9713,103700.0,159238.0,0.348777
951,3,131,38.5061,103725.0,159238.0,0.348615
952,3,131,39.0458,103804.0,159238.0,0.348124
953,3,131,39.6255,103852.0,159238.0,0.347822
954,3,131,40.2212,103871.0,159238.0,0.347699
955,3,131,40.7771,103877.0,159238.0,0.347663
956,3,131,41.2476,103906.0,159238.0,0.347482
957,3,131,41.6559,103917.0,159238.0,0.347412
958,3,131,42.0534,103930.0,159238.0,0.34733
959,3,131,42.4356,103943.0,159238.0,0.347247
960,3,131,42.8231,103952.0,159238.0,0.347195
961,3,131,43.2235,103968.0,159238.0,0.347091
962,3,131,43.6253,103969.0,159238.0,0.347084
963,3,131,48.0086,103969.0,159177.0,0.346832
964,3,131,50.8798,103972.0,159177.0,0.346815
965,3,131,51.046,104062.0,159177.0,0.346251
966,3,131,51.2803,104117.0,159177.0,0.345904
967,3,131,51.4494,104167.0,159177.0,0.345593
968,3,131,53.0517,104167.0,159028.0,0.344979
969,3,131,54.8755,104167.0,158533.0,0.342934
970,3,131,65.7826,104167.0,158115.0,0.341196
971,3,131,67.0474,104167.0,157977.0,0.340621
972,3,131,69.8218,104167.0,157944.0,0.340484
973,3,131,70.7914,104167.0,157384.0,0.33814
974,3,131,73.9423,104167.0,157204.0,0.337379
975,3,131,81.2913,104167.0,157127.0,0.337054
976,3,131,120.504,104167.0,157127.0,0.337054
977,3,131,121.274,104167.0,157028.0,0.336635
978,3,131,154.164,104167.0,156822.0,0.335767
979,3,131,162.491,104167.0,156815.0,0.335735
980,3,131,183.786,104238.0,156815.0,0.335282
981,3,131,204.905,104239.0,156750.0,0.334997
982,3,131,227.321,104245.0,156750.0,0.334959
983,3,131,242.23,104316.0,156750.0,0.334507
984,3,131,264.647,104801.0,156750.0,0.331414
985,3,131,265.474,105179.0,156750.0,0.329004
986,3,131,265.606,105370.0,156750.0,0.327787
987,3,131,266.49,105453.0,156750.0,0.327256
988,3,131,267.44,105517.0,156750.0,0.326846
989,3,131,268.34,105582.0,156750.0,0.326431
990,3,131,269.264,105604.0,156750.0,0.32629
991,3,131,270.224,105800.0,156750.0,0.325043
992,3,131,271.188,105896.0,156750.0,0.324431
993,3,131,272.147,105927.0,156750.0,0.32423
994,3,131,272.349,105942.0,156750.0,0.324133
995,3,131,273.272,105949.0,156750.0,0.324094
996,3,131,273.818,105949.0,156750.0,0.324088
997,3,131,274.716,105950.0,156750.0,0.324087
998,3,131,275.672,105952.0,156750.0,0.324072
999,3,131,295.875,105955.0,156750.0,0.32405
1000,3,131,302.04,106077.0,156750.0,0.323271
1001,3,131,313.729,106109.0,156750.0,0.323073
1002,3,131,314.607,106112.0,156750.0,0.323052
1003,3,131,315.658,106208.0,156750.0,0.322437
1004,3,131,316.238,106209.0,156750.0,0.32243
1005,3,131,316.847,106263.0,156750.0,0.322085
1006,3,131,317.885,106384.0,156750.0,0.321318
1007,3,131,373.422,106384.0,156651.0,0.32089
1008,3,131,417.996,106386.0,156651.0,0.320874
1009,3,131,490.573,106561.0,156651.0,0.319759
1010,3,131,537.232,106563.0,156651.0,0.319746
1011,3,131,554.078,106597.0,156651.0,0.319531
1012,3,131,558.225,106597.0,156066.0,0.316977
1013,3,131,572.452,106660.0,156066.0,0.316569
1014,3,131,591.239,106716.0,156066.0,0.316209
1015,3,131,598.93,106729.0,156066.0,0.316127
1016,3,131,607.688,106790.0,156066.0,0.315736
1017,3,131,609.296,106812.0,156066.0,0.315598
1018,3,131,619.047,106853.0,156066.0,0.315333
1019,3,131,639.181,106857.0,156066.0,0.315305
1020,3,131,647.859,106867.0,156066.0,0.315245
1021,3,131,654.115,106893.0,156066.0,0.315076
1022,3,131,665.627,106909.0,156066.0,0.314974
1023,3,131,680.635,106922.0,156066.0,0.314891
1024,3,131,696.755,106953.0,156066.0,0.314694
1025,3,131,710.461,106954.0,156066.0,0.314687
1026,3,131,722.496,106956.0,156066.0,0.314672
1027,3,131,785.042,106968.0,156066.0,0.314598
1028,3,131,801.306,106980.0,156066.0,0.314519
1029,3,131,810.057,106982.0,156066.0,0.314509
1030,3,131,829.17,107001.0,156066.0,0.314388
1031,3,131,841.594,107015.0,156066.0,0.314294
1032,3,131,857.089,107025.0,156066.0,0.314233
1033,3,131,872.243,107034.0,156066.0,0.314175
1034,3,131,883.078,107045.0,156066.0,0.314103
1035,3,131,896.365,107055.0,156066.0,0.314042
1036,4,11,1.01199,346765.0,1.79769e+308,1.0
1037,4,11,1.27788,346765.0,1380780.0,0.748863
1038,4,11,2.28618,505763.0,1141270.0,0.556844
1039,4,11,4.28683,505763.0,1040800.0,0.514065
1040,4,11,4.95438,543941.0,1040800.0,0.477384
1041,4,11,6.70124,563846.0,1040800.0,0.458259
1042,4,11,7.43735,565517.0,1040800.0,0.456653
1043,4,11,8.44303,567527.0,1040800.0,0.454722
1044,4,11,17.8548,567527.0,992708.0,0.428304
1045,4,11,18.0392,567532.0,992708.0,0.428299
1046,4,11,18.4894,567555.0,992708.0,0.428276
1047,4,11,18.6081,567679.0,992708.0,0.428151
1048,4,11,18.9791,567681.0,992708.0,0.428149
1049,4,11,19.3418,567828.0,992708.0,0.428001
1050,4,11,19.711,567836.0,992708.0,0.427993
1051,4,11,20.1002,567951.0,992708.0,0.427877
1052,4,11,23.6603,567965.0,975012.0,0.417478
1053,4,11,26.5895,567965.0,965715.0,0.411871
1054,4,11,28.7363,567965.0,961330.0,0.409188
1055,4,11,30.4276,567965.0,960535.0,0.408699
1056,4,11,34.7754,567965.0,959227.0,0.407893
1057,4,11,36.6829,567965.0,958621.0,0.407518
1058,4,11,38.8855,567965.0,955586.0,0.405636
1059,4,11,49.9115,567965.0,953081.0,0.404074
1060,4,11,52.8842,567965.0,951255.0,0.402931
1061,4,11,58.1675,567965.0,947837.0,0.400778
1062,4,11,60.2164,567965.0,946377.0,0.399853
1063,4,11,63.0495,567965.0,944405.0,0.3986
1064,4,11,65.5375,567965.0,943929.0,0.398296
1065,4,11,67.9603,567965.0,943340.0,0.397921
1066,4,11,73.2222,567965.0,942744.0,0.39754
1067,4,11,78.716,567965.0,942177.0,0.397177
1068,4,11,84.2401,567965.0,940629.0,0.396185
1069,4,11,95.9562,567965.0,939782.0,0.395641
1070,4,11,109.623,567965.0,934780.0,0.392408
1071,4,11,126.813,567965.0,934089.0,0.391958
1072,4,11,137.484,567965.0,933519.0,0.391587
1073,4,11,140.164,567965.0,933280.0,0.391431
1074,4,11,159.407,567965.0,933139.0,0.391339
1075,4,11,161.096,567965.0,932784.0,0.391108
1076,4,11,164.536,567965.0,931743.0,0.390427
1077,4,11,183.906,567965.0,930502.0,0.389614
1078,4,11,236.561,567965.0,927149.0,0.387407
1079,4,11,247.892,567965.0,925758.0,0.386486
1080,4,11,252.173,568025.0,925758.0,0.386422
1081,4,11,254.233,568025.0,925567.0,0.386296
1082,4,11,260.903,576350.0,925567.0,0.3773
1083,4,11,262.024,580210.0,925567.0,0.373131
1084,4,11,268.359,593100.0,925567.0,0.359204
1085,4,11,270.517,593100.0,921187.0,0.356157
1086,4,11,271.861,595007.0,921187.0,0.354086
1087,4,11,279.977,601893.0,921187.0,0.346611
1088,4,11,281.838,603279.0,921187.0,0.345106
1089,4,11,291.792,607092.0,921187.0,0.340968
1090,4,11,293.646,608144.0,921187.0,0.339826
1091,4,11,303.149,611114.0,921187.0,0.336602
1092,4,11,304.935,611114.0,915686.0,0.332616
1093,4,11,306.441,611707.0,915686.0,0.331968
1094,4,11,316.443,613382.0,915686.0,0.330139
1095,4,11,318.145,613849.0,915686.0,0.32963
1096,4,11,326.708,615199.0,915686.0,0.328154
1097,4,11,328.034,615568.0,915686.0,0.327752
1098,4,11,337.137,616553.0,915686.0,0.326676
1099,4,11,337.809,616553.0,910595.0,0.322911
1100,4,11,339.165,616902.0,910595.0,0.322528
1101,4,11,348.149,617566.0,910595.0,0.321799
1102,4,11,349.189,617566.0,909779.0,0.321191
1103,4,11,350.34,617818.0,909779.0,0.320914
1104,4,11,360.156,618441.0,909779.0,0.32023
1105,4,11,360.74,618441.0,908702.0,0.319424
1106,4,11,361.873,618612.0,908702.0,0.319235
1107,4,11,371.251,618985.0,908702.0,0.318825
1108,4,11,371.695,618985.0,907811.0,0.318157
1109,4,11,372.491,619129.0,907811.0,0.317998
1110,4,11,381.876,619591.0,907811.0,0.317489
1111,4,11,382.48,619591.0,907749.0,0.317442
1112,4,11,383.154,619714.0,907749.0,0.317307
1113,4,11,392.534,620100.0,907749.0,0.316882
1114,4,11,394.075,620230.0,907749.0,0.316739
1115,4,11,400.358,620412.0,907749.0,0.316538
1116,4,11,401.499,620464.0,907749.0,0.316481
1117,4,11,404.661,620585.0,907749.0,0.316347
1118,4,11,405.224,620585.0,907358.0,0.316052
1119,4,11,405.786,620633.0,907358.0,0.316
1120,4,11,409.206,620879.0,907358.0,0.315729
1121,4,11,409.923,620879.0,906169.0,0.314831
1122,4,11,410.729,620975.0,906169.0,0.314725
1123,4,11,413.937,621135.0,906169.0,0.314548
1124,4,11,415.062,621178.0,906169.0,0.314501
1125,4,11,418.324,621338.0,906169.0,0.314324
1126,4,11,419.534,621414.0,906169.0,0.314241
1127,4,11,423.31,621622.0,906169.0,0.314011
1128,4,11,424.823,621675.0,906169.0,0.313952
1129,4,11,427.923,621840.0,906169.0,0.313771
1130,4,11,428.752,621881.0,906169.0,0.313725
1131,4,11,431.975,621973.0,906169.0,0.313624
1132,4,11,433.318,622058.0,906169.0,0.31353
1133,4,11,436.452,622184.0,906169.0,0.313391
1134,4,11,437.744,622207.0,906169.0,0.313365
1135,4,11,440.534,622244.0,906169.0,0.313324
1136,4,11,441.316,622262.0,906169.0,0.313305
1137,4,11,444.501,622351.0,906169.0,0.313207
1138,4,11,445.431,622369.0,906169.0,0.313186
1139,4,11,448.201,622413.0,906169.0,0.313138
1140,4,11,449.034,622421.0,906169.0,0.313129
1141,4,11,451.984,622457.0,906169.0,0.31309
1142,4,11,452.54,622457.0,906165.0,0.313086
1143,4,11,452.863,622475.0,906165.0,0.313067
1144,4,11,455.869,622534.0,906165.0,0.313002
1145,4,11,456.435,622534.0,906161.0,0.312999
1146,4,11,456.747,622541.0,906161.0,0.312991
1147,4,11,460.011,622602.0,906161.0,0.312924
1148,4,11,461.285,622622.0,906161.0,0.312902
1149,4,11,464.112,622642.0,906161.0,0.312879
1150,4,11,464.631,622646.0,906161.0,0.312875
1151,4,11,467.352,622681.0,906161.0,0.312837
1152,4,11,468.121,622702.0,906161.0,0.312814
1153,4,11,471.8,622817.0,906161.0,0.312686
1154,4,11,472.642,622853.0,906161.0,0.312646
1155,4,11,475.906,622950.0,906161.0,0.31254
1156,4,11,476.772,622972.0,906161.0,0.312516
1157,4,11,480.699,623239.0,906161.0,0.31222
1158,4,11,481.91,623268.0,906161.0,0.312188
1159,4,11,484.931,623336.0,906161.0,0.312113
1160,4,11,485.243,623336.0,906080.0,0.312052
1161,4,11,485.625,623357.0,906080.0,0.312029
1162,4,11,488.683,623447.0,906080.0,0.311929
1163,4,11,490.051,623475.0,906080.0,0.311899
1164,4,11,492.988,623551.0,906080.0,0.311815
1165,4,11,493.759,623584.0,906080.0,0.311778
1166,4,11,496.859,623880.0,906080.0,0.311451
1167,4,11,497.403,623880.0,905987.0,0.311381
1168,4,11,497.713,623890.0,905987.0,0.31137
1169,4,11,500.684,623908.0,905987.0,0.31135
1170,4,11,501.753,623915.0,905987.0,0.311342
1171,4,11,504.811,623960.0,905987.0,0.311293
1172,4,11,505.501,623967.0,905987.0,0.311284
1173,4,11,508.23,624008.0,905987.0,0.31124
1174,4,11,508.795,624015.0,905987.0,0.311232
1175,4,11,511.561,624090.0,905987.0,0.311149
1176,4,11,513.387,624104.0,905987.0,0.311133
1177,4,11,516.433,624209.0,905987.0,0.311018
1178,4,11,517.515,624266.0,905987.0,0.310955
1179,4,11,520.741,624328.0,905987.0,0.310886
1180,4,11,521.652,624350.0,905987.0,0.310862
1181,4,11,524.632,624387.0,905987.0,0.310821
1182,4,11,525.376,624397.0,905987.0,0.31081
1183,4,11,528.54,624460.0,905987.0,0.31074
1184,4,11,529.408,624475.0,905987.0,0.310724
1185,4,11,532.373,624517.0,905987.0,0.310678
1186,4,11,533.134,624529.0,905987.0,0.310664
1187,4,11,536.546,624561.0,905987.0,0.310629
1188,4,11,537.966,624572.0,905987.0,0.310617
1189,4,11,541.241,624602.0,905987.0,0.310584
1190,4,11,541.788,624613.0,905987.0,0.310572
1191,4,11,545.211,624645.0,905987.0,0.310536
1192,4,11,545.648,624654.0,905987.0,0.310527
1193,4,11,549.067,624690.0,905987.0,0.310486
1194,4,11,549.851,624698.0,905987.0,0.310478
1195,4,11,553.038,624705.0,905987.0,0.31047
1196,4,11,553.719,624733.0,905987.0,0.31044
1197,4,11,556.835,624741.0,905987.0,0.31043
1198,4,11,557.452,624745.0,905987.0,0.310426
1199,4,11,560.4,624745.0,905987.0,0.310426
1200,4,11,560.974,624746.0,905987.0,0.310425
1201,4,11,563.969,624746.0,905987.0,0.310425
1202,4,11,564.523,624746.0,905987.0,0.310424
1203,4,11,567.423,624746.0,905987.0,0.310424
1204,4,11,903.815,624746.0,905237.0,0.309853
1205,4,11,919.202,624774.0,905237.0,0.309823
1206,4,11,921.361,624774.0,904982.0,0.309628
1207,4,11,947.193,625684.0,904982.0,0.308623
1208,4,11,957.205,627129.0,904982.0,0.307026
1209,4,11,959.585,627706.0,904982.0,0.306388
1210,4,11,969.357,628129.0,904982.0,0.30592
1211,4,11,971.145,628346.0,904982.0,0.305681
1212,4,11,981.809,628918.0,904982.0,0.305049
1213,4,11,983.843,628918.0,904794.0,0.304905
1214,4,11,984.729,628980.0,904794.0,0.304836
1215,4,11,995.073,629382.0,904794.0,0.304392
1216,4,11,996.314,629490.0,904794.0,0.304272
1217,4,11,1006.25,629690.0,904794.0,0.304052
1218,4,11,1006.97,629720.0,904794.0,0.304018
1219,4,11,1016.1,629828.0,904794.0,0.303899
1220,4,11,1017.71,629845.0,904794.0,0.30388
1221,4,11,1026.98,629955.0,904794.0,0.303758
1222,4,11,1027.76,629978.0,904794.0,0.303733
1223,4,11,1037.03,630053.0,904794.0,0.303651
1224,4,11,1038.33,630066.0,904794.0,0.303636
1225,4,11,1048.07,630134.0,904794.0,0.30356
1226,4,11,1049.28,630157.0,904794.0,0.303536
1227,4,11,1058.57,630180.0,904794.0,0.303509
1228,4,11,1059.56,630189.0,904794.0,0.3035
1229,4,11,1068.69,630206.0,904794.0,0.303481
1230,4,11,1070.33,630210.0,904794.0,0.303477
1231,4,11,1076.1,630219.0,904794.0,0.303466
1232,4,11,1076.4,630221.0,904794.0,0.303464
1233,4,11,1079.13,630233.0,904794.0,0.303451
1234,4,11,1079.51,630234.0,904794.0,0.30345
1235,4,11,1082.2,630241.0,904794.0,0.303442
1236,4,11,1082.53,630242.0,904794.0,0.303442
1237,4,11,1085.48,630260.0,904794.0,0.303422
1238,4,11,1086.22,630261.0,904794.0,0.30342
1239,4,11,1088.88,630275.0,904794.0,0.303405
1240,4,11,1089.6,630282.0,904794.0,0.303397
1241,4,11,1092.21,630287.0,904794.0,0.303391
1242,4,11,1092.91,630290.0,904794.0,0.303389
1243,4,11,1095.49,630294.0,904794.0,0.303384
1244,4,11,1096.12,630294.0,904794.0,0.303384
1245,4,11,1098.6,630295.0,904794.0,0.303383
1246,4,11,1098.86,630295.0,904794.0,0.303382
1247,4,11,1101.33,630296.0,904794.0,0.303382
1248,4,11,1101.84,630296.0,904794.0,0.303382
1249,4,11,1104.25,630296.0,904794.0,0.303381
1250,4,11,1105.32,630296.0,904794.0,0.303381
1251,4,11,1107.76,630298.0,904794.0,0.30338
1252,4,11,1490.44,630298.0,904658.0,0.303276
1253,4,11,1505.63,630441.0,904658.0,0.303117
1254,4,11,1529.95,630441.0,904584.0,0.30306
1255,4,11,1543.24,631465.0,904584.0,0.301928
1256,4,11,1547.2,631889.0,904584.0,0.301459
1257,4,11,1556.53,632232.0,904584.0,0.30108
1258,4,11,1557.62,632350.0,904584.0,0.300949
1259,4,11,1567.32,632703.0,904584.0,0.300559
1260,4,11,1568.34,632773.0,904584.0,0.300481
1261,4,11,1577.77,632903.0,904584.0,0.300338
1262,4,11,1578.42,632929.0,904584.0,0.30031
1263,4,11,1587.57,633020.0,904584.0,0.300209
1264,4,11,1589.74,633038.0,904584.0,0.300188
1265,4,11,1598.38,633071.0,904584.0,0.300153
1266,4,11,1599.04,633087.0,904584.0,0.300135
1267,4,11,1608.05,633100.0,904584.0,0.300121
1268,4,11,1608.41,633106.0,904584.0,0.300114
1269,4,11,1617.72,633141.0,904584.0,0.300076
1270,4,11,1618.56,633147.0,904584.0,0.300068
1271,4,11,1627.33,633156.0,904584.0,0.300058
1272,4,11,1628.2,633157.0,904584.0,0.300057
1273,4,11,1638.82,633184.0,904584.0,0.300028
1274,4,11,1639.59,633190.0,904584.0,0.300021
1275,4,11,1648.58,633248.0,904584.0,0.299957
1276,4,11,1650.06,633258.0,904584.0,0.299946
1277,4,11,1655.89,633286.0,904584.0,0.299915
1278,4,11,1656.42,633297.0,904584.0,0.299903
1279,4,11,1659.01,633323.0,904584.0,0.299873
1280,4,11,1659.79,633340.0,904584.0,0.299855
1281,4,11,1662.49,633373.0,904584.0,0.299818
1282,4,11,1663.53,633407.0,904584.0,0.299781
1283,4,11,1666.04,633410.0,904584.0,0.299778
1284,4,11,1666.97,633412.0,904584.0,0.299776
1285,4,11,1669.76,633470.0,904584.0,0.299712
1286,4,11,1670.29,633481.0,904584.0,0.299699
1287,4,11,1672.88,633517.0,904584.0,0.29966
1288,4,11,1673.34,633554.0,904584.0,0.299618
1289,4,11,1675.92,633561.0,904584.0,0.299611
1290,4,11,1676.53,633565.0,904584.0,0.299607
1291,4,11,1679.07,633568.0,904584.0,0.299603
1292,4,11,1679.6,633569.0,904584.0,0.299602
1293,4,11,1682.34,633586.0,904584.0,0.299583
1294,4,11,1683.02,633593.0,904584.0,0.299576
1295,4,11,1685.46,633596.0,904584.0,0.299572
1296,4,11,1685.9,633597.0,904584.0,0.299571
1297,4,11,1688.37,633599.0,904584.0,0.299569
1298,4,11,1689.46,633601.0,904584.0,0.299567
1299,4,11,1691.97,633603.0,904584.0,0.299564
1300,4,11,1692.3,633608.0,904584.0,0.299559
1301,4,11,1694.81,633612.0,904584.0,0.299555
1302,4,11,1695.33,633614.0,904584.0,0.299552
1303,4,11,1697.85,633618.0,904584.0,0.299547
1304,4,11,1698.44,633621.0,904584.0,0.299544
1305,4,11,1701.05,633622.0,904584.0,0.299543
1306,4,11,1701.63,633624.0,904584.0,0.299542
1307,4,11,1704.12,633624.0,904584.0,0.299541
1308,4,11,1704.6,633624.0,904584.0,0.299541
1309,4,11,1707.08,633624.0,904584.0,0.299541
1310,4,11,1798.63,633624.0,903916.0,0.299024
1311,4,11,1803.24,633638.0,903916.0,0.299007
1312,4,11,1806.63,633681.0,903916.0,0.29896
1313,4,11,1810.0,633694.0,903916.0,0.298946
1314,4,11,1814.31,633706.0,903916.0,0.298933
1315,4,11,1819.83,633745.0,903916.0,0.298889
1316,4,11,1821.3,633760.0,903916.0,0.298873
1317,4,11,1964.59,633760.0,902437.0,0.297724
1318,4,11,1979.52,633760.0,901786.0,0.297217
1319,4,11,2091.83,633760.0,900833.0,0.296474
1320,4,11,2167.59,633760.0,900768.0,0.296423
1321,4,11,2189.96,633760.0,900358.0,0.296103
1322,4,11,2203.16,633760.0,900154.0,0.295943
1323,4,11,2238.62,633760.0,899877.0,0.295727
1324,4,11,2318.9,633760.0,899582.0,0.295495
1325,4,11,2669.75,633760.0,899497.0,0.295429
1326,4,11,2676.89,633760.0,899393.0,0.295347
1327,4,11,3281.37,633760.0,898661.0,0.294774
1328,4,11,4069.28,633761.0,898661.0,0.294772
